<?xml version="1.0"?>
<!DOCTYPE svg PUBLIC '-//W3C//DTD SVG 1.0//EN'
          'http://www.w3.org/TR/2001/REC-SVG-20010904/DTD/svg10.dtd'>
<svg xmlns:xlink="http://www.w3.org/1999/xlink" style="fill-opacity:1; color-rendering:auto; color-interpolation:auto; text-rendering:auto; stroke:black; stroke-linecap:square; stroke-miterlimit:10; shape-rendering:auto; stroke-opacity:1; fill:black; stroke-dasharray:none; font-weight:normal; stroke-width:1; font-family:'Dialog'; font-style:normal; stroke-linejoin:miter; font-size:12px; stroke-dashoffset:0; image-rendering:auto;" width="500" height="500" xmlns="http://www.w3.org/2000/svg"
><!--Generated by the Batik Graphics2D SVG Generator--><defs id="genericDefs"
  /><g
  ><defs id="defs1"
    ><clipPath clipPathUnits="userSpaceOnUse" id="clipPath1"
      ><path d="M0 0 L500 0 L500 500 L0 500 L0 0 Z"
      /></clipPath
    ></defs
    ><g style="fill:white; stroke:white;"
    ><rect x="0" y="0" width="500" style="clip-path:url(#clipPath1); stroke:none;" height="500"
    /></g
    ><g style="fill:white; text-rendering:optimizeSpeed; color-rendering:optimizeSpeed; image-rendering:optimizeSpeed; shape-rendering:crispEdges; stroke:white; color-interpolation:sRGB;"
    ><rect x="0" width="500" height="500" y="0" style="stroke:none;"
      /><path style="stroke:none;" d="M65 445 L453 445 L453 37 L65 37 Z"
    /></g
    ><g style="stroke-linecap:butt; fill-opacity:0.149; fill:rgb(38,38,38); text-rendering:geometricPrecision; image-rendering:optimizeQuality; color-rendering:optimizeQuality; stroke-linejoin:round; stroke:rgb(38,38,38); color-interpolation:linearRGB; stroke-width:0.8333; stroke-opacity:0.149;"
    ><line y2="37" style="fill:none;" x1="65" x2="65" y1="445"
      /><line y2="37" style="fill:none;" x1="162" x2="162" y1="445"
      /><line y2="37" style="fill:none;" x1="259" x2="259" y1="445"
      /><line y2="37" style="fill:none;" x1="356" x2="356" y1="445"
      /><line y2="37" style="fill:none;" x1="453" x2="453" y1="445"
      /><line y2="441.8495" style="fill:none;" x1="453" x2="65" y1="441.8495"
      /><line y2="374.3746" style="fill:none;" x1="453" x2="65" y1="374.3746"
      /><line y2="306.8997" style="fill:none;" x1="453" x2="65" y1="306.8997"
      /><line y2="239.4248" style="fill:none;" x1="453" x2="65" y1="239.4248"
      /><line y2="171.9498" style="fill:none;" x1="453" x2="65" y1="171.9498"
      /><line y2="104.4749" style="fill:none;" x1="453" x2="65" y1="104.4749"
      /><line y2="37" style="fill:none;" x1="453" x2="65" y1="37"
      /><line x1="65" x2="453" y1="445" style="stroke-linecap:square; fill-opacity:1; fill:none; stroke-opacity:1;" y2="445"
      /><line x1="65" x2="453" y1="37" style="stroke-linecap:square; fill-opacity:1; fill:none; stroke-opacity:1;" y2="37"
      /><line x1="65" x2="65" y1="445" style="stroke-linecap:square; fill-opacity:1; fill:none; stroke-opacity:1;" y2="440.92"
      /><line x1="162" x2="162" y1="445" style="stroke-linecap:square; fill-opacity:1; fill:none; stroke-opacity:1;" y2="440.92"
      /><line x1="259" x2="259" y1="445" style="stroke-linecap:square; fill-opacity:1; fill:none; stroke-opacity:1;" y2="440.92"
      /><line x1="356" x2="356" y1="445" style="stroke-linecap:square; fill-opacity:1; fill:none; stroke-opacity:1;" y2="440.92"
      /><line x1="453" x2="453" y1="445" style="stroke-linecap:square; fill-opacity:1; fill:none; stroke-opacity:1;" y2="440.92"
      /><line x1="65" x2="65" y1="37" style="stroke-linecap:square; fill-opacity:1; fill:none; stroke-opacity:1;" y2="41.08"
      /><line x1="162" x2="162" y1="37" style="stroke-linecap:square; fill-opacity:1; fill:none; stroke-opacity:1;" y2="41.08"
      /><line x1="259" x2="259" y1="37" style="stroke-linecap:square; fill-opacity:1; fill:none; stroke-opacity:1;" y2="41.08"
      /><line x1="356" x2="356" y1="37" style="stroke-linecap:square; fill-opacity:1; fill:none; stroke-opacity:1;" y2="41.08"
      /><line x1="453" x2="453" y1="37" style="stroke-linecap:square; fill-opacity:1; fill:none; stroke-opacity:1;" y2="41.08"
    /></g
    ><g transform="translate(65,451.6667)" style="font-size:16.6667px; fill:rgb(38,38,38); text-rendering:geometricPrecision; image-rendering:optimizeQuality; color-rendering:optimizeQuality; font-family:'SansSerif'; stroke:rgb(38,38,38); color-interpolation:linearRGB;"
    ><path style="stroke:none;" d="M-7.6719 17 L-9.1562 17 L-9.1562 7.4844 Q-9.7031 8 -10.5781 8.5078 Q-11.4531 9.0156 -12.1562 9.2812 L-12.1562 7.8281 Q-10.8906 7.25 -9.9531 6.4062 Q-9.0156 5.5625 -8.625 4.7812 L-7.6719 4.7812 L-7.6719 17 ZM-4.0335 13.8125 L-2.4553 13.6719 Q-2.2835 14.8281 -1.6507 15.4062 Q-1.0178 15.9844 -0.1272 15.9844 Q0.9509 15.9844 1.7009 15.1719 Q2.4509 14.3594 2.4509 13 Q2.4509 11.7344 1.7322 10.9922 Q1.0134 10.25 -0.1428 10.25 Q-0.8616 10.25 -1.4475 10.5781 Q-2.0335 10.9062 -2.3616 11.4375 L-3.7678 11.25 L-2.5803 5 L3.4665 5 L3.4665 6.4219 L-1.3928 6.4219 L-2.0491 9.6875 Q-0.9553 8.9375 0.2478 8.9375 Q1.8415 8.9375 2.9431 10.0391 Q4.0447 11.1406 4.0447 12.875 Q4.0447 14.5312 3.0759 15.7344 Q1.904 17.2031 -0.1272 17.2031 Q-1.7835 17.2031 -2.8303 16.2734 Q-3.8772 15.3438 -4.0335 13.8125 ZM5.2299 11 Q5.2299 8.8438 5.6753 7.5234 Q6.1206 6.2031 6.9956 5.4922 Q7.8706 4.7812 9.1987 4.7812 Q10.1831 4.7812 10.9174 5.1719 Q11.6518 5.5625 12.1362 6.3125 Q12.6206 7.0625 12.894 8.125 Q13.1674 9.1875 13.1674 11 Q13.1674 13.1406 12.7299 14.4531 Q12.2924 15.7656 11.4174 16.4844 Q10.5424 17.2031 9.1987 17.2031 Q7.4331 17.2031 6.4331 15.9531 Q5.2299 14.4219 5.2299 11 ZM6.7612 11 Q6.7612 14 7.4643 14.9922 Q8.1674 15.9844 9.1987 15.9844 Q10.2299 15.9844 10.9331 14.9844 Q11.6362 13.9844 11.6362 11 Q11.6362 8 10.9331 7.0078 Q10.2299 6.0156 9.1831 6.0156 Q8.1518 6.0156 7.5424 6.8906 Q6.7612 8 6.7612 11 Z"
    /></g
    ><g transform="translate(162,451.6667)" style="font-size:16.6667px; fill:rgb(38,38,38); text-rendering:geometricPrecision; image-rendering:optimizeQuality; color-rendering:optimizeQuality; font-family:'SansSerif'; stroke:rgb(38,38,38); color-interpolation:linearRGB;"
    ><path style="stroke:none;" d="M-7.6719 17 L-9.1562 17 L-9.1562 7.4844 Q-9.7031 8 -10.5781 8.5078 Q-11.4531 9.0156 -12.1562 9.2812 L-12.1562 7.8281 Q-10.8906 7.25 -9.9531 6.4062 Q-9.0156 5.5625 -8.625 4.7812 L-7.6719 4.7812 L-7.6719 17 ZM-3.9241 6.4219 L-3.9241 4.9844 L3.9509 4.9844 L3.9509 6.1562 Q2.779 7.3906 1.6384 9.4375 Q0.4978 11.4844 -0.1272 13.6562 Q-0.5647 15.1875 -0.6897 17 L-2.2366 17 Q-2.2053 15.5625 -1.6663 13.5312 Q-1.1272 11.5 -0.1194 9.6094 Q0.8884 7.7188 2.029 6.4219 L-3.9241 6.4219 ZM5.2299 13.8125 L6.8081 13.6719 Q6.9799 14.8281 7.6128 15.4062 Q8.2456 15.9844 9.1362 15.9844 Q10.2143 15.9844 10.9643 15.1719 Q11.7143 14.3594 11.7143 13 Q11.7143 11.7344 10.9956 10.9922 Q10.2768 10.25 9.1206 10.25 Q8.4018 10.25 7.8159 10.5781 Q7.2299 10.9062 6.9018 11.4375 L5.4956 11.25 L6.6831 5 L12.7299 5 L12.7299 6.4219 L7.8706 6.4219 L7.2143 9.6875 Q8.3081 8.9375 9.5112 8.9375 Q11.1049 8.9375 12.2065 10.0391 Q13.3081 11.1406 13.3081 12.875 Q13.3081 14.5312 12.3393 15.7344 Q11.1674 17.2031 9.1362 17.2031 Q7.4799 17.2031 6.4331 16.2734 Q5.3862 15.3438 5.2299 13.8125 Z"
    /></g
    ><g transform="translate(259,451.6667)" style="font-size:16.6667px; fill:rgb(38,38,38); text-rendering:geometricPrecision; image-rendering:optimizeQuality; color-rendering:optimizeQuality; font-family:'SansSerif'; stroke:rgb(38,38,38); color-interpolation:linearRGB;"
    ><path style="stroke:none;" d="M-5.4375 15.5625 L-5.4375 17 L-13.4844 17 Q-13.5 16.4531 -13.3125 15.9688 Q-13 15.1406 -12.3281 14.3438 Q-11.6562 13.5469 -10.375 12.5 Q-8.3906 10.875 -7.6953 9.9219 Q-7 8.9688 -7 8.125 Q-7 7.2344 -7.6328 6.625 Q-8.2656 6.0156 -9.2812 6.0156 Q-10.3594 6.0156 -11.0078 6.6641 Q-11.6562 7.3125 -11.6719 8.4531 L-13.2031 8.2969 Q-13.0469 6.5781 -12.0156 5.6797 Q-10.9844 4.7812 -9.25 4.7812 Q-7.5 4.7812 -6.4766 5.75 Q-5.4531 6.7188 -5.4531 8.1562 Q-5.4531 8.8906 -5.7578 9.5938 Q-6.0625 10.2969 -6.75 11.0781 Q-7.4375 11.8594 -9.0469 13.2188 Q-10.3906 14.3594 -10.7734 14.7578 Q-11.1562 15.1562 -11.4062 15.5625 L-5.4375 15.5625 ZM-4.0335 11 Q-4.0335 8.8438 -3.5882 7.5234 Q-3.1428 6.2031 -2.2678 5.4922 Q-1.3928 4.7812 -0.0647 4.7812 Q0.9197 4.7812 1.654 5.1719 Q2.3884 5.5625 2.8728 6.3125 Q3.3572 7.0625 3.6306 8.125 Q3.904 9.1875 3.904 11 Q3.904 13.1406 3.4665 14.4531 Q3.029 15.7656 2.154 16.4844 Q1.279 17.2031 -0.0647 17.2031 Q-1.8303 17.2031 -2.8303 15.9531 Q-4.0335 14.4219 -4.0335 11 ZM-2.5022 11 Q-2.5022 14 -1.7991 14.9922 Q-1.096 15.9844 -0.0647 15.9844 Q0.9665 15.9844 1.6697 14.9844 Q2.3728 13.9844 2.3728 11 Q2.3728 8 1.6697 7.0078 Q0.9665 6.0156 -0.0803 6.0156 Q-1.1116 6.0156 -1.721 6.8906 Q-2.5022 8 -2.5022 11 ZM5.2299 11 Q5.2299 8.8438 5.6753 7.5234 Q6.1206 6.2031 6.9956 5.4922 Q7.8706 4.7812 9.1987 4.7812 Q10.1831 4.7812 10.9174 5.1719 Q11.6518 5.5625 12.1362 6.3125 Q12.6206 7.0625 12.894 8.125 Q13.1674 9.1875 13.1674 11 Q13.1674 13.1406 12.7299 14.4531 Q12.2924 15.7656 11.4174 16.4844 Q10.5424 17.2031 9.1987 17.2031 Q7.4331 17.2031 6.4331 15.9531 Q5.2299 14.4219 5.2299 11 ZM6.7612 11 Q6.7612 14 7.4643 14.9922 Q8.1674 15.9844 9.1987 15.9844 Q10.2299 15.9844 10.9331 14.9844 Q11.6362 13.9844 11.6362 11 Q11.6362 8 10.9331 7.0078 Q10.2299 6.0156 9.1831 6.0156 Q8.1518 6.0156 7.5424 6.8906 Q6.7612 8 6.7612 11 Z"
    /></g
    ><g transform="translate(356,451.6667)" style="font-size:16.6667px; fill:rgb(38,38,38); text-rendering:geometricPrecision; image-rendering:optimizeQuality; color-rendering:optimizeQuality; font-family:'SansSerif'; stroke:rgb(38,38,38); color-interpolation:linearRGB;"
    ><path style="stroke:none;" d="M-5.4375 15.5625 L-5.4375 17 L-13.4844 17 Q-13.5 16.4531 -13.3125 15.9688 Q-13 15.1406 -12.3281 14.3438 Q-11.6562 13.5469 -10.375 12.5 Q-8.3906 10.875 -7.6953 9.9219 Q-7 8.9688 -7 8.125 Q-7 7.2344 -7.6328 6.625 Q-8.2656 6.0156 -9.2812 6.0156 Q-10.3594 6.0156 -11.0078 6.6641 Q-11.6562 7.3125 -11.6719 8.4531 L-13.2031 8.2969 Q-13.0469 6.5781 -12.0156 5.6797 Q-10.9844 4.7812 -9.25 4.7812 Q-7.5 4.7812 -6.4766 5.75 Q-5.4531 6.7188 -5.4531 8.1562 Q-5.4531 8.8906 -5.7578 9.5938 Q-6.0625 10.2969 -6.75 11.0781 Q-7.4375 11.8594 -9.0469 13.2188 Q-10.3906 14.3594 -10.7734 14.7578 Q-11.1562 15.1562 -11.4062 15.5625 L-5.4375 15.5625 ZM3.8259 15.5625 L3.8259 17 L-4.221 17 Q-4.2366 16.4531 -4.0491 15.9688 Q-3.7366 15.1406 -3.0647 14.3438 Q-2.3928 13.5469 -1.1116 12.5 Q0.8728 10.875 1.5681 9.9219 Q2.2634 8.9688 2.2634 8.125 Q2.2634 7.2344 1.6306 6.625 Q0.9978 6.0156 -0.0178 6.0156 Q-1.096 6.0156 -1.7444 6.6641 Q-2.3928 7.3125 -2.4085 8.4531 L-3.9397 8.2969 Q-3.7835 6.5781 -2.7522 5.6797 Q-1.721 4.7812 0.0134 4.7812 Q1.7634 4.7812 2.7868 5.75 Q3.8103 6.7188 3.8103 8.1562 Q3.8103 8.8906 3.5056 9.5938 Q3.2009 10.2969 2.5134 11.0781 Q1.8259 11.8594 0.2165 13.2188 Q-1.1272 14.3594 -1.51 14.7578 Q-1.8928 15.1562 -2.1428 15.5625 L3.8259 15.5625 ZM5.2299 13.8125 L6.8081 13.6719 Q6.9799 14.8281 7.6128 15.4062 Q8.2456 15.9844 9.1362 15.9844 Q10.2143 15.9844 10.9643 15.1719 Q11.7143 14.3594 11.7143 13 Q11.7143 11.7344 10.9956 10.9922 Q10.2768 10.25 9.1206 10.25 Q8.4018 10.25 7.8159 10.5781 Q7.2299 10.9062 6.9018 11.4375 L5.4956 11.25 L6.6831 5 L12.7299 5 L12.7299 6.4219 L7.8706 6.4219 L7.2143 9.6875 Q8.3081 8.9375 9.5112 8.9375 Q11.1049 8.9375 12.2065 10.0391 Q13.3081 11.1406 13.3081 12.875 Q13.3081 14.5312 12.3393 15.7344 Q11.1674 17.2031 9.1362 17.2031 Q7.4799 17.2031 6.4331 16.2734 Q5.3862 15.3438 5.2299 13.8125 Z"
    /></g
    ><g transform="translate(453,451.6667)" style="font-size:16.6667px; fill:rgb(38,38,38); text-rendering:geometricPrecision; image-rendering:optimizeQuality; color-rendering:optimizeQuality; font-family:'SansSerif'; stroke:rgb(38,38,38); color-interpolation:linearRGB;"
    ><path style="stroke:none;" d="M-5.4375 15.5625 L-5.4375 17 L-13.4844 17 Q-13.5 16.4531 -13.3125 15.9688 Q-13 15.1406 -12.3281 14.3438 Q-11.6562 13.5469 -10.375 12.5 Q-8.3906 10.875 -7.6953 9.9219 Q-7 8.9688 -7 8.125 Q-7 7.2344 -7.6328 6.625 Q-8.2656 6.0156 -9.2812 6.0156 Q-10.3594 6.0156 -11.0078 6.6641 Q-11.6562 7.3125 -11.6719 8.4531 L-13.2031 8.2969 Q-13.0469 6.5781 -12.0156 5.6797 Q-10.9844 4.7812 -9.25 4.7812 Q-7.5 4.7812 -6.4766 5.75 Q-5.4531 6.7188 -5.4531 8.1562 Q-5.4531 8.8906 -5.7578 9.5938 Q-6.0625 10.2969 -6.75 11.0781 Q-7.4375 11.8594 -9.0469 13.2188 Q-10.3906 14.3594 -10.7734 14.7578 Q-11.1562 15.1562 -11.4062 15.5625 L-5.4375 15.5625 ZM-4.0335 13.8125 L-2.4553 13.6719 Q-2.2835 14.8281 -1.6507 15.4062 Q-1.0178 15.9844 -0.1272 15.9844 Q0.9509 15.9844 1.7009 15.1719 Q2.4509 14.3594 2.4509 13 Q2.4509 11.7344 1.7322 10.9922 Q1.0134 10.25 -0.1428 10.25 Q-0.8616 10.25 -1.4475 10.5781 Q-2.0335 10.9062 -2.3616 11.4375 L-3.7678 11.25 L-2.5803 5 L3.4665 5 L3.4665 6.4219 L-1.3928 6.4219 L-2.0491 9.6875 Q-0.9553 8.9375 0.2478 8.9375 Q1.8415 8.9375 2.9431 10.0391 Q4.0447 11.1406 4.0447 12.875 Q4.0447 14.5312 3.0759 15.7344 Q1.904 17.2031 -0.1272 17.2031 Q-1.7835 17.2031 -2.8303 16.2734 Q-3.8772 15.3438 -4.0335 13.8125 ZM5.2299 11 Q5.2299 8.8438 5.6753 7.5234 Q6.1206 6.2031 6.9956 5.4922 Q7.8706 4.7812 9.1987 4.7812 Q10.1831 4.7812 10.9174 5.1719 Q11.6518 5.5625 12.1362 6.3125 Q12.6206 7.0625 12.894 8.125 Q13.1674 9.1875 13.1674 11 Q13.1674 13.1406 12.7299 14.4531 Q12.2924 15.7656 11.4174 16.4844 Q10.5424 17.2031 9.1987 17.2031 Q7.4331 17.2031 6.4331 15.9531 Q5.2299 14.4219 5.2299 11 ZM6.7612 11 Q6.7612 14 7.4643 14.9922 Q8.1674 15.9844 9.1987 15.9844 Q10.2299 15.9844 10.9331 14.9844 Q11.6362 13.9844 11.6362 11 Q11.6362 8 10.9331 7.0078 Q10.2299 6.0156 9.1831 6.0156 Q8.1518 6.0156 7.5424 6.8906 Q6.7612 8 6.7612 11 Z"
    /></g
    ><g transform="translate(259.0002,474.3333)" style="font-size:18.3333px; fill:rgb(38,38,38); text-rendering:geometricPrecision; image-rendering:optimizeQuality; color-rendering:optimizeQuality; font-family:'mwa_cmr10'; stroke:rgb(38,38,38); color-interpolation:linearRGB;"
    ><path style="stroke:none;" d="M-35.8988 15.3999 L-35.8988 14.7593 Q-34.055 14.7593 -34.055 13.6968 L-34.055 4.3062 Q-34.055 3.7437 -35.8988 3.7437 L-35.8988 3.1031 L-32.5082 3.1031 Q-32.2894 3.1031 -32.2113 3.3062 L-28.2894 13.4937 L-24.3675 3.3062 Q-24.305 3.1031 -24.0863 3.1031 L-20.68 3.1031 L-20.68 3.7437 Q-22.5394 3.7437 -22.5394 4.3062 L-22.5394 14.1968 Q-22.5394 14.7593 -20.68 14.7593 L-20.68 15.3999 L-25.9144 15.3999 L-25.9144 14.7593 Q-24.0707 14.7593 -24.0707 14.1968 L-24.0707 3.7124 L-28.4925 15.1968 Q-28.5707 15.3999 -28.7894 15.3999 Q-29.0238 15.3999 -29.1019 15.1968 L-33.4769 3.8531 L-33.4769 13.6968 Q-33.4769 14.7593 -31.6332 14.7593 L-31.6332 15.3999 L-35.8988 15.3999 Z"
      /><path style="stroke:none;" d="M-17.7963 13.2593 L-17.7963 9.2749 Q-17.7963 8.8062 -17.9369 8.5874 Q-18.0776 8.3687 -18.351 8.3218 Q-18.6244 8.2749 -19.2026 8.2749 L-19.2026 7.6343 L-16.4682 7.4468 L-16.4682 13.2593 Q-16.4682 13.9624 -16.3666 14.3531 Q-16.2651 14.7437 -15.9369 14.939 Q-15.6088 15.1343 -14.8901 15.1343 Q-13.9213 15.1343 -13.351 14.3218 Q-12.7807 13.5093 -12.7807 12.4781 L-12.7807 9.2749 Q-12.7807 8.8062 -12.9291 8.5874 Q-13.0776 8.3687 -13.3432 8.3218 Q-13.6088 8.2749 -14.1869 8.2749 L-14.1869 7.6343 L-11.4682 7.4468 L-11.4682 13.7593 Q-11.4682 14.2437 -11.3276 14.4546 Q-11.1869 14.6656 -10.9135 14.7124 Q-10.6401 14.7593 -10.0619 14.7593 L-10.0619 15.3999 L-12.7338 15.6031 L-12.7338 14.0874 Q-13.0619 14.7593 -13.6635 15.1812 Q-14.2651 15.6031 -14.9838 15.6031 Q-16.2651 15.6031 -17.0307 15.0562 Q-17.7963 14.5093 -17.7963 13.2593 Z"
      /><path style="stroke:none;" d="M-5.0642 15.6031 Q-6.158 15.6031 -7.0799 15.0249 Q-8.0017 14.4468 -8.5252 13.4859 Q-9.0486 12.5249 -9.0486 11.4468 Q-9.0486 10.3999 -8.572 9.4468 Q-8.0955 8.4937 -7.2361 7.9156 Q-6.3767 7.3374 -5.3142 7.3374 Q-4.5017 7.3374 -3.8845 7.6109 Q-3.2674 7.8843 -2.8767 8.3765 Q-2.4861 8.8687 -2.283 9.5406 Q-2.0799 10.2124 -2.0799 11.0093 Q-2.0799 11.2437 -2.2674 11.2437 L-7.4705 11.2437 L-7.4705 11.4312 Q-7.4705 12.9312 -6.8689 14.0015 Q-6.2674 15.0718 -4.908 15.0718 Q-4.3611 15.0718 -3.8845 14.8296 Q-3.408 14.5874 -3.0642 14.1421 Q-2.7205 13.6968 -2.5955 13.1968 Q-2.5799 13.1343 -2.533 13.0874 Q-2.4861 13.0406 -2.4236 13.0406 L-2.2674 13.0406 Q-2.0799 13.0406 -2.0799 13.2749 Q-2.3299 14.2906 -3.1736 14.9468 Q-4.0174 15.6031 -5.0642 15.6031 ZM-7.4549 10.7906 L-3.3455 10.7906 Q-3.3455 10.1187 -3.5408 9.4234 Q-3.7361 8.7281 -4.1736 8.2671 Q-4.6111 7.8062 -5.3142 7.8062 Q-6.3455 7.8062 -6.9002 8.7593 Q-7.4549 9.7124 -7.4549 10.7906 Z"
      /><path style="stroke:none;" d="M-0.8067 15.4468 L-0.8067 12.5093 Q-0.8067 12.3687 -0.6505 12.3687 L-0.4317 12.3687 Q-0.3223 12.3687 -0.2911 12.5093 Q0.2245 15.1343 2.1464 15.1343 Q2.9902 15.1343 3.5683 14.7437 Q4.1464 14.3531 4.1464 13.5406 Q4.1464 12.9624 3.7011 12.5562 Q3.2558 12.1499 2.6308 11.9937 L1.4277 11.7593 Q0.8183 11.6343 0.3261 11.3609 Q-0.1661 11.0874 -0.4864 10.6343 Q-0.8067 10.1812 -0.8067 9.5874 Q-0.8067 8.7906 -0.3848 8.2827 Q0.037 7.7749 0.7011 7.5562 Q1.3652 7.3374 2.1464 7.3374 Q3.0683 7.3374 3.7558 7.8218 L4.2714 7.3687 Q4.2714 7.3374 4.3495 7.3374 L4.4902 7.3374 Q4.537 7.3374 4.5839 7.3843 Q4.6308 7.4312 4.6308 7.4781 L4.6308 9.8374 Q4.6308 10.0093 4.4902 10.0093 L4.2714 10.0093 Q4.1152 10.0093 4.1152 9.8374 Q4.1152 8.8999 3.5917 8.3296 Q3.0683 7.7593 2.1308 7.7593 Q1.3183 7.7593 0.7245 8.0562 Q0.1308 8.3531 0.1308 9.0874 Q0.1308 9.5874 0.5527 9.9077 Q0.9745 10.2281 1.5527 10.3687 L2.7714 10.5874 Q3.3964 10.7281 3.9277 11.064 Q4.4589 11.3999 4.7714 11.9077 Q5.0839 12.4156 5.0839 13.0562 Q5.0839 13.7124 4.8574 14.189 Q4.6308 14.6656 4.2324 14.9859 Q3.8339 15.3062 3.287 15.4546 Q2.7402 15.6031 2.1464 15.6031 Q1.0214 15.6031 0.2245 14.8531 L-0.4473 15.5562 Q-0.4473 15.6031 -0.5411 15.6031 L-0.6505 15.6031 Q-0.8067 15.6031 -0.8067 15.4468 Z"
      /><path style="stroke:none;" d="M7.6748 13.2437 L7.6748 8.2749 L6.1748 8.2749 L6.1748 7.8062 Q7.3466 7.8062 7.9013 6.7046 Q8.456 5.6031 8.456 4.3218 L8.9716 4.3218 L8.9716 7.6343 L11.5185 7.6343 L11.5185 8.2749 L8.9716 8.2749 L8.9716 13.1968 Q8.9716 13.9468 9.2216 14.5093 Q9.4716 15.0718 10.1279 15.0718 Q10.7373 15.0718 11.0107 14.4781 Q11.2841 13.8843 11.2841 13.1968 L11.2841 12.1343 L11.8154 12.1343 L11.8154 13.2437 Q11.8154 13.8062 11.6045 14.3531 Q11.3935 14.8999 10.9873 15.2515 Q10.581 15.6031 10.0029 15.6031 Q8.9248 15.6031 8.2998 14.9546 Q7.6748 14.3062 7.6748 13.2437 Z"
      /><path style="stroke:none;" d="M13.4294 15.3999 L13.4294 14.7593 Q14.0388 14.7593 14.4372 14.6656 Q14.8357 14.5718 14.8357 14.1968 L14.8357 9.2749 Q14.8357 8.8062 14.6872 8.5874 Q14.5388 8.3687 14.2654 8.3218 Q13.9919 8.2749 13.4294 8.2749 L13.4294 7.6343 L16.0075 7.4468 L16.0075 9.1968 Q16.2888 8.4156 16.8279 7.9312 Q17.3669 7.4468 18.1325 7.4468 Q18.6638 7.4468 19.0857 7.7593 Q19.5075 8.0718 19.5075 8.6031 Q19.5075 8.9156 19.2732 9.1577 Q19.0388 9.3999 18.695 9.3999 Q18.3669 9.3999 18.1325 9.1656 Q17.8982 8.9312 17.8982 8.6031 Q17.8982 8.1187 18.2419 7.9156 L18.1325 7.9156 Q17.3982 7.9156 16.9372 8.439 Q16.4763 8.9624 16.281 9.7437 Q16.0857 10.5249 16.0857 11.2437 L16.0857 14.1968 Q16.0857 14.7593 17.8357 14.7593 L17.8357 15.3999 L13.4294 15.3999 Z"
      /><path style="stroke:none;" d="M20.86 13.6343 Q20.86 12.5562 21.7037 11.8843 Q22.5475 11.2124 23.7272 10.939 Q24.9069 10.6656 25.985 10.6656 L25.985 9.9312 Q25.985 9.3999 25.7506 8.9156 Q25.5162 8.4312 25.0866 8.1187 Q24.6569 7.8062 24.1412 7.8062 Q22.9381 7.8062 22.3287 8.3374 Q22.6569 8.3374 22.8834 8.5952 Q23.11 8.8531 23.11 9.1968 Q23.11 9.5562 22.86 9.814 Q22.61 10.0718 22.2506 10.0718 Q21.8912 10.0718 21.6334 9.814 Q21.3756 9.5562 21.3756 9.1968 Q21.3756 8.2593 22.2428 7.7984 Q23.11 7.3374 24.1412 7.3374 Q24.8756 7.3374 25.61 7.6499 Q26.3444 7.9624 26.8131 8.5406 Q27.2819 9.1187 27.2819 9.8843 L27.2819 13.9468 Q27.2819 14.2906 27.4303 14.5874 Q27.5787 14.8843 27.9069 14.8843 Q28.2037 14.8843 28.3444 14.5874 Q28.485 14.2906 28.485 13.9468 L28.485 12.7906 L29.0162 12.7906 L29.0162 13.9468 Q29.0162 14.3374 28.8053 14.7046 Q28.5944 15.0718 28.2428 15.2906 Q27.8912 15.5093 27.4694 15.5093 Q26.9381 15.5093 26.5553 15.0952 Q26.1725 14.6812 26.1412 14.1187 Q25.7975 14.8062 25.1491 15.2046 Q24.5006 15.6031 23.7662 15.6031 Q23.0787 15.6031 22.4147 15.3999 Q21.7506 15.1968 21.3053 14.7593 Q20.86 14.3218 20.86 13.6343 ZM22.3287 13.6343 Q22.3287 14.2593 22.7897 14.6968 Q23.2506 15.1343 23.8912 15.1343 Q24.4694 15.1343 24.9459 14.8374 Q25.4225 14.5406 25.7037 14.0406 Q25.985 13.5406 25.985 12.9937 L25.985 11.1187 Q25.1569 11.1187 24.3053 11.3843 Q23.4537 11.6499 22.8912 12.2202 Q22.3287 12.7906 22.3287 13.6343 Z"
      /><path style="stroke:none;" d="M29.9017 15.4468 L29.9017 12.5093 Q29.9017 12.3687 30.0579 12.3687 L30.2767 12.3687 Q30.3861 12.3687 30.4173 12.5093 Q30.9329 15.1343 32.8548 15.1343 Q33.6986 15.1343 34.2767 14.7437 Q34.8548 14.3531 34.8548 13.5406 Q34.8548 12.9624 34.4095 12.5562 Q33.9642 12.1499 33.3392 11.9937 L32.1361 11.7593 Q31.5267 11.6343 31.0345 11.3609 Q30.5423 11.0874 30.222 10.6343 Q29.9017 10.1812 29.9017 9.5874 Q29.9017 8.7906 30.3236 8.2827 Q30.7454 7.7749 31.4095 7.5562 Q32.0736 7.3374 32.8548 7.3374 Q33.7767 7.3374 34.4642 7.8218 L34.9798 7.3687 Q34.9798 7.3374 35.0579 7.3374 L35.1986 7.3374 Q35.2454 7.3374 35.2923 7.3843 Q35.3392 7.4312 35.3392 7.4781 L35.3392 9.8374 Q35.3392 10.0093 35.1986 10.0093 L34.9798 10.0093 Q34.8236 10.0093 34.8236 9.8374 Q34.8236 8.8999 34.3001 8.3296 Q33.7767 7.7593 32.8392 7.7593 Q32.0267 7.7593 31.4329 8.0562 Q30.8392 8.3531 30.8392 9.0874 Q30.8392 9.5874 31.2611 9.9077 Q31.6829 10.2281 32.2611 10.3687 L33.4798 10.5874 Q34.1048 10.7281 34.6361 11.064 Q35.1673 11.3999 35.4798 11.9077 Q35.7923 12.4156 35.7923 13.0562 Q35.7923 13.7124 35.5657 14.189 Q35.3392 14.6656 34.9407 14.9859 Q34.5423 15.3062 33.9954 15.4546 Q33.4486 15.6031 32.8548 15.6031 Q31.7298 15.6031 30.9329 14.8531 L30.2611 15.5562 Q30.2611 15.6031 30.1673 15.6031 L30.0579 15.6031 Q29.9017 15.6031 29.9017 15.4468 Z"
    /></g
    ><g style="fill:rgb(38,38,38); text-rendering:geometricPrecision; image-rendering:optimizeQuality; color-rendering:optimizeQuality; stroke-linejoin:round; stroke:rgb(38,38,38); color-interpolation:linearRGB; stroke-width:0.8333;"
    ><line y2="37" style="fill:none;" x1="65" x2="65" y1="445"
      /><line y2="37" style="fill:none;" x1="453" x2="453" y1="445"
      /><line y2="441.8495" style="fill:none;" x1="65" x2="69.08" y1="441.8495"
      /><line y2="374.3746" style="fill:none;" x1="65" x2="69.08" y1="374.3746"
      /><line y2="306.8997" style="fill:none;" x1="65" x2="69.08" y1="306.8997"
      /><line y2="239.4248" style="fill:none;" x1="65" x2="69.08" y1="239.4248"
      /><line y2="171.9498" style="fill:none;" x1="65" x2="69.08" y1="171.9498"
      /><line y2="104.4749" style="fill:none;" x1="65" x2="69.08" y1="104.4749"
      /><line y2="37" style="fill:none;" x1="65" x2="69.08" y1="37"
      /><line y2="441.8495" style="fill:none;" x1="453" x2="448.92" y1="441.8495"
      /><line y2="374.3746" style="fill:none;" x1="453" x2="448.92" y1="374.3746"
      /><line y2="306.8997" style="fill:none;" x1="453" x2="448.92" y1="306.8997"
      /><line y2="239.4248" style="fill:none;" x1="453" x2="448.92" y1="239.4248"
      /><line y2="171.9498" style="fill:none;" x1="453" x2="448.92" y1="171.9498"
      /><line y2="104.4749" style="fill:none;" x1="453" x2="448.92" y1="104.4749"
      /><line y2="37" style="fill:none;" x1="453" x2="448.92" y1="37"
    /></g
    ><g transform="translate(58.3333,441.8495)" style="font-size:16.6667px; fill:rgb(38,38,38); text-rendering:geometricPrecision; image-rendering:optimizeQuality; color-rendering:optimizeQuality; font-family:'SansSerif'; stroke:rgb(38,38,38); color-interpolation:linearRGB;"
    ><path style="stroke:none;" d="M-28.4531 2.8438 L-28.4531 1.3438 L-23.875 1.3438 L-23.875 2.8438 L-28.4531 2.8438 ZM-22.7502 0.5 Q-22.7502 -1.6562 -22.3049 -2.9766 Q-21.8596 -4.2969 -20.9846 -5.0078 Q-20.1096 -5.7188 -18.7815 -5.7188 Q-17.7971 -5.7188 -17.0627 -5.3281 Q-16.3283 -4.9375 -15.844 -4.1875 Q-15.3596 -3.4375 -15.0862 -2.375 Q-14.8127 -1.3125 -14.8127 0.5 Q-14.8127 2.6406 -15.2502 3.9531 Q-15.6877 5.2656 -16.5627 5.9844 Q-17.4377 6.7031 -18.7815 6.7031 Q-20.5471 6.7031 -21.5471 5.4531 Q-22.7502 3.9219 -22.7502 0.5 ZM-21.219 0.5 Q-21.219 3.5 -20.5158 4.4922 Q-19.8127 5.4844 -18.7815 5.4844 Q-17.7502 5.4844 -17.0471 4.4844 Q-16.344 3.4844 -16.344 0.5 Q-16.344 -2.5 -17.0471 -3.4922 Q-17.7502 -4.4844 -18.7971 -4.4844 Q-19.8283 -4.4844 -20.4377 -3.6094 Q-21.219 -2.5 -21.219 0.5 ZM-12.6431 6.5 L-12.6431 4.7969 L-10.9399 4.7969 L-10.9399 6.5 L-12.6431 6.5 ZM-0.9998 5.0625 L-0.9998 6.5 L-9.0467 6.5 Q-9.0623 5.9531 -8.8748 5.4688 Q-8.5623 4.6406 -7.8904 3.8438 Q-7.2185 3.0469 -5.9373 2 Q-3.9529 0.375 -3.2576 -0.5781 Q-2.5623 -1.5312 -2.5623 -2.375 Q-2.5623 -3.2656 -3.1951 -3.875 Q-3.8279 -4.4844 -4.8435 -4.4844 Q-5.9217 -4.4844 -6.5701 -3.8359 Q-7.2185 -3.1875 -7.2342 -2.0469 L-8.7654 -2.2031 Q-8.6092 -3.9219 -7.5779 -4.8203 Q-6.5467 -5.7188 -4.8123 -5.7188 Q-3.0623 -5.7188 -2.0388 -4.75 Q-1.0154 -3.7812 -1.0154 -2.3438 Q-1.0154 -1.6094 -1.3201 -0.9062 Q-1.6248 -0.2031 -2.3123 0.5781 Q-2.9998 1.3594 -4.6092 2.7188 Q-5.9529 3.8594 -6.3357 4.2578 Q-6.7185 4.6562 -6.9685 5.0625 L-0.9998 5.0625 Z"
    /></g
    ><g transform="translate(58.3333,374.3746)" style="font-size:16.6667px; fill:rgb(38,38,38); text-rendering:geometricPrecision; image-rendering:optimizeQuality; color-rendering:optimizeQuality; font-family:'SansSerif'; stroke:rgb(38,38,38); color-interpolation:linearRGB;"
    ><path style="stroke:none;" d="M-9.2969 0.5 Q-9.2969 -1.6562 -8.8516 -2.9766 Q-8.4062 -4.2969 -7.5312 -5.0078 Q-6.6562 -5.7188 -5.3281 -5.7188 Q-4.3438 -5.7188 -3.6094 -5.3281 Q-2.875 -4.9375 -2.3906 -4.1875 Q-1.9062 -3.4375 -1.6328 -2.375 Q-1.3594 -1.3125 -1.3594 0.5 Q-1.3594 2.6406 -1.7969 3.9531 Q-2.2344 5.2656 -3.1094 5.9844 Q-3.9844 6.7031 -5.3281 6.7031 Q-7.0938 6.7031 -8.0938 5.4531 Q-9.2969 3.9219 -9.2969 0.5 ZM-7.7656 0.5 Q-7.7656 3.5 -7.0625 4.4922 Q-6.3594 5.4844 -5.3281 5.4844 Q-4.2969 5.4844 -3.5938 4.4844 Q-2.8906 3.4844 -2.8906 0.5 Q-2.8906 -2.5 -3.5938 -3.4922 Q-4.2969 -4.4844 -5.3438 -4.4844 Q-6.375 -4.4844 -6.9844 -3.6094 Q-7.7656 -2.5 -7.7656 0.5 Z"
    /></g
    ><g transform="translate(58.3333,306.8997)" style="font-size:16.6667px; fill:rgb(38,38,38); text-rendering:geometricPrecision; image-rendering:optimizeQuality; color-rendering:optimizeQuality; font-family:'SansSerif'; stroke:rgb(38,38,38); color-interpolation:linearRGB;"
    ><path style="stroke:none;" d="M-23.2969 0.5 Q-23.2969 -1.6562 -22.8516 -2.9766 Q-22.4062 -4.2969 -21.5312 -5.0078 Q-20.6562 -5.7188 -19.3281 -5.7188 Q-18.3438 -5.7188 -17.6094 -5.3281 Q-16.875 -4.9375 -16.3906 -4.1875 Q-15.9062 -3.4375 -15.6328 -2.375 Q-15.3594 -1.3125 -15.3594 0.5 Q-15.3594 2.6406 -15.7969 3.9531 Q-16.2344 5.2656 -17.1094 5.9844 Q-17.9844 6.7031 -19.3281 6.7031 Q-21.0938 6.7031 -22.0938 5.4531 Q-23.2969 3.9219 -23.2969 0.5 ZM-21.7656 0.5 Q-21.7656 3.5 -21.0625 4.4922 Q-20.3594 5.4844 -19.3281 5.4844 Q-18.2969 5.4844 -17.5938 4.4844 Q-16.8906 3.4844 -16.8906 0.5 Q-16.8906 -2.5 -17.5938 -3.4922 Q-18.2969 -4.4844 -19.3438 -4.4844 Q-20.375 -4.4844 -20.9844 -3.6094 Q-21.7656 -2.5 -21.7656 0.5 ZM-13.1897 6.5 L-13.1897 4.7969 L-11.4866 4.7969 L-11.4866 6.5 L-13.1897 6.5 ZM-1.5464 5.0625 L-1.5464 6.5 L-9.5933 6.5 Q-9.6089 5.9531 -9.4214 5.4688 Q-9.1089 4.6406 -8.4371 3.8438 Q-7.7652 3.0469 -6.4839 2 Q-4.4996 0.375 -3.8043 -0.5781 Q-3.1089 -1.5312 -3.1089 -2.375 Q-3.1089 -3.2656 -3.7418 -3.875 Q-4.3746 -4.4844 -5.3902 -4.4844 Q-6.4683 -4.4844 -7.1168 -3.8359 Q-7.7652 -3.1875 -7.7808 -2.0469 L-9.3121 -2.2031 Q-9.1558 -3.9219 -8.1246 -4.8203 Q-7.0933 -5.7188 -5.3589 -5.7188 Q-3.6089 -5.7188 -2.5855 -4.75 Q-1.5621 -3.7812 -1.5621 -2.3438 Q-1.5621 -1.6094 -1.8668 -0.9062 Q-2.1714 -0.2031 -2.8589 0.5781 Q-3.5464 1.3594 -5.1558 2.7188 Q-6.4996 3.8594 -6.8824 4.2578 Q-7.2652 4.6562 -7.5152 5.0625 L-1.5464 5.0625 Z"
    /></g
    ><g transform="translate(58.3333,239.4248)" style="font-size:16.6667px; fill:rgb(38,38,38); text-rendering:geometricPrecision; image-rendering:optimizeQuality; color-rendering:optimizeQuality; font-family:'SansSerif'; stroke:rgb(38,38,38); color-interpolation:linearRGB;"
    ><path style="stroke:none;" d="M-23.2969 0.5 Q-23.2969 -1.6562 -22.8516 -2.9766 Q-22.4062 -4.2969 -21.5312 -5.0078 Q-20.6562 -5.7188 -19.3281 -5.7188 Q-18.3438 -5.7188 -17.6094 -5.3281 Q-16.875 -4.9375 -16.3906 -4.1875 Q-15.9062 -3.4375 -15.6328 -2.375 Q-15.3594 -1.3125 -15.3594 0.5 Q-15.3594 2.6406 -15.7969 3.9531 Q-16.2344 5.2656 -17.1094 5.9844 Q-17.9844 6.7031 -19.3281 6.7031 Q-21.0938 6.7031 -22.0938 5.4531 Q-23.2969 3.9219 -23.2969 0.5 ZM-21.7656 0.5 Q-21.7656 3.5 -21.0625 4.4922 Q-20.3594 5.4844 -19.3281 5.4844 Q-18.2969 5.4844 -17.5938 4.4844 Q-16.8906 3.4844 -16.8906 0.5 Q-16.8906 -2.5 -17.5938 -3.4922 Q-18.2969 -4.4844 -19.3438 -4.4844 Q-20.375 -4.4844 -20.9844 -3.6094 Q-21.7656 -2.5 -21.7656 0.5 ZM-13.1897 6.5 L-13.1897 4.7969 L-11.4866 4.7969 L-11.4866 6.5 L-13.1897 6.5 ZM-4.6089 6.5 L-4.6089 3.5938 L-9.8902 3.5938 L-9.8902 2.2188 L-4.3433 -5.6719 L-3.1246 -5.6719 L-3.1246 2.2188 L-1.4683 2.2188 L-1.4683 3.5938 L-3.1246 3.5938 L-3.1246 6.5 L-4.6089 6.5 ZM-4.6089 2.2188 L-4.6089 -3.2656 L-8.4214 2.2188 L-4.6089 2.2188 Z"
    /></g
    ><g transform="translate(58.3333,171.9498)" style="font-size:16.6667px; fill:rgb(38,38,38); text-rendering:geometricPrecision; image-rendering:optimizeQuality; color-rendering:optimizeQuality; font-family:'SansSerif'; stroke:rgb(38,38,38); color-interpolation:linearRGB;"
    ><path style="stroke:none;" d="M-23.2969 0.5 Q-23.2969 -1.6562 -22.8516 -2.9766 Q-22.4062 -4.2969 -21.5312 -5.0078 Q-20.6562 -5.7188 -19.3281 -5.7188 Q-18.3438 -5.7188 -17.6094 -5.3281 Q-16.875 -4.9375 -16.3906 -4.1875 Q-15.9062 -3.4375 -15.6328 -2.375 Q-15.3594 -1.3125 -15.3594 0.5 Q-15.3594 2.6406 -15.7969 3.9531 Q-16.2344 5.2656 -17.1094 5.9844 Q-17.9844 6.7031 -19.3281 6.7031 Q-21.0938 6.7031 -22.0938 5.4531 Q-23.2969 3.9219 -23.2969 0.5 ZM-21.7656 0.5 Q-21.7656 3.5 -21.0625 4.4922 Q-20.3594 5.4844 -19.3281 5.4844 Q-18.2969 5.4844 -17.5938 4.4844 Q-16.8906 3.4844 -16.8906 0.5 Q-16.8906 -2.5 -17.5938 -3.4922 Q-18.2969 -4.4844 -19.3438 -4.4844 Q-20.375 -4.4844 -20.9844 -3.6094 Q-21.7656 -2.5 -21.7656 0.5 ZM-13.1897 6.5 L-13.1897 4.7969 L-11.4866 4.7969 L-11.4866 6.5 L-13.1897 6.5 ZM-1.6558 -2.6875 L-3.1402 -2.5781 Q-3.3277 -3.4531 -3.7027 -3.8438 Q-4.3121 -4.4844 -5.1871 -4.4844 Q-5.9058 -4.4844 -6.4527 -4.0938 Q-7.1558 -3.5781 -7.5621 -2.5938 Q-7.9683 -1.6094 -7.9839 0.2188 Q-7.4371 -0.5938 -6.6636 -0.9922 Q-5.8902 -1.3906 -5.0308 -1.3906 Q-3.5308 -1.3906 -2.4839 -0.2891 Q-1.4371 0.8125 -1.4371 2.5469 Q-1.4371 3.6875 -1.9293 4.6719 Q-2.4214 5.6562 -3.2886 6.1797 Q-4.1558 6.7031 -5.2496 6.7031 Q-7.1089 6.7031 -8.2886 5.3281 Q-9.4683 3.9531 -9.4683 0.8125 Q-9.4683 -2.7188 -8.1714 -4.3281 Q-7.0308 -5.7188 -5.1089 -5.7188 Q-3.6714 -5.7188 -2.7496 -4.9141 Q-1.8277 -4.1094 -1.6558 -2.6875 ZM-7.7496 2.5625 Q-7.7496 3.3281 -7.4214 4.0312 Q-7.0933 4.7344 -6.5074 5.1094 Q-5.9214 5.4844 -5.2652 5.4844 Q-4.3277 5.4844 -3.648 4.7188 Q-2.9683 3.9531 -2.9683 2.6406 Q-2.9683 1.375 -3.6402 0.6484 Q-4.3121 -0.0781 -5.3277 -0.0781 Q-6.3433 -0.0781 -7.0464 0.6484 Q-7.7496 1.375 -7.7496 2.5625 Z"
    /></g
    ><g transform="translate(58.3333,104.4749)" style="font-size:16.6667px; fill:rgb(38,38,38); text-rendering:geometricPrecision; image-rendering:optimizeQuality; color-rendering:optimizeQuality; font-family:'SansSerif'; stroke:rgb(38,38,38); color-interpolation:linearRGB;"
    ><path style="stroke:none;" d="M-23.2969 0.5 Q-23.2969 -1.6562 -22.8516 -2.9766 Q-22.4062 -4.2969 -21.5312 -5.0078 Q-20.6562 -5.7188 -19.3281 -5.7188 Q-18.3438 -5.7188 -17.6094 -5.3281 Q-16.875 -4.9375 -16.3906 -4.1875 Q-15.9062 -3.4375 -15.6328 -2.375 Q-15.3594 -1.3125 -15.3594 0.5 Q-15.3594 2.6406 -15.7969 3.9531 Q-16.2344 5.2656 -17.1094 5.9844 Q-17.9844 6.7031 -19.3281 6.7031 Q-21.0938 6.7031 -22.0938 5.4531 Q-23.2969 3.9219 -23.2969 0.5 ZM-21.7656 0.5 Q-21.7656 3.5 -21.0625 4.4922 Q-20.3594 5.4844 -19.3281 5.4844 Q-18.2969 5.4844 -17.5938 4.4844 Q-16.8906 3.4844 -16.8906 0.5 Q-16.8906 -2.5 -17.5938 -3.4922 Q-18.2969 -4.4844 -19.3438 -4.4844 Q-20.375 -4.4844 -20.9844 -3.6094 Q-21.7656 -2.5 -21.7656 0.5 ZM-13.1897 6.5 L-13.1897 4.7969 L-11.4866 4.7969 L-11.4866 6.5 L-13.1897 6.5 ZM-7.1089 -0.0938 Q-8.0308 -0.4375 -8.4839 -1.0703 Q-8.9371 -1.7031 -8.9371 -2.5781 Q-8.9371 -3.9062 -7.9761 -4.8125 Q-7.0152 -5.7188 -5.4371 -5.7188 Q-3.8433 -5.7188 -2.8746 -4.7969 Q-1.9058 -3.875 -1.9058 -2.5469 Q-1.9058 -1.6875 -2.3433 -1.0625 Q-2.7808 -0.4375 -3.6871 -0.0938 Q-2.5777 0.2656 -1.9918 1.0781 Q-1.4058 1.8906 -1.4058 3.0156 Q-1.4058 4.5781 -2.5074 5.6406 Q-3.6089 6.7031 -5.4058 6.7031 Q-7.2183 6.7031 -8.3199 5.6406 Q-9.4214 4.5781 -9.4214 2.9844 Q-9.4214 1.7969 -8.8199 0.9922 Q-8.2183 0.1875 -7.1089 -0.0938 ZM-7.4058 -2.625 Q-7.4058 -1.7656 -6.8511 -1.2188 Q-6.2964 -0.6719 -5.4058 -0.6719 Q-4.5464 -0.6719 -3.9918 -1.2188 Q-3.4371 -1.7656 -3.4371 -2.5469 Q-3.4371 -3.375 -4.0074 -3.9297 Q-4.5777 -4.4844 -5.4214 -4.4844 Q-6.2808 -4.4844 -6.8433 -3.9375 Q-7.4058 -3.3906 -7.4058 -2.625 ZM-7.8902 2.9844 Q-7.8902 3.625 -7.5855 4.2266 Q-7.2808 4.8281 -6.6793 5.1562 Q-6.0777 5.4844 -5.3902 5.4844 Q-4.3277 5.4844 -3.6246 4.7891 Q-2.9214 4.0938 -2.9214 3.0312 Q-2.9214 1.9531 -3.6402 1.25 Q-4.3589 0.5469 -5.4371 0.5469 Q-6.4996 0.5469 -7.1949 1.2422 Q-7.8902 1.9375 -7.8902 2.9844 Z"
    /></g
    ><g transform="translate(58.3333,37)" style="font-size:16.6667px; fill:rgb(38,38,38); text-rendering:geometricPrecision; image-rendering:optimizeQuality; color-rendering:optimizeQuality; font-family:'SansSerif'; stroke:rgb(38,38,38); color-interpolation:linearRGB;"
    ><path style="stroke:none;" d="M-3.6719 6.5 L-5.1562 6.5 L-5.1562 -3.0156 Q-5.7031 -2.5 -6.5781 -1.9922 Q-7.4531 -1.4844 -8.1562 -1.2188 L-8.1562 -2.6719 Q-6.8906 -3.25 -5.9531 -4.0938 Q-5.0156 -4.9375 -4.625 -5.7188 L-3.6719 -5.7188 L-3.6719 6.5 Z"
    /></g
    ><g transform="translate(24.3334,240.9998) rotate(-90)" style="font-size:18.3333px; fill:rgb(38,38,38); text-rendering:geometricPrecision; image-rendering:optimizeQuality; color-rendering:optimizeQuality; font-family:'mwa_cmr10'; stroke:rgb(38,38,38); color-interpolation:linearRGB;"
    ><path style="stroke:none;" d="M-38.3178 -6.6001 L-38.3178 -7.2407 Q-36.4741 -7.2407 -36.4741 -8.3032 L-36.4741 -17.6938 Q-36.4741 -18.2563 -38.3178 -18.2563 L-38.3178 -18.8969 L-34.9272 -18.8969 Q-34.7084 -18.8969 -34.6303 -18.6938 L-30.7084 -8.5063 L-26.7866 -18.6938 Q-26.7241 -18.8969 -26.5053 -18.8969 L-23.0991 -18.8969 L-23.0991 -18.2563 Q-24.9584 -18.2563 -24.9584 -17.6938 L-24.9584 -7.8032 Q-24.9584 -7.2407 -23.0991 -7.2407 L-23.0991 -6.6001 L-28.3334 -6.6001 L-28.3334 -7.2407 Q-26.4897 -7.2407 -26.4897 -7.8032 L-26.4897 -18.2876 L-30.9116 -6.8032 Q-30.9897 -6.6001 -31.2084 -6.6001 Q-31.4428 -6.6001 -31.5209 -6.8032 L-35.8959 -18.1469 L-35.8959 -8.3032 Q-35.8959 -7.2407 -34.0522 -7.2407 L-34.0522 -6.6001 L-38.3178 -6.6001 Z"
      /><path style="stroke:none;" d="M-21.4341 -8.3657 Q-21.4341 -9.4438 -20.5904 -10.1157 Q-19.7466 -10.7876 -18.5669 -11.061 Q-17.3872 -11.3344 -16.3091 -11.3344 L-16.3091 -12.0688 Q-16.3091 -12.6001 -16.5435 -13.0844 Q-16.7779 -13.5688 -17.2075 -13.8813 Q-17.6372 -14.1938 -18.1529 -14.1938 Q-19.356 -14.1938 -19.9654 -13.6626 Q-19.6372 -13.6626 -19.4107 -13.4048 Q-19.1841 -13.1469 -19.1841 -12.8032 Q-19.1841 -12.4438 -19.4341 -12.186 Q-19.6841 -11.9282 -20.0435 -11.9282 Q-20.4029 -11.9282 -20.6607 -12.186 Q-20.9185 -12.4438 -20.9185 -12.8032 Q-20.9185 -13.7407 -20.0513 -14.2016 Q-19.1841 -14.6626 -18.1529 -14.6626 Q-17.4185 -14.6626 -16.6841 -14.3501 Q-15.9497 -14.0376 -15.481 -13.4594 Q-15.0122 -12.8813 -15.0122 -12.1157 L-15.0122 -8.0532 Q-15.0122 -7.7094 -14.8638 -7.4126 Q-14.7154 -7.1157 -14.3872 -7.1157 Q-14.0904 -7.1157 -13.9497 -7.4126 Q-13.8091 -7.7094 -13.8091 -8.0532 L-13.8091 -9.2094 L-13.2779 -9.2094 L-13.2779 -8.0532 Q-13.2779 -7.6626 -13.4888 -7.2954 Q-13.6997 -6.9282 -14.0513 -6.7094 Q-14.4029 -6.4907 -14.8247 -6.4907 Q-15.356 -6.4907 -15.7388 -6.9048 Q-16.1216 -7.3188 -16.1529 -7.8813 Q-16.4966 -7.1938 -17.145 -6.7954 Q-17.7935 -6.3969 -18.5279 -6.3969 Q-19.2154 -6.3969 -19.8794 -6.6001 Q-20.5435 -6.8032 -20.9888 -7.2407 Q-21.4341 -7.6782 -21.4341 -8.3657 ZM-19.9654 -8.3657 Q-19.9654 -7.7407 -19.5044 -7.3032 Q-19.0435 -6.8657 -18.4029 -6.8657 Q-17.8247 -6.8657 -17.3482 -7.1626 Q-16.8716 -7.4594 -16.5904 -7.9594 Q-16.3091 -8.4594 -16.3091 -9.0063 L-16.3091 -10.8813 Q-17.1372 -10.8813 -17.9888 -10.6157 Q-18.8404 -10.3501 -19.4029 -9.7798 Q-19.9654 -9.2094 -19.9654 -8.3657 Z"
      /><path style="stroke:none;" d="M-12.4862 -5.1938 Q-12.4862 -5.8344 -12.0174 -6.311 Q-11.5487 -6.7876 -10.908 -6.9907 Q-11.2674 -7.2719 -11.4549 -7.686 Q-11.6424 -8.1001 -11.6424 -8.5532 Q-11.6424 -9.3969 -11.1112 -10.0532 Q-11.9393 -10.8657 -11.9393 -11.9126 Q-11.9393 -12.4751 -11.6971 -12.9673 Q-11.4549 -13.4594 -11.0252 -13.8188 Q-10.5955 -14.1782 -10.0643 -14.3657 Q-9.533 -14.5532 -8.9862 -14.5532 Q-7.908 -14.5532 -7.0643 -13.9282 Q-6.6893 -14.3188 -6.1893 -14.5376 Q-5.6893 -14.7563 -5.1424 -14.7563 Q-4.7518 -14.7563 -4.5018 -14.4829 Q-4.2518 -14.2094 -4.2518 -13.8188 Q-4.2518 -13.6001 -4.4237 -13.4282 Q-4.5955 -13.2563 -4.8143 -13.2563 Q-5.033 -13.2563 -5.2049 -13.4282 Q-5.3768 -13.6001 -5.3768 -13.8188 Q-5.3768 -14.1469 -5.158 -14.2876 Q-6.0799 -14.2876 -6.7518 -13.6469 Q-6.4237 -13.3188 -6.2283 -12.8501 Q-6.033 -12.3813 -6.033 -11.9126 Q-6.033 -11.1469 -6.4549 -10.5376 Q-6.8768 -9.9282 -7.5643 -9.5844 Q-8.2518 -9.2407 -8.9862 -9.2407 Q-9.9705 -9.2407 -10.783 -9.7876 Q-11.0487 -9.4282 -11.0487 -8.9907 Q-11.0487 -8.5219 -10.7362 -8.1626 Q-10.4237 -7.8032 -9.9393 -7.8032 L-8.4705 -7.8032 Q-7.3924 -7.8032 -6.533 -7.6079 Q-5.6737 -7.4126 -5.0877 -6.8344 Q-4.5018 -6.2563 -4.5018 -5.1938 Q-4.5018 -4.3969 -5.1737 -3.8735 Q-5.8455 -3.3501 -6.7674 -3.1235 Q-7.6893 -2.8969 -8.4862 -2.8969 Q-9.283 -2.8969 -10.2127 -3.1235 Q-11.1424 -3.3501 -11.8143 -3.8735 Q-12.4862 -4.3969 -12.4862 -5.1938 ZM-11.4705 -5.1938 Q-11.4705 -4.5844 -10.9783 -4.1782 Q-10.4862 -3.7719 -9.7908 -3.5766 Q-9.0955 -3.3813 -8.4862 -3.3813 Q-7.8768 -3.3813 -7.1815 -3.5766 Q-6.4862 -3.7719 -6.0018 -4.1782 Q-5.5174 -4.5844 -5.5174 -5.1938 Q-5.5174 -6.1313 -6.3768 -6.4126 Q-7.2362 -6.6938 -8.4705 -6.6938 L-9.9393 -6.6938 Q-10.3612 -6.6938 -10.7049 -6.4907 Q-11.0487 -6.2876 -11.2596 -5.936 Q-11.4705 -5.5844 -11.4705 -5.1938 ZM-8.9862 -9.7251 Q-7.4549 -9.7251 -7.4549 -11.9126 Q-7.4549 -12.8501 -7.783 -13.4594 Q-8.1112 -14.0688 -8.9862 -14.0688 Q-9.8612 -14.0688 -10.1893 -13.4594 Q-10.5174 -12.8501 -10.5174 -11.9126 Q-10.5174 -11.3188 -10.3924 -10.8344 Q-10.2674 -10.3501 -9.9315 -10.0376 Q-9.5955 -9.7251 -8.9862 -9.7251 Z"
      /><path style="stroke:none;" d="M-3.2882 -6.6001 L-3.2882 -7.2407 Q-2.6632 -7.2407 -2.2726 -7.3344 Q-1.882 -7.4282 -1.882 -7.8032 L-1.882 -12.7251 Q-1.882 -13.1938 -2.0226 -13.4126 Q-2.1632 -13.6313 -2.4367 -13.6782 Q-2.7101 -13.7251 -3.2882 -13.7251 L-3.2882 -14.3657 L-0.6788 -14.5532 L-0.6788 -12.8032 Q-0.3195 -13.5688 0.3915 -14.061 Q1.1024 -14.5532 1.9305 -14.5532 Q3.1805 -14.5532 3.8133 -13.9594 Q4.4462 -13.3657 4.4462 -12.1313 L4.4462 -7.8032 Q4.4462 -7.4282 4.8368 -7.3344 Q5.2274 -7.2407 5.8524 -7.2407 L5.8524 -6.6001 L1.7274 -6.6001 L1.7274 -7.2407 Q2.3368 -7.2407 2.7352 -7.3344 Q3.1337 -7.4282 3.1337 -7.8032 L3.1337 -12.0688 Q3.1337 -12.9594 2.8758 -13.5219 Q2.618 -14.0844 1.8368 -14.0844 Q0.7899 -14.0844 0.118 -13.2485 Q-0.5538 -12.4126 -0.5538 -11.3501 L-0.5538 -7.8032 Q-0.5538 -7.4282 -0.1632 -7.3344 Q0.2274 -7.2407 0.8368 -7.2407 L0.8368 -6.6001 L-3.2882 -6.6001 Z"
      /><path style="stroke:none;" d="M6.9126 -6.6001 L6.9126 -7.2407 Q7.5376 -7.2407 7.9283 -7.3344 Q8.3189 -7.4282 8.3189 -7.8032 L8.3189 -12.7251 Q8.3189 -13.4126 8.0533 -13.5688 Q7.7876 -13.7251 7.0064 -13.7251 L7.0064 -14.3657 L9.5845 -14.5532 L9.5845 -7.8032 Q9.5845 -7.4282 9.9283 -7.3344 Q10.272 -7.2407 10.8501 -7.2407 L10.8501 -6.6001 L6.9126 -6.6001 ZM7.6783 -17.6469 Q7.6783 -18.0376 7.9829 -18.3423 Q8.2876 -18.6469 8.6626 -18.6469 Q8.9283 -18.6469 9.1626 -18.5141 Q9.397 -18.3813 9.5298 -18.1391 Q9.6626 -17.8969 9.6626 -17.6469 Q9.6626 -17.2563 9.3658 -16.9594 Q9.0689 -16.6626 8.6626 -16.6626 Q8.2876 -16.6626 7.9829 -16.9594 Q7.6783 -17.2563 7.6783 -17.6469 Z"
      /><path style="stroke:none;" d="M13.3021 -8.7563 L13.3021 -13.7251 L11.8021 -13.7251 L11.8021 -14.1938 Q12.974 -14.1938 13.5287 -15.2954 Q14.0834 -16.3969 14.0834 -17.6782 L14.599 -17.6782 L14.599 -14.3657 L17.1459 -14.3657 L17.1459 -13.7251 L14.599 -13.7251 L14.599 -8.8032 Q14.599 -8.0532 14.849 -7.4907 Q15.099 -6.9282 15.7552 -6.9282 Q16.3646 -6.9282 16.6381 -7.5219 Q16.9115 -8.1157 16.9115 -8.8032 L16.9115 -9.8657 L17.4427 -9.8657 L17.4427 -8.7563 Q17.4427 -8.1938 17.2318 -7.6469 Q17.0209 -7.1001 16.6146 -6.7485 Q16.2084 -6.3969 15.6302 -6.3969 Q14.5521 -6.3969 13.9271 -7.0454 Q13.3021 -7.6938 13.3021 -8.7563 Z"
      /><path style="stroke:none;" d="M20.5255 -8.7407 L20.5255 -12.7251 Q20.5255 -13.1938 20.3849 -13.4126 Q20.2443 -13.6313 19.9708 -13.6782 Q19.6974 -13.7251 19.1193 -13.7251 L19.1193 -14.3657 L21.8536 -14.5532 L21.8536 -8.7407 Q21.8536 -8.0376 21.9552 -7.6469 Q22.0568 -7.2563 22.3849 -7.061 Q22.713 -6.8657 23.4318 -6.8657 Q24.4005 -6.8657 24.9708 -7.6782 Q25.5411 -8.4907 25.5411 -9.5219 L25.5411 -12.7251 Q25.5411 -13.1938 25.3927 -13.4126 Q25.2443 -13.6313 24.9786 -13.6782 Q24.713 -13.7251 24.1349 -13.7251 L24.1349 -14.3657 L26.8536 -14.5532 L26.8536 -8.2407 Q26.8536 -7.7563 26.9943 -7.5454 Q27.1349 -7.3344 27.4083 -7.2876 Q27.6818 -7.2407 28.2599 -7.2407 L28.2599 -6.6001 L25.588 -6.3969 L25.588 -7.9126 Q25.2599 -7.2407 24.6583 -6.8188 Q24.0568 -6.3969 23.338 -6.3969 Q22.0568 -6.3969 21.2911 -6.9438 Q20.5255 -7.4907 20.5255 -8.7407 Z"
      /><path style="stroke:none;" d="M33.1639 -6.3969 Q32.1014 -6.3969 31.2264 -6.9751 Q30.3514 -7.5532 29.8592 -8.4907 Q29.367 -9.4282 29.367 -10.4907 Q29.367 -11.5688 29.8982 -12.5063 Q30.4295 -13.4438 31.3435 -13.9985 Q32.2576 -14.5532 33.367 -14.5532 Q34.0232 -14.5532 34.6092 -14.2798 Q35.1951 -14.0063 35.6326 -13.5063 L35.6326 -17.2563 Q35.6326 -17.7407 35.4842 -17.9516 Q35.3357 -18.1626 35.0701 -18.2094 Q34.8045 -18.2563 34.2264 -18.2563 L34.2264 -18.8969 L36.8982 -19.0844 L36.8982 -8.2407 Q36.8982 -7.7563 37.0389 -7.5454 Q37.1795 -7.3344 37.4529 -7.2876 Q37.7264 -7.2407 38.2889 -7.2407 L38.2889 -6.6001 L35.5701 -6.3969 L35.5701 -7.5376 Q35.117 -6.9907 34.4685 -6.6938 Q33.8201 -6.3969 33.1639 -6.3969 ZM31.3357 -8.1626 Q31.6326 -7.5688 32.1482 -7.2173 Q32.6639 -6.8657 33.2732 -6.8657 Q34.0232 -6.8657 34.6482 -7.3032 Q35.2732 -7.7407 35.5701 -8.4126 L35.5701 -12.7407 Q35.367 -13.1313 35.0467 -13.4438 Q34.7264 -13.7563 34.3279 -13.9204 Q33.9295 -14.0844 33.4764 -14.0844 Q32.5389 -14.0844 31.9685 -13.5532 Q31.3982 -13.0219 31.1639 -12.1938 Q30.9295 -11.3657 30.9295 -10.4751 Q30.9295 -9.7407 31.0076 -9.2094 Q31.0857 -8.6782 31.3357 -8.1626 Z"
    /></g
    ><g style="stroke-linecap:butt; fill:rgb(0,114,189); text-rendering:geometricPrecision; image-rendering:optimizeQuality; color-rendering:optimizeQuality; stroke-linejoin:round; stroke:rgb(0,114,189); color-interpolation:linearRGB; stroke-width:2.5;"
    ><path d="M64.9537 374.3581 L65 374.3588 L68.88 374.4051 L72.76 374.4157 L76.64 374.3746 L80.52 374.287 L84.4 374.1802 L88.28 374.0938 L92.16 374.0635 L96.04 374.1045 L99.92 374.2009 L103.8 374.3094 L107.68 374.3746 L111.56 374.3528 L115.44 374.2345 L119.32 374.0547 L123.2 373.8844 L127.08 373.8047 L130.96 373.8709 L134.84 374.083 L138.72 374.3746 L142.6 374.6317 L146.48 374.7363 L150.36 374.6211 L154.24 374.3136 L158.12 373.9461 L162 373.7202 L165.88 373.8307 L169.76 374.3746 L173.64 375.2794 L177.52 376.291 L181.4 377.0414 L185.28 377.1898 L189.16 376.5987 L193.04 375.4798 L196.92 374.4402 L200.8 374.3746 L204.68 376.1948 L208.56 380.4414 L212.44 386.8777 L216.32 394.1958 L220.2 399.9611 L224.08 400.8757 L227.96 393.3622 L231.84 374.3746 L235.72 342.2655 L239.6 297.4915 L243.48 242.9526 L247.36 183.8325 L251.24 126.9141 L255.12 79.4808 L259 48.0189 L262.88 37 L266.76 48.0189 L270.64 79.4808 L274.52 126.9141 L278.4 183.8325 L282.28 242.9526 L286.16 297.4915 L290.04 342.2655 L293.92 374.3746 L297.8 393.3622 L301.68 400.8757 L305.56 399.9611 L309.44 394.1958 L313.32 386.8777 L317.2 380.4414 L321.08 376.1948 L324.96 374.3746 L328.84 374.4402 L332.72 375.4798 L336.6 376.5987 L340.48 377.1898 L344.36 377.0414 L348.24 376.291 L352.12 375.2794 L356 374.3746 L359.88 373.8307 L363.76 373.7202 L367.64 373.9461 L371.52 374.3136 L375.4 374.6211 L379.28 374.7363 L383.16 374.6317 L387.04 374.3746 L390.92 374.083 L394.8 373.8709 L398.68 373.8047 L402.56 373.8844 L406.44 374.0547 L410.32 374.2345 L414.2 374.3528 L418.08 374.3746 L421.96 374.3094 L425.84 374.2009 L429.72 374.1045 L433.6 374.0635 L437.48 374.0938 L441.36 374.1802 L445.24 374.287 L449.12 374.3746 L453 374.4157 L453.0462 374.4156" style="fill:none; fill-rule:evenodd;"
      /><path d="M64.9537 374.1097 L65 374.1091 L68.88 374.1198 L72.76 374.2113 L76.64 374.3746 L80.52 374.575 L84.4 374.7612 L88.28 374.8809 L92.16 374.8988 L96.04 374.8113 L99.92 374.6512 L103.8 374.4811 L107.68 374.3746 L111.56 374.39 L115.44 374.5461 L119.32 374.8079 L123.2 375.0886 L127.08 375.2709 L130.96 375.243 L134.84 374.9397 L138.72 374.3746 L142.6 373.6513 L146.48 372.9448 L150.36 372.4539 L154.24 372.3358 L158.12 372.6395 L162 373.2639 L165.88 373.9579 L169.76 374.3746 L173.64 374.1755 L177.52 373.1623 L181.4 371.4019 L185.28 369.3046 L189.16 367.6153 L193.04 367.2993 L196.92 369.325 L200.8 374.3746 L204.68 382.5439 L208.56 393.1013 L212.44 404.3811 L216.32 413.8649 L220.2 418.4709 L224.08 415.0269 L227.96 400.8562 L231.84 374.3746 L235.72 335.5764 L239.6 286.2995 L243.48 230.1934 L247.36 172.3639 L251.24 118.7349 L255.12 75.221 L259 46.8519 L262.88 37 L266.76 46.8519 L270.64 75.221 L274.52 118.7349 L278.4 172.3639 L282.28 230.1934 L286.16 286.2995 L290.04 335.5764 L293.92 374.3746 L297.8 400.8562 L301.68 415.0269 L305.56 418.4709 L309.44 413.8649 L313.32 404.3811 L317.2 393.1013 L321.08 382.5439 L324.96 374.3746 L328.84 369.325 L332.72 367.2993 L336.6 367.6153 L340.48 369.3046 L344.36 371.4019 L348.24 373.1623 L352.12 374.1755 L356 374.3746 L359.88 373.9579 L363.76 373.2639 L367.64 372.6395 L371.52 372.3358 L375.4 372.4539 L379.28 372.9448 L383.16 373.6513 L387.04 374.3746 L390.92 374.9397 L394.8 375.243 L398.68 375.2709 L402.56 375.0886 L406.44 374.8079 L410.32 374.5461 L414.2 374.39 L418.08 374.3746 L421.96 374.4811 L425.84 374.6512 L429.72 374.8113 L433.6 374.8988 L437.48 374.8809 L441.36 374.7612 L445.24 374.575 L449.12 374.3746 L453 374.2113 L453.0462 374.2103" style="fill:none; fill-rule:evenodd; stroke:rgb(217,83,25);"
      /><path d="M64.9537 375.4362 L65 375.436 L68.88 375.2248 L72.76 374.8495 L76.64 374.3746 L80.52 373.892 L84.4 373.5 L88.28 373.2794 L92.16 373.2715 L96.04 373.4634 L99.92 373.7868 L103.8 374.132 L107.68 374.3746 L111.56 374.4112 L115.44 374.1948 L119.32 373.7609 L123.2 373.2352 L127.08 372.8179 L130.96 372.7438 L134.84 373.2231 L138.72 374.3746 L142.6 376.1674 L146.48 378.3849 L150.36 380.6263 L154.24 382.3541 L158.12 382.984 L162 382.0075 L165.88 379.1269 L169.76 374.3746 L173.64 368.1889 L177.52 361.4219 L181.4 355.264 L185.28 351.0848 L189.16 350.2052 L193.04 353.6328 L196.92 361.8031 L200.8 374.3746 L204.68 390.1231 L208.56 406.9682 L212.44 422.1472 L216.32 432.5258 L220.2 435.0125 L224.08 427.0223 L227.96 406.9202 L231.84 374.3746 L235.72 330.5577 L239.6 278.1493 L243.48 221.13 L247.36 164.3795 L251.24 113.1279 L255.12 72.3327 L259 46.0659 L262.88 37 L266.76 46.0659 L270.64 72.3327 L274.52 113.1279 L278.4 164.3795 L282.28 221.13 L286.16 278.1493 L290.04 330.5577 L293.92 374.3746 L297.8 406.9202 L301.68 427.0223 L305.56 435.0125 L309.44 432.5258 L313.32 422.1472 L317.2 406.9682 L321.08 390.1231 L324.96 374.3746 L328.84 361.8031 L332.72 353.6328 L336.6 350.2052 L340.48 351.0848 L344.36 355.264 L348.24 361.4219 L352.12 368.1889 L356 374.3746 L359.88 379.1269 L363.76 382.0075 L367.64 382.984 L371.52 382.3541 L375.4 380.6263 L379.28 378.3849 L383.16 376.1674 L387.04 374.3746 L390.92 373.2231 L394.8 372.7438 L398.68 372.8179 L402.56 373.2352 L406.44 373.7609 L410.32 374.1948 L414.2 374.4112 L418.08 374.3746 L421.96 374.132 L425.84 373.7868 L429.72 373.4634 L433.6 373.2715 L437.48 373.2794 L441.36 373.5 L445.24 373.892 L449.12 374.3746 L453 374.8495 L453.0462 374.8539" style="fill:none; fill-rule:evenodd; stroke:rgb(237,177,32);"
      /><path d="M64.9537 364.8592 L65 364.8636 L68.88 366.7956 L72.76 370.1046 L76.64 374.3746 L80.52 379.0007 L84.4 383.2711 L88.28 386.472 L92.16 388.0023 L96.04 387.4785 L99.92 384.8137 L103.8 380.2556 L107.68 374.3746 L111.56 367.9991 L115.44 362.1053 L119.32 357.6746 L123.2 355.5381 L127.08 356.2337 L130.96 359.8955 L134.84 366.1993 L138.72 374.3746 L142.6 383.2871 L146.48 391.585 L150.36 397.8911 L154.24 401.0157 L158.12 400.1582 L162 395.0672 L165.88 386.1302 L169.76 374.3746 L173.64 361.3718 L177.52 349.0509 L181.4 339.4415 L185.28 334.3781 L189.16 335.2037 L193.04 342.5178 L196.92 356.0047 L200.8 374.3746 L204.68 395.4336 L208.56 416.2824 L212.44 433.6262 L216.32 444.1625 L220.2 445 L224.08 434.0566 L227.96 410.3844 L231.84 374.3746 L235.72 327.8129 L239.6 273.7693 L243.48 216.3307 L247.36 160.202 L251.24 110.2215 L255.12 70.8454 L259 45.6627 L262.88 37 L266.76 45.6627 L270.64 70.8454 L274.52 110.2215 L278.4 160.202 L282.28 216.3307 L286.16 273.7693 L290.04 327.8129 L293.92 374.3746 L297.8 410.3844 L301.68 434.0566 L305.56 445 L309.44 444.1625 L313.32 433.6262 L317.2 416.2824 L321.08 395.4336 L324.96 374.3746 L328.84 356.0047 L332.72 342.5178 L336.6 335.2037 L340.48 334.3781 L344.36 339.4415 L348.24 349.0509 L352.12 361.3718 L356 374.3746 L359.88 386.1302 L363.76 395.0672 L367.64 400.1582 L371.52 401.0157 L375.4 397.8911 L379.28 391.585 L383.16 383.2871 L387.04 374.3746 L390.92 366.1993 L394.8 359.8955 L398.68 356.2337 L402.56 355.5381 L406.44 357.6746 L410.32 362.1053 L414.2 367.9991 L418.08 374.3746 L421.96 380.2556 L425.84 384.8137 L429.72 387.4785 L433.6 388.0023 L437.48 386.472 L441.36 383.2711 L445.24 379.0007 L449.12 374.3746 L453 370.1046 L453.0462 370.0652" style="fill:none; fill-rule:evenodd; stroke:rgb(126,47,142);"
    /></g
    ><g style="fill:white; text-rendering:optimizeSpeed; color-rendering:optimizeSpeed; image-rendering:optimizeSpeed; shape-rendering:crispEdges; stroke:white; color-interpolation:sRGB;"
    ><path style="stroke:none;" d="M436 133 L436 54 L307 54 L307 133 Z"
    /></g
    ><g transform="translate(365.4402,65.5182)" style="font-size:15px; text-rendering:geometricPrecision; color-rendering:optimizeQuality; image-rendering:optimizeQuality; font-family:'mwa_cmmi10'; color-interpolation:linearRGB;"
    ><path style="stroke:none;" d="M2.5938 3.7718 Q1.6875 3.7718 1.1797 3.0609 Q0.6719 2.3499 0.6719 1.3968 Q0.6719 1.2562 0.7422 0.8499 Q0.8125 0.4437 0.8125 0.3499 L2.2656 -5.4782 Q2.3281 -5.7282 2.3438 -5.8844 Q2.3438 -6.1188 1.3594 -6.1188 Q1.2188 -6.1188 1.2188 -6.3219 Q1.2188 -6.3532 1.25 -6.4469 Q1.2812 -6.5407 1.3203 -6.5954 Q1.3594 -6.6501 1.4219 -6.6501 L3.4531 -6.8063 Q3.6406 -6.8063 3.6406 -6.6188 L2.5156 -2.1969 Q3.375 -3.0251 4.2344 -3.0251 Q4.875 -3.0251 5.3281 -2.6891 Q5.7812 -2.3532 6.0078 -1.8063 Q6.2344 -1.2594 6.2344 -0.6344 Q6.2344 0.0843 5.9531 0.8578 Q5.6719 1.6312 5.1797 2.2953 Q4.6875 2.9593 4.0156 3.3656 Q3.3438 3.7718 2.5938 3.7718 ZM2.625 3.3656 Q3.1406 3.3656 3.5859 2.9437 Q4.0312 2.5218 4.3125 1.9749 Q4.6094 1.3812 4.8672 0.3499 Q5.125 -0.6813 5.125 -1.2907 Q5.125 -1.8219 4.9062 -2.2282 Q4.6875 -2.6344 4.2031 -2.6344 Q3.6562 -2.6344 3.1641 -2.236 Q2.6719 -1.8376 2.2969 -1.2907 L1.875 0.4124 Q1.6406 1.3499 1.625 1.9281 Q1.625 2.4906 1.8672 2.9281 Q2.1094 3.3656 2.625 3.3656 Z"
    /></g
    ><g transform="translate(365.4402,65.5182)" style="font-size:15px; text-rendering:geometricPrecision; color-rendering:optimizeQuality; image-rendering:optimizeQuality; font-family:'mwa_cmmi10'; color-interpolation:linearRGB;"
    ><path style="stroke:none;" d="M9.4531 3.7718 Q8.7344 3.7718 8.1953 3.3968 Q7.6562 3.0218 7.375 2.389 Q7.0937 1.7562 7.0937 1.0531 Q7.0937 -0.0251 7.6328 -0.9626 Q8.1719 -1.9001 9.0937 -2.4626 Q10.0156 -3.0251 11.0781 -3.0251 Q11.7187 -3.0251 12.1953 -2.6969 Q12.6719 -2.3688 12.6719 -1.7438 Q12.6719 -0.8688 11.9844 -0.4547 Q11.2969 -0.0407 10.4375 0.0609 Q9.5781 0.1624 8.5312 0.1624 L8.4844 0.1624 Q8.2344 1.0531 8.2344 1.6937 Q8.2344 2.3656 8.5469 2.8656 Q8.8594 3.3656 9.4844 3.3656 Q10.375 3.3656 11.2031 2.9593 Q12.0312 2.5531 12.5469 1.8343 Q12.5937 1.7874 12.6562 1.7874 Q12.7344 1.7874 12.8125 1.8734 Q12.8906 1.9593 12.8906 2.0218 Q12.8906 2.0843 12.8594 2.1156 Q12.3125 2.8812 11.3828 3.3265 Q10.4531 3.7718 9.4531 3.7718 ZM8.5625 -0.2282 Q9.4375 -0.2282 10.1797 -0.3063 Q10.9219 -0.3844 11.5234 -0.7126 Q12.125 -1.0407 12.125 -1.7282 Q12.125 -2.0094 11.9687 -2.2126 Q11.8125 -2.4157 11.5703 -2.5251 Q11.3281 -2.6344 11.0625 -2.6344 Q10.4219 -2.6344 9.914 -2.2907 Q9.4062 -1.9469 9.0781 -1.4001 Q8.75 -0.8532 8.5625 -0.2282 Z"
      /><path style="stroke:none;" d="M14.3594 2.3812 Q14.3594 2.1624 14.3906 1.9593 L15.4844 -2.3376 L13.9063 -2.3376 Q13.75 -2.3376 13.75 -2.5407 Q13.8125 -2.8688 13.9531 -2.8688 L15.6094 -2.8688 L16.2188 -5.3063 Q16.2656 -5.5094 16.4453 -5.6501 Q16.625 -5.7907 16.8438 -5.7907 Q17.0313 -5.7907 17.1641 -5.6735 Q17.2969 -5.5563 17.2969 -5.3688 Q17.2969 -5.3219 17.2891 -5.2985 Q17.2813 -5.2751 17.2813 -5.2438 L16.6719 -2.8688 L18.2188 -2.8688 Q18.375 -2.8688 18.375 -2.6657 Q18.3594 -2.6344 18.3438 -2.5485 Q18.3281 -2.4626 18.2891 -2.4001 Q18.25 -2.3376 18.1719 -2.3376 L16.5469 -2.3376 L15.4688 1.9906 Q15.3594 2.4281 15.3594 2.7249 Q15.3594 3.3656 15.7969 3.3656 Q16.4531 3.3656 16.9609 2.7484 Q17.4688 2.1312 17.75 1.3968 Q17.7969 1.3031 17.8594 1.3031 L18.0469 1.3031 Q18.1094 1.3031 18.1406 1.3421 Q18.1719 1.3812 18.1719 1.4437 Q18.1719 1.4749 18.1563 1.4906 Q17.8281 2.3968 17.2031 3.0843 Q16.5781 3.7718 15.7656 3.7718 Q15.1719 3.7718 14.7656 3.3812 Q14.3594 2.9906 14.3594 2.3812 Z"
      /><path style="stroke:none;" d="M21.4479 3.7718 Q20.4948 3.7718 19.9557 3.0531 Q19.4167 2.3343 19.4167 1.3656 Q19.4167 0.4124 19.9089 -0.6266 Q20.4011 -1.6657 21.2526 -2.3454 Q22.1042 -3.0251 23.0729 -3.0251 Q23.5261 -3.0251 23.8776 -2.7829 Q24.2292 -2.5407 24.4167 -2.1344 Q24.5886 -2.7282 25.0729 -2.7282 Q25.2761 -2.7282 25.4011 -2.611 Q25.5261 -2.4938 25.5261 -2.3063 Q25.5261 -2.2594 25.5261 -2.2438 Q25.5261 -2.2282 25.5104 -2.1969 L24.4636 1.9906 Q24.3542 2.4437 24.3542 2.7249 Q24.3542 3.3656 24.7917 3.3656 Q25.2604 3.3656 25.5104 2.7718 Q25.7604 2.1781 25.9167 1.3968 Q25.9479 1.3031 26.0417 1.3031 L26.2292 1.3031 Q26.2761 1.3031 26.3151 1.3578 Q26.3542 1.4124 26.3542 1.4593 Q26.0886 2.5062 25.7761 3.139 Q25.4636 3.7718 24.7604 3.7718 Q24.2604 3.7718 23.8698 3.4749 Q23.4792 3.1781 23.3854 2.6781 Q22.4167 3.7718 21.4479 3.7718 ZM21.4636 3.3656 Q22.0104 3.3656 22.5182 2.9593 Q23.0261 2.5531 23.3854 2.0062 Q23.4011 1.9906 23.4011 1.9593 L24.2136 -1.2907 L24.2292 -1.3376 Q24.1354 -1.8688 23.8386 -2.2516 Q23.5417 -2.6344 23.0417 -2.6344 Q22.5261 -2.6344 22.0886 -2.2204 Q21.6511 -1.8063 21.3542 -1.2438 Q21.0729 -0.6501 20.7995 0.3968 Q20.5261 1.4437 20.5261 2.0218 Q20.5261 2.5374 20.7526 2.9515 Q20.9792 3.3656 21.4636 3.3656 Z"
      /><path style="stroke:none;" d="M32.059 1.5999 Q31.934 1.5999 31.8558 1.5062 Q31.7777 1.4124 31.7777 1.3031 Q31.7777 1.1781 31.8558 1.0921 Q31.934 1.0062 32.059 1.0062 L41.4808 1.0062 Q41.5902 1.0062 41.6683 1.0921 Q41.7465 1.1781 41.7465 1.3031 Q41.7465 1.4124 41.6683 1.5062 Q41.5902 1.5999 41.4808 1.5999 L32.059 1.5999 ZM32.059 -1.3063 Q31.934 -1.3063 31.8558 -1.3922 Q31.7777 -1.4782 31.7777 -1.6032 Q31.7777 -1.7126 31.8558 -1.8141 Q31.934 -1.9157 32.059 -1.9157 L41.4808 -1.9157 Q41.5902 -1.9157 41.6683 -1.8141 Q41.7465 -1.7126 41.7465 -1.6032 Q41.7465 -1.4782 41.6683 -1.3922 Q41.5902 -1.3063 41.4808 -1.3063 L32.059 -1.3063 Z"
      /><path style="stroke:none;" d="M50.5172 3.9281 Q48.6735 3.9281 48.0172 2.4124 Q47.361 0.8968 47.361 -1.1813 Q47.361 -2.4938 47.5953 -3.6422 Q47.8297 -4.7907 48.5328 -5.5876 Q49.236 -6.3844 50.5172 -6.3844 Q51.5016 -6.3844 52.1344 -5.9079 Q52.7672 -5.4313 53.0953 -4.6657 Q53.4235 -3.9001 53.5485 -3.0251 Q53.6735 -2.1501 53.6735 -1.1813 Q53.6735 0.0999 53.4313 1.2249 Q53.1891 2.3499 52.4938 3.139 Q51.7985 3.9281 50.5172 3.9281 ZM50.5172 3.5374 Q51.3453 3.5374 51.7594 2.6859 Q52.1735 1.8343 52.2672 0.7874 Q52.361 -0.2594 52.361 -1.4313 Q52.361 -2.5563 52.2672 -3.5094 Q52.1735 -4.4626 51.7672 -5.236 Q51.361 -6.0094 50.5172 -6.0094 Q49.6735 -6.0094 49.2594 -5.2282 Q48.8453 -4.4469 48.7516 -3.5016 Q48.6578 -2.5563 48.6578 -1.4313 Q48.6578 -0.5876 48.6969 0.1546 Q48.736 0.8968 48.9157 1.6781 Q49.0953 2.4593 49.486 2.9984 Q49.8766 3.5374 50.5172 3.5374 Z"
      /><path style="stroke:none;" d="M55.5329 2.7718 Q55.5329 2.4281 55.7829 2.1937 Q56.0329 1.9593 56.361 1.9593 Q56.5641 1.9593 56.7594 2.0687 Q56.9547 2.1781 57.0641 2.3734 Q57.1735 2.5687 57.1735 2.7718 Q57.1735 3.0999 56.9313 3.3499 Q56.6891 3.5999 56.361 3.5999 Q56.0329 3.5999 55.7829 3.3499 Q55.5329 3.0999 55.5329 2.7718 Z"
      /><path style="stroke:none;" d="M61.0433 3.2093 Q61.0433 2.3812 61.1917 1.5843 Q61.3402 0.7874 61.6214 0.0062 Q61.9027 -0.7751 62.3011 -1.5251 Q62.6995 -2.2751 63.1683 -2.9469 L64.5433 -4.8376 L62.8245 -4.8376 Q60.1683 -4.8376 60.0745 -4.7751 Q59.887 -4.5251 59.7152 -3.3844 L59.2777 -3.3844 L59.762 -6.5407 L60.1995 -6.5407 L60.1995 -6.4938 Q60.1995 -6.2282 61.1214 -6.1422 Q62.0433 -6.0563 62.9183 -6.0563 L65.6995 -6.0563 L65.6995 -5.6657 Q65.6995 -5.6657 65.6995 -5.6579 Q65.6995 -5.6501 65.6995 -5.6344 L63.6214 -2.7282 Q62.8714 -1.6032 62.6761 -0.2282 Q62.4808 1.1468 62.4808 3.2093 Q62.4808 3.5062 62.2699 3.7171 Q62.0589 3.9281 61.762 3.9281 Q61.4652 3.9281 61.2542 3.7171 Q61.0433 3.5062 61.0433 3.2093 Z"
    /></g
    ><g style="stroke-linecap:butt; fill:rgb(0,114,189); text-rendering:geometricPrecision; image-rendering:optimizeQuality; color-rendering:optimizeQuality; stroke-linejoin:round; stroke:rgb(0,114,189); color-interpolation:linearRGB; stroke-width:2.5;"
    ><line y2="65.5182" style="fill:none;" x1="311.9736" x2="361.7099" y1="65.5182"
    /></g
    ><g transform="translate(365.4402,84.1727)" style="font-size:15px; text-rendering:geometricPrecision; color-rendering:optimizeQuality; image-rendering:optimizeQuality; font-family:'mwa_cmmi10'; color-interpolation:linearRGB;"
    ><path style="stroke:none;" d="M2.5938 3.7718 Q1.6875 3.7718 1.1797 3.0609 Q0.6719 2.3499 0.6719 1.3968 Q0.6719 1.2562 0.7422 0.8499 Q0.8125 0.4437 0.8125 0.3499 L2.2656 -5.4782 Q2.3281 -5.7282 2.3438 -5.8844 Q2.3438 -6.1188 1.3594 -6.1188 Q1.2188 -6.1188 1.2188 -6.3219 Q1.2188 -6.3532 1.25 -6.4469 Q1.2812 -6.5407 1.3203 -6.5954 Q1.3594 -6.6501 1.4219 -6.6501 L3.4531 -6.8063 Q3.6406 -6.8063 3.6406 -6.6188 L2.5156 -2.1969 Q3.375 -3.0251 4.2344 -3.0251 Q4.875 -3.0251 5.3281 -2.6891 Q5.7812 -2.3532 6.0078 -1.8063 Q6.2344 -1.2594 6.2344 -0.6344 Q6.2344 0.0843 5.9531 0.8578 Q5.6719 1.6312 5.1797 2.2953 Q4.6875 2.9593 4.0156 3.3656 Q3.3438 3.7718 2.5938 3.7718 ZM2.625 3.3656 Q3.1406 3.3656 3.5859 2.9437 Q4.0312 2.5218 4.3125 1.9749 Q4.6094 1.3812 4.8672 0.3499 Q5.125 -0.6813 5.125 -1.2907 Q5.125 -1.8219 4.9062 -2.2282 Q4.6875 -2.6344 4.2031 -2.6344 Q3.6562 -2.6344 3.1641 -2.236 Q2.6719 -1.8376 2.2969 -1.2907 L1.875 0.4124 Q1.6406 1.3499 1.625 1.9281 Q1.625 2.4906 1.8672 2.9281 Q2.1094 3.3656 2.625 3.3656 Z"
    /></g
    ><g transform="translate(365.4402,84.1727)" style="font-size:15px; text-rendering:geometricPrecision; color-rendering:optimizeQuality; image-rendering:optimizeQuality; font-family:'mwa_cmmi10'; color-interpolation:linearRGB;"
    ><path style="stroke:none;" d="M9.4531 3.7718 Q8.7344 3.7718 8.1953 3.3968 Q7.6562 3.0218 7.375 2.389 Q7.0937 1.7562 7.0937 1.0531 Q7.0937 -0.0251 7.6328 -0.9626 Q8.1719 -1.9001 9.0937 -2.4626 Q10.0156 -3.0251 11.0781 -3.0251 Q11.7187 -3.0251 12.1953 -2.6969 Q12.6719 -2.3688 12.6719 -1.7438 Q12.6719 -0.8688 11.9844 -0.4547 Q11.2969 -0.0407 10.4375 0.0609 Q9.5781 0.1624 8.5312 0.1624 L8.4844 0.1624 Q8.2344 1.0531 8.2344 1.6937 Q8.2344 2.3656 8.5469 2.8656 Q8.8594 3.3656 9.4844 3.3656 Q10.375 3.3656 11.2031 2.9593 Q12.0312 2.5531 12.5469 1.8343 Q12.5937 1.7874 12.6562 1.7874 Q12.7344 1.7874 12.8125 1.8734 Q12.8906 1.9593 12.8906 2.0218 Q12.8906 2.0843 12.8594 2.1156 Q12.3125 2.8812 11.3828 3.3265 Q10.4531 3.7718 9.4531 3.7718 ZM8.5625 -0.2282 Q9.4375 -0.2282 10.1797 -0.3063 Q10.9219 -0.3844 11.5234 -0.7126 Q12.125 -1.0407 12.125 -1.7282 Q12.125 -2.0094 11.9687 -2.2126 Q11.8125 -2.4157 11.5703 -2.5251 Q11.3281 -2.6344 11.0625 -2.6344 Q10.4219 -2.6344 9.914 -2.2907 Q9.4062 -1.9469 9.0781 -1.4001 Q8.75 -0.8532 8.5625 -0.2282 Z"
      /><path style="stroke:none;" d="M14.3594 2.3812 Q14.3594 2.1624 14.3906 1.9593 L15.4844 -2.3376 L13.9063 -2.3376 Q13.75 -2.3376 13.75 -2.5407 Q13.8125 -2.8688 13.9531 -2.8688 L15.6094 -2.8688 L16.2188 -5.3063 Q16.2656 -5.5094 16.4453 -5.6501 Q16.625 -5.7907 16.8438 -5.7907 Q17.0313 -5.7907 17.1641 -5.6735 Q17.2969 -5.5563 17.2969 -5.3688 Q17.2969 -5.3219 17.2891 -5.2985 Q17.2813 -5.2751 17.2813 -5.2438 L16.6719 -2.8688 L18.2188 -2.8688 Q18.375 -2.8688 18.375 -2.6657 Q18.3594 -2.6344 18.3438 -2.5485 Q18.3281 -2.4626 18.2891 -2.4001 Q18.25 -2.3376 18.1719 -2.3376 L16.5469 -2.3376 L15.4688 1.9906 Q15.3594 2.4281 15.3594 2.7249 Q15.3594 3.3656 15.7969 3.3656 Q16.4531 3.3656 16.9609 2.7484 Q17.4688 2.1312 17.75 1.3968 Q17.7969 1.3031 17.8594 1.3031 L18.0469 1.3031 Q18.1094 1.3031 18.1406 1.3421 Q18.1719 1.3812 18.1719 1.4437 Q18.1719 1.4749 18.1563 1.4906 Q17.8281 2.3968 17.2031 3.0843 Q16.5781 3.7718 15.7656 3.7718 Q15.1719 3.7718 14.7656 3.3812 Q14.3594 2.9906 14.3594 2.3812 Z"
      /><path style="stroke:none;" d="M21.4479 3.7718 Q20.4948 3.7718 19.9557 3.0531 Q19.4167 2.3343 19.4167 1.3656 Q19.4167 0.4124 19.9089 -0.6266 Q20.4011 -1.6657 21.2526 -2.3454 Q22.1042 -3.0251 23.0729 -3.0251 Q23.5261 -3.0251 23.8776 -2.7829 Q24.2292 -2.5407 24.4167 -2.1344 Q24.5886 -2.7282 25.0729 -2.7282 Q25.2761 -2.7282 25.4011 -2.611 Q25.5261 -2.4938 25.5261 -2.3063 Q25.5261 -2.2594 25.5261 -2.2438 Q25.5261 -2.2282 25.5104 -2.1969 L24.4636 1.9906 Q24.3542 2.4437 24.3542 2.7249 Q24.3542 3.3656 24.7917 3.3656 Q25.2604 3.3656 25.5104 2.7718 Q25.7604 2.1781 25.9167 1.3968 Q25.9479 1.3031 26.0417 1.3031 L26.2292 1.3031 Q26.2761 1.3031 26.3151 1.3578 Q26.3542 1.4124 26.3542 1.4593 Q26.0886 2.5062 25.7761 3.139 Q25.4636 3.7718 24.7604 3.7718 Q24.2604 3.7718 23.8698 3.4749 Q23.4792 3.1781 23.3854 2.6781 Q22.4167 3.7718 21.4479 3.7718 ZM21.4636 3.3656 Q22.0104 3.3656 22.5182 2.9593 Q23.0261 2.5531 23.3854 2.0062 Q23.4011 1.9906 23.4011 1.9593 L24.2136 -1.2907 L24.2292 -1.3376 Q24.1354 -1.8688 23.8386 -2.2516 Q23.5417 -2.6344 23.0417 -2.6344 Q22.5261 -2.6344 22.0886 -2.2204 Q21.6511 -1.8063 21.3542 -1.2438 Q21.0729 -0.6501 20.7995 0.3968 Q20.5261 1.4437 20.5261 2.0218 Q20.5261 2.5374 20.7526 2.9515 Q20.9792 3.3656 21.4636 3.3656 Z"
      /><path style="stroke:none;" d="M32.059 1.5999 Q31.934 1.5999 31.8558 1.5062 Q31.7777 1.4124 31.7777 1.3031 Q31.7777 1.1781 31.8558 1.0921 Q31.934 1.0062 32.059 1.0062 L41.4808 1.0062 Q41.5902 1.0062 41.6683 1.0921 Q41.7465 1.1781 41.7465 1.3031 Q41.7465 1.4124 41.6683 1.5062 Q41.5902 1.5999 41.4808 1.5999 L32.059 1.5999 ZM32.059 -1.3063 Q31.934 -1.3063 31.8558 -1.3922 Q31.7777 -1.4782 31.7777 -1.6032 Q31.7777 -1.7126 31.8558 -1.8141 Q31.934 -1.9157 32.059 -1.9157 L41.4808 -1.9157 Q41.5902 -1.9157 41.6683 -1.8141 Q41.7465 -1.7126 41.7465 -1.6032 Q41.7465 -1.4782 41.6683 -1.3922 Q41.5902 -1.3063 41.4808 -1.3063 L32.059 -1.3063 Z"
      /><path style="stroke:none;" d="M50.5172 3.9281 Q48.6735 3.9281 48.0172 2.4124 Q47.361 0.8968 47.361 -1.1813 Q47.361 -2.4938 47.5953 -3.6422 Q47.8297 -4.7907 48.5328 -5.5876 Q49.236 -6.3844 50.5172 -6.3844 Q51.5016 -6.3844 52.1344 -5.9079 Q52.7672 -5.4313 53.0953 -4.6657 Q53.4235 -3.9001 53.5485 -3.0251 Q53.6735 -2.1501 53.6735 -1.1813 Q53.6735 0.0999 53.4313 1.2249 Q53.1891 2.3499 52.4938 3.139 Q51.7985 3.9281 50.5172 3.9281 ZM50.5172 3.5374 Q51.3453 3.5374 51.7594 2.6859 Q52.1735 1.8343 52.2672 0.7874 Q52.361 -0.2594 52.361 -1.4313 Q52.361 -2.5563 52.2672 -3.5094 Q52.1735 -4.4626 51.7672 -5.236 Q51.361 -6.0094 50.5172 -6.0094 Q49.6735 -6.0094 49.2594 -5.2282 Q48.8453 -4.4469 48.7516 -3.5016 Q48.6578 -2.5563 48.6578 -1.4313 Q48.6578 -0.5876 48.6969 0.1546 Q48.736 0.8968 48.9157 1.6781 Q49.0953 2.4593 49.486 2.9984 Q49.8766 3.5374 50.5172 3.5374 Z"
      /><path style="stroke:none;" d="M55.5329 2.7718 Q55.5329 2.4281 55.7829 2.1937 Q56.0329 1.9593 56.361 1.9593 Q56.5641 1.9593 56.7594 2.0687 Q56.9547 2.1781 57.0641 2.3734 Q57.1735 2.5687 57.1735 2.7718 Q57.1735 3.0999 56.9313 3.3499 Q56.6891 3.5999 56.361 3.5999 Q56.0329 3.5999 55.7829 3.3499 Q55.5329 3.0999 55.5329 2.7718 Z"
      /><path style="stroke:none;" d="M59.7308 1.8968 Q59.887 2.3343 60.2074 2.6937 Q60.5277 3.0531 60.9652 3.2562 Q61.4027 3.4593 61.8714 3.4593 Q62.9495 3.4593 63.3636 2.6156 Q63.7777 1.7718 63.7777 0.5687 Q63.7777 0.0531 63.7542 -0.3063 Q63.7308 -0.6657 63.6527 -0.9938 Q63.512 -1.5251 63.1683 -1.9157 Q62.8245 -2.3063 62.3089 -2.3063 Q61.8089 -2.3063 61.4495 -2.1579 Q61.0902 -2.0094 60.8636 -1.7985 Q60.637 -1.5876 60.4574 -1.361 Q60.2777 -1.1344 60.2308 -1.1188 L60.0745 -1.1188 Q60.0277 -1.1188 59.973 -1.1657 Q59.9183 -1.2126 59.9183 -1.2594 L59.9183 -6.2751 Q59.9183 -6.3063 59.9652 -6.3454 Q60.012 -6.3844 60.0745 -6.3844 L60.1058 -6.3844 Q61.1214 -5.9001 62.262 -5.9001 Q63.3714 -5.9001 64.4027 -6.3844 L64.4495 -6.3844 Q64.4964 -6.3844 64.5433 -6.3532 Q64.5902 -6.3219 64.5902 -6.2751 L64.5902 -6.1344 Q64.5902 -6.0563 64.5589 -6.0563 Q64.0433 -5.3844 63.2699 -5.0016 Q62.4964 -4.6188 61.6683 -4.6188 Q61.0745 -4.6188 60.4339 -4.7907 L60.4339 -1.9469 Q60.9339 -2.3532 61.3245 -2.5251 Q61.7152 -2.6969 62.3245 -2.6969 Q63.1527 -2.6969 63.8089 -2.2204 Q64.4652 -1.7438 64.8167 -0.9782 Q65.1683 -0.2126 65.1683 0.5843 Q65.1683 1.4906 64.7308 2.2562 Q64.2933 3.0218 63.5277 3.4749 Q62.762 3.9281 61.8714 3.9281 Q61.137 3.9281 60.512 3.5453 Q59.887 3.1624 59.5355 2.5218 Q59.1839 1.8812 59.1839 1.1468 Q59.1839 0.8187 59.4027 0.6078 Q59.6214 0.3968 59.9495 0.3968 Q60.2777 0.3968 60.5042 0.6078 Q60.7308 0.8187 60.7308 1.1468 Q60.7308 1.4749 60.5042 1.7015 Q60.2777 1.9281 59.9495 1.9281 Q59.9027 1.9281 59.8324 1.9124 Q59.762 1.8968 59.7308 1.8968 Z"
    /></g
    ><g style="stroke-linecap:butt; fill:rgb(217,83,25); text-rendering:geometricPrecision; image-rendering:optimizeQuality; color-rendering:optimizeQuality; stroke-linejoin:round; stroke:rgb(217,83,25); color-interpolation:linearRGB; stroke-width:2.5;"
    ><line y2="84.1727" style="fill:none;" x1="311.9736" x2="361.7099" y1="84.1727"
    /></g
    ><g transform="translate(365.4402,102.8273)" style="font-size:15px; text-rendering:geometricPrecision; color-rendering:optimizeQuality; image-rendering:optimizeQuality; font-family:'mwa_cmmi10'; color-interpolation:linearRGB;"
    ><path style="stroke:none;" d="M2.5938 3.7718 Q1.6875 3.7718 1.1797 3.0609 Q0.6719 2.3499 0.6719 1.3968 Q0.6719 1.2562 0.7422 0.8499 Q0.8125 0.4437 0.8125 0.3499 L2.2656 -5.4782 Q2.3281 -5.7282 2.3438 -5.8844 Q2.3438 -6.1188 1.3594 -6.1188 Q1.2188 -6.1188 1.2188 -6.3219 Q1.2188 -6.3532 1.25 -6.4469 Q1.2812 -6.5407 1.3203 -6.5954 Q1.3594 -6.6501 1.4219 -6.6501 L3.4531 -6.8063 Q3.6406 -6.8063 3.6406 -6.6188 L2.5156 -2.1969 Q3.375 -3.0251 4.2344 -3.0251 Q4.875 -3.0251 5.3281 -2.6891 Q5.7812 -2.3532 6.0078 -1.8063 Q6.2344 -1.2594 6.2344 -0.6344 Q6.2344 0.0843 5.9531 0.8578 Q5.6719 1.6312 5.1797 2.2953 Q4.6875 2.9593 4.0156 3.3656 Q3.3438 3.7718 2.5938 3.7718 ZM2.625 3.3656 Q3.1406 3.3656 3.5859 2.9437 Q4.0312 2.5218 4.3125 1.9749 Q4.6094 1.3812 4.8672 0.3499 Q5.125 -0.6813 5.125 -1.2907 Q5.125 -1.8219 4.9062 -2.2282 Q4.6875 -2.6344 4.2031 -2.6344 Q3.6562 -2.6344 3.1641 -2.236 Q2.6719 -1.8376 2.2969 -1.2907 L1.875 0.4124 Q1.6406 1.3499 1.625 1.9281 Q1.625 2.4906 1.8672 2.9281 Q2.1094 3.3656 2.625 3.3656 Z"
    /></g
    ><g transform="translate(365.4402,102.8273)" style="font-size:15px; text-rendering:geometricPrecision; color-rendering:optimizeQuality; image-rendering:optimizeQuality; font-family:'mwa_cmmi10'; color-interpolation:linearRGB;"
    ><path style="stroke:none;" d="M9.4531 3.7718 Q8.7344 3.7718 8.1953 3.3968 Q7.6562 3.0218 7.375 2.389 Q7.0937 1.7562 7.0937 1.0531 Q7.0937 -0.0251 7.6328 -0.9626 Q8.1719 -1.9001 9.0937 -2.4626 Q10.0156 -3.0251 11.0781 -3.0251 Q11.7187 -3.0251 12.1953 -2.6969 Q12.6719 -2.3688 12.6719 -1.7438 Q12.6719 -0.8688 11.9844 -0.4547 Q11.2969 -0.0407 10.4375 0.0609 Q9.5781 0.1624 8.5312 0.1624 L8.4844 0.1624 Q8.2344 1.0531 8.2344 1.6937 Q8.2344 2.3656 8.5469 2.8656 Q8.8594 3.3656 9.4844 3.3656 Q10.375 3.3656 11.2031 2.9593 Q12.0312 2.5531 12.5469 1.8343 Q12.5937 1.7874 12.6562 1.7874 Q12.7344 1.7874 12.8125 1.8734 Q12.8906 1.9593 12.8906 2.0218 Q12.8906 2.0843 12.8594 2.1156 Q12.3125 2.8812 11.3828 3.3265 Q10.4531 3.7718 9.4531 3.7718 ZM8.5625 -0.2282 Q9.4375 -0.2282 10.1797 -0.3063 Q10.9219 -0.3844 11.5234 -0.7126 Q12.125 -1.0407 12.125 -1.7282 Q12.125 -2.0094 11.9687 -2.2126 Q11.8125 -2.4157 11.5703 -2.5251 Q11.3281 -2.6344 11.0625 -2.6344 Q10.4219 -2.6344 9.914 -2.2907 Q9.4062 -1.9469 9.0781 -1.4001 Q8.75 -0.8532 8.5625 -0.2282 Z"
      /><path style="stroke:none;" d="M14.3594 2.3812 Q14.3594 2.1624 14.3906 1.9593 L15.4844 -2.3376 L13.9063 -2.3376 Q13.75 -2.3376 13.75 -2.5407 Q13.8125 -2.8688 13.9531 -2.8688 L15.6094 -2.8688 L16.2188 -5.3063 Q16.2656 -5.5094 16.4453 -5.6501 Q16.625 -5.7907 16.8438 -5.7907 Q17.0313 -5.7907 17.1641 -5.6735 Q17.2969 -5.5563 17.2969 -5.3688 Q17.2969 -5.3219 17.2891 -5.2985 Q17.2813 -5.2751 17.2813 -5.2438 L16.6719 -2.8688 L18.2188 -2.8688 Q18.375 -2.8688 18.375 -2.6657 Q18.3594 -2.6344 18.3438 -2.5485 Q18.3281 -2.4626 18.2891 -2.4001 Q18.25 -2.3376 18.1719 -2.3376 L16.5469 -2.3376 L15.4688 1.9906 Q15.3594 2.4281 15.3594 2.7249 Q15.3594 3.3656 15.7969 3.3656 Q16.4531 3.3656 16.9609 2.7484 Q17.4688 2.1312 17.75 1.3968 Q17.7969 1.3031 17.8594 1.3031 L18.0469 1.3031 Q18.1094 1.3031 18.1406 1.3421 Q18.1719 1.3812 18.1719 1.4437 Q18.1719 1.4749 18.1563 1.4906 Q17.8281 2.3968 17.2031 3.0843 Q16.5781 3.7718 15.7656 3.7718 Q15.1719 3.7718 14.7656 3.3812 Q14.3594 2.9906 14.3594 2.3812 Z"
      /><path style="stroke:none;" d="M21.4479 3.7718 Q20.4948 3.7718 19.9557 3.0531 Q19.4167 2.3343 19.4167 1.3656 Q19.4167 0.4124 19.9089 -0.6266 Q20.4011 -1.6657 21.2526 -2.3454 Q22.1042 -3.0251 23.0729 -3.0251 Q23.5261 -3.0251 23.8776 -2.7829 Q24.2292 -2.5407 24.4167 -2.1344 Q24.5886 -2.7282 25.0729 -2.7282 Q25.2761 -2.7282 25.4011 -2.611 Q25.5261 -2.4938 25.5261 -2.3063 Q25.5261 -2.2594 25.5261 -2.2438 Q25.5261 -2.2282 25.5104 -2.1969 L24.4636 1.9906 Q24.3542 2.4437 24.3542 2.7249 Q24.3542 3.3656 24.7917 3.3656 Q25.2604 3.3656 25.5104 2.7718 Q25.7604 2.1781 25.9167 1.3968 Q25.9479 1.3031 26.0417 1.3031 L26.2292 1.3031 Q26.2761 1.3031 26.3151 1.3578 Q26.3542 1.4124 26.3542 1.4593 Q26.0886 2.5062 25.7761 3.139 Q25.4636 3.7718 24.7604 3.7718 Q24.2604 3.7718 23.8698 3.4749 Q23.4792 3.1781 23.3854 2.6781 Q22.4167 3.7718 21.4479 3.7718 ZM21.4636 3.3656 Q22.0104 3.3656 22.5182 2.9593 Q23.0261 2.5531 23.3854 2.0062 Q23.4011 1.9906 23.4011 1.9593 L24.2136 -1.2907 L24.2292 -1.3376 Q24.1354 -1.8688 23.8386 -2.2516 Q23.5417 -2.6344 23.0417 -2.6344 Q22.5261 -2.6344 22.0886 -2.2204 Q21.6511 -1.8063 21.3542 -1.2438 Q21.0729 -0.6501 20.7995 0.3968 Q20.5261 1.4437 20.5261 2.0218 Q20.5261 2.5374 20.7526 2.9515 Q20.9792 3.3656 21.4636 3.3656 Z"
      /><path style="stroke:none;" d="M32.059 1.5999 Q31.934 1.5999 31.8558 1.5062 Q31.7777 1.4124 31.7777 1.3031 Q31.7777 1.1781 31.8558 1.0921 Q31.934 1.0062 32.059 1.0062 L41.4808 1.0062 Q41.5902 1.0062 41.6683 1.0921 Q41.7465 1.1781 41.7465 1.3031 Q41.7465 1.4124 41.6683 1.5062 Q41.5902 1.5999 41.4808 1.5999 L32.059 1.5999 ZM32.059 -1.3063 Q31.934 -1.3063 31.8558 -1.3922 Q31.7777 -1.4782 31.7777 -1.6032 Q31.7777 -1.7126 31.8558 -1.8141 Q31.934 -1.9157 32.059 -1.9157 L41.4808 -1.9157 Q41.5902 -1.9157 41.6683 -1.8141 Q41.7465 -1.7126 41.7465 -1.6032 Q41.7465 -1.4782 41.6683 -1.3922 Q41.5902 -1.3063 41.4808 -1.3063 L32.059 -1.3063 Z"
      /><path style="stroke:none;" d="M50.5172 3.9281 Q48.6735 3.9281 48.0172 2.4124 Q47.361 0.8968 47.361 -1.1813 Q47.361 -2.4938 47.5953 -3.6422 Q47.8297 -4.7907 48.5328 -5.5876 Q49.236 -6.3844 50.5172 -6.3844 Q51.5016 -6.3844 52.1344 -5.9079 Q52.7672 -5.4313 53.0953 -4.6657 Q53.4235 -3.9001 53.5485 -3.0251 Q53.6735 -2.1501 53.6735 -1.1813 Q53.6735 0.0999 53.4313 1.2249 Q53.1891 2.3499 52.4938 3.139 Q51.7985 3.9281 50.5172 3.9281 ZM50.5172 3.5374 Q51.3453 3.5374 51.7594 2.6859 Q52.1735 1.8343 52.2672 0.7874 Q52.361 -0.2594 52.361 -1.4313 Q52.361 -2.5563 52.2672 -3.5094 Q52.1735 -4.4626 51.7672 -5.236 Q51.361 -6.0094 50.5172 -6.0094 Q49.6735 -6.0094 49.2594 -5.2282 Q48.8453 -4.4469 48.7516 -3.5016 Q48.6578 -2.5563 48.6578 -1.4313 Q48.6578 -0.5876 48.6969 0.1546 Q48.736 0.8968 48.9157 1.6781 Q49.0953 2.4593 49.486 2.9984 Q49.8766 3.5374 50.5172 3.5374 Z"
      /><path style="stroke:none;" d="M55.5329 2.7718 Q55.5329 2.4281 55.7829 2.1937 Q56.0329 1.9593 56.361 1.9593 Q56.5641 1.9593 56.7594 2.0687 Q56.9547 2.1781 57.0641 2.3734 Q57.1735 2.5687 57.1735 2.7718 Q57.1735 3.0999 56.9313 3.3499 Q56.6891 3.5999 56.361 3.5999 Q56.0329 3.5999 55.7829 3.3499 Q55.5329 3.0999 55.5329 2.7718 Z"
      /><path style="stroke:none;" d="M59.8558 2.4437 Q60.2152 2.9593 60.8089 3.2093 Q61.4027 3.4593 62.0745 3.4593 Q62.9495 3.4593 63.3167 2.7093 Q63.6839 1.9593 63.6839 1.0218 Q63.6839 0.5999 63.6058 0.1703 Q63.5277 -0.2594 63.348 -0.6188 Q63.1683 -0.9782 62.848 -1.2047 Q62.5277 -1.4313 62.0745 -1.4313 L61.0745 -1.4313 Q60.9339 -1.4313 60.9339 -1.5563 L60.9339 -1.6969 Q60.9339 -1.8063 61.0745 -1.8063 L61.9027 -1.8844 Q62.4183 -1.8844 62.7699 -2.2751 Q63.1214 -2.6657 63.2855 -3.236 Q63.4495 -3.8063 63.4495 -4.3219 Q63.4495 -5.0407 63.1136 -5.5016 Q62.7777 -5.9626 62.0745 -5.9626 Q61.512 -5.9626 60.9886 -5.7438 Q60.4652 -5.5251 60.1683 -5.0876 Q60.1995 -5.0876 60.2152 -5.0954 Q60.2308 -5.1032 60.262 -5.1032 Q60.6058 -5.1032 60.8324 -4.8688 Q61.0589 -4.6344 61.0589 -4.3063 Q61.0589 -3.9782 60.8324 -3.7438 Q60.6058 -3.5094 60.262 -3.5094 Q59.9339 -3.5094 59.6995 -3.7438 Q59.4652 -3.9782 59.4652 -4.3063 Q59.4652 -4.9469 59.8558 -5.4235 Q60.2464 -5.9001 60.8558 -6.1422 Q61.4652 -6.3844 62.0745 -6.3844 Q62.5433 -6.3844 63.0433 -6.2516 Q63.5433 -6.1188 63.9574 -5.8688 Q64.3714 -5.6188 64.6292 -5.2204 Q64.887 -4.8219 64.887 -4.3219 Q64.887 -3.6813 64.6058 -3.1501 Q64.3245 -2.6188 63.8324 -2.2282 Q63.3402 -1.8376 62.762 -1.6501 Q63.4027 -1.5251 63.9886 -1.1579 Q64.5745 -0.7907 64.9339 -0.2204 Q65.2933 0.3499 65.2933 1.0062 Q65.2933 1.8343 64.8402 2.5062 Q64.387 3.1781 63.6449 3.5531 Q62.9027 3.9281 62.0745 3.9281 Q61.3714 3.9281 60.6683 3.6624 Q59.9652 3.3968 59.512 2.8578 Q59.0589 2.3187 59.0589 1.5843 Q59.0589 1.2093 59.3089 0.9593 Q59.5589 0.7093 59.9339 0.7093 Q60.1839 0.7093 60.3792 0.8187 Q60.5745 0.9281 60.6917 1.139 Q60.8089 1.3499 60.8089 1.5843 Q60.8089 1.9437 60.5511 2.1937 Q60.2933 2.4437 59.9339 2.4437 L59.8558 2.4437 Z"
    /></g
    ><g style="stroke-linecap:butt; fill:rgb(237,177,32); text-rendering:geometricPrecision; image-rendering:optimizeQuality; color-rendering:optimizeQuality; stroke-linejoin:round; stroke:rgb(237,177,32); color-interpolation:linearRGB; stroke-width:2.5;"
    ><line y2="102.8273" style="fill:none;" x1="311.9736" x2="361.7099" y1="102.8273"
    /></g
    ><g transform="translate(365.4402,121.4818)" style="font-size:15px; text-rendering:geometricPrecision; color-rendering:optimizeQuality; image-rendering:optimizeQuality; font-family:'mwa_cmmi10'; color-interpolation:linearRGB;"
    ><path style="stroke:none;" d="M2.5938 3.7718 Q1.6875 3.7718 1.1797 3.0609 Q0.6719 2.3499 0.6719 1.3968 Q0.6719 1.2562 0.7422 0.8499 Q0.8125 0.4437 0.8125 0.3499 L2.2656 -5.4782 Q2.3281 -5.7282 2.3438 -5.8844 Q2.3438 -6.1188 1.3594 -6.1188 Q1.2188 -6.1188 1.2188 -6.3219 Q1.2188 -6.3532 1.25 -6.4469 Q1.2812 -6.5407 1.3203 -6.5954 Q1.3594 -6.6501 1.4219 -6.6501 L3.4531 -6.8063 Q3.6406 -6.8063 3.6406 -6.6188 L2.5156 -2.1969 Q3.375 -3.0251 4.2344 -3.0251 Q4.875 -3.0251 5.3281 -2.6891 Q5.7812 -2.3532 6.0078 -1.8063 Q6.2344 -1.2594 6.2344 -0.6344 Q6.2344 0.0843 5.9531 0.8578 Q5.6719 1.6312 5.1797 2.2953 Q4.6875 2.9593 4.0156 3.3656 Q3.3438 3.7718 2.5938 3.7718 ZM2.625 3.3656 Q3.1406 3.3656 3.5859 2.9437 Q4.0312 2.5218 4.3125 1.9749 Q4.6094 1.3812 4.8672 0.3499 Q5.125 -0.6813 5.125 -1.2907 Q5.125 -1.8219 4.9062 -2.2282 Q4.6875 -2.6344 4.2031 -2.6344 Q3.6562 -2.6344 3.1641 -2.236 Q2.6719 -1.8376 2.2969 -1.2907 L1.875 0.4124 Q1.6406 1.3499 1.625 1.9281 Q1.625 2.4906 1.8672 2.9281 Q2.1094 3.3656 2.625 3.3656 Z"
    /></g
    ><g transform="translate(365.4402,121.4818)" style="font-size:15px; text-rendering:geometricPrecision; color-rendering:optimizeQuality; image-rendering:optimizeQuality; font-family:'mwa_cmmi10'; color-interpolation:linearRGB;"
    ><path style="stroke:none;" d="M9.4531 3.7718 Q8.7344 3.7718 8.1953 3.3968 Q7.6562 3.0218 7.375 2.389 Q7.0937 1.7562 7.0937 1.0531 Q7.0937 -0.0251 7.6328 -0.9626 Q8.1719 -1.9001 9.0937 -2.4626 Q10.0156 -3.0251 11.0781 -3.0251 Q11.7187 -3.0251 12.1953 -2.6969 Q12.6719 -2.3688 12.6719 -1.7438 Q12.6719 -0.8688 11.9844 -0.4547 Q11.2969 -0.0407 10.4375 0.0609 Q9.5781 0.1624 8.5312 0.1624 L8.4844 0.1624 Q8.2344 1.0531 8.2344 1.6937 Q8.2344 2.3656 8.5469 2.8656 Q8.8594 3.3656 9.4844 3.3656 Q10.375 3.3656 11.2031 2.9593 Q12.0312 2.5531 12.5469 1.8343 Q12.5937 1.7874 12.6562 1.7874 Q12.7344 1.7874 12.8125 1.8734 Q12.8906 1.9593 12.8906 2.0218 Q12.8906 2.0843 12.8594 2.1156 Q12.3125 2.8812 11.3828 3.3265 Q10.4531 3.7718 9.4531 3.7718 ZM8.5625 -0.2282 Q9.4375 -0.2282 10.1797 -0.3063 Q10.9219 -0.3844 11.5234 -0.7126 Q12.125 -1.0407 12.125 -1.7282 Q12.125 -2.0094 11.9687 -2.2126 Q11.8125 -2.4157 11.5703 -2.5251 Q11.3281 -2.6344 11.0625 -2.6344 Q10.4219 -2.6344 9.914 -2.2907 Q9.4062 -1.9469 9.0781 -1.4001 Q8.75 -0.8532 8.5625 -0.2282 Z"
      /><path style="stroke:none;" d="M14.3594 2.3812 Q14.3594 2.1624 14.3906 1.9593 L15.4844 -2.3376 L13.9063 -2.3376 Q13.75 -2.3376 13.75 -2.5407 Q13.8125 -2.8688 13.9531 -2.8688 L15.6094 -2.8688 L16.2188 -5.3063 Q16.2656 -5.5094 16.4453 -5.6501 Q16.625 -5.7907 16.8438 -5.7907 Q17.0313 -5.7907 17.1641 -5.6735 Q17.2969 -5.5563 17.2969 -5.3688 Q17.2969 -5.3219 17.2891 -5.2985 Q17.2813 -5.2751 17.2813 -5.2438 L16.6719 -2.8688 L18.2188 -2.8688 Q18.375 -2.8688 18.375 -2.6657 Q18.3594 -2.6344 18.3438 -2.5485 Q18.3281 -2.4626 18.2891 -2.4001 Q18.25 -2.3376 18.1719 -2.3376 L16.5469 -2.3376 L15.4688 1.9906 Q15.3594 2.4281 15.3594 2.7249 Q15.3594 3.3656 15.7969 3.3656 Q16.4531 3.3656 16.9609 2.7484 Q17.4688 2.1312 17.75 1.3968 Q17.7969 1.3031 17.8594 1.3031 L18.0469 1.3031 Q18.1094 1.3031 18.1406 1.3421 Q18.1719 1.3812 18.1719 1.4437 Q18.1719 1.4749 18.1563 1.4906 Q17.8281 2.3968 17.2031 3.0843 Q16.5781 3.7718 15.7656 3.7718 Q15.1719 3.7718 14.7656 3.3812 Q14.3594 2.9906 14.3594 2.3812 Z"
      /><path style="stroke:none;" d="M21.4479 3.7718 Q20.4948 3.7718 19.9557 3.0531 Q19.4167 2.3343 19.4167 1.3656 Q19.4167 0.4124 19.9089 -0.6266 Q20.4011 -1.6657 21.2526 -2.3454 Q22.1042 -3.0251 23.0729 -3.0251 Q23.5261 -3.0251 23.8776 -2.7829 Q24.2292 -2.5407 24.4167 -2.1344 Q24.5886 -2.7282 25.0729 -2.7282 Q25.2761 -2.7282 25.4011 -2.611 Q25.5261 -2.4938 25.5261 -2.3063 Q25.5261 -2.2594 25.5261 -2.2438 Q25.5261 -2.2282 25.5104 -2.1969 L24.4636 1.9906 Q24.3542 2.4437 24.3542 2.7249 Q24.3542 3.3656 24.7917 3.3656 Q25.2604 3.3656 25.5104 2.7718 Q25.7604 2.1781 25.9167 1.3968 Q25.9479 1.3031 26.0417 1.3031 L26.2292 1.3031 Q26.2761 1.3031 26.3151 1.3578 Q26.3542 1.4124 26.3542 1.4593 Q26.0886 2.5062 25.7761 3.139 Q25.4636 3.7718 24.7604 3.7718 Q24.2604 3.7718 23.8698 3.4749 Q23.4792 3.1781 23.3854 2.6781 Q22.4167 3.7718 21.4479 3.7718 ZM21.4636 3.3656 Q22.0104 3.3656 22.5182 2.9593 Q23.0261 2.5531 23.3854 2.0062 Q23.4011 1.9906 23.4011 1.9593 L24.2136 -1.2907 L24.2292 -1.3376 Q24.1354 -1.8688 23.8386 -2.2516 Q23.5417 -2.6344 23.0417 -2.6344 Q22.5261 -2.6344 22.0886 -2.2204 Q21.6511 -1.8063 21.3542 -1.2438 Q21.0729 -0.6501 20.7995 0.3968 Q20.5261 1.4437 20.5261 2.0218 Q20.5261 2.5374 20.7526 2.9515 Q20.9792 3.3656 21.4636 3.3656 Z"
      /><path style="stroke:none;" d="M32.059 1.5999 Q31.934 1.5999 31.8558 1.5062 Q31.7777 1.4124 31.7777 1.3031 Q31.7777 1.1781 31.8558 1.0921 Q31.934 1.0062 32.059 1.0062 L41.4808 1.0062 Q41.5902 1.0062 41.6683 1.0921 Q41.7465 1.1781 41.7465 1.3031 Q41.7465 1.4124 41.6683 1.5062 Q41.5902 1.5999 41.4808 1.5999 L32.059 1.5999 ZM32.059 -1.3063 Q31.934 -1.3063 31.8558 -1.3922 Q31.7777 -1.4782 31.7777 -1.6032 Q31.7777 -1.7126 31.8558 -1.8141 Q31.934 -1.9157 32.059 -1.9157 L41.4808 -1.9157 Q41.5902 -1.9157 41.6683 -1.8141 Q41.7465 -1.7126 41.7465 -1.6032 Q41.7465 -1.4782 41.6683 -1.3922 Q41.5902 -1.3063 41.4808 -1.3063 L32.059 -1.3063 Z"
      /><path style="stroke:none;" d="M50.5172 3.9281 Q48.6735 3.9281 48.0172 2.4124 Q47.361 0.8968 47.361 -1.1813 Q47.361 -2.4938 47.5953 -3.6422 Q47.8297 -4.7907 48.5328 -5.5876 Q49.236 -6.3844 50.5172 -6.3844 Q51.5016 -6.3844 52.1344 -5.9079 Q52.7672 -5.4313 53.0953 -4.6657 Q53.4235 -3.9001 53.5485 -3.0251 Q53.6735 -2.1501 53.6735 -1.1813 Q53.6735 0.0999 53.4313 1.2249 Q53.1891 2.3499 52.4938 3.139 Q51.7985 3.9281 50.5172 3.9281 ZM50.5172 3.5374 Q51.3453 3.5374 51.7594 2.6859 Q52.1735 1.8343 52.2672 0.7874 Q52.361 -0.2594 52.361 -1.4313 Q52.361 -2.5563 52.2672 -3.5094 Q52.1735 -4.4626 51.7672 -5.236 Q51.361 -6.0094 50.5172 -6.0094 Q49.6735 -6.0094 49.2594 -5.2282 Q48.8453 -4.4469 48.7516 -3.5016 Q48.6578 -2.5563 48.6578 -1.4313 Q48.6578 -0.5876 48.6969 0.1546 Q48.736 0.8968 48.9157 1.6781 Q49.0953 2.4593 49.486 2.9984 Q49.8766 3.5374 50.5172 3.5374 Z"
      /><path style="stroke:none;" d="M55.5329 2.7718 Q55.5329 2.4281 55.7829 2.1937 Q56.0329 1.9593 56.361 1.9593 Q56.5641 1.9593 56.7594 2.0687 Q56.9547 2.1781 57.0641 2.3734 Q57.1735 2.5687 57.1735 2.7718 Q57.1735 3.0999 56.9313 3.3499 Q56.6891 3.5999 56.361 3.5999 Q56.0329 3.5999 55.7829 3.3499 Q55.5329 3.0999 55.5329 2.7718 Z"
      /><path style="stroke:none;" d="M59.8245 3.5999 L59.8245 3.0687 Q61.6995 3.0687 61.6995 2.5999 L61.6995 -5.2751 Q60.9183 -4.9001 59.7308 -4.9001 L59.7308 -5.4313 Q61.5745 -5.4313 62.512 -6.3844 L62.7308 -6.3844 Q62.7777 -6.3844 62.8245 -6.3454 Q62.8714 -6.3063 62.8714 -6.2594 L62.8714 2.5999 Q62.8714 3.0687 64.7464 3.0687 L64.7464 3.5999 L59.8245 3.5999 Z"
    /></g
    ><g style="stroke-linecap:butt; fill:rgb(126,47,142); text-rendering:geometricPrecision; image-rendering:optimizeQuality; color-rendering:optimizeQuality; stroke-linejoin:round; stroke:rgb(126,47,142); color-interpolation:linearRGB; stroke-width:2.5;"
    ><line y2="121.4818" style="fill:none;" x1="311.9736" x2="361.7099" y1="121.4818"
    /></g
    ><g style="stroke-linecap:butt; fill:rgb(38,38,38); text-rendering:geometricPrecision; color-rendering:optimizeQuality; image-rendering:optimizeQuality; stroke:rgb(38,38,38); color-interpolation:linearRGB; stroke-width:0.8333;"
    ><path d="M307 133 L307 54 L436 54 L436 133 Z" style="fill:none; fill-rule:evenodd;"
    /></g
  ></g
></svg
>
