<?xml version="1.0"?>
<!DOCTYPE svg PUBLIC '-//W3C//DTD SVG 1.0//EN'
          'http://www.w3.org/TR/2001/REC-SVG-20010904/DTD/svg10.dtd'>
<svg xmlns:xlink="http://www.w3.org/1999/xlink" style="fill-opacity:1; color-rendering:auto; color-interpolation:auto; text-rendering:auto; stroke:black; stroke-linecap:square; stroke-miterlimit:10; shape-rendering:auto; stroke-opacity:1; fill:black; stroke-dasharray:none; font-weight:normal; stroke-width:1; font-family:'Dialog'; font-style:normal; stroke-linejoin:miter; font-size:12px; stroke-dashoffset:0; image-rendering:auto;" width="500" height="500" xmlns="http://www.w3.org/2000/svg"
><!--Generated by the Batik Graphics2D SVG Generator--><defs id="genericDefs"
  /><g
  ><defs id="defs1"
    ><clipPath clipPathUnits="userSpaceOnUse" id="clipPath1"
      ><path d="M0 0 L500 0 L500 500 L0 500 L0 0 Z"
      /></clipPath
    ></defs
    ><g style="fill:white; stroke:white;"
    ><rect x="0" y="0" width="500" style="clip-path:url(#clipPath1); stroke:none;" height="500"
    /></g
    ><g style="fill:white; text-rendering:optimizeSpeed; color-rendering:optimizeSpeed; image-rendering:optimizeSpeed; shape-rendering:crispEdges; stroke:white; color-interpolation:sRGB;"
    ><rect x="0" width="500" height="500" y="0" style="stroke:none;"
      /><path style="stroke:none;" d="M65 445 L453 445 L453 37 L65 37 Z"
    /></g
    ><g style="stroke-linecap:butt; fill-opacity:0.149; fill:rgb(38,38,38); text-rendering:geometricPrecision; image-rendering:optimizeQuality; color-rendering:optimizeQuality; stroke-linejoin:round; stroke:rgb(38,38,38); color-interpolation:linearRGB; stroke-width:0.8333; stroke-opacity:0.149;"
    ><line y2="37" style="fill:none;" x1="65" x2="65" y1="445"
      /><line y2="37" style="fill:none;" x1="162" x2="162" y1="445"
      /><line y2="37" style="fill:none;" x1="259" x2="259" y1="445"
      /><line y2="37" style="fill:none;" x1="356" x2="356" y1="445"
      /><line y2="37" style="fill:none;" x1="453" x2="453" y1="445"
      /><line y2="397.9231" style="fill:none;" x1="453" x2="65" y1="397.9231"
      /><line y2="345.6154" style="fill:none;" x1="453" x2="65" y1="345.6154"
      /><line y2="293.3077" style="fill:none;" x1="453" x2="65" y1="293.3077"
      /><line y2="241" style="fill:none;" x1="453" x2="65" y1="241"
      /><line y2="188.6923" style="fill:none;" x1="453" x2="65" y1="188.6923"
      /><line y2="136.3846" style="fill:none;" x1="453" x2="65" y1="136.3846"
      /><line y2="84.0769" style="fill:none;" x1="453" x2="65" y1="84.0769"
      /><line x1="65" x2="65" y1="445" style="stroke-linecap:square; fill-opacity:1; fill:none; stroke-opacity:1;" y2="37"
      /><line x1="453" x2="453" y1="445" style="stroke-linecap:square; fill-opacity:1; fill:none; stroke-opacity:1;" y2="37"
      /><line x1="65" x2="69.08" y1="397.9231" style="stroke-linecap:square; fill-opacity:1; fill:none; stroke-opacity:1;" y2="397.9231"
      /><line x1="65" x2="69.08" y1="345.6154" style="stroke-linecap:square; fill-opacity:1; fill:none; stroke-opacity:1;" y2="345.6154"
      /><line x1="65" x2="69.08" y1="293.3077" style="stroke-linecap:square; fill-opacity:1; fill:none; stroke-opacity:1;" y2="293.3077"
      /><line x1="65" x2="69.08" y1="241" style="stroke-linecap:square; fill-opacity:1; fill:none; stroke-opacity:1;" y2="241"
      /><line x1="65" x2="69.08" y1="188.6923" style="stroke-linecap:square; fill-opacity:1; fill:none; stroke-opacity:1;" y2="188.6923"
      /><line x1="65" x2="69.08" y1="136.3846" style="stroke-linecap:square; fill-opacity:1; fill:none; stroke-opacity:1;" y2="136.3846"
      /><line x1="65" x2="69.08" y1="84.0769" style="stroke-linecap:square; fill-opacity:1; fill:none; stroke-opacity:1;" y2="84.0769"
      /><line x1="453" x2="448.92" y1="397.9231" style="stroke-linecap:square; fill-opacity:1; fill:none; stroke-opacity:1;" y2="397.9231"
      /><line x1="453" x2="448.92" y1="345.6154" style="stroke-linecap:square; fill-opacity:1; fill:none; stroke-opacity:1;" y2="345.6154"
      /><line x1="453" x2="448.92" y1="293.3077" style="stroke-linecap:square; fill-opacity:1; fill:none; stroke-opacity:1;" y2="293.3077"
      /><line x1="453" x2="448.92" y1="241" style="stroke-linecap:square; fill-opacity:1; fill:none; stroke-opacity:1;" y2="241"
      /><line x1="453" x2="448.92" y1="188.6923" style="stroke-linecap:square; fill-opacity:1; fill:none; stroke-opacity:1;" y2="188.6923"
      /><line x1="453" x2="448.92" y1="136.3846" style="stroke-linecap:square; fill-opacity:1; fill:none; stroke-opacity:1;" y2="136.3846"
      /><line x1="453" x2="448.92" y1="84.0769" style="stroke-linecap:square; fill-opacity:1; fill:none; stroke-opacity:1;" y2="84.0769"
    /></g
    ><g transform="translate(58.3333,397.9231)" style="font-size:16.6667px; fill:rgb(38,38,38); text-rendering:geometricPrecision; image-rendering:optimizeQuality; color-rendering:optimizeQuality; font-family:'SansSerif'; stroke:rgb(38,38,38); color-interpolation:linearRGB;"
    ><path style="stroke:none;" d="M-14.4531 2.8438 L-14.4531 1.3438 L-9.875 1.3438 L-9.875 2.8438 L-14.4531 2.8438 ZM-8.7346 3.2812 L-7.2502 3.0938 Q-6.9846 4.3594 -6.3674 4.9219 Q-5.7502 5.4844 -4.8596 5.4844 Q-3.8127 5.4844 -3.0862 4.75 Q-2.3596 4.0156 -2.3596 2.9375 Q-2.3596 1.9062 -3.0315 1.2422 Q-3.7033 0.5781 -4.7346 0.5781 Q-5.1565 0.5781 -5.7971 0.7344 L-5.6252 -0.5781 Q-5.4846 -0.5625 -5.3908 -0.5625 Q-4.4377 -0.5625 -3.6721 -1.0547 Q-2.9065 -1.5469 -2.9065 -2.5938 Q-2.9065 -3.4062 -3.4612 -3.9453 Q-4.0158 -4.4844 -4.8908 -4.4844 Q-5.7658 -4.4844 -6.344 -3.9375 Q-6.9221 -3.3906 -7.094 -2.2969 L-8.594 -2.5625 Q-8.3127 -4.0625 -7.344 -4.8906 Q-6.3752 -5.7188 -4.9221 -5.7188 Q-3.9377 -5.7188 -3.094 -5.2891 Q-2.2502 -4.8594 -1.8127 -4.125 Q-1.3752 -3.3906 -1.3752 -2.5625 Q-1.3752 -1.7656 -1.7971 -1.1172 Q-2.219 -0.4688 -3.0471 -0.0938 Q-1.969 0.1562 -1.3674 0.9453 Q-0.7658 1.7344 -0.7658 2.9062 Q-0.7658 4.5 -1.9299 5.6094 Q-3.094 6.7188 -4.8752 6.7188 Q-6.469 6.7188 -7.5315 5.7656 Q-8.594 4.8125 -8.7346 3.2812 Z"
    /></g
    ><g transform="translate(58.3333,345.6154)" style="font-size:16.6667px; fill:rgb(38,38,38); text-rendering:geometricPrecision; image-rendering:optimizeQuality; color-rendering:optimizeQuality; font-family:'SansSerif'; stroke:rgb(38,38,38); color-interpolation:linearRGB;"
    ><path style="stroke:none;" d="M-14.4531 2.8438 L-14.4531 1.3438 L-9.875 1.3438 L-9.875 2.8438 L-14.4531 2.8438 ZM-0.8908 5.0625 L-0.8908 6.5 L-8.9377 6.5 Q-8.9533 5.9531 -8.7658 5.4688 Q-8.4533 4.6406 -7.7815 3.8438 Q-7.1096 3.0469 -5.8283 2 Q-3.844 0.375 -3.1487 -0.5781 Q-2.4533 -1.5312 -2.4533 -2.375 Q-2.4533 -3.2656 -3.0862 -3.875 Q-3.719 -4.4844 -4.7346 -4.4844 Q-5.8127 -4.4844 -6.4612 -3.8359 Q-7.1096 -3.1875 -7.1252 -2.0469 L-8.6565 -2.2031 Q-8.5002 -3.9219 -7.469 -4.8203 Q-6.4377 -5.7188 -4.7033 -5.7188 Q-2.9533 -5.7188 -1.9299 -4.75 Q-0.9065 -3.7812 -0.9065 -2.3438 Q-0.9065 -1.6094 -1.2112 -0.9062 Q-1.5158 -0.2031 -2.2033 0.5781 Q-2.8908 1.3594 -4.5002 2.7188 Q-5.844 3.8594 -6.2268 4.2578 Q-6.6096 4.6562 -6.8596 5.0625 L-0.8908 5.0625 Z"
    /></g
    ><g transform="translate(58.3333,293.3077)" style="font-size:16.6667px; fill:rgb(38,38,38); text-rendering:geometricPrecision; image-rendering:optimizeQuality; color-rendering:optimizeQuality; font-family:'SansSerif'; stroke:rgb(38,38,38); color-interpolation:linearRGB;"
    ><path style="stroke:none;" d="M-14.4531 2.8438 L-14.4531 1.3438 L-9.875 1.3438 L-9.875 2.8438 L-14.4531 2.8438 ZM-3.1252 6.5 L-4.6096 6.5 L-4.6096 -3.0156 Q-5.1565 -2.5 -6.0315 -1.9922 Q-6.9065 -1.4844 -7.6096 -1.2188 L-7.6096 -2.6719 Q-6.344 -3.25 -5.4065 -4.0938 Q-4.469 -4.9375 -4.0783 -5.7188 L-3.1252 -5.7188 L-3.1252 6.5 Z"
    /></g
    ><g transform="translate(58.3333,241)" style="font-size:16.6667px; fill:rgb(38,38,38); text-rendering:geometricPrecision; image-rendering:optimizeQuality; color-rendering:optimizeQuality; font-family:'SansSerif'; stroke:rgb(38,38,38); color-interpolation:linearRGB;"
    ><path style="stroke:none;" d="M-9.2969 0.5 Q-9.2969 -1.6562 -8.8516 -2.9766 Q-8.4062 -4.2969 -7.5312 -5.0078 Q-6.6562 -5.7188 -5.3281 -5.7188 Q-4.3438 -5.7188 -3.6094 -5.3281 Q-2.875 -4.9375 -2.3906 -4.1875 Q-1.9062 -3.4375 -1.6328 -2.375 Q-1.3594 -1.3125 -1.3594 0.5 Q-1.3594 2.6406 -1.7969 3.9531 Q-2.2344 5.2656 -3.1094 5.9844 Q-3.9844 6.7031 -5.3281 6.7031 Q-7.0938 6.7031 -8.0938 5.4531 Q-9.2969 3.9219 -9.2969 0.5 ZM-7.7656 0.5 Q-7.7656 3.5 -7.0625 4.4922 Q-6.3594 5.4844 -5.3281 5.4844 Q-4.2969 5.4844 -3.5938 4.4844 Q-2.8906 3.4844 -2.8906 0.5 Q-2.8906 -2.5 -3.5938 -3.4922 Q-4.2969 -4.4844 -5.3438 -4.4844 Q-6.375 -4.4844 -6.9844 -3.6094 Q-7.7656 -2.5 -7.7656 0.5 Z"
    /></g
    ><g transform="translate(58.3333,188.6923)" style="font-size:16.6667px; fill:rgb(38,38,38); text-rendering:geometricPrecision; image-rendering:optimizeQuality; color-rendering:optimizeQuality; font-family:'SansSerif'; stroke:rgb(38,38,38); color-interpolation:linearRGB;"
    ><path style="stroke:none;" d="M-3.6719 6.5 L-5.1562 6.5 L-5.1562 -3.0156 Q-5.7031 -2.5 -6.5781 -1.9922 Q-7.4531 -1.4844 -8.1562 -1.2188 L-8.1562 -2.6719 Q-6.8906 -3.25 -5.9531 -4.0938 Q-5.0156 -4.9375 -4.625 -5.7188 L-3.6719 -5.7188 L-3.6719 6.5 Z"
    /></g
    ><g transform="translate(58.3333,136.3846)" style="font-size:16.6667px; fill:rgb(38,38,38); text-rendering:geometricPrecision; image-rendering:optimizeQuality; color-rendering:optimizeQuality; font-family:'SansSerif'; stroke:rgb(38,38,38); color-interpolation:linearRGB;"
    ><path style="stroke:none;" d="M-1.4375 5.0625 L-1.4375 6.5 L-9.4844 6.5 Q-9.5 5.9531 -9.3125 5.4688 Q-9 4.6406 -8.3281 3.8438 Q-7.6562 3.0469 -6.375 2 Q-4.3906 0.375 -3.6953 -0.5781 Q-3 -1.5312 -3 -2.375 Q-3 -3.2656 -3.6328 -3.875 Q-4.2656 -4.4844 -5.2812 -4.4844 Q-6.3594 -4.4844 -7.0078 -3.8359 Q-7.6562 -3.1875 -7.6719 -2.0469 L-9.2031 -2.2031 Q-9.0469 -3.9219 -8.0156 -4.8203 Q-6.9844 -5.7188 -5.25 -5.7188 Q-3.5 -5.7188 -2.4766 -4.75 Q-1.4531 -3.7812 -1.4531 -2.3438 Q-1.4531 -1.6094 -1.7578 -0.9062 Q-2.0625 -0.2031 -2.75 0.5781 Q-3.4375 1.3594 -5.0469 2.7188 Q-6.3906 3.8594 -6.7734 4.2578 Q-7.1562 4.6562 -7.4062 5.0625 L-1.4375 5.0625 Z"
    /></g
    ><g transform="translate(58.3333,84.0769)" style="font-size:16.6667px; fill:rgb(38,38,38); text-rendering:geometricPrecision; image-rendering:optimizeQuality; color-rendering:optimizeQuality; font-family:'SansSerif'; stroke:rgb(38,38,38); color-interpolation:linearRGB;"
    ><path style="stroke:none;" d="M-9.2812 3.2812 L-7.7969 3.0938 Q-7.5312 4.3594 -6.9141 4.9219 Q-6.2969 5.4844 -5.4062 5.4844 Q-4.3594 5.4844 -3.6328 4.75 Q-2.9062 4.0156 -2.9062 2.9375 Q-2.9062 1.9062 -3.5781 1.2422 Q-4.25 0.5781 -5.2812 0.5781 Q-5.7031 0.5781 -6.3438 0.7344 L-6.1719 -0.5781 Q-6.0312 -0.5625 -5.9375 -0.5625 Q-4.9844 -0.5625 -4.2188 -1.0547 Q-3.4531 -1.5469 -3.4531 -2.5938 Q-3.4531 -3.4062 -4.0078 -3.9453 Q-4.5625 -4.4844 -5.4375 -4.4844 Q-6.3125 -4.4844 -6.8906 -3.9375 Q-7.4688 -3.3906 -7.6406 -2.2969 L-9.1406 -2.5625 Q-8.8594 -4.0625 -7.8906 -4.8906 Q-6.9219 -5.7188 -5.4688 -5.7188 Q-4.4844 -5.7188 -3.6406 -5.2891 Q-2.7969 -4.8594 -2.3594 -4.125 Q-1.9219 -3.3906 -1.9219 -2.5625 Q-1.9219 -1.7656 -2.3438 -1.1172 Q-2.7656 -0.4688 -3.5938 -0.0938 Q-2.5156 0.1562 -1.9141 0.9453 Q-1.3125 1.7344 -1.3125 2.9062 Q-1.3125 4.5 -2.4766 5.6094 Q-3.6406 6.7188 -5.4219 6.7188 Q-7.0156 6.7188 -8.0781 5.7656 Q-9.1406 4.8125 -9.2812 3.2812 Z"
    /></g
    ><g transform="translate(38.3333,240.9998) rotate(-90)" style="font-size:18.3333px; fill:rgb(38,38,38); text-rendering:geometricPrecision; image-rendering:optimizeQuality; color-rendering:optimizeQuality; font-family:'mwa_cmr10'; stroke:rgb(38,38,38); color-interpolation:linearRGB;"
    ><path style="stroke:none;" d="M-37.871 -6.6001 L-37.871 -7.2407 Q-36.2617 -7.2407 -35.8867 -8.3032 L-32.1054 -19.2876 Q-32.0585 -19.4907 -31.8242 -19.4907 L-31.5898 -19.4907 Q-31.3554 -19.4907 -31.3085 -19.2876 L-27.3554 -7.8032 Q-27.1835 -7.4282 -26.7148 -7.3344 Q-26.246 -7.2407 -25.5429 -7.2407 L-25.5429 -6.6001 L-30.5585 -6.6001 L-30.5585 -7.2407 Q-29.0742 -7.2407 -29.0742 -7.7094 L-29.0742 -7.8032 L-30.0429 -10.6157 L-34.4179 -10.6157 L-35.2304 -8.3032 Q-35.246 -8.2407 -35.246 -8.1157 Q-35.246 -7.6626 -34.8164 -7.4516 Q-34.3867 -7.2407 -33.9023 -7.2407 L-33.9023 -6.6001 L-37.871 -6.6001 ZM-34.1992 -11.2407 L-30.2617 -11.2407 L-32.2304 -16.9907 L-34.1992 -11.2407 Z"
      /><path style="stroke:none;" d="M-24.1679 -6.6001 L-24.1679 -7.2407 Q-23.5429 -7.2407 -23.1523 -7.3344 Q-22.7616 -7.4282 -22.7616 -7.8032 L-22.7616 -12.7251 Q-22.7616 -13.1938 -22.9023 -13.4126 Q-23.0429 -13.6313 -23.3163 -13.6782 Q-23.5898 -13.7251 -24.1679 -13.7251 L-24.1679 -14.3657 L-21.5585 -14.5532 L-21.5585 -12.8032 Q-21.1991 -13.5688 -20.4882 -14.061 Q-19.7773 -14.5532 -18.9491 -14.5532 Q-16.871 -14.5532 -16.5116 -12.8657 Q-16.1523 -13.6157 -15.457 -14.0844 Q-14.7616 -14.5532 -13.9335 -14.5532 Q-13.121 -14.5532 -12.5585 -14.2876 Q-11.996 -14.0219 -11.7148 -13.4829 Q-11.4335 -12.9438 -11.4335 -12.1313 L-11.4335 -7.8032 Q-11.4335 -7.4282 -11.0351 -7.3344 Q-10.6366 -7.2407 -10.0273 -7.2407 L-10.0273 -6.6001 L-14.1523 -6.6001 L-14.1523 -7.2407 Q-13.5429 -7.2407 -13.1445 -7.3344 Q-12.746 -7.4282 -12.746 -7.8032 L-12.746 -12.0688 Q-12.746 -12.9751 -13.0038 -13.5298 Q-13.2616 -14.0844 -14.0429 -14.0844 Q-15.0898 -14.0844 -15.7616 -13.2485 Q-16.4335 -12.4126 -16.4335 -11.3501 L-16.4335 -7.8032 Q-16.4335 -7.4282 -16.0429 -7.3344 Q-15.6523 -7.2407 -15.0273 -7.2407 L-15.0273 -6.6001 L-19.1523 -6.6001 L-19.1523 -7.2407 Q-18.5429 -7.2407 -18.1445 -7.3344 Q-17.746 -7.4282 -17.746 -7.8032 L-17.746 -12.0688 Q-17.746 -12.9594 -18.0038 -13.5219 Q-18.2616 -14.0844 -19.0429 -14.0844 Q-20.0898 -14.0844 -20.7616 -13.2485 Q-21.4335 -12.4126 -21.4335 -11.3501 L-21.4335 -7.8032 Q-21.4335 -7.4282 -21.0429 -7.3344 Q-20.6523 -7.2407 -20.0429 -7.2407 L-20.0429 -6.6001 L-24.1679 -6.6001 Z"
      /><path style="stroke:none;" d="M-8.9526 -3.1157 L-8.9526 -3.7407 Q-8.3432 -3.7407 -7.9448 -3.8423 Q-7.5463 -3.9438 -7.5463 -4.3188 L-7.5463 -12.9907 Q-7.5463 -13.4751 -7.8979 -13.6001 Q-8.2494 -13.7251 -8.9526 -13.7251 L-8.9526 -14.3657 L-6.2963 -14.5532 L-6.2963 -13.4438 Q-5.7963 -13.9907 -5.1401 -14.2719 Q-4.4838 -14.5532 -3.7494 -14.5532 Q-2.6869 -14.5532 -1.8354 -13.9751 Q-0.9838 -13.3969 -0.5073 -12.4673 Q-0.0307 -11.5376 -0.0307 -10.4907 Q-0.0307 -9.3969 -0.5619 -8.4594 Q-1.0932 -7.5219 -2.0073 -6.9594 Q-2.9213 -6.3969 -4.0307 -6.3969 Q-5.3276 -6.3969 -6.2338 -7.4594 L-6.2338 -4.3188 Q-6.2338 -3.9438 -5.8354 -3.8423 Q-5.4369 -3.7407 -4.8276 -3.7407 L-4.8276 -3.1157 L-8.9526 -3.1157 ZM-6.2338 -8.3501 Q-5.9213 -7.7094 -5.3588 -7.2876 Q-4.7963 -6.8657 -4.1244 -6.8657 Q-3.4994 -6.8657 -3.0229 -7.2016 Q-2.5463 -7.5376 -2.2182 -8.1001 Q-1.8901 -8.6626 -1.7416 -9.2876 Q-1.5932 -9.9126 -1.5932 -10.4907 Q-1.5932 -11.2094 -1.851 -12.0454 Q-2.1088 -12.8813 -2.6401 -13.4594 Q-3.1713 -14.0376 -3.9213 -14.0376 Q-4.6557 -14.0376 -5.2651 -13.6626 Q-5.8744 -13.2876 -6.2338 -12.6469 L-6.2338 -8.3501 Z"
      /><path style="stroke:none;" d="M1.3108 -6.6001 L1.3108 -7.2407 Q1.9358 -7.2407 2.3264 -7.3344 Q2.717 -7.4282 2.717 -7.8032 L2.717 -17.2563 Q2.717 -17.7407 2.5764 -17.9516 Q2.4358 -18.1626 2.1623 -18.2094 Q1.8889 -18.2563 1.3108 -18.2563 L1.3108 -18.8969 L3.9826 -19.0844 L3.9826 -7.8032 Q3.9826 -7.4282 4.3811 -7.3344 Q4.7795 -7.2407 5.3889 -7.2407 L5.3889 -6.6001 L1.3108 -6.6001 Z"
      /><path style="stroke:none;" d="M6.4034 -6.6001 L6.4034 -7.2407 Q7.0284 -7.2407 7.419 -7.3344 Q7.8096 -7.4282 7.8096 -7.8032 L7.8096 -12.7251 Q7.8096 -13.4126 7.544 -13.5688 Q7.2784 -13.7251 6.4971 -13.7251 L6.4971 -14.3657 L9.0753 -14.5532 L9.0753 -7.8032 Q9.0753 -7.4282 9.419 -7.3344 Q9.7628 -7.2407 10.3409 -7.2407 L10.3409 -6.6001 L6.4034 -6.6001 ZM7.169 -17.6469 Q7.169 -18.0376 7.4737 -18.3423 Q7.7784 -18.6469 8.1534 -18.6469 Q8.419 -18.6469 8.6534 -18.5141 Q8.8878 -18.3813 9.0206 -18.1391 Q9.1534 -17.8969 9.1534 -17.6469 Q9.1534 -17.2563 8.8565 -16.9594 Q8.5596 -16.6626 8.1534 -16.6626 Q7.7784 -16.6626 7.4737 -16.9594 Q7.169 -17.2563 7.169 -17.6469 Z"
      /><path style="stroke:none;" d="M12.7929 -8.7563 L12.7929 -13.7251 L11.2929 -13.7251 L11.2929 -14.1938 Q12.4647 -14.1938 13.0194 -15.2954 Q13.5741 -16.3969 13.5741 -17.6782 L14.0897 -17.6782 L14.0897 -14.3657 L16.6366 -14.3657 L16.6366 -13.7251 L14.0897 -13.7251 L14.0897 -8.8032 Q14.0897 -8.0532 14.3397 -7.4907 Q14.5897 -6.9282 15.246 -6.9282 Q15.8554 -6.9282 16.1288 -7.5219 Q16.4022 -8.1157 16.4022 -8.8032 L16.4022 -9.8657 L16.9335 -9.8657 L16.9335 -8.7563 Q16.9335 -8.1938 16.7226 -7.6469 Q16.5116 -7.1001 16.1054 -6.7485 Q15.6991 -6.3969 15.121 -6.3969 Q14.0429 -6.3969 13.4179 -7.0454 Q12.7929 -7.6938 12.7929 -8.7563 Z"
      /><path style="stroke:none;" d="M20.0163 -8.7407 L20.0163 -12.7251 Q20.0163 -13.1938 19.8756 -13.4126 Q19.735 -13.6313 19.4616 -13.6782 Q19.1881 -13.7251 18.61 -13.7251 L18.61 -14.3657 L21.3444 -14.5532 L21.3444 -8.7407 Q21.3444 -8.0376 21.446 -7.6469 Q21.5475 -7.2563 21.8756 -7.061 Q22.2038 -6.8657 22.9225 -6.8657 Q23.8913 -6.8657 24.4616 -7.6782 Q25.0319 -8.4907 25.0319 -9.5219 L25.0319 -12.7251 Q25.0319 -13.1938 24.8835 -13.4126 Q24.735 -13.6313 24.4694 -13.6782 Q24.2038 -13.7251 23.6256 -13.7251 L23.6256 -14.3657 L26.3444 -14.5532 L26.3444 -8.2407 Q26.3444 -7.7563 26.485 -7.5454 Q26.6256 -7.3344 26.8991 -7.2876 Q27.1725 -7.2407 27.7506 -7.2407 L27.7506 -6.6001 L25.0788 -6.3969 L25.0788 -7.9126 Q24.7506 -7.2407 24.1491 -6.8188 Q23.5475 -6.3969 22.8288 -6.3969 Q21.5475 -6.3969 20.7819 -6.9438 Q20.0163 -7.4907 20.0163 -8.7407 Z"
      /><path style="stroke:none;" d="M32.6546 -6.3969 Q31.5921 -6.3969 30.7171 -6.9751 Q29.8421 -7.5532 29.3499 -8.4907 Q28.8577 -9.4282 28.8577 -10.4907 Q28.8577 -11.5688 29.389 -12.5063 Q29.9202 -13.4438 30.8343 -13.9985 Q31.7484 -14.5532 32.8577 -14.5532 Q33.514 -14.5532 34.0999 -14.2798 Q34.6859 -14.0063 35.1234 -13.5063 L35.1234 -17.2563 Q35.1234 -17.7407 34.9749 -17.9516 Q34.8265 -18.1626 34.5609 -18.2094 Q34.2952 -18.2563 33.7171 -18.2563 L33.7171 -18.8969 L36.389 -19.0844 L36.389 -8.2407 Q36.389 -7.7563 36.5296 -7.5454 Q36.6702 -7.3344 36.9437 -7.2876 Q37.2171 -7.2407 37.7796 -7.2407 L37.7796 -6.6001 L35.0609 -6.3969 L35.0609 -7.5376 Q34.6077 -6.9907 33.9593 -6.6938 Q33.3109 -6.3969 32.6546 -6.3969 ZM30.8265 -8.1626 Q31.1234 -7.5688 31.639 -7.2173 Q32.1546 -6.8657 32.764 -6.8657 Q33.514 -6.8657 34.139 -7.3032 Q34.764 -7.7407 35.0609 -8.4126 L35.0609 -12.7407 Q34.8577 -13.1313 34.5374 -13.4438 Q34.2171 -13.7563 33.8187 -13.9204 Q33.4202 -14.0844 32.9671 -14.0844 Q32.0296 -14.0844 31.4593 -13.5532 Q30.889 -13.0219 30.6546 -12.1938 Q30.4202 -11.3657 30.4202 -10.4751 Q30.4202 -9.7407 30.4984 -9.2094 Q30.5765 -8.6782 30.8265 -8.1626 Z"
    /></g
    ><g style="stroke-linecap:butt; fill:rgb(38,38,38); text-rendering:geometricPrecision; image-rendering:optimizeQuality; color-rendering:optimizeQuality; stroke-linejoin:round; stroke:rgb(38,38,38); color-interpolation:linearRGB; stroke-width:0.8333;"
    ><line y2="241" style="fill:none;" x1="65" x2="453" y1="241"
    /></g
    ><g transform="translate(84.4,293.3077)" style="fill:red; text-rendering:geometricPrecision; color-rendering:optimizeQuality; image-rendering:optimizeQuality; color-interpolation:linearRGB; stroke:red;"
    ><circle r="5" style="stroke:none;" cx="0" cy="0"
    /></g
    ><g transform="translate(84.4,293.3077)" style="stroke-linecap:butt; fill:red; text-rendering:geometricPrecision; color-rendering:optimizeQuality; image-rendering:optimizeQuality; color-interpolation:linearRGB; stroke:red;"
    ><circle r="5" style="fill:none;" cx="0" cy="0"
    /></g
    ><g transform="translate(103.8,84.0769)" style="fill:red; text-rendering:geometricPrecision; color-rendering:optimizeQuality; image-rendering:optimizeQuality; color-interpolation:linearRGB; stroke:red;"
    ><circle r="5" style="stroke:none;" cx="0" cy="0"
    /></g
    ><g transform="translate(103.8,84.0769)" style="stroke-linecap:butt; fill:red; text-rendering:geometricPrecision; color-rendering:optimizeQuality; image-rendering:optimizeQuality; color-interpolation:linearRGB; stroke:red;"
    ><circle r="5" style="fill:none;" cx="0" cy="0"
    /></g
    ><g transform="translate(123.2,397.9231)" style="fill:red; text-rendering:geometricPrecision; color-rendering:optimizeQuality; image-rendering:optimizeQuality; color-interpolation:linearRGB; stroke:red;"
    ><circle r="5" style="stroke:none;" cx="0" cy="0"
    /></g
    ><g transform="translate(123.2,397.9231)" style="stroke-linecap:butt; fill:red; text-rendering:geometricPrecision; color-rendering:optimizeQuality; image-rendering:optimizeQuality; color-interpolation:linearRGB; stroke:red;"
    ><circle r="5" style="fill:none;" cx="0" cy="0"
    /></g
    ><g transform="translate(142.6,293.3077)" style="fill:red; text-rendering:geometricPrecision; color-rendering:optimizeQuality; image-rendering:optimizeQuality; color-interpolation:linearRGB; stroke:red;"
    ><circle r="5" style="stroke:none;" cx="0" cy="0"
    /></g
    ><g transform="translate(142.6,293.3077)" style="stroke-linecap:butt; fill:red; text-rendering:geometricPrecision; color-rendering:optimizeQuality; image-rendering:optimizeQuality; color-interpolation:linearRGB; stroke:red;"
    ><circle r="5" style="fill:none;" cx="0" cy="0"
    /></g
    ><g transform="translate(162,188.6923)" style="fill:red; text-rendering:geometricPrecision; color-rendering:optimizeQuality; image-rendering:optimizeQuality; color-interpolation:linearRGB; stroke:red;"
    ><circle r="5" style="stroke:none;" cx="0" cy="0"
    /></g
    ><g transform="translate(162,188.6923)" style="stroke-linecap:butt; fill:red; text-rendering:geometricPrecision; color-rendering:optimizeQuality; image-rendering:optimizeQuality; color-interpolation:linearRGB; stroke:red;"
    ><circle r="5" style="fill:none;" cx="0" cy="0"
    /></g
    ><g transform="translate(181.4,397.9231)" style="fill:red; text-rendering:geometricPrecision; color-rendering:optimizeQuality; image-rendering:optimizeQuality; color-interpolation:linearRGB; stroke:red;"
    ><circle r="5" style="stroke:none;" cx="0" cy="0"
    /></g
    ><g transform="translate(181.4,397.9231)" style="stroke-linecap:butt; fill:red; text-rendering:geometricPrecision; color-rendering:optimizeQuality; image-rendering:optimizeQuality; color-interpolation:linearRGB; stroke:red;"
    ><circle r="5" style="fill:none;" cx="0" cy="0"
    /></g
    ><g transform="translate(200.8,188.6923)" style="fill:red; text-rendering:geometricPrecision; color-rendering:optimizeQuality; image-rendering:optimizeQuality; color-interpolation:linearRGB; stroke:red;"
    ><circle r="5" style="stroke:none;" cx="0" cy="0"
    /></g
    ><g transform="translate(200.8,188.6923)" style="stroke-linecap:butt; fill:red; text-rendering:geometricPrecision; color-rendering:optimizeQuality; image-rendering:optimizeQuality; color-interpolation:linearRGB; stroke:red;"
    ><circle r="5" style="fill:none;" cx="0" cy="0"
    /></g
    ><g transform="translate(220.2,84.0769)" style="fill:red; text-rendering:geometricPrecision; color-rendering:optimizeQuality; image-rendering:optimizeQuality; color-interpolation:linearRGB; stroke:red;"
    ><circle r="5" style="stroke:none;" cx="0" cy="0"
    /></g
    ><g transform="translate(220.2,84.0769)" style="stroke-linecap:butt; fill:red; text-rendering:geometricPrecision; color-rendering:optimizeQuality; image-rendering:optimizeQuality; color-interpolation:linearRGB; stroke:red;"
    ><circle r="5" style="fill:none;" cx="0" cy="0"
    /></g
    ><g transform="translate(239.6,188.6923)" style="fill:red; text-rendering:geometricPrecision; color-rendering:optimizeQuality; image-rendering:optimizeQuality; color-interpolation:linearRGB; stroke:red;"
    ><circle r="5" style="stroke:none;" cx="0" cy="0"
    /></g
    ><g transform="translate(239.6,188.6923)" style="stroke-linecap:butt; fill:red; text-rendering:geometricPrecision; color-rendering:optimizeQuality; image-rendering:optimizeQuality; color-interpolation:linearRGB; stroke:red;"
    ><circle r="5" style="fill:none;" cx="0" cy="0"
    /></g
    ><g transform="translate(259,188.6923)" style="fill:red; text-rendering:geometricPrecision; color-rendering:optimizeQuality; image-rendering:optimizeQuality; color-interpolation:linearRGB; stroke:red;"
    ><circle r="5" style="stroke:none;" cx="0" cy="0"
    /></g
    ><g transform="translate(259,188.6923)" style="stroke-linecap:butt; fill:red; text-rendering:geometricPrecision; color-rendering:optimizeQuality; image-rendering:optimizeQuality; color-interpolation:linearRGB; stroke:red;"
    ><circle r="5" style="fill:none;" cx="0" cy="0"
    /></g
    ><g transform="translate(278.4,84.0769)" style="fill:red; text-rendering:geometricPrecision; color-rendering:optimizeQuality; image-rendering:optimizeQuality; color-interpolation:linearRGB; stroke:red;"
    ><circle r="5" style="stroke:none;" cx="0" cy="0"
    /></g
    ><g transform="translate(278.4,84.0769)" style="stroke-linecap:butt; fill:red; text-rendering:geometricPrecision; color-rendering:optimizeQuality; image-rendering:optimizeQuality; color-interpolation:linearRGB; stroke:red;"
    ><circle r="5" style="fill:none;" cx="0" cy="0"
    /></g
    ><g transform="translate(297.8,397.9231)" style="fill:red; text-rendering:geometricPrecision; color-rendering:optimizeQuality; image-rendering:optimizeQuality; color-interpolation:linearRGB; stroke:red;"
    ><circle r="5" style="stroke:none;" cx="0" cy="0"
    /></g
    ><g transform="translate(297.8,397.9231)" style="stroke-linecap:butt; fill:red; text-rendering:geometricPrecision; color-rendering:optimizeQuality; image-rendering:optimizeQuality; color-interpolation:linearRGB; stroke:red;"
    ><circle r="5" style="fill:none;" cx="0" cy="0"
    /></g
    ><g transform="translate(317.2,188.6923)" style="fill:red; text-rendering:geometricPrecision; color-rendering:optimizeQuality; image-rendering:optimizeQuality; color-interpolation:linearRGB; stroke:red;"
    ><circle r="5" style="stroke:none;" cx="0" cy="0"
    /></g
    ><g transform="translate(317.2,188.6923)" style="stroke-linecap:butt; fill:red; text-rendering:geometricPrecision; color-rendering:optimizeQuality; image-rendering:optimizeQuality; color-interpolation:linearRGB; stroke:red;"
    ><circle r="5" style="fill:none;" cx="0" cy="0"
    /></g
    ><g transform="translate(336.6,397.9231)" style="fill:red; text-rendering:geometricPrecision; color-rendering:optimizeQuality; image-rendering:optimizeQuality; color-interpolation:linearRGB; stroke:red;"
    ><circle r="5" style="stroke:none;" cx="0" cy="0"
    /></g
    ><g transform="translate(336.6,397.9231)" style="stroke-linecap:butt; fill:red; text-rendering:geometricPrecision; color-rendering:optimizeQuality; image-rendering:optimizeQuality; color-interpolation:linearRGB; stroke:red;"
    ><circle r="5" style="fill:none;" cx="0" cy="0"
    /></g
    ><g transform="translate(356,188.6923)" style="fill:red; text-rendering:geometricPrecision; color-rendering:optimizeQuality; image-rendering:optimizeQuality; color-interpolation:linearRGB; stroke:red;"
    ><circle r="5" style="stroke:none;" cx="0" cy="0"
    /></g
    ><g transform="translate(356,188.6923)" style="stroke-linecap:butt; fill:red; text-rendering:geometricPrecision; color-rendering:optimizeQuality; image-rendering:optimizeQuality; color-interpolation:linearRGB; stroke:red;"
    ><circle r="5" style="fill:none;" cx="0" cy="0"
    /></g
    ><g transform="translate(375.4,84.0769)" style="fill:red; text-rendering:geometricPrecision; color-rendering:optimizeQuality; image-rendering:optimizeQuality; color-interpolation:linearRGB; stroke:red;"
    ><circle r="5" style="stroke:none;" cx="0" cy="0"
    /></g
    ><g transform="translate(375.4,84.0769)" style="stroke-linecap:butt; fill:red; text-rendering:geometricPrecision; color-rendering:optimizeQuality; image-rendering:optimizeQuality; color-interpolation:linearRGB; stroke:red;"
    ><circle r="5" style="fill:none;" cx="0" cy="0"
    /></g
    ><g transform="translate(394.8,84.0769)" style="fill:red; text-rendering:geometricPrecision; color-rendering:optimizeQuality; image-rendering:optimizeQuality; color-interpolation:linearRGB; stroke:red;"
    ><circle r="5" style="stroke:none;" cx="0" cy="0"
    /></g
    ><g transform="translate(394.8,84.0769)" style="stroke-linecap:butt; fill:red; text-rendering:geometricPrecision; color-rendering:optimizeQuality; image-rendering:optimizeQuality; color-interpolation:linearRGB; stroke:red;"
    ><circle r="5" style="fill:none;" cx="0" cy="0"
    /></g
    ><g transform="translate(414.2,293.3077)" style="fill:red; text-rendering:geometricPrecision; color-rendering:optimizeQuality; image-rendering:optimizeQuality; color-interpolation:linearRGB; stroke:red;"
    ><circle r="5" style="stroke:none;" cx="0" cy="0"
    /></g
    ><g transform="translate(414.2,293.3077)" style="stroke-linecap:butt; fill:red; text-rendering:geometricPrecision; color-rendering:optimizeQuality; image-rendering:optimizeQuality; color-interpolation:linearRGB; stroke:red;"
    ><circle r="5" style="fill:none;" cx="0" cy="0"
    /></g
    ><g style="stroke-linecap:butt; fill:red; text-rendering:geometricPrecision; image-rendering:optimizeQuality; color-rendering:optimizeQuality; stroke-linejoin:bevel; stroke-dasharray:10,6; stroke:red; color-interpolation:linearRGB; stroke-width:0.8333; stroke-miterlimit:1;"
    ><line y2="293.3077" style="fill:none;" x1="84.4" x2="84.4" y1="241"
      /><line y2="84.0769" style="fill:none;" x1="103.8" x2="103.8" y1="241"
      /><line y2="397.9231" style="fill:none;" x1="123.2" x2="123.2" y1="241"
      /><line y2="293.3077" style="fill:none;" x1="142.6" x2="142.6" y1="241"
      /><line y2="188.6923" style="fill:none;" x1="162" x2="162" y1="241"
      /><line y2="397.9231" style="fill:none;" x1="181.4" x2="181.4" y1="241"
      /><line y2="188.6923" style="fill:none;" x1="200.8" x2="200.8" y1="241"
      /><line y2="84.0769" style="fill:none;" x1="220.2" x2="220.2" y1="241"
      /><line y2="188.6923" style="fill:none;" x1="239.6" x2="239.6" y1="241"
      /><line y2="188.6923" style="fill:none;" x1="259" x2="259" y1="241"
      /><line y2="84.0769" style="fill:none;" x1="278.4" x2="278.4" y1="241"
      /><line y2="397.9231" style="fill:none;" x1="297.8" x2="297.8" y1="241"
      /><line y2="188.6923" style="fill:none;" x1="317.2" x2="317.2" y1="241"
      /><line y2="397.9231" style="fill:none;" x1="336.6" x2="336.6" y1="241"
      /><line y2="188.6923" style="fill:none;" x1="356" x2="356" y1="241"
      /><line y2="84.0769" style="fill:none;" x1="375.4" x2="375.4" y1="241"
      /><line y2="84.0769" style="fill:none;" x1="394.8" x2="394.8" y1="241"
      /><line y2="293.3077" style="fill:none;" x1="414.2" x2="414.2" y1="241"
    /></g
    ><g style="fill:rgb(38,38,38); text-rendering:geometricPrecision; image-rendering:optimizeQuality; color-rendering:optimizeQuality; stroke-linejoin:round; stroke:rgb(38,38,38); color-interpolation:linearRGB; stroke-width:0.8333;"
    ><line y2="445" style="fill:none;" x1="65" x2="453" y1="445"
      /><line y2="37" style="fill:none;" x1="65" x2="453" y1="37"
      /><line y2="440.92" style="fill:none;" x1="65" x2="65" y1="445"
      /><line y2="440.92" style="fill:none;" x1="162" x2="162" y1="445"
      /><line y2="440.92" style="fill:none;" x1="259" x2="259" y1="445"
      /><line y2="440.92" style="fill:none;" x1="356" x2="356" y1="445"
      /><line y2="440.92" style="fill:none;" x1="453" x2="453" y1="445"
      /><line y2="41.08" style="fill:none;" x1="65" x2="65" y1="37"
      /><line y2="41.08" style="fill:none;" x1="162" x2="162" y1="37"
      /><line y2="41.08" style="fill:none;" x1="259" x2="259" y1="37"
      /><line y2="41.08" style="fill:none;" x1="356" x2="356" y1="37"
      /><line y2="41.08" style="fill:none;" x1="453" x2="453" y1="37"
    /></g
    ><g transform="translate(65,451.6667)" style="font-size:16.6667px; fill:rgb(38,38,38); text-rendering:geometricPrecision; image-rendering:optimizeQuality; color-rendering:optimizeQuality; font-family:'SansSerif'; stroke:rgb(38,38,38); color-interpolation:linearRGB;"
    ><path style="stroke:none;" d="M-4.2969 11 Q-4.2969 8.8438 -3.8516 7.5234 Q-3.4062 6.2031 -2.5312 5.4922 Q-1.6562 4.7812 -0.3281 4.7812 Q0.6562 4.7812 1.3906 5.1719 Q2.125 5.5625 2.6094 6.3125 Q3.0938 7.0625 3.3672 8.125 Q3.6406 9.1875 3.6406 11 Q3.6406 13.1406 3.2031 14.4531 Q2.7656 15.7656 1.8906 16.4844 Q1.0156 17.2031 -0.3281 17.2031 Q-2.0938 17.2031 -3.0938 15.9531 Q-4.2969 14.4219 -4.2969 11 ZM-2.7656 11 Q-2.7656 14 -2.0625 14.9922 Q-1.3594 15.9844 -0.3281 15.9844 Q0.7031 15.9844 1.4062 14.9844 Q2.1094 13.9844 2.1094 11 Q2.1094 8 1.4062 7.0078 Q0.7031 6.0156 -0.3438 6.0156 Q-1.375 6.0156 -1.9844 6.8906 Q-2.7656 8 -2.7656 11 Z"
    /></g
    ><g transform="translate(162,451.6667)" style="font-size:16.6667px; fill:rgb(38,38,38); text-rendering:geometricPrecision; image-rendering:optimizeQuality; color-rendering:optimizeQuality; font-family:'SansSerif'; stroke:rgb(38,38,38); color-interpolation:linearRGB;"
    ><path style="stroke:none;" d="M-4.2969 13.8125 L-2.7188 13.6719 Q-2.5469 14.8281 -1.9141 15.4062 Q-1.2812 15.9844 -0.3906 15.9844 Q0.6875 15.9844 1.4375 15.1719 Q2.1875 14.3594 2.1875 13 Q2.1875 11.7344 1.4688 10.9922 Q0.75 10.25 -0.4062 10.25 Q-1.125 10.25 -1.7109 10.5781 Q-2.2969 10.9062 -2.625 11.4375 L-4.0312 11.25 L-2.8438 5 L3.2031 5 L3.2031 6.4219 L-1.6562 6.4219 L-2.3125 9.6875 Q-1.2188 8.9375 -0.0156 8.9375 Q1.5781 8.9375 2.6797 10.0391 Q3.7812 11.1406 3.7812 12.875 Q3.7812 14.5312 2.8125 15.7344 Q1.6406 17.2031 -0.3906 17.2031 Q-2.0469 17.2031 -3.0938 16.2734 Q-4.1406 15.3438 -4.2969 13.8125 Z"
    /></g
    ><g transform="translate(259,451.6667)" style="font-size:16.6667px; fill:rgb(38,38,38); text-rendering:geometricPrecision; image-rendering:optimizeQuality; color-rendering:optimizeQuality; font-family:'SansSerif'; stroke:rgb(38,38,38); color-interpolation:linearRGB;"
    ><path style="stroke:none;" d="M-3.1719 17 L-4.6562 17 L-4.6562 7.4844 Q-5.2031 8 -6.0781 8.5078 Q-6.9531 9.0156 -7.6562 9.2812 L-7.6562 7.8281 Q-6.3906 7.25 -5.4531 6.4062 Q-4.5156 5.5625 -4.125 4.7812 L-3.1719 4.7812 L-3.1719 17 ZM0.4665 11 Q0.4665 8.8438 0.9118 7.5234 Q1.3572 6.2031 2.2322 5.4922 Q3.1072 4.7812 4.4353 4.7812 Q5.4197 4.7812 6.154 5.1719 Q6.8884 5.5625 7.3728 6.3125 Q7.8572 7.0625 8.1306 8.125 Q8.404 9.1875 8.404 11 Q8.404 13.1406 7.9665 14.4531 Q7.529 15.7656 6.654 16.4844 Q5.779 17.2031 4.4353 17.2031 Q2.6697 17.2031 1.6697 15.9531 Q0.4665 14.4219 0.4665 11 ZM1.9978 11 Q1.9978 14 2.7009 14.9922 Q3.404 15.9844 4.4353 15.9844 Q5.4665 15.9844 6.1697 14.9844 Q6.8728 13.9844 6.8728 11 Q6.8728 8 6.1697 7.0078 Q5.4665 6.0156 4.4197 6.0156 Q3.3884 6.0156 2.779 6.8906 Q1.9978 8 1.9978 11 Z"
    /></g
    ><g transform="translate(356,451.6667)" style="font-size:16.6667px; fill:rgb(38,38,38); text-rendering:geometricPrecision; image-rendering:optimizeQuality; color-rendering:optimizeQuality; font-family:'SansSerif'; stroke:rgb(38,38,38); color-interpolation:linearRGB;"
    ><path style="stroke:none;" d="M-3.1719 17 L-4.6562 17 L-4.6562 7.4844 Q-5.2031 8 -6.0781 8.5078 Q-6.9531 9.0156 -7.6562 9.2812 L-7.6562 7.8281 Q-6.3906 7.25 -5.4531 6.4062 Q-4.5156 5.5625 -4.125 4.7812 L-3.1719 4.7812 L-3.1719 17 ZM0.4665 13.8125 L2.0447 13.6719 Q2.2165 14.8281 2.8493 15.4062 Q3.4822 15.9844 4.3728 15.9844 Q5.4509 15.9844 6.2009 15.1719 Q6.9509 14.3594 6.9509 13 Q6.9509 11.7344 6.2322 10.9922 Q5.5134 10.25 4.3572 10.25 Q3.6384 10.25 3.0525 10.5781 Q2.4665 10.9062 2.1384 11.4375 L0.7322 11.25 L1.9197 5 L7.9665 5 L7.9665 6.4219 L3.1072 6.4219 L2.4509 9.6875 Q3.5447 8.9375 4.7478 8.9375 Q6.3415 8.9375 7.4431 10.0391 Q8.5447 11.1406 8.5447 12.875 Q8.5447 14.5312 7.5759 15.7344 Q6.404 17.2031 4.3728 17.2031 Q2.7165 17.2031 1.6697 16.2734 Q0.6228 15.3438 0.4665 13.8125 Z"
    /></g
    ><g transform="translate(453,451.6667)" style="font-size:16.6667px; fill:rgb(38,38,38); text-rendering:geometricPrecision; image-rendering:optimizeQuality; color-rendering:optimizeQuality; font-family:'SansSerif'; stroke:rgb(38,38,38); color-interpolation:linearRGB;"
    ><path style="stroke:none;" d="M-0.9375 15.5625 L-0.9375 17 L-8.9844 17 Q-9 16.4531 -8.8125 15.9688 Q-8.5 15.1406 -7.8281 14.3438 Q-7.1562 13.5469 -5.875 12.5 Q-3.8906 10.875 -3.1953 9.9219 Q-2.5 8.9688 -2.5 8.125 Q-2.5 7.2344 -3.1328 6.625 Q-3.7656 6.0156 -4.7812 6.0156 Q-5.8594 6.0156 -6.5078 6.6641 Q-7.1562 7.3125 -7.1719 8.4531 L-8.7031 8.2969 Q-8.5469 6.5781 -7.5156 5.6797 Q-6.4844 4.7812 -4.75 4.7812 Q-3 4.7812 -1.9766 5.75 Q-0.9531 6.7188 -0.9531 8.1562 Q-0.9531 8.8906 -1.2578 9.5938 Q-1.5625 10.2969 -2.25 11.0781 Q-2.9375 11.8594 -4.5469 13.2188 Q-5.8906 14.3594 -6.2734 14.7578 Q-6.6562 15.1562 -6.9062 15.5625 L-0.9375 15.5625 ZM0.4665 11 Q0.4665 8.8438 0.9118 7.5234 Q1.3572 6.2031 2.2322 5.4922 Q3.1072 4.7812 4.4353 4.7812 Q5.4197 4.7812 6.154 5.1719 Q6.8884 5.5625 7.3728 6.3125 Q7.8572 7.0625 8.1306 8.125 Q8.404 9.1875 8.404 11 Q8.404 13.1406 7.9665 14.4531 Q7.529 15.7656 6.654 16.4844 Q5.779 17.2031 4.4353 17.2031 Q2.6697 17.2031 1.6697 15.9531 Q0.4665 14.4219 0.4665 11 ZM1.9978 11 Q1.9978 14 2.7009 14.9922 Q3.404 15.9844 4.4353 15.9844 Q5.4665 15.9844 6.1697 14.9844 Q6.8728 13.9844 6.8728 11 Q6.8728 8 6.1697 7.0078 Q5.4665 6.0156 4.4197 6.0156 Q3.3884 6.0156 2.779 6.8906 Q1.9978 8 1.9978 11 Z"
    /></g
    ><g transform="translate(259.0002,474.3333)" style="font-size:18.3333px; fill:rgb(38,38,38); text-rendering:geometricPrecision; image-rendering:optimizeQuality; color-rendering:optimizeQuality; font-family:'mwa_cmr10'; stroke:rgb(38,38,38); color-interpolation:linearRGB;"
    ><path style="stroke:none;" d="M-63.8699 15.3999 L-63.8699 14.7593 Q-62.9637 14.7593 -62.1121 14.6656 Q-61.2605 14.5718 -61.2605 14.1968 L-61.2605 4.3062 Q-61.2605 3.9156 -61.4793 3.8296 Q-61.698 3.7437 -62.1824 3.7437 L-62.9324 3.7437 Q-64.4168 3.7437 -65.0418 4.3843 Q-65.3699 4.7124 -65.5105 5.4312 Q-65.6512 6.1499 -65.7449 7.2281 L-66.2605 7.2281 L-65.9168 3.1031 L-54.9324 3.1031 L-54.5887 7.2281 L-55.1199 7.2281 Q-55.2137 6.0718 -55.3465 5.3843 Q-55.4793 4.6968 -55.8074 4.3843 Q-56.4324 3.7437 -57.9168 3.7437 L-58.6668 3.7437 Q-58.9949 3.7437 -59.1746 3.7671 Q-59.3543 3.7906 -59.4715 3.9156 Q-59.5887 4.0406 -59.5887 4.3062 L-59.5887 14.1968 Q-59.5887 14.5718 -58.7371 14.6656 Q-57.8855 14.7593 -56.9793 14.7593 L-56.9793 15.3999 L-63.8699 15.3999 Z"
      /><path style="stroke:none;" d="M-53.1292 15.3999 L-53.1292 14.7593 Q-52.5042 14.7593 -52.1135 14.6656 Q-51.7229 14.5718 -51.7229 14.1968 L-51.7229 9.2749 Q-51.7229 8.5874 -51.9885 8.4312 Q-52.2542 8.2749 -53.0354 8.2749 L-53.0354 7.6343 L-50.4573 7.4468 L-50.4573 14.1968 Q-50.4573 14.5718 -50.1135 14.6656 Q-49.7698 14.7593 -49.1917 14.7593 L-49.1917 15.3999 L-53.1292 15.3999 ZM-52.3635 4.3531 Q-52.3635 3.9624 -52.0588 3.6577 Q-51.7542 3.3531 -51.3792 3.3531 Q-51.1135 3.3531 -50.8792 3.4859 Q-50.6448 3.6187 -50.512 3.8609 Q-50.3792 4.1031 -50.3792 4.3531 Q-50.3792 4.7437 -50.676 5.0406 Q-50.9729 5.3374 -51.3792 5.3374 Q-51.7542 5.3374 -52.0588 5.0406 Q-52.3635 4.7437 -52.3635 4.3531 Z"
      /><path style="stroke:none;" d="M-44.099 15.6031 Q-45.1928 15.6031 -46.1147 15.0249 Q-47.0365 14.4468 -47.56 13.4859 Q-48.0834 12.5249 -48.0834 11.4468 Q-48.0834 10.3999 -47.6069 9.4468 Q-47.1303 8.4937 -46.2709 7.9156 Q-45.4115 7.3374 -44.349 7.3374 Q-43.5365 7.3374 -42.9194 7.6109 Q-42.3022 7.8843 -41.9115 8.3765 Q-41.5209 8.8687 -41.3178 9.5406 Q-41.1147 10.2124 -41.1147 11.0093 Q-41.1147 11.2437 -41.3022 11.2437 L-46.5053 11.2437 L-46.5053 11.4312 Q-46.5053 12.9312 -45.9037 14.0015 Q-45.3022 15.0718 -43.9428 15.0718 Q-43.3959 15.0718 -42.9194 14.8296 Q-42.4428 14.5874 -42.099 14.1421 Q-41.7553 13.6968 -41.6303 13.1968 Q-41.6147 13.1343 -41.5678 13.0874 Q-41.5209 13.0406 -41.4584 13.0406 L-41.3022 13.0406 Q-41.1147 13.0406 -41.1147 13.2749 Q-41.3647 14.2906 -42.2084 14.9468 Q-43.0522 15.6031 -44.099 15.6031 ZM-46.4897 10.7906 L-42.3803 10.7906 Q-42.3803 10.1187 -42.5756 9.4234 Q-42.7709 8.7281 -43.2084 8.2671 Q-43.6459 7.8062 -44.349 7.8062 Q-45.3803 7.8062 -45.935 8.7593 Q-46.4897 9.7124 -46.4897 10.7906 Z"
      /><path style="stroke:none;" d="M-39.904 15.3999 L-39.904 14.7593 Q-39.279 14.7593 -38.8884 14.6656 Q-38.4978 14.5718 -38.4978 14.1968 L-38.4978 9.2749 Q-38.4978 8.8062 -38.6384 8.5874 Q-38.779 8.3687 -39.0525 8.3218 Q-39.3259 8.2749 -39.904 8.2749 L-39.904 7.6343 L-37.2946 7.4468 L-37.2946 9.1968 Q-36.9353 8.4312 -36.2243 7.939 Q-35.5134 7.4468 -34.6853 7.4468 Q-32.6071 7.4468 -32.2478 9.1343 Q-31.8884 8.3843 -31.1931 7.9156 Q-30.4978 7.4468 -29.6696 7.4468 Q-28.8571 7.4468 -28.2946 7.7124 Q-27.7321 7.9781 -27.4509 8.5171 Q-27.1696 9.0562 -27.1696 9.8687 L-27.1696 14.1968 Q-27.1696 14.5718 -26.7712 14.6656 Q-26.3728 14.7593 -25.7634 14.7593 L-25.7634 15.3999 L-29.8884 15.3999 L-29.8884 14.7593 Q-29.279 14.7593 -28.8806 14.6656 Q-28.4821 14.5718 -28.4821 14.1968 L-28.4821 9.9312 Q-28.4821 9.0249 -28.74 8.4702 Q-28.9978 7.9156 -29.779 7.9156 Q-30.8259 7.9156 -31.4978 8.7515 Q-32.1696 9.5874 -32.1696 10.6499 L-32.1696 14.1968 Q-32.1696 14.5718 -31.779 14.6656 Q-31.3884 14.7593 -30.7634 14.7593 L-30.7634 15.3999 L-34.8884 15.3999 L-34.8884 14.7593 Q-34.279 14.7593 -33.8806 14.6656 Q-33.4821 14.5718 -33.4821 14.1968 L-33.4821 9.9312 Q-33.4821 9.0406 -33.74 8.4781 Q-33.9978 7.9156 -34.779 7.9156 Q-35.8259 7.9156 -36.4978 8.7515 Q-37.1696 9.5874 -37.1696 10.6499 L-37.1696 14.1968 Q-37.1696 14.5718 -36.779 14.6656 Q-36.3884 14.7593 -35.779 14.7593 L-35.779 15.3999 L-39.904 15.3999 Z"
      /><path style="stroke:none;" d="M-24.6887 18.8843 L-24.6887 18.2593 Q-24.0793 18.2593 -23.6809 18.1577 Q-23.2824 18.0562 -23.2824 17.6812 L-23.2824 9.0093 Q-23.2824 8.5249 -23.634 8.3999 Q-23.9856 8.2749 -24.6887 8.2749 L-24.6887 7.6343 L-22.0324 7.4468 L-22.0324 8.5562 Q-21.5324 8.0093 -20.8762 7.7281 Q-20.2199 7.4468 -19.4856 7.4468 Q-18.4231 7.4468 -17.5715 8.0249 Q-16.7199 8.6031 -16.2434 9.5327 Q-15.7668 10.4624 -15.7668 11.5093 Q-15.7668 12.6031 -16.2981 13.5406 Q-16.8293 14.4781 -17.7434 15.0406 Q-18.6574 15.6031 -19.7668 15.6031 Q-21.0637 15.6031 -21.9699 14.5406 L-21.9699 17.6812 Q-21.9699 18.0562 -21.5715 18.1577 Q-21.1731 18.2593 -20.5637 18.2593 L-20.5637 18.8843 L-24.6887 18.8843 ZM-21.9699 13.6499 Q-21.6574 14.2906 -21.0949 14.7124 Q-20.5324 15.1343 -19.8606 15.1343 Q-19.2356 15.1343 -18.759 14.7984 Q-18.2824 14.4624 -17.9543 13.8999 Q-17.6262 13.3374 -17.4778 12.7124 Q-17.3293 12.0874 -17.3293 11.5093 Q-17.3293 10.7906 -17.5871 9.9546 Q-17.8449 9.1187 -18.3762 8.5406 Q-18.9074 7.9624 -19.6574 7.9624 Q-20.3918 7.9624 -21.0012 8.3374 Q-21.6106 8.7124 -21.9699 9.3531 L-21.9699 13.6499 Z"
      /><path style="stroke:none;" d="M-9.963 15.6031 Q-11.0411 15.6031 -11.963 15.0562 Q-12.8848 14.5093 -13.4239 13.5796 Q-13.963 12.6499 -13.963 11.5718 Q-13.963 10.7437 -13.6661 9.9781 Q-13.3692 9.2124 -12.8223 8.6109 Q-12.2755 8.0093 -11.5489 7.6734 Q-10.8223 7.3374 -9.963 7.3374 Q-8.8536 7.3374 -7.9473 7.9156 Q-7.0411 8.4937 -6.5098 9.4781 Q-5.9786 10.4624 -5.9786 11.5718 Q-5.9786 12.6499 -6.5176 13.5796 Q-7.0567 14.5093 -7.9708 15.0562 Q-8.8848 15.6031 -9.963 15.6031 ZM-9.963 15.0718 Q-8.5255 15.0718 -8.0411 14.0249 Q-7.5567 12.9781 -7.5567 11.3687 Q-7.5567 10.4624 -7.6505 9.8687 Q-7.7442 9.2749 -8.0723 8.7906 Q-8.2755 8.4937 -8.588 8.2671 Q-8.9005 8.0406 -9.2442 7.9234 Q-9.588 7.8062 -9.963 7.8062 Q-10.5255 7.8062 -11.0333 8.064 Q-11.5411 8.3218 -11.8692 8.7906 Q-12.1973 9.3062 -12.2911 9.9156 Q-12.3848 10.5249 -12.3848 11.3687 Q-12.3848 12.3687 -12.213 13.1734 Q-12.0411 13.9781 -11.5098 14.5249 Q-10.9786 15.0718 -9.963 15.0718 Z"
      /><path style="stroke:none;" d="M1.4086 15.3999 L1.4086 14.7593 Q3.268 14.7593 3.268 14.1968 L3.268 4.3062 Q3.268 3.7437 1.4086 3.7437 L1.4086 3.1031 L8.0492 3.1031 Q9.2836 3.1031 10.2992 3.6343 Q11.3148 4.1656 12.0336 5.0562 Q12.7523 5.9468 13.1508 7.0718 Q13.5492 8.1968 13.5492 9.3687 Q13.5492 10.5093 13.1508 11.5874 Q12.7523 12.6656 12.0102 13.5327 Q11.268 14.3999 10.2523 14.8999 Q9.2367 15.3999 8.0492 15.3999 L1.4086 15.3999 ZM4.8773 14.1968 Q4.8773 14.5874 5.1039 14.6734 Q5.3305 14.7593 5.7992 14.7593 L7.5805 14.7593 Q8.5023 14.7593 9.3383 14.3609 Q10.1742 13.9624 10.7055 13.2593 Q11.2836 12.4937 11.4789 11.564 Q11.6742 10.6343 11.6742 9.3687 Q11.6742 8.0562 11.4789 7.0718 Q11.2836 6.0874 10.7055 5.3218 Q10.1742 4.5562 9.3461 4.1499 Q8.518 3.7437 7.5805 3.7437 L5.7992 3.7437 Q5.4711 3.7437 5.2914 3.7671 Q5.1117 3.7906 4.9945 3.9156 Q4.8773 4.0406 4.8773 4.3062 L4.8773 14.1968 Z"
      /><path style="stroke:none;" d="M15.3664 15.3999 L15.3664 14.7593 Q15.9914 14.7593 16.382 14.6656 Q16.7726 14.5718 16.7726 14.1968 L16.7726 9.2749 Q16.7726 8.5874 16.507 8.4312 Q16.2414 8.2749 15.4601 8.2749 L15.4601 7.6343 L18.0382 7.4468 L18.0382 14.1968 Q18.0382 14.5718 18.382 14.6656 Q18.7257 14.7593 19.3039 14.7593 L19.3039 15.3999 L15.3664 15.3999 ZM16.132 4.3531 Q16.132 3.9624 16.4367 3.6577 Q16.7414 3.3531 17.1164 3.3531 Q17.382 3.3531 17.6164 3.4859 Q17.8507 3.6187 17.9836 3.8609 Q18.1164 4.1031 18.1164 4.3531 Q18.1164 4.7437 17.8195 5.0406 Q17.5226 5.3374 17.1164 5.3374 Q16.7414 5.3374 16.4367 5.0406 Q16.132 4.7437 16.132 4.3531 Z"
      /><path style="stroke:none;" d="M20.5058 15.4468 L20.5058 12.5093 Q20.5058 12.3687 20.6621 12.3687 L20.8808 12.3687 Q20.9902 12.3687 21.0215 12.5093 Q21.5371 15.1343 23.459 15.1343 Q24.3027 15.1343 24.8808 14.7437 Q25.459 14.3531 25.459 13.5406 Q25.459 12.9624 25.0137 12.5562 Q24.5683 12.1499 23.9433 11.9937 L22.7402 11.7593 Q22.1308 11.6343 21.6387 11.3609 Q21.1465 11.0874 20.8262 10.6343 Q20.5058 10.1812 20.5058 9.5874 Q20.5058 8.7906 20.9277 8.2827 Q21.3496 7.7749 22.0137 7.5562 Q22.6777 7.3374 23.459 7.3374 Q24.3808 7.3374 25.0683 7.8218 L25.584 7.3687 Q25.584 7.3374 25.6621 7.3374 L25.8027 7.3374 Q25.8496 7.3374 25.8965 7.3843 Q25.9433 7.4312 25.9433 7.4781 L25.9433 9.8374 Q25.9433 10.0093 25.8027 10.0093 L25.584 10.0093 Q25.4277 10.0093 25.4277 9.8374 Q25.4277 8.8999 24.9043 8.3296 Q24.3808 7.7593 23.4433 7.7593 Q22.6308 7.7593 22.0371 8.0562 Q21.4433 8.3531 21.4433 9.0874 Q21.4433 9.5874 21.8652 9.9077 Q22.2871 10.2281 22.8652 10.3687 L24.084 10.5874 Q24.709 10.7281 25.2402 11.064 Q25.7715 11.3999 26.084 11.9077 Q26.3965 12.4156 26.3965 13.0562 Q26.3965 13.7124 26.1699 14.189 Q25.9433 14.6656 25.5449 14.9859 Q25.1465 15.3062 24.5996 15.4546 Q24.0527 15.6031 23.459 15.6031 Q22.334 15.6031 21.5371 14.8531 L20.8652 15.5562 Q20.8652 15.6031 20.7715 15.6031 L20.6621 15.6031 Q20.5058 15.6031 20.5058 15.4468 Z"
      /><path style="stroke:none;" d="M31.628 15.6031 Q30.5342 15.6031 29.6514 15.0327 Q28.7686 14.4624 28.253 13.5171 Q27.7373 12.5718 27.7373 11.5093 Q27.7373 10.4468 28.2451 9.4702 Q28.753 8.4937 29.6436 7.9156 Q30.5342 7.3374 31.628 7.3374 Q32.6748 7.3374 33.542 7.7437 Q34.4092 8.1499 34.4092 9.1031 Q34.4092 9.4468 34.1592 9.7046 Q33.9092 9.9624 33.5498 9.9624 Q33.1905 9.9624 32.9405 9.7046 Q32.6905 9.4468 32.6905 9.1031 Q32.6905 8.7749 32.8936 8.5484 Q33.0967 8.3218 33.3936 8.2593 Q32.7686 7.8531 31.6436 7.8531 Q30.7842 7.8531 30.253 8.4234 Q29.7217 8.9937 29.5108 9.8374 Q29.2998 10.6812 29.2998 11.5093 Q29.2998 12.3843 29.5655 13.1968 Q29.8311 14.0093 30.4014 14.5406 Q30.9717 15.0718 31.8467 15.0718 Q32.7061 15.0718 33.2998 14.5484 Q33.8936 14.0249 34.1123 13.1812 Q34.1123 13.0718 34.253 13.0718 L34.4717 13.0718 Q34.5342 13.0718 34.5733 13.1265 Q34.6123 13.1812 34.6123 13.2437 L34.6123 13.2906 Q34.3467 14.3531 33.5342 14.9781 Q32.7217 15.6031 31.628 15.6031 Z"
      /><path style="stroke:none;" d="M35.7605 15.3999 L35.7605 14.7593 Q36.3699 14.7593 36.7683 14.6656 Q37.1667 14.5718 37.1667 14.1968 L37.1667 9.2749 Q37.1667 8.8062 37.0183 8.5874 Q36.8699 8.3687 36.5964 8.3218 Q36.323 8.2749 35.7605 8.2749 L35.7605 7.6343 L38.3386 7.4468 L38.3386 9.1968 Q38.6199 8.4156 39.1589 7.9312 Q39.698 7.4468 40.4636 7.4468 Q40.9949 7.4468 41.4167 7.7593 Q41.8386 8.0718 41.8386 8.6031 Q41.8386 8.9156 41.6042 9.1577 Q41.3699 9.3999 41.0261 9.3999 Q40.698 9.3999 40.4636 9.1656 Q40.2292 8.9312 40.2292 8.6031 Q40.2292 8.1187 40.573 7.9156 L40.4636 7.9156 Q39.7292 7.9156 39.2683 8.439 Q38.8074 8.9624 38.612 9.7437 Q38.4167 10.5249 38.4167 11.2437 L38.4167 14.1968 Q38.4167 14.7593 40.1667 14.7593 L40.1667 15.3999 L35.7605 15.3999 Z"
      /><path style="stroke:none;" d="M46.9567 15.6031 Q45.8629 15.6031 44.941 15.0249 Q44.0192 14.4468 43.4957 13.4859 Q42.9723 12.5249 42.9723 11.4468 Q42.9723 10.3999 43.4489 9.4468 Q43.9254 8.4937 44.7848 7.9156 Q45.6442 7.3374 46.7067 7.3374 Q47.5192 7.3374 48.1364 7.6109 Q48.7535 7.8843 49.1442 8.3765 Q49.5348 8.8687 49.7379 9.5406 Q49.941 10.2124 49.941 11.0093 Q49.941 11.2437 49.7535 11.2437 L44.5504 11.2437 L44.5504 11.4312 Q44.5504 12.9312 45.152 14.0015 Q45.7535 15.0718 47.1129 15.0718 Q47.6598 15.0718 48.1364 14.8296 Q48.6129 14.5874 48.9567 14.1421 Q49.3004 13.6968 49.4254 13.1968 Q49.441 13.1343 49.4879 13.0874 Q49.5348 13.0406 49.5973 13.0406 L49.7535 13.0406 Q49.941 13.0406 49.941 13.2749 Q49.691 14.2906 48.8473 14.9468 Q48.0035 15.6031 46.9567 15.6031 ZM44.566 10.7906 L48.6754 10.7906 Q48.6754 10.1187 48.4801 9.4234 Q48.2848 8.7281 47.8473 8.2671 Q47.4098 7.8062 46.7067 7.8062 Q45.6754 7.8062 45.1207 8.7593 Q44.566 9.7124 44.566 10.7906 Z"
      /><path style="stroke:none;" d="M52.4642 13.2437 L52.4642 8.2749 L50.9642 8.2749 L50.9642 7.8062 Q52.1361 7.8062 52.6907 6.7046 Q53.2454 5.6031 53.2454 4.3218 L53.7611 4.3218 L53.7611 7.6343 L56.3079 7.6343 L56.3079 8.2749 L53.7611 8.2749 L53.7611 13.1968 Q53.7611 13.9468 54.0111 14.5093 Q54.2611 15.0718 54.9173 15.0718 Q55.5267 15.0718 55.8001 14.4781 Q56.0736 13.8843 56.0736 13.1968 L56.0736 12.1343 L56.6048 12.1343 L56.6048 13.2437 Q56.6048 13.8062 56.3939 14.3531 Q56.1829 14.8999 55.7767 15.2515 Q55.3704 15.6031 54.7923 15.6031 Q53.7142 15.6031 53.0892 14.9546 Q52.4642 14.3062 52.4642 13.2437 Z"
      /><path style="stroke:none;" d="M62.2501 15.6031 Q61.172 15.6031 60.2501 15.0562 Q59.3282 14.5093 58.7891 13.5796 Q58.2501 12.6499 58.2501 11.5718 Q58.2501 10.7437 58.547 9.9781 Q58.8438 9.2124 59.3907 8.6109 Q59.9376 8.0093 60.6641 7.6734 Q61.3907 7.3374 62.2501 7.3374 Q63.3595 7.3374 64.2657 7.9156 Q65.172 8.4937 65.7032 9.4781 Q66.2345 10.4624 66.2345 11.5718 Q66.2345 12.6499 65.6954 13.5796 Q65.1563 14.5093 64.2423 15.0562 Q63.3282 15.6031 62.2501 15.6031 ZM62.2501 15.0718 Q63.6876 15.0718 64.172 14.0249 Q64.6563 12.9781 64.6563 11.3687 Q64.6563 10.4624 64.5626 9.8687 Q64.4688 9.2749 64.1407 8.7906 Q63.9376 8.4937 63.6251 8.2671 Q63.3126 8.0406 62.9688 7.9234 Q62.6251 7.8062 62.2501 7.8062 Q61.6876 7.8062 61.1798 8.064 Q60.672 8.3218 60.3438 8.7906 Q60.0157 9.3062 59.922 9.9156 Q59.8282 10.5249 59.8282 11.3687 Q59.8282 12.3687 60.0001 13.1734 Q60.172 13.9781 60.7032 14.5249 Q61.2345 15.0718 62.2501 15.0718 Z"
    /></g
    ><g style="fill:white; text-rendering:optimizeSpeed; color-rendering:optimizeSpeed; image-rendering:optimizeSpeed; shape-rendering:crispEdges; stroke:white; color-interpolation:sRGB;"
    ><path style="stroke:none;" d="M436 77 L436 54 L341 54 L341 77 Z"
    /></g
    ><g transform="translate(399.4041,65.5)" style="font-size:15px; text-rendering:geometricPrecision; color-rendering:optimizeQuality; image-rendering:optimizeQuality; font-family:'mwa_cmmi10'; color-interpolation:linearRGB;"
    ><path style="stroke:none;" d="M2.6094 3.7718 Q1.6562 3.7718 1.1172 3.0531 Q0.5781 2.3343 0.5781 1.3656 Q0.5781 0.4124 1.0703 -0.6266 Q1.5625 -1.6657 2.4141 -2.3454 Q3.2656 -3.0251 4.2344 -3.0251 Q4.6875 -3.0251 5.0391 -2.7829 Q5.3906 -2.5407 5.5781 -2.1344 Q5.75 -2.7282 6.2344 -2.7282 Q6.4375 -2.7282 6.5625 -2.611 Q6.6875 -2.4938 6.6875 -2.3063 Q6.6875 -2.2594 6.6875 -2.2438 Q6.6875 -2.2282 6.6719 -2.1969 L5.625 1.9906 Q5.5156 2.4437 5.5156 2.7249 Q5.5156 3.3656 5.9531 3.3656 Q6.4219 3.3656 6.6719 2.7718 Q6.9219 2.1781 7.0781 1.3968 Q7.1094 1.3031 7.2031 1.3031 L7.3906 1.3031 Q7.4375 1.3031 7.4766 1.3578 Q7.5156 1.4124 7.5156 1.4593 Q7.25 2.5062 6.9375 3.139 Q6.625 3.7718 5.9219 3.7718 Q5.4219 3.7718 5.0312 3.4749 Q4.6406 3.1781 4.5469 2.6781 Q3.5781 3.7718 2.6094 3.7718 ZM2.625 3.3656 Q3.1719 3.3656 3.6797 2.9593 Q4.1875 2.5531 4.5469 2.0062 Q4.5625 1.9906 4.5625 1.9593 L5.375 -1.2907 L5.3906 -1.3376 Q5.2969 -1.8688 5 -2.2516 Q4.7031 -2.6344 4.2031 -2.6344 Q3.6875 -2.6344 3.25 -2.2204 Q2.8125 -1.8063 2.5156 -1.2438 Q2.2344 -0.6501 1.9609 0.3968 Q1.6875 1.4437 1.6875 2.0218 Q1.6875 2.5374 1.9141 2.9515 Q2.1406 3.3656 2.625 3.3656 Z"
    /></g
    ><g transform="translate(399.4041,65.5)" style="font-size:10.5px; text-rendering:geometricPrecision; color-rendering:optimizeQuality; image-rendering:optimizeQuality; font-family:'mwa_cmmi10'; color-interpolation:linearRGB;"
    ><path style="stroke:none;" d="M8.4601 5.6624 Q8.4601 5.6155 8.4757 5.5843 L9.9288 -0.197 Q9.9601 -0.3688 9.9757 -0.4626 Q9.9757 -0.6345 9.3195 -0.6345 Q9.2257 -0.6345 9.2257 -0.7595 Q9.2257 -0.7907 9.2413 -0.8532 Q9.257 -0.9157 9.2804 -0.947 Q9.3038 -0.9782 9.3663 -0.9782 L10.7101 -1.0876 L10.7413 -1.0876 Q10.7413 -1.072 10.7726 -1.0563 Q10.8038 -1.0407 10.8038 -1.0407 Q10.8351 -0.9938 10.8351 -0.9626 L9.7726 3.2249 Q10.1476 3.0687 10.6945 2.4984 Q11.2413 1.928 11.5538 1.678 Q11.8663 1.428 12.3351 1.428 Q12.6007 1.428 12.796 1.6234 Q12.9913 1.8187 12.9913 2.0843 Q12.9913 2.2718 12.921 2.4202 Q12.8507 2.5687 12.7179 2.6624 Q12.5851 2.7562 12.4132 2.7562 Q12.257 2.7562 12.1476 2.6546 Q12.0382 2.553 12.0382 2.3812 Q12.0382 2.1468 12.2023 1.9827 Q12.3663 1.8187 12.6007 1.8187 Q12.507 1.6937 12.3038 1.6937 Q12.007 1.6937 11.7335 1.8655 Q11.4601 2.0374 11.1398 2.3577 Q10.8195 2.678 10.5538 2.9437 Q10.2882 3.2093 10.0695 3.3343 Q10.6632 3.4124 11.0929 3.6546 Q11.5226 3.8968 11.5226 4.3968 Q11.5226 4.4905 11.4913 4.6468 Q11.3976 5.0218 11.3976 5.2562 Q11.3976 5.6937 11.7101 5.6937 Q12.0695 5.6937 12.257 5.303 Q12.4445 4.9124 12.5695 4.3812 Q12.5851 4.3187 12.6476 4.3187 L12.7726 4.3187 Q12.8038 4.3187 12.8351 4.3421 Q12.8663 4.3655 12.8663 4.4124 Q12.8663 4.4124 12.8507 4.4437 Q12.4757 5.9593 11.6945 5.9593 Q11.4132 5.9593 11.1945 5.8265 Q10.9757 5.6937 10.8585 5.4671 Q10.7413 5.2405 10.7413 4.9593 Q10.7413 4.803 10.7882 4.6312 Q10.8038 4.5062 10.8038 4.4124 Q10.8038 4.0218 10.4679 3.8187 Q10.132 3.6155 9.6945 3.5843 L9.1788 5.6155 Q9.1476 5.7718 9.0304 5.8655 Q8.9132 5.9593 8.7726 5.9593 Q8.6476 5.9593 8.5538 5.8734 Q8.4601 5.7874 8.4601 5.6624 Z"
      /><path style="stroke:none;" d="M16.2413 7.3499 L16.2413 -7.6501 L18.3038 -7.6501 L18.3038 -7.0563 L16.8507 -7.0563 L16.8507 6.7562 L18.3038 6.7562 L18.3038 7.3499 L16.2413 7.3499 Z"
      /><path style="stroke:none;" d="M19.7986 3.3499 Q19.7986 3.2562 19.8143 3.2093 L20.9393 -1.2594 Q21.0486 -1.6813 21.0486 -1.9938 Q21.0486 -2.6344 20.6111 -2.6344 Q20.1424 -2.6344 19.9158 -2.0797 Q19.6893 -1.5251 19.4705 -0.6657 Q19.4705 -0.6188 19.4236 -0.5954 Q19.3768 -0.5719 19.3455 -0.5719 L19.1736 -0.5719 Q19.1111 -0.5719 19.0799 -0.6266 Q19.0486 -0.6813 19.0486 -0.7282 Q19.2049 -1.3688 19.3533 -1.8219 Q19.5018 -2.2751 19.8221 -2.6501 Q20.1424 -3.0251 20.6268 -3.0251 Q21.1893 -3.0251 21.6189 -2.6735 Q22.0486 -2.3219 22.0486 -1.7751 Q22.5018 -2.3532 23.0955 -2.6891 Q23.6893 -3.0251 24.3768 -3.0251 Q24.908 -3.0251 25.2908 -2.8454 Q25.6736 -2.6657 25.8924 -2.2907 Q26.1111 -1.9157 26.1111 -1.4157 Q26.1111 -0.7907 25.8377 0.0765 Q25.5643 0.9437 25.158 2.0218 Q24.9393 2.5218 24.9393 2.9281 Q24.9393 3.3656 25.283 3.3656 Q25.8768 3.3656 26.2674 2.7406 Q26.658 2.1156 26.8143 1.3968 Q26.8455 1.3031 26.9393 1.3031 L27.1111 1.3031 Q27.1736 1.3031 27.2127 1.3421 Q27.2518 1.3812 27.2518 1.4437 Q27.2518 1.4593 27.2361 1.4906 Q27.033 2.3343 26.5252 3.0531 Q26.0174 3.7718 25.2518 3.7718 Q24.7361 3.7718 24.3611 3.4046 Q23.9861 3.0374 23.9861 2.5218 Q23.9861 2.2406 24.0955 1.9437 Q24.283 1.4437 24.533 0.764 Q24.783 0.0843 24.9393 -0.5407 Q25.0955 -1.1657 25.0955 -1.6344 Q25.0955 -2.0563 24.9236 -2.3454 Q24.7518 -2.6344 24.3455 -2.6344 Q23.7986 -2.6344 23.3299 -2.3922 Q22.8611 -2.1501 22.5174 -1.7516 Q22.1736 -1.3532 21.8924 -0.8063 L20.8768 3.2718 Q20.8299 3.4749 20.6502 3.6234 Q20.4705 3.7718 20.2518 3.7718 Q20.0643 3.7718 19.9314 3.6546 Q19.7986 3.5374 19.7986 3.3499 Z"
      /><path style="stroke:none;" d="M27.974 7.3499 L27.974 6.7562 L29.4272 6.7562 L29.4272 -7.0563 L27.974 -7.0563 L27.974 -7.6501 L30.0365 -7.6501 L30.0365 7.3499 L27.974 7.3499 Z"
    /></g
    ><g style="stroke-linecap:butt; fill:red; text-rendering:geometricPrecision; image-rendering:optimizeQuality; color-rendering:optimizeQuality; stroke-linejoin:bevel; stroke-dasharray:10,6; stroke:red; color-interpolation:linearRGB; stroke-width:0.8333; stroke-miterlimit:1;"
    ><line y2="65.5" style="fill:none;" x1="345.9706" x2="380.7645" y1="65.5"
    /></g
    ><g transform="translate(380.7645,65.5)" style="fill:red; text-rendering:geometricPrecision; color-rendering:optimizeQuality; image-rendering:optimizeQuality; color-interpolation:linearRGB; stroke:red;"
    ><circle r="5" style="stroke:none;" cx="0" cy="0"
    /></g
    ><g transform="translate(380.7645,65.5)" style="stroke-linecap:butt; fill:red; text-rendering:geometricPrecision; color-rendering:optimizeQuality; image-rendering:optimizeQuality; color-interpolation:linearRGB; stroke:red;"
    ><circle r="5" style="fill:none;" cx="0" cy="0"
      /><path transform="translate(-380.7645,-65.5)" style="fill:none; stroke-width:0.8333; fill-rule:evenodd; stroke:rgb(38,38,38);" d="M341 77 L341 54 L436 54 L436 77 Z"
    /></g
  ></g
></svg
>
