<?xml version="1.0"?>
<!DOCTYPE svg PUBLIC '-//W3C//DTD SVG 1.0//EN'
          'http://www.w3.org/TR/2001/REC-SVG-20010904/DTD/svg10.dtd'>
<svg xmlns:xlink="http://www.w3.org/1999/xlink" style="fill-opacity:1; color-rendering:auto; color-interpolation:auto; text-rendering:auto; stroke:black; stroke-linecap:square; stroke-miterlimit:10; shape-rendering:auto; stroke-opacity:1; fill:black; stroke-dasharray:none; font-weight:normal; stroke-width:1; font-family:'Dialog'; font-style:normal; stroke-linejoin:miter; font-size:12px; stroke-dashoffset:0; image-rendering:auto;" width="500" height="500" xmlns="http://www.w3.org/2000/svg"
><!--Generated by the Batik Graphics2D SVG Generator--><defs id="genericDefs"
  /><g
  ><defs id="defs1"
    ><clipPath clipPathUnits="userSpaceOnUse" id="clipPath1"
      ><path d="M0 0 L500 0 L500 500 L0 500 L0 0 Z"
      /></clipPath
    ></defs
    ><g style="fill:white; stroke:white;"
    ><rect x="0" y="0" width="500" style="clip-path:url(#clipPath1); stroke:none;" height="500"
    /></g
    ><g style="fill:white; text-rendering:optimizeSpeed; color-rendering:optimizeSpeed; image-rendering:optimizeSpeed; shape-rendering:crispEdges; stroke:white; color-interpolation:sRGB;"
    ><rect x="0" width="500" height="500" y="0" style="stroke:none;"
      /><path style="stroke:none;" d="M65 445 L453 445 L453 37 L65 37 Z"
    /></g
    ><g style="stroke-linecap:butt; fill-opacity:0.149; fill:rgb(38,38,38); text-rendering:geometricPrecision; image-rendering:optimizeQuality; color-rendering:optimizeQuality; stroke-linejoin:round; stroke:rgb(38,38,38); color-interpolation:linearRGB; stroke-width:0.8333; stroke-opacity:0.149;"
    ><line y2="37" style="fill:none;" x1="65" x2="65" y1="445"
      /><line y2="37" style="fill:none;" x1="162" x2="162" y1="445"
      /><line y2="37" style="fill:none;" x1="259" x2="259" y1="445"
      /><line y2="37" style="fill:none;" x1="356" x2="356" y1="445"
      /><line y2="37" style="fill:none;" x1="453" x2="453" y1="445"
      /><line y2="396.3037" style="fill:none;" x1="453" x2="65" y1="396.3037"
      /><line y2="324.443" style="fill:none;" x1="453" x2="65" y1="324.443"
      /><line y2="252.5822" style="fill:none;" x1="453" x2="65" y1="252.5822"
      /><line y2="180.7215" style="fill:none;" x1="453" x2="65" y1="180.7215"
      /><line y2="108.8607" style="fill:none;" x1="453" x2="65" y1="108.8607"
      /><line y2="37" style="fill:none;" x1="453" x2="65" y1="37"
      /><line x1="65" x2="453" y1="445" style="stroke-linecap:square; fill-opacity:1; fill:none; stroke-opacity:1;" y2="445"
      /><line x1="65" x2="453" y1="37" style="stroke-linecap:square; fill-opacity:1; fill:none; stroke-opacity:1;" y2="37"
      /><line x1="65" x2="65" y1="445" style="stroke-linecap:square; fill-opacity:1; fill:none; stroke-opacity:1;" y2="440.92"
      /><line x1="162" x2="162" y1="445" style="stroke-linecap:square; fill-opacity:1; fill:none; stroke-opacity:1;" y2="440.92"
      /><line x1="259" x2="259" y1="445" style="stroke-linecap:square; fill-opacity:1; fill:none; stroke-opacity:1;" y2="440.92"
      /><line x1="356" x2="356" y1="445" style="stroke-linecap:square; fill-opacity:1; fill:none; stroke-opacity:1;" y2="440.92"
      /><line x1="453" x2="453" y1="445" style="stroke-linecap:square; fill-opacity:1; fill:none; stroke-opacity:1;" y2="440.92"
      /><line x1="65" x2="65" y1="37" style="stroke-linecap:square; fill-opacity:1; fill:none; stroke-opacity:1;" y2="41.08"
      /><line x1="162" x2="162" y1="37" style="stroke-linecap:square; fill-opacity:1; fill:none; stroke-opacity:1;" y2="41.08"
      /><line x1="259" x2="259" y1="37" style="stroke-linecap:square; fill-opacity:1; fill:none; stroke-opacity:1;" y2="41.08"
      /><line x1="356" x2="356" y1="37" style="stroke-linecap:square; fill-opacity:1; fill:none; stroke-opacity:1;" y2="41.08"
      /><line x1="453" x2="453" y1="37" style="stroke-linecap:square; fill-opacity:1; fill:none; stroke-opacity:1;" y2="41.08"
    /></g
    ><g transform="translate(65,451.6667)" style="font-size:16.6667px; fill:rgb(38,38,38); text-rendering:geometricPrecision; image-rendering:optimizeQuality; color-rendering:optimizeQuality; font-family:'SansSerif'; stroke:rgb(38,38,38); color-interpolation:linearRGB;"
    ><path style="stroke:none;" d="M-4.2969 11 Q-4.2969 8.8438 -3.8516 7.5234 Q-3.4062 6.2031 -2.5312 5.4922 Q-1.6562 4.7812 -0.3281 4.7812 Q0.6562 4.7812 1.3906 5.1719 Q2.125 5.5625 2.6094 6.3125 Q3.0938 7.0625 3.3672 8.125 Q3.6406 9.1875 3.6406 11 Q3.6406 13.1406 3.2031 14.4531 Q2.7656 15.7656 1.8906 16.4844 Q1.0156 17.2031 -0.3281 17.2031 Q-2.0938 17.2031 -3.0938 15.9531 Q-4.2969 14.4219 -4.2969 11 ZM-2.7656 11 Q-2.7656 14 -2.0625 14.9922 Q-1.3594 15.9844 -0.3281 15.9844 Q0.7031 15.9844 1.4062 14.9844 Q2.1094 13.9844 2.1094 11 Q2.1094 8 1.4062 7.0078 Q0.7031 6.0156 -0.3438 6.0156 Q-1.375 6.0156 -1.9844 6.8906 Q-2.7656 8 -2.7656 11 Z"
    /></g
    ><g transform="translate(162,451.6667)" style="font-size:16.6667px; fill:rgb(38,38,38); text-rendering:geometricPrecision; image-rendering:optimizeQuality; color-rendering:optimizeQuality; font-family:'SansSerif'; stroke:rgb(38,38,38); color-interpolation:linearRGB;"
    ><path style="stroke:none;" d="M-0.9375 15.5625 L-0.9375 17 L-8.9844 17 Q-9 16.4531 -8.8125 15.9688 Q-8.5 15.1406 -7.8281 14.3438 Q-7.1562 13.5469 -5.875 12.5 Q-3.8906 10.875 -3.1953 9.9219 Q-2.5 8.9688 -2.5 8.125 Q-2.5 7.2344 -3.1328 6.625 Q-3.7656 6.0156 -4.7812 6.0156 Q-5.8594 6.0156 -6.5078 6.6641 Q-7.1562 7.3125 -7.1719 8.4531 L-8.7031 8.2969 Q-8.5469 6.5781 -7.5156 5.6797 Q-6.4844 4.7812 -4.75 4.7812 Q-3 4.7812 -1.9766 5.75 Q-0.9531 6.7188 -0.9531 8.1562 Q-0.9531 8.8906 -1.2578 9.5938 Q-1.5625 10.2969 -2.25 11.0781 Q-2.9375 11.8594 -4.5469 13.2188 Q-5.8906 14.3594 -6.2734 14.7578 Q-6.6562 15.1562 -6.9062 15.5625 L-0.9375 15.5625 ZM0.4665 13.8125 L2.0447 13.6719 Q2.2165 14.8281 2.8493 15.4062 Q3.4822 15.9844 4.3728 15.9844 Q5.4509 15.9844 6.2009 15.1719 Q6.9509 14.3594 6.9509 13 Q6.9509 11.7344 6.2322 10.9922 Q5.5134 10.25 4.3572 10.25 Q3.6384 10.25 3.0525 10.5781 Q2.4665 10.9062 2.1384 11.4375 L0.7322 11.25 L1.9197 5 L7.9665 5 L7.9665 6.4219 L3.1072 6.4219 L2.4509 9.6875 Q3.5447 8.9375 4.7478 8.9375 Q6.3415 8.9375 7.4431 10.0391 Q8.5447 11.1406 8.5447 12.875 Q8.5447 14.5312 7.5759 15.7344 Q6.404 17.2031 4.3728 17.2031 Q2.7165 17.2031 1.6697 16.2734 Q0.6228 15.3438 0.4665 13.8125 Z"
    /></g
    ><g transform="translate(259,451.6667)" style="font-size:16.6667px; fill:rgb(38,38,38); text-rendering:geometricPrecision; image-rendering:optimizeQuality; color-rendering:optimizeQuality; font-family:'SansSerif'; stroke:rgb(38,38,38); color-interpolation:linearRGB;"
    ><path style="stroke:none;" d="M-8.7969 13.8125 L-7.2188 13.6719 Q-7.0469 14.8281 -6.4141 15.4062 Q-5.7812 15.9844 -4.8906 15.9844 Q-3.8125 15.9844 -3.0625 15.1719 Q-2.3125 14.3594 -2.3125 13 Q-2.3125 11.7344 -3.0312 10.9922 Q-3.75 10.25 -4.9062 10.25 Q-5.625 10.25 -6.2109 10.5781 Q-6.7969 10.9062 -7.125 11.4375 L-8.5312 11.25 L-7.3438 5 L-1.2969 5 L-1.2969 6.4219 L-6.1562 6.4219 L-6.8125 9.6875 Q-5.7188 8.9375 -4.5156 8.9375 Q-2.9219 8.9375 -1.8203 10.0391 Q-0.7188 11.1406 -0.7188 12.875 Q-0.7188 14.5312 -1.6875 15.7344 Q-2.8594 17.2031 -4.8906 17.2031 Q-6.5469 17.2031 -7.5938 16.2734 Q-8.6406 15.3438 -8.7969 13.8125 ZM0.4665 11 Q0.4665 8.8438 0.9118 7.5234 Q1.3572 6.2031 2.2322 5.4922 Q3.1072 4.7812 4.4353 4.7812 Q5.4197 4.7812 6.154 5.1719 Q6.8884 5.5625 7.3728 6.3125 Q7.8572 7.0625 8.1306 8.125 Q8.404 9.1875 8.404 11 Q8.404 13.1406 7.9665 14.4531 Q7.529 15.7656 6.654 16.4844 Q5.779 17.2031 4.4353 17.2031 Q2.6697 17.2031 1.6697 15.9531 Q0.4665 14.4219 0.4665 11 ZM1.9978 11 Q1.9978 14 2.7009 14.9922 Q3.404 15.9844 4.4353 15.9844 Q5.4665 15.9844 6.1697 14.9844 Q6.8728 13.9844 6.8728 11 Q6.8728 8 6.1697 7.0078 Q5.4665 6.0156 4.4197 6.0156 Q3.3884 6.0156 2.779 6.8906 Q1.9978 8 1.9978 11 Z"
    /></g
    ><g transform="translate(356,451.6667)" style="font-size:16.6667px; fill:rgb(38,38,38); text-rendering:geometricPrecision; image-rendering:optimizeQuality; color-rendering:optimizeQuality; font-family:'SansSerif'; stroke:rgb(38,38,38); color-interpolation:linearRGB;"
    ><path style="stroke:none;" d="M-8.6875 6.4219 L-8.6875 4.9844 L-0.8125 4.9844 L-0.8125 6.1562 Q-1.9844 7.3906 -3.125 9.4375 Q-4.2656 11.4844 -4.8906 13.6562 Q-5.3281 15.1875 -5.4531 17 L-7 17 Q-6.9688 15.5625 -6.4297 13.5312 Q-5.8906 11.5 -4.8828 9.6094 Q-3.875 7.7188 -2.7344 6.4219 L-8.6875 6.4219 ZM0.4665 13.8125 L2.0447 13.6719 Q2.2165 14.8281 2.8493 15.4062 Q3.4822 15.9844 4.3728 15.9844 Q5.4509 15.9844 6.2009 15.1719 Q6.9509 14.3594 6.9509 13 Q6.9509 11.7344 6.2322 10.9922 Q5.5134 10.25 4.3572 10.25 Q3.6384 10.25 3.0525 10.5781 Q2.4665 10.9062 2.1384 11.4375 L0.7322 11.25 L1.9197 5 L7.9665 5 L7.9665 6.4219 L3.1072 6.4219 L2.4509 9.6875 Q3.5447 8.9375 4.7478 8.9375 Q6.3415 8.9375 7.4431 10.0391 Q8.5447 11.1406 8.5447 12.875 Q8.5447 14.5312 7.5759 15.7344 Q6.404 17.2031 4.3728 17.2031 Q2.7165 17.2031 1.6697 16.2734 Q0.6228 15.3438 0.4665 13.8125 Z"
    /></g
    ><g transform="translate(453,451.6667)" style="font-size:16.6667px; fill:rgb(38,38,38); text-rendering:geometricPrecision; image-rendering:optimizeQuality; color-rendering:optimizeQuality; font-family:'SansSerif'; stroke:rgb(38,38,38); color-interpolation:linearRGB;"
    ><path style="stroke:none;" d="M-7.6719 17 L-9.1562 17 L-9.1562 7.4844 Q-9.7031 8 -10.5781 8.5078 Q-11.4531 9.0156 -12.1562 9.2812 L-12.1562 7.8281 Q-10.8906 7.25 -9.9531 6.4062 Q-9.0156 5.5625 -8.625 4.7812 L-7.6719 4.7812 L-7.6719 17 ZM-4.0335 11 Q-4.0335 8.8438 -3.5882 7.5234 Q-3.1428 6.2031 -2.2678 5.4922 Q-1.3928 4.7812 -0.0647 4.7812 Q0.9197 4.7812 1.654 5.1719 Q2.3884 5.5625 2.8728 6.3125 Q3.3572 7.0625 3.6306 8.125 Q3.904 9.1875 3.904 11 Q3.904 13.1406 3.4665 14.4531 Q3.029 15.7656 2.154 16.4844 Q1.279 17.2031 -0.0647 17.2031 Q-1.8303 17.2031 -2.8303 15.9531 Q-4.0335 14.4219 -4.0335 11 ZM-2.5022 11 Q-2.5022 14 -1.7991 14.9922 Q-1.096 15.9844 -0.0647 15.9844 Q0.9665 15.9844 1.6697 14.9844 Q2.3728 13.9844 2.3728 11 Q2.3728 8 1.6697 7.0078 Q0.9665 6.0156 -0.0803 6.0156 Q-1.1116 6.0156 -1.721 6.8906 Q-2.5022 8 -2.5022 11 ZM5.2299 11 Q5.2299 8.8438 5.6753 7.5234 Q6.1206 6.2031 6.9956 5.4922 Q7.8706 4.7812 9.1987 4.7812 Q10.1831 4.7812 10.9174 5.1719 Q11.6518 5.5625 12.1362 6.3125 Q12.6206 7.0625 12.894 8.125 Q13.1674 9.1875 13.1674 11 Q13.1674 13.1406 12.7299 14.4531 Q12.2924 15.7656 11.4174 16.4844 Q10.5424 17.2031 9.1987 17.2031 Q7.4331 17.2031 6.4331 15.9531 Q5.2299 14.4219 5.2299 11 ZM6.7612 11 Q6.7612 14 7.4643 14.9922 Q8.1674 15.9844 9.1987 15.9844 Q10.2299 15.9844 10.9331 14.9844 Q11.6362 13.9844 11.6362 11 Q11.6362 8 10.9331 7.0078 Q10.2299 6.0156 9.1831 6.0156 Q8.1518 6.0156 7.5424 6.8906 Q6.7612 8 6.7612 11 Z"
    /></g
    ><g transform="translate(259.0002,474.3333)" style="font-size:18.3333px; fill:rgb(38,38,38); text-rendering:geometricPrecision; image-rendering:optimizeQuality; color-rendering:optimizeQuality; font-family:'mwa_cmr10'; stroke:rgb(38,38,38); color-interpolation:linearRGB;"
    ><path style="stroke:none;" d="M-35.8988 15.3999 L-35.8988 14.7593 Q-34.055 14.7593 -34.055 13.6968 L-34.055 4.3062 Q-34.055 3.7437 -35.8988 3.7437 L-35.8988 3.1031 L-32.5082 3.1031 Q-32.2894 3.1031 -32.2113 3.3062 L-28.2894 13.4937 L-24.3675 3.3062 Q-24.305 3.1031 -24.0863 3.1031 L-20.68 3.1031 L-20.68 3.7437 Q-22.5394 3.7437 -22.5394 4.3062 L-22.5394 14.1968 Q-22.5394 14.7593 -20.68 14.7593 L-20.68 15.3999 L-25.9144 15.3999 L-25.9144 14.7593 Q-24.0707 14.7593 -24.0707 14.1968 L-24.0707 3.7124 L-28.4925 15.1968 Q-28.5707 15.3999 -28.7894 15.3999 Q-29.0238 15.3999 -29.1019 15.1968 L-33.4769 3.8531 L-33.4769 13.6968 Q-33.4769 14.7593 -31.6332 14.7593 L-31.6332 15.3999 L-35.8988 15.3999 Z"
      /><path style="stroke:none;" d="M-17.7963 13.2593 L-17.7963 9.2749 Q-17.7963 8.8062 -17.9369 8.5874 Q-18.0776 8.3687 -18.351 8.3218 Q-18.6244 8.2749 -19.2026 8.2749 L-19.2026 7.6343 L-16.4682 7.4468 L-16.4682 13.2593 Q-16.4682 13.9624 -16.3666 14.3531 Q-16.2651 14.7437 -15.9369 14.939 Q-15.6088 15.1343 -14.8901 15.1343 Q-13.9213 15.1343 -13.351 14.3218 Q-12.7807 13.5093 -12.7807 12.4781 L-12.7807 9.2749 Q-12.7807 8.8062 -12.9291 8.5874 Q-13.0776 8.3687 -13.3432 8.3218 Q-13.6088 8.2749 -14.1869 8.2749 L-14.1869 7.6343 L-11.4682 7.4468 L-11.4682 13.7593 Q-11.4682 14.2437 -11.3276 14.4546 Q-11.1869 14.6656 -10.9135 14.7124 Q-10.6401 14.7593 -10.0619 14.7593 L-10.0619 15.3999 L-12.7338 15.6031 L-12.7338 14.0874 Q-13.0619 14.7593 -13.6635 15.1812 Q-14.2651 15.6031 -14.9838 15.6031 Q-16.2651 15.6031 -17.0307 15.0562 Q-17.7963 14.5093 -17.7963 13.2593 Z"
      /><path style="stroke:none;" d="M-5.0642 15.6031 Q-6.158 15.6031 -7.0799 15.0249 Q-8.0017 14.4468 -8.5252 13.4859 Q-9.0486 12.5249 -9.0486 11.4468 Q-9.0486 10.3999 -8.572 9.4468 Q-8.0955 8.4937 -7.2361 7.9156 Q-6.3767 7.3374 -5.3142 7.3374 Q-4.5017 7.3374 -3.8845 7.6109 Q-3.2674 7.8843 -2.8767 8.3765 Q-2.4861 8.8687 -2.283 9.5406 Q-2.0799 10.2124 -2.0799 11.0093 Q-2.0799 11.2437 -2.2674 11.2437 L-7.4705 11.2437 L-7.4705 11.4312 Q-7.4705 12.9312 -6.8689 14.0015 Q-6.2674 15.0718 -4.908 15.0718 Q-4.3611 15.0718 -3.8845 14.8296 Q-3.408 14.5874 -3.0642 14.1421 Q-2.7205 13.6968 -2.5955 13.1968 Q-2.5799 13.1343 -2.533 13.0874 Q-2.4861 13.0406 -2.4236 13.0406 L-2.2674 13.0406 Q-2.0799 13.0406 -2.0799 13.2749 Q-2.3299 14.2906 -3.1736 14.9468 Q-4.0174 15.6031 -5.0642 15.6031 ZM-7.4549 10.7906 L-3.3455 10.7906 Q-3.3455 10.1187 -3.5408 9.4234 Q-3.7361 8.7281 -4.1736 8.2671 Q-4.6111 7.8062 -5.3142 7.8062 Q-6.3455 7.8062 -6.9002 8.7593 Q-7.4549 9.7124 -7.4549 10.7906 Z"
      /><path style="stroke:none;" d="M-0.8067 15.4468 L-0.8067 12.5093 Q-0.8067 12.3687 -0.6505 12.3687 L-0.4317 12.3687 Q-0.3223 12.3687 -0.2911 12.5093 Q0.2245 15.1343 2.1464 15.1343 Q2.9902 15.1343 3.5683 14.7437 Q4.1464 14.3531 4.1464 13.5406 Q4.1464 12.9624 3.7011 12.5562 Q3.2558 12.1499 2.6308 11.9937 L1.4277 11.7593 Q0.8183 11.6343 0.3261 11.3609 Q-0.1661 11.0874 -0.4864 10.6343 Q-0.8067 10.1812 -0.8067 9.5874 Q-0.8067 8.7906 -0.3848 8.2827 Q0.037 7.7749 0.7011 7.5562 Q1.3652 7.3374 2.1464 7.3374 Q3.0683 7.3374 3.7558 7.8218 L4.2714 7.3687 Q4.2714 7.3374 4.3495 7.3374 L4.4902 7.3374 Q4.537 7.3374 4.5839 7.3843 Q4.6308 7.4312 4.6308 7.4781 L4.6308 9.8374 Q4.6308 10.0093 4.4902 10.0093 L4.2714 10.0093 Q4.1152 10.0093 4.1152 9.8374 Q4.1152 8.8999 3.5917 8.3296 Q3.0683 7.7593 2.1308 7.7593 Q1.3183 7.7593 0.7245 8.0562 Q0.1308 8.3531 0.1308 9.0874 Q0.1308 9.5874 0.5527 9.9077 Q0.9745 10.2281 1.5527 10.3687 L2.7714 10.5874 Q3.3964 10.7281 3.9277 11.064 Q4.4589 11.3999 4.7714 11.9077 Q5.0839 12.4156 5.0839 13.0562 Q5.0839 13.7124 4.8574 14.189 Q4.6308 14.6656 4.2324 14.9859 Q3.8339 15.3062 3.287 15.4546 Q2.7402 15.6031 2.1464 15.6031 Q1.0214 15.6031 0.2245 14.8531 L-0.4473 15.5562 Q-0.4473 15.6031 -0.5411 15.6031 L-0.6505 15.6031 Q-0.8067 15.6031 -0.8067 15.4468 Z"
      /><path style="stroke:none;" d="M7.6748 13.2437 L7.6748 8.2749 L6.1748 8.2749 L6.1748 7.8062 Q7.3466 7.8062 7.9013 6.7046 Q8.456 5.6031 8.456 4.3218 L8.9716 4.3218 L8.9716 7.6343 L11.5185 7.6343 L11.5185 8.2749 L8.9716 8.2749 L8.9716 13.1968 Q8.9716 13.9468 9.2216 14.5093 Q9.4716 15.0718 10.1279 15.0718 Q10.7373 15.0718 11.0107 14.4781 Q11.2841 13.8843 11.2841 13.1968 L11.2841 12.1343 L11.8154 12.1343 L11.8154 13.2437 Q11.8154 13.8062 11.6045 14.3531 Q11.3935 14.8999 10.9873 15.2515 Q10.581 15.6031 10.0029 15.6031 Q8.9248 15.6031 8.2998 14.9546 Q7.6748 14.3062 7.6748 13.2437 Z"
      /><path style="stroke:none;" d="M13.4294 15.3999 L13.4294 14.7593 Q14.0388 14.7593 14.4372 14.6656 Q14.8357 14.5718 14.8357 14.1968 L14.8357 9.2749 Q14.8357 8.8062 14.6872 8.5874 Q14.5388 8.3687 14.2654 8.3218 Q13.9919 8.2749 13.4294 8.2749 L13.4294 7.6343 L16.0075 7.4468 L16.0075 9.1968 Q16.2888 8.4156 16.8279 7.9312 Q17.3669 7.4468 18.1325 7.4468 Q18.6638 7.4468 19.0857 7.7593 Q19.5075 8.0718 19.5075 8.6031 Q19.5075 8.9156 19.2732 9.1577 Q19.0388 9.3999 18.695 9.3999 Q18.3669 9.3999 18.1325 9.1656 Q17.8982 8.9312 17.8982 8.6031 Q17.8982 8.1187 18.2419 7.9156 L18.1325 7.9156 Q17.3982 7.9156 16.9372 8.439 Q16.4763 8.9624 16.281 9.7437 Q16.0857 10.5249 16.0857 11.2437 L16.0857 14.1968 Q16.0857 14.7593 17.8357 14.7593 L17.8357 15.3999 L13.4294 15.3999 Z"
      /><path style="stroke:none;" d="M20.86 13.6343 Q20.86 12.5562 21.7037 11.8843 Q22.5475 11.2124 23.7272 10.939 Q24.9069 10.6656 25.985 10.6656 L25.985 9.9312 Q25.985 9.3999 25.7506 8.9156 Q25.5162 8.4312 25.0866 8.1187 Q24.6569 7.8062 24.1412 7.8062 Q22.9381 7.8062 22.3287 8.3374 Q22.6569 8.3374 22.8834 8.5952 Q23.11 8.8531 23.11 9.1968 Q23.11 9.5562 22.86 9.814 Q22.61 10.0718 22.2506 10.0718 Q21.8912 10.0718 21.6334 9.814 Q21.3756 9.5562 21.3756 9.1968 Q21.3756 8.2593 22.2428 7.7984 Q23.11 7.3374 24.1412 7.3374 Q24.8756 7.3374 25.61 7.6499 Q26.3444 7.9624 26.8131 8.5406 Q27.2819 9.1187 27.2819 9.8843 L27.2819 13.9468 Q27.2819 14.2906 27.4303 14.5874 Q27.5787 14.8843 27.9069 14.8843 Q28.2037 14.8843 28.3444 14.5874 Q28.485 14.2906 28.485 13.9468 L28.485 12.7906 L29.0162 12.7906 L29.0162 13.9468 Q29.0162 14.3374 28.8053 14.7046 Q28.5944 15.0718 28.2428 15.2906 Q27.8912 15.5093 27.4694 15.5093 Q26.9381 15.5093 26.5553 15.0952 Q26.1725 14.6812 26.1412 14.1187 Q25.7975 14.8062 25.1491 15.2046 Q24.5006 15.6031 23.7662 15.6031 Q23.0787 15.6031 22.4147 15.3999 Q21.7506 15.1968 21.3053 14.7593 Q20.86 14.3218 20.86 13.6343 ZM22.3287 13.6343 Q22.3287 14.2593 22.7897 14.6968 Q23.2506 15.1343 23.8912 15.1343 Q24.4694 15.1343 24.9459 14.8374 Q25.4225 14.5406 25.7037 14.0406 Q25.985 13.5406 25.985 12.9937 L25.985 11.1187 Q25.1569 11.1187 24.3053 11.3843 Q23.4537 11.6499 22.8912 12.2202 Q22.3287 12.7906 22.3287 13.6343 Z"
      /><path style="stroke:none;" d="M29.9017 15.4468 L29.9017 12.5093 Q29.9017 12.3687 30.0579 12.3687 L30.2767 12.3687 Q30.3861 12.3687 30.4173 12.5093 Q30.9329 15.1343 32.8548 15.1343 Q33.6986 15.1343 34.2767 14.7437 Q34.8548 14.3531 34.8548 13.5406 Q34.8548 12.9624 34.4095 12.5562 Q33.9642 12.1499 33.3392 11.9937 L32.1361 11.7593 Q31.5267 11.6343 31.0345 11.3609 Q30.5423 11.0874 30.222 10.6343 Q29.9017 10.1812 29.9017 9.5874 Q29.9017 8.7906 30.3236 8.2827 Q30.7454 7.7749 31.4095 7.5562 Q32.0736 7.3374 32.8548 7.3374 Q33.7767 7.3374 34.4642 7.8218 L34.9798 7.3687 Q34.9798 7.3374 35.0579 7.3374 L35.1986 7.3374 Q35.2454 7.3374 35.2923 7.3843 Q35.3392 7.4312 35.3392 7.4781 L35.3392 9.8374 Q35.3392 10.0093 35.1986 10.0093 L34.9798 10.0093 Q34.8236 10.0093 34.8236 9.8374 Q34.8236 8.8999 34.3001 8.3296 Q33.7767 7.7593 32.8392 7.7593 Q32.0267 7.7593 31.4329 8.0562 Q30.8392 8.3531 30.8392 9.0874 Q30.8392 9.5874 31.2611 9.9077 Q31.6829 10.2281 32.2611 10.3687 L33.4798 10.5874 Q34.1048 10.7281 34.6361 11.064 Q35.1673 11.3999 35.4798 11.9077 Q35.7923 12.4156 35.7923 13.0562 Q35.7923 13.7124 35.5657 14.189 Q35.3392 14.6656 34.9407 14.9859 Q34.5423 15.3062 33.9954 15.4546 Q33.4486 15.6031 32.8548 15.6031 Q31.7298 15.6031 30.9329 14.8531 L30.2611 15.5562 Q30.2611 15.6031 30.1673 15.6031 L30.0579 15.6031 Q29.9017 15.6031 29.9017 15.4468 Z"
    /></g
    ><g style="fill:rgb(38,38,38); text-rendering:geometricPrecision; image-rendering:optimizeQuality; color-rendering:optimizeQuality; stroke-linejoin:round; stroke:rgb(38,38,38); color-interpolation:linearRGB; stroke-width:0.8333;"
    ><line y2="37" style="fill:none;" x1="65" x2="65" y1="445"
      /><line y2="37" style="fill:none;" x1="453" x2="453" y1="445"
      /><line y2="396.3037" style="fill:none;" x1="65" x2="69.08" y1="396.3037"
      /><line y2="324.443" style="fill:none;" x1="65" x2="69.08" y1="324.443"
      /><line y2="252.5822" style="fill:none;" x1="65" x2="69.08" y1="252.5822"
      /><line y2="180.7215" style="fill:none;" x1="65" x2="69.08" y1="180.7215"
      /><line y2="108.8607" style="fill:none;" x1="65" x2="69.08" y1="108.8607"
      /><line y2="37" style="fill:none;" x1="65" x2="69.08" y1="37"
      /><line y2="396.3037" style="fill:none;" x1="453" x2="448.92" y1="396.3037"
      /><line y2="324.443" style="fill:none;" x1="453" x2="448.92" y1="324.443"
      /><line y2="252.5822" style="fill:none;" x1="453" x2="448.92" y1="252.5822"
      /><line y2="180.7215" style="fill:none;" x1="453" x2="448.92" y1="180.7215"
      /><line y2="108.8607" style="fill:none;" x1="453" x2="448.92" y1="108.8607"
      /><line y2="37" style="fill:none;" x1="453" x2="448.92" y1="37"
    /></g
    ><g transform="translate(58.3333,396.3037)" style="font-size:16.6667px; fill:rgb(38,38,38); text-rendering:geometricPrecision; image-rendering:optimizeQuality; color-rendering:optimizeQuality; font-family:'SansSerif'; stroke:rgb(38,38,38); color-interpolation:linearRGB;"
    ><path style="stroke:none;" d="M-9.2969 0.5 Q-9.2969 -1.6562 -8.8516 -2.9766 Q-8.4062 -4.2969 -7.5312 -5.0078 Q-6.6562 -5.7188 -5.3281 -5.7188 Q-4.3438 -5.7188 -3.6094 -5.3281 Q-2.875 -4.9375 -2.3906 -4.1875 Q-1.9062 -3.4375 -1.6328 -2.375 Q-1.3594 -1.3125 -1.3594 0.5 Q-1.3594 2.6406 -1.7969 3.9531 Q-2.2344 5.2656 -3.1094 5.9844 Q-3.9844 6.7031 -5.3281 6.7031 Q-7.0938 6.7031 -8.0938 5.4531 Q-9.2969 3.9219 -9.2969 0.5 ZM-7.7656 0.5 Q-7.7656 3.5 -7.0625 4.4922 Q-6.3594 5.4844 -5.3281 5.4844 Q-4.2969 5.4844 -3.5938 4.4844 Q-2.8906 3.4844 -2.8906 0.5 Q-2.8906 -2.5 -3.5938 -3.4922 Q-4.2969 -4.4844 -5.3438 -4.4844 Q-6.375 -4.4844 -6.9844 -3.6094 Q-7.7656 -2.5 -7.7656 0.5 Z"
    /></g
    ><g transform="translate(58.3333,324.443)" style="font-size:16.6667px; fill:rgb(38,38,38); text-rendering:geometricPrecision; image-rendering:optimizeQuality; color-rendering:optimizeQuality; font-family:'SansSerif'; stroke:rgb(38,38,38); color-interpolation:linearRGB;"
    ><path style="stroke:none;" d="M-23.2969 0.5 Q-23.2969 -1.6562 -22.8516 -2.9766 Q-22.4062 -4.2969 -21.5312 -5.0078 Q-20.6562 -5.7188 -19.3281 -5.7188 Q-18.3438 -5.7188 -17.6094 -5.3281 Q-16.875 -4.9375 -16.3906 -4.1875 Q-15.9062 -3.4375 -15.6328 -2.375 Q-15.3594 -1.3125 -15.3594 0.5 Q-15.3594 2.6406 -15.7969 3.9531 Q-16.2344 5.2656 -17.1094 5.9844 Q-17.9844 6.7031 -19.3281 6.7031 Q-21.0938 6.7031 -22.0938 5.4531 Q-23.2969 3.9219 -23.2969 0.5 ZM-21.7656 0.5 Q-21.7656 3.5 -21.0625 4.4922 Q-20.3594 5.4844 -19.3281 5.4844 Q-18.2969 5.4844 -17.5938 4.4844 Q-16.8906 3.4844 -16.8906 0.5 Q-16.8906 -2.5 -17.5938 -3.4922 Q-18.2969 -4.4844 -19.3438 -4.4844 Q-20.375 -4.4844 -20.9844 -3.6094 Q-21.7656 -2.5 -21.7656 0.5 ZM-13.1897 6.5 L-13.1897 4.7969 L-11.4866 4.7969 L-11.4866 6.5 L-13.1897 6.5 ZM-1.5464 5.0625 L-1.5464 6.5 L-9.5933 6.5 Q-9.6089 5.9531 -9.4214 5.4688 Q-9.1089 4.6406 -8.4371 3.8438 Q-7.7652 3.0469 -6.4839 2 Q-4.4996 0.375 -3.8043 -0.5781 Q-3.1089 -1.5312 -3.1089 -2.375 Q-3.1089 -3.2656 -3.7418 -3.875 Q-4.3746 -4.4844 -5.3902 -4.4844 Q-6.4683 -4.4844 -7.1168 -3.8359 Q-7.7652 -3.1875 -7.7808 -2.0469 L-9.3121 -2.2031 Q-9.1558 -3.9219 -8.1246 -4.8203 Q-7.0933 -5.7188 -5.3589 -5.7188 Q-3.6089 -5.7188 -2.5855 -4.75 Q-1.5621 -3.7812 -1.5621 -2.3438 Q-1.5621 -1.6094 -1.8668 -0.9062 Q-2.1714 -0.2031 -2.8589 0.5781 Q-3.5464 1.3594 -5.1558 2.7188 Q-6.4996 3.8594 -6.8824 4.2578 Q-7.2652 4.6562 -7.5152 5.0625 L-1.5464 5.0625 Z"
    /></g
    ><g transform="translate(58.3333,252.5822)" style="font-size:16.6667px; fill:rgb(38,38,38); text-rendering:geometricPrecision; image-rendering:optimizeQuality; color-rendering:optimizeQuality; font-family:'SansSerif'; stroke:rgb(38,38,38); color-interpolation:linearRGB;"
    ><path style="stroke:none;" d="M-23.2969 0.5 Q-23.2969 -1.6562 -22.8516 -2.9766 Q-22.4062 -4.2969 -21.5312 -5.0078 Q-20.6562 -5.7188 -19.3281 -5.7188 Q-18.3438 -5.7188 -17.6094 -5.3281 Q-16.875 -4.9375 -16.3906 -4.1875 Q-15.9062 -3.4375 -15.6328 -2.375 Q-15.3594 -1.3125 -15.3594 0.5 Q-15.3594 2.6406 -15.7969 3.9531 Q-16.2344 5.2656 -17.1094 5.9844 Q-17.9844 6.7031 -19.3281 6.7031 Q-21.0938 6.7031 -22.0938 5.4531 Q-23.2969 3.9219 -23.2969 0.5 ZM-21.7656 0.5 Q-21.7656 3.5 -21.0625 4.4922 Q-20.3594 5.4844 -19.3281 5.4844 Q-18.2969 5.4844 -17.5938 4.4844 Q-16.8906 3.4844 -16.8906 0.5 Q-16.8906 -2.5 -17.5938 -3.4922 Q-18.2969 -4.4844 -19.3438 -4.4844 Q-20.375 -4.4844 -20.9844 -3.6094 Q-21.7656 -2.5 -21.7656 0.5 ZM-13.1897 6.5 L-13.1897 4.7969 L-11.4866 4.7969 L-11.4866 6.5 L-13.1897 6.5 ZM-4.6089 6.5 L-4.6089 3.5938 L-9.8902 3.5938 L-9.8902 2.2188 L-4.3433 -5.6719 L-3.1246 -5.6719 L-3.1246 2.2188 L-1.4683 2.2188 L-1.4683 3.5938 L-3.1246 3.5938 L-3.1246 6.5 L-4.6089 6.5 ZM-4.6089 2.2188 L-4.6089 -3.2656 L-8.4214 2.2188 L-4.6089 2.2188 Z"
    /></g
    ><g transform="translate(58.3333,180.7215)" style="font-size:16.6667px; fill:rgb(38,38,38); text-rendering:geometricPrecision; image-rendering:optimizeQuality; color-rendering:optimizeQuality; font-family:'SansSerif'; stroke:rgb(38,38,38); color-interpolation:linearRGB;"
    ><path style="stroke:none;" d="M-23.2969 0.5 Q-23.2969 -1.6562 -22.8516 -2.9766 Q-22.4062 -4.2969 -21.5312 -5.0078 Q-20.6562 -5.7188 -19.3281 -5.7188 Q-18.3438 -5.7188 -17.6094 -5.3281 Q-16.875 -4.9375 -16.3906 -4.1875 Q-15.9062 -3.4375 -15.6328 -2.375 Q-15.3594 -1.3125 -15.3594 0.5 Q-15.3594 2.6406 -15.7969 3.9531 Q-16.2344 5.2656 -17.1094 5.9844 Q-17.9844 6.7031 -19.3281 6.7031 Q-21.0938 6.7031 -22.0938 5.4531 Q-23.2969 3.9219 -23.2969 0.5 ZM-21.7656 0.5 Q-21.7656 3.5 -21.0625 4.4922 Q-20.3594 5.4844 -19.3281 5.4844 Q-18.2969 5.4844 -17.5938 4.4844 Q-16.8906 3.4844 -16.8906 0.5 Q-16.8906 -2.5 -17.5938 -3.4922 Q-18.2969 -4.4844 -19.3438 -4.4844 Q-20.375 -4.4844 -20.9844 -3.6094 Q-21.7656 -2.5 -21.7656 0.5 ZM-13.1897 6.5 L-13.1897 4.7969 L-11.4866 4.7969 L-11.4866 6.5 L-13.1897 6.5 ZM-1.6558 -2.6875 L-3.1402 -2.5781 Q-3.3277 -3.4531 -3.7027 -3.8438 Q-4.3121 -4.4844 -5.1871 -4.4844 Q-5.9058 -4.4844 -6.4527 -4.0938 Q-7.1558 -3.5781 -7.5621 -2.5938 Q-7.9683 -1.6094 -7.9839 0.2188 Q-7.4371 -0.5938 -6.6636 -0.9922 Q-5.8902 -1.3906 -5.0308 -1.3906 Q-3.5308 -1.3906 -2.4839 -0.2891 Q-1.4371 0.8125 -1.4371 2.5469 Q-1.4371 3.6875 -1.9293 4.6719 Q-2.4214 5.6562 -3.2886 6.1797 Q-4.1558 6.7031 -5.2496 6.7031 Q-7.1089 6.7031 -8.2886 5.3281 Q-9.4683 3.9531 -9.4683 0.8125 Q-9.4683 -2.7188 -8.1714 -4.3281 Q-7.0308 -5.7188 -5.1089 -5.7188 Q-3.6714 -5.7188 -2.7496 -4.9141 Q-1.8277 -4.1094 -1.6558 -2.6875 ZM-7.7496 2.5625 Q-7.7496 3.3281 -7.4214 4.0312 Q-7.0933 4.7344 -6.5074 5.1094 Q-5.9214 5.4844 -5.2652 5.4844 Q-4.3277 5.4844 -3.648 4.7188 Q-2.9683 3.9531 -2.9683 2.6406 Q-2.9683 1.375 -3.6402 0.6484 Q-4.3121 -0.0781 -5.3277 -0.0781 Q-6.3433 -0.0781 -7.0464 0.6484 Q-7.7496 1.375 -7.7496 2.5625 Z"
    /></g
    ><g transform="translate(58.3333,108.8607)" style="font-size:16.6667px; fill:rgb(38,38,38); text-rendering:geometricPrecision; image-rendering:optimizeQuality; color-rendering:optimizeQuality; font-family:'SansSerif'; stroke:rgb(38,38,38); color-interpolation:linearRGB;"
    ><path style="stroke:none;" d="M-23.2969 0.5 Q-23.2969 -1.6562 -22.8516 -2.9766 Q-22.4062 -4.2969 -21.5312 -5.0078 Q-20.6562 -5.7188 -19.3281 -5.7188 Q-18.3438 -5.7188 -17.6094 -5.3281 Q-16.875 -4.9375 -16.3906 -4.1875 Q-15.9062 -3.4375 -15.6328 -2.375 Q-15.3594 -1.3125 -15.3594 0.5 Q-15.3594 2.6406 -15.7969 3.9531 Q-16.2344 5.2656 -17.1094 5.9844 Q-17.9844 6.7031 -19.3281 6.7031 Q-21.0938 6.7031 -22.0938 5.4531 Q-23.2969 3.9219 -23.2969 0.5 ZM-21.7656 0.5 Q-21.7656 3.5 -21.0625 4.4922 Q-20.3594 5.4844 -19.3281 5.4844 Q-18.2969 5.4844 -17.5938 4.4844 Q-16.8906 3.4844 -16.8906 0.5 Q-16.8906 -2.5 -17.5938 -3.4922 Q-18.2969 -4.4844 -19.3438 -4.4844 Q-20.375 -4.4844 -20.9844 -3.6094 Q-21.7656 -2.5 -21.7656 0.5 ZM-13.1897 6.5 L-13.1897 4.7969 L-11.4866 4.7969 L-11.4866 6.5 L-13.1897 6.5 ZM-7.1089 -0.0938 Q-8.0308 -0.4375 -8.4839 -1.0703 Q-8.9371 -1.7031 -8.9371 -2.5781 Q-8.9371 -3.9062 -7.9761 -4.8125 Q-7.0152 -5.7188 -5.4371 -5.7188 Q-3.8433 -5.7188 -2.8746 -4.7969 Q-1.9058 -3.875 -1.9058 -2.5469 Q-1.9058 -1.6875 -2.3433 -1.0625 Q-2.7808 -0.4375 -3.6871 -0.0938 Q-2.5777 0.2656 -1.9918 1.0781 Q-1.4058 1.8906 -1.4058 3.0156 Q-1.4058 4.5781 -2.5074 5.6406 Q-3.6089 6.7031 -5.4058 6.7031 Q-7.2183 6.7031 -8.3199 5.6406 Q-9.4214 4.5781 -9.4214 2.9844 Q-9.4214 1.7969 -8.8199 0.9922 Q-8.2183 0.1875 -7.1089 -0.0938 ZM-7.4058 -2.625 Q-7.4058 -1.7656 -6.8511 -1.2188 Q-6.2964 -0.6719 -5.4058 -0.6719 Q-4.5464 -0.6719 -3.9918 -1.2188 Q-3.4371 -1.7656 -3.4371 -2.5469 Q-3.4371 -3.375 -4.0074 -3.9297 Q-4.5777 -4.4844 -5.4214 -4.4844 Q-6.2808 -4.4844 -6.8433 -3.9375 Q-7.4058 -3.3906 -7.4058 -2.625 ZM-7.8902 2.9844 Q-7.8902 3.625 -7.5855 4.2266 Q-7.2808 4.8281 -6.6793 5.1562 Q-6.0777 5.4844 -5.3902 5.4844 Q-4.3277 5.4844 -3.6246 4.7891 Q-2.9214 4.0938 -2.9214 3.0312 Q-2.9214 1.9531 -3.6402 1.25 Q-4.3589 0.5469 -5.4371 0.5469 Q-6.4996 0.5469 -7.1949 1.2422 Q-7.8902 1.9375 -7.8902 2.9844 Z"
    /></g
    ><g transform="translate(58.3333,37)" style="font-size:16.6667px; fill:rgb(38,38,38); text-rendering:geometricPrecision; image-rendering:optimizeQuality; color-rendering:optimizeQuality; font-family:'SansSerif'; stroke:rgb(38,38,38); color-interpolation:linearRGB;"
    ><path style="stroke:none;" d="M-3.6719 6.5 L-5.1562 6.5 L-5.1562 -3.0156 Q-5.7031 -2.5 -6.5781 -1.9922 Q-7.4531 -1.4844 -8.1562 -1.2188 L-8.1562 -2.6719 Q-6.8906 -3.25 -5.9531 -4.0938 Q-5.0156 -4.9375 -4.625 -5.7188 L-3.6719 -5.7188 L-3.6719 6.5 Z"
    /></g
    ><g transform="translate(29.3333,240.9998) rotate(-90)" style="font-size:18.3333px; fill:rgb(38,38,38); text-rendering:geometricPrecision; image-rendering:optimizeQuality; color-rendering:optimizeQuality; font-family:'mwa_cmr10'; stroke:rgb(38,38,38); color-interpolation:linearRGB;"
    ><path style="stroke:none;" d="M-38.3178 -6.6001 L-38.3178 -7.2407 Q-36.4741 -7.2407 -36.4741 -8.3032 L-36.4741 -17.6938 Q-36.4741 -18.2563 -38.3178 -18.2563 L-38.3178 -18.8969 L-34.9272 -18.8969 Q-34.7084 -18.8969 -34.6303 -18.6938 L-30.7084 -8.5063 L-26.7866 -18.6938 Q-26.7241 -18.8969 -26.5053 -18.8969 L-23.0991 -18.8969 L-23.0991 -18.2563 Q-24.9584 -18.2563 -24.9584 -17.6938 L-24.9584 -7.8032 Q-24.9584 -7.2407 -23.0991 -7.2407 L-23.0991 -6.6001 L-28.3334 -6.6001 L-28.3334 -7.2407 Q-26.4897 -7.2407 -26.4897 -7.8032 L-26.4897 -18.2876 L-30.9116 -6.8032 Q-30.9897 -6.6001 -31.2084 -6.6001 Q-31.4428 -6.6001 -31.5209 -6.8032 L-35.8959 -18.1469 L-35.8959 -8.3032 Q-35.8959 -7.2407 -34.0522 -7.2407 L-34.0522 -6.6001 L-38.3178 -6.6001 Z"
      /><path style="stroke:none;" d="M-21.4341 -8.3657 Q-21.4341 -9.4438 -20.5904 -10.1157 Q-19.7466 -10.7876 -18.5669 -11.061 Q-17.3872 -11.3344 -16.3091 -11.3344 L-16.3091 -12.0688 Q-16.3091 -12.6001 -16.5435 -13.0844 Q-16.7779 -13.5688 -17.2075 -13.8813 Q-17.6372 -14.1938 -18.1529 -14.1938 Q-19.356 -14.1938 -19.9654 -13.6626 Q-19.6372 -13.6626 -19.4107 -13.4048 Q-19.1841 -13.1469 -19.1841 -12.8032 Q-19.1841 -12.4438 -19.4341 -12.186 Q-19.6841 -11.9282 -20.0435 -11.9282 Q-20.4029 -11.9282 -20.6607 -12.186 Q-20.9185 -12.4438 -20.9185 -12.8032 Q-20.9185 -13.7407 -20.0513 -14.2016 Q-19.1841 -14.6626 -18.1529 -14.6626 Q-17.4185 -14.6626 -16.6841 -14.3501 Q-15.9497 -14.0376 -15.481 -13.4594 Q-15.0122 -12.8813 -15.0122 -12.1157 L-15.0122 -8.0532 Q-15.0122 -7.7094 -14.8638 -7.4126 Q-14.7154 -7.1157 -14.3872 -7.1157 Q-14.0904 -7.1157 -13.9497 -7.4126 Q-13.8091 -7.7094 -13.8091 -8.0532 L-13.8091 -9.2094 L-13.2779 -9.2094 L-13.2779 -8.0532 Q-13.2779 -7.6626 -13.4888 -7.2954 Q-13.6997 -6.9282 -14.0513 -6.7094 Q-14.4029 -6.4907 -14.8247 -6.4907 Q-15.356 -6.4907 -15.7388 -6.9048 Q-16.1216 -7.3188 -16.1529 -7.8813 Q-16.4966 -7.1938 -17.145 -6.7954 Q-17.7935 -6.3969 -18.5279 -6.3969 Q-19.2154 -6.3969 -19.8794 -6.6001 Q-20.5435 -6.8032 -20.9888 -7.2407 Q-21.4341 -7.6782 -21.4341 -8.3657 ZM-19.9654 -8.3657 Q-19.9654 -7.7407 -19.5044 -7.3032 Q-19.0435 -6.8657 -18.4029 -6.8657 Q-17.8247 -6.8657 -17.3482 -7.1626 Q-16.8716 -7.4594 -16.5904 -7.9594 Q-16.3091 -8.4594 -16.3091 -9.0063 L-16.3091 -10.8813 Q-17.1372 -10.8813 -17.9888 -10.6157 Q-18.8404 -10.3501 -19.4029 -9.7798 Q-19.9654 -9.2094 -19.9654 -8.3657 Z"
      /><path style="stroke:none;" d="M-12.4862 -5.1938 Q-12.4862 -5.8344 -12.0174 -6.311 Q-11.5487 -6.7876 -10.908 -6.9907 Q-11.2674 -7.2719 -11.4549 -7.686 Q-11.6424 -8.1001 -11.6424 -8.5532 Q-11.6424 -9.3969 -11.1112 -10.0532 Q-11.9393 -10.8657 -11.9393 -11.9126 Q-11.9393 -12.4751 -11.6971 -12.9673 Q-11.4549 -13.4594 -11.0252 -13.8188 Q-10.5955 -14.1782 -10.0643 -14.3657 Q-9.533 -14.5532 -8.9862 -14.5532 Q-7.908 -14.5532 -7.0643 -13.9282 Q-6.6893 -14.3188 -6.1893 -14.5376 Q-5.6893 -14.7563 -5.1424 -14.7563 Q-4.7518 -14.7563 -4.5018 -14.4829 Q-4.2518 -14.2094 -4.2518 -13.8188 Q-4.2518 -13.6001 -4.4237 -13.4282 Q-4.5955 -13.2563 -4.8143 -13.2563 Q-5.033 -13.2563 -5.2049 -13.4282 Q-5.3768 -13.6001 -5.3768 -13.8188 Q-5.3768 -14.1469 -5.158 -14.2876 Q-6.0799 -14.2876 -6.7518 -13.6469 Q-6.4237 -13.3188 -6.2283 -12.8501 Q-6.033 -12.3813 -6.033 -11.9126 Q-6.033 -11.1469 -6.4549 -10.5376 Q-6.8768 -9.9282 -7.5643 -9.5844 Q-8.2518 -9.2407 -8.9862 -9.2407 Q-9.9705 -9.2407 -10.783 -9.7876 Q-11.0487 -9.4282 -11.0487 -8.9907 Q-11.0487 -8.5219 -10.7362 -8.1626 Q-10.4237 -7.8032 -9.9393 -7.8032 L-8.4705 -7.8032 Q-7.3924 -7.8032 -6.533 -7.6079 Q-5.6737 -7.4126 -5.0877 -6.8344 Q-4.5018 -6.2563 -4.5018 -5.1938 Q-4.5018 -4.3969 -5.1737 -3.8735 Q-5.8455 -3.3501 -6.7674 -3.1235 Q-7.6893 -2.8969 -8.4862 -2.8969 Q-9.283 -2.8969 -10.2127 -3.1235 Q-11.1424 -3.3501 -11.8143 -3.8735 Q-12.4862 -4.3969 -12.4862 -5.1938 ZM-11.4705 -5.1938 Q-11.4705 -4.5844 -10.9783 -4.1782 Q-10.4862 -3.7719 -9.7908 -3.5766 Q-9.0955 -3.3813 -8.4862 -3.3813 Q-7.8768 -3.3813 -7.1815 -3.5766 Q-6.4862 -3.7719 -6.0018 -4.1782 Q-5.5174 -4.5844 -5.5174 -5.1938 Q-5.5174 -6.1313 -6.3768 -6.4126 Q-7.2362 -6.6938 -8.4705 -6.6938 L-9.9393 -6.6938 Q-10.3612 -6.6938 -10.7049 -6.4907 Q-11.0487 -6.2876 -11.2596 -5.936 Q-11.4705 -5.5844 -11.4705 -5.1938 ZM-8.9862 -9.7251 Q-7.4549 -9.7251 -7.4549 -11.9126 Q-7.4549 -12.8501 -7.783 -13.4594 Q-8.1112 -14.0688 -8.9862 -14.0688 Q-9.8612 -14.0688 -10.1893 -13.4594 Q-10.5174 -12.8501 -10.5174 -11.9126 Q-10.5174 -11.3188 -10.3924 -10.8344 Q-10.2674 -10.3501 -9.9315 -10.0376 Q-9.5955 -9.7251 -8.9862 -9.7251 Z"
      /><path style="stroke:none;" d="M-3.2882 -6.6001 L-3.2882 -7.2407 Q-2.6632 -7.2407 -2.2726 -7.3344 Q-1.882 -7.4282 -1.882 -7.8032 L-1.882 -12.7251 Q-1.882 -13.1938 -2.0226 -13.4126 Q-2.1632 -13.6313 -2.4367 -13.6782 Q-2.7101 -13.7251 -3.2882 -13.7251 L-3.2882 -14.3657 L-0.6788 -14.5532 L-0.6788 -12.8032 Q-0.3195 -13.5688 0.3915 -14.061 Q1.1024 -14.5532 1.9305 -14.5532 Q3.1805 -14.5532 3.8133 -13.9594 Q4.4462 -13.3657 4.4462 -12.1313 L4.4462 -7.8032 Q4.4462 -7.4282 4.8368 -7.3344 Q5.2274 -7.2407 5.8524 -7.2407 L5.8524 -6.6001 L1.7274 -6.6001 L1.7274 -7.2407 Q2.3368 -7.2407 2.7352 -7.3344 Q3.1337 -7.4282 3.1337 -7.8032 L3.1337 -12.0688 Q3.1337 -12.9594 2.8758 -13.5219 Q2.618 -14.0844 1.8368 -14.0844 Q0.7899 -14.0844 0.118 -13.2485 Q-0.5538 -12.4126 -0.5538 -11.3501 L-0.5538 -7.8032 Q-0.5538 -7.4282 -0.1632 -7.3344 Q0.2274 -7.2407 0.8368 -7.2407 L0.8368 -6.6001 L-3.2882 -6.6001 Z"
      /><path style="stroke:none;" d="M6.9126 -6.6001 L6.9126 -7.2407 Q7.5376 -7.2407 7.9283 -7.3344 Q8.3189 -7.4282 8.3189 -7.8032 L8.3189 -12.7251 Q8.3189 -13.4126 8.0533 -13.5688 Q7.7876 -13.7251 7.0064 -13.7251 L7.0064 -14.3657 L9.5845 -14.5532 L9.5845 -7.8032 Q9.5845 -7.4282 9.9283 -7.3344 Q10.272 -7.2407 10.8501 -7.2407 L10.8501 -6.6001 L6.9126 -6.6001 ZM7.6783 -17.6469 Q7.6783 -18.0376 7.9829 -18.3423 Q8.2876 -18.6469 8.6626 -18.6469 Q8.9283 -18.6469 9.1626 -18.5141 Q9.397 -18.3813 9.5298 -18.1391 Q9.6626 -17.8969 9.6626 -17.6469 Q9.6626 -17.2563 9.3658 -16.9594 Q9.0689 -16.6626 8.6626 -16.6626 Q8.2876 -16.6626 7.9829 -16.9594 Q7.6783 -17.2563 7.6783 -17.6469 Z"
      /><path style="stroke:none;" d="M13.3021 -8.7563 L13.3021 -13.7251 L11.8021 -13.7251 L11.8021 -14.1938 Q12.974 -14.1938 13.5287 -15.2954 Q14.0834 -16.3969 14.0834 -17.6782 L14.599 -17.6782 L14.599 -14.3657 L17.1459 -14.3657 L17.1459 -13.7251 L14.599 -13.7251 L14.599 -8.8032 Q14.599 -8.0532 14.849 -7.4907 Q15.099 -6.9282 15.7552 -6.9282 Q16.3646 -6.9282 16.6381 -7.5219 Q16.9115 -8.1157 16.9115 -8.8032 L16.9115 -9.8657 L17.4427 -9.8657 L17.4427 -8.7563 Q17.4427 -8.1938 17.2318 -7.6469 Q17.0209 -7.1001 16.6146 -6.7485 Q16.2084 -6.3969 15.6302 -6.3969 Q14.5521 -6.3969 13.9271 -7.0454 Q13.3021 -7.6938 13.3021 -8.7563 Z"
      /><path style="stroke:none;" d="M20.5255 -8.7407 L20.5255 -12.7251 Q20.5255 -13.1938 20.3849 -13.4126 Q20.2443 -13.6313 19.9708 -13.6782 Q19.6974 -13.7251 19.1193 -13.7251 L19.1193 -14.3657 L21.8536 -14.5532 L21.8536 -8.7407 Q21.8536 -8.0376 21.9552 -7.6469 Q22.0568 -7.2563 22.3849 -7.061 Q22.713 -6.8657 23.4318 -6.8657 Q24.4005 -6.8657 24.9708 -7.6782 Q25.5411 -8.4907 25.5411 -9.5219 L25.5411 -12.7251 Q25.5411 -13.1938 25.3927 -13.4126 Q25.2443 -13.6313 24.9786 -13.6782 Q24.713 -13.7251 24.1349 -13.7251 L24.1349 -14.3657 L26.8536 -14.5532 L26.8536 -8.2407 Q26.8536 -7.7563 26.9943 -7.5454 Q27.1349 -7.3344 27.4083 -7.2876 Q27.6818 -7.2407 28.2599 -7.2407 L28.2599 -6.6001 L25.588 -6.3969 L25.588 -7.9126 Q25.2599 -7.2407 24.6583 -6.8188 Q24.0568 -6.3969 23.338 -6.3969 Q22.0568 -6.3969 21.2911 -6.9438 Q20.5255 -7.4907 20.5255 -8.7407 Z"
      /><path style="stroke:none;" d="M33.1639 -6.3969 Q32.1014 -6.3969 31.2264 -6.9751 Q30.3514 -7.5532 29.8592 -8.4907 Q29.367 -9.4282 29.367 -10.4907 Q29.367 -11.5688 29.8982 -12.5063 Q30.4295 -13.4438 31.3435 -13.9985 Q32.2576 -14.5532 33.367 -14.5532 Q34.0232 -14.5532 34.6092 -14.2798 Q35.1951 -14.0063 35.6326 -13.5063 L35.6326 -17.2563 Q35.6326 -17.7407 35.4842 -17.9516 Q35.3357 -18.1626 35.0701 -18.2094 Q34.8045 -18.2563 34.2264 -18.2563 L34.2264 -18.8969 L36.8982 -19.0844 L36.8982 -8.2407 Q36.8982 -7.7563 37.0389 -7.5454 Q37.1795 -7.3344 37.4529 -7.2876 Q37.7264 -7.2407 38.2889 -7.2407 L38.2889 -6.6001 L35.5701 -6.3969 L35.5701 -7.5376 Q35.117 -6.9907 34.4685 -6.6938 Q33.8201 -6.3969 33.1639 -6.3969 ZM31.3357 -8.1626 Q31.6326 -7.5688 32.1482 -7.2173 Q32.6639 -6.8657 33.2732 -6.8657 Q34.0232 -6.8657 34.6482 -7.3032 Q35.2732 -7.7407 35.5701 -8.4126 L35.5701 -12.7407 Q35.367 -13.1313 35.0467 -13.4438 Q34.7264 -13.7563 34.3279 -13.9204 Q33.9295 -14.0844 33.4764 -14.0844 Q32.5389 -14.0844 31.9685 -13.5532 Q31.3982 -13.0219 31.1639 -12.1938 Q30.9295 -11.3657 30.9295 -10.4751 Q30.9295 -9.7407 31.0076 -9.2094 Q31.0857 -8.6782 31.3357 -8.1626 Z"
    /></g
    ><g style="stroke-linecap:butt; fill:red; text-rendering:geometricPrecision; image-rendering:optimizeQuality; color-rendering:optimizeQuality; stroke-linejoin:round; stroke:red; color-interpolation:linearRGB; stroke-width:2.5;"
    ><path d="M68.88 396.0323 L72.76 396.1299 L76.64 396.3037 L80.52 396.5171 L84.4 396.7154 L88.28 396.8429 L92.16 396.8621 L96.04 396.7688 L99.92 396.5983 L103.8 396.4172 L107.68 396.3037 L111.56 396.3201 L115.44 396.4864 L119.32 396.7652 L123.2 397.0641 L127.08 397.2582 L130.96 397.2285 L134.84 396.9055 L138.72 396.3037 L142.6 395.5334 L146.48 394.781 L150.36 394.2582 L154.24 394.1324 L158.12 394.4558 L162 395.1208 L165.88 395.8599 L169.76 396.3037 L173.64 396.0917 L177.52 395.0126 L181.4 393.1378 L185.28 390.9042 L189.16 389.1051 L193.04 388.7686 L196.92 390.9259 L200.8 396.3037 L204.68 405.0041 L208.56 416.2477 L212.44 428.2607 L216.32 438.3608 L220.2 443.2663 L224.08 439.5984 L227.96 424.5066 L231.84 396.3037 L235.72 354.9836 L239.6 302.5038 L243.48 242.7508 L247.36 181.1625 L251.24 124.0476 L255.12 77.7053 L259 47.4923 L262.88 37 L266.76 47.4923 L270.64 77.7053 L274.52 124.0476 L278.4 181.1625 L282.28 242.7508 L286.16 302.5038 L290.04 354.9836 L293.92 396.3037 L297.8 424.5066 L301.68 439.5984 L305.56 443.2663 L309.44 438.3608 L313.32 428.2607 L317.2 416.2477 L321.08 405.0041 L324.96 396.3037 L328.84 390.9259 L332.72 388.7686 L336.6 389.1051 L340.48 390.9042 L344.36 393.1378 L348.24 395.0126 L352.12 396.0917 L356 396.3037 L359.88 395.8599 L363.76 395.1208 L367.64 394.4558 L371.52 394.1324 L375.4 394.2582 L379.28 394.781 L383.16 395.5334 L387.04 396.3037 L390.92 396.9055 L394.8 397.2285 L398.68 397.2582 L402.56 397.0641 L406.44 396.7652 L410.32 396.4864 L414.2 396.3201 L418.08 396.3037 L421.96 396.4172 L425.84 396.5983 L429.72 396.7688 L433.6 396.8621 L437.48 396.8429 L441.36 396.7154 L445.24 396.5171 L449.12 396.3037 L453 396.1299 L453.0462 396.1287" style="fill:none; fill-rule:evenodd;"
      /><path d="M68.88 396.0371 L72.76 395.3662 L76.64 394.9731 L80.52 395.0285 L84.4 395.5598 L88.28 396.4291 L92.16 397.3661 L96.04 398.051 L99.92 398.222 L103.8 397.7733 L107.68 396.8071 L111.56 395.6182 L115.44 394.6101 L119.32 394.1633 L123.2 394.498 L127.08 395.5781 L130.96 397.093 L134.84 398.5349 L138.72 399.3535 L142.6 399.1452 L146.48 397.8158 L150.36 395.6561 L154.24 393.2941 L158.12 391.5233 L162 391.0477 L165.88 392.2201 L169.76 394.8613 L173.64 398.2337 L177.52 401.2043 L181.4 402.5732 L185.28 401.4872 L189.16 397.8172 L193.04 392.3708 L196.92 386.8388 L200.8 383.4431 L204.68 384.3342 L208.56 390.8705 L212.44 402.9654 L216.32 418.7002 L220.2 434.3535 L224.08 444.9113 L227.96 445 L231.84 430.0728 L235.72 397.5908 L239.6 347.9192 L243.48 284.6967 L247.36 214.5434 L251.24 146.1166 L255.12 88.6727 L259 50.4202 L262.88 37 L266.76 50.4202 L270.64 88.6727 L274.52 146.1166 L278.4 214.5434 L282.28 284.6967 L286.16 347.9192 L290.04 397.5908 L293.92 430.0728 L297.8 445 L301.68 444.9113 L305.56 434.3535 L309.44 418.7002 L313.32 402.9654 L317.2 390.8705 L321.08 384.3342 L324.96 383.4431 L328.84 386.8388 L332.72 392.3708 L336.6 397.8172 L340.48 401.4872 L344.36 402.5732 L348.24 401.2043 L352.12 398.2337 L356 394.8613 L359.88 392.2201 L363.76 391.0477 L367.64 391.5233 L371.52 393.2941 L375.4 395.6561 L379.28 397.8158 L383.16 399.1452 L387.04 399.3535 L390.92 398.5349 L394.8 397.093 L398.68 395.5781 L402.56 394.498 L406.44 394.1633 L410.32 394.6101 L414.2 395.6182 L418.08 396.8071 L421.96 397.7733 L425.84 398.222 L429.72 398.051 L433.6 397.3661 L437.48 396.4291 L441.36 395.5598 L445.24 395.0285 L449.12 394.9731 L453 395.3662 L453.0462 395.3742" style="fill:none; fill-rule:evenodd; stroke:blue;"
    /></g
    ><g style="fill:white; text-rendering:optimizeSpeed; color-rendering:optimizeSpeed; image-rendering:optimizeSpeed; shape-rendering:crispEdges; stroke:white; color-interpolation:sRGB;"
    ><path style="stroke:none;" d="M436 95 L436 54 L332 54 L332 95 Z"
    /></g
    ><g transform="translate(390.2863,65.3273)" style="font-size:15px; text-rendering:geometricPrecision; color-rendering:optimizeQuality; image-rendering:optimizeQuality; font-family:'mwa_cmmi10'; color-interpolation:linearRGB;"
    ><path style="stroke:none;" d="M0.7969 3.3343 Q0.7969 3.2406 0.8125 3.1937 L2.9844 -5.4782 Q3.0469 -5.7282 3.0625 -5.8844 Q3.0625 -6.1188 2.0938 -6.1188 Q1.9375 -6.1188 1.9375 -6.3219 Q1.9375 -6.3532 1.9688 -6.4469 Q2 -6.5407 2.0391 -6.5954 Q2.0781 -6.6501 2.1406 -6.6501 L4.1719 -6.8063 L4.2188 -6.8063 Q4.2188 -6.7907 4.2656 -6.7672 Q4.3125 -6.7438 4.3281 -6.7282 Q4.3438 -6.6657 4.3438 -6.6188 L3.1719 -1.9313 Q4.1094 -3.0251 5.375 -3.0251 Q5.8906 -3.0251 6.2812 -2.8454 Q6.6719 -2.6657 6.8828 -2.2907 Q7.0938 -1.9157 7.0938 -1.4157 Q7.0938 -0.7907 6.8203 0.0765 Q6.5469 0.9437 6.1406 2.0218 Q5.9219 2.5218 5.9219 2.9281 Q5.9219 3.3656 6.2656 3.3656 Q6.8594 3.3656 7.25 2.7406 Q7.6406 2.1156 7.7969 1.3968 Q7.8281 1.3031 7.9219 1.3031 L8.0938 1.3031 Q8.1562 1.3031 8.1953 1.3421 Q8.2344 1.3812 8.2344 1.4437 Q8.2344 1.4593 8.2188 1.4906 Q8.0938 2.0218 7.8281 2.5453 Q7.5625 3.0687 7.1719 3.4203 Q6.7812 3.7718 6.2344 3.7718 Q5.7188 3.7718 5.3438 3.4046 Q4.9688 3.0374 4.9688 2.5218 Q4.9688 2.2406 5.0781 1.9437 Q5.5156 0.8031 5.7969 -0.0797 Q6.0781 -0.9626 6.0781 -1.6344 Q6.0781 -2.0719 5.9062 -2.3532 Q5.7344 -2.6344 5.3438 -2.6344 Q4.5312 -2.6344 3.9297 -2.1422 Q3.3281 -1.6501 2.8906 -0.8376 L1.875 3.2562 Q1.8125 3.4749 1.6484 3.6234 Q1.4844 3.7718 1.2656 3.7718 Q1.0625 3.7718 0.9297 3.639 Q0.7969 3.5062 0.7969 3.3343 Z"
    /></g
    ><g transform="translate(390.2863,65.3273)" style="font-size:10.5px; text-rendering:geometricPrecision; color-rendering:optimizeQuality; image-rendering:optimizeQuality; font-family:'mwa_cmmi10'; color-interpolation:linearRGB;"
    ><path style="stroke:none;" d="M9.408 5.678 Q9.408 5.6155 9.4236 5.5843 L10.1736 2.5999 Q10.2517 2.3343 10.2517 2.1155 Q10.2517 1.6937 9.9549 1.6937 Q9.6424 1.6937 9.4861 2.0687 Q9.3299 2.4437 9.1892 3.0062 Q9.1892 3.0374 9.1658 3.053 Q9.1424 3.0687 9.1111 3.0687 L9.0017 3.0687 Q8.9549 3.0687 8.9314 3.0296 Q8.908 2.9905 8.908 2.9749 Q9.0174 2.5374 9.1189 2.2327 Q9.2205 1.928 9.4314 1.678 Q9.6424 1.428 9.9549 1.428 Q10.3142 1.428 10.5721 1.6312 Q10.8299 1.8343 10.8924 2.1624 Q11.1424 1.8187 11.4705 1.6234 Q11.7986 1.428 12.1892 1.428 Q12.5017 1.428 12.7439 1.6155 Q12.9861 1.803 12.9861 2.1155 Q12.9861 2.3655 12.8299 2.5609 Q12.6736 2.7562 12.408 2.7562 Q12.2361 2.7562 12.1267 2.6546 Q12.0174 2.553 12.0174 2.3812 Q12.0174 2.1624 12.1814 1.9905 Q12.3455 1.8187 12.5486 1.8187 Q12.3924 1.6937 12.158 1.6937 Q11.7361 1.6937 11.4158 1.9984 Q11.0955 2.303 10.8455 2.7718 L10.1267 5.6312 Q10.0955 5.7718 9.9783 5.8655 Q9.8611 5.9593 9.7049 5.9593 Q9.5955 5.9593 9.5017 5.8812 Q9.408 5.803 9.408 5.678 Z"
      /><path style="stroke:none;" d="M14.8431 4.6624 Q14.8431 5.0999 15.0618 5.3968 Q15.2806 5.6937 15.7025 5.6937 Q16.2962 5.6937 16.8431 5.4202 Q17.39 5.1468 17.7493 4.6624 Q17.7806 4.6312 17.8275 4.6312 Q17.8743 4.6312 17.9212 4.6937 Q17.9681 4.7562 17.9681 4.803 Q17.9681 4.8343 17.9525 4.8655 Q17.5931 5.3655 16.9681 5.6624 Q16.3431 5.9593 15.6868 5.9593 Q15.2025 5.9593 14.8353 5.7327 Q14.4681 5.5062 14.2728 5.1234 Q14.0775 4.7405 14.0775 4.2718 Q14.0775 3.5999 14.4525 2.9359 Q14.8275 2.2718 15.4525 1.8499 Q16.0775 1.428 16.765 1.428 Q17.2181 1.428 17.5775 1.6468 Q17.9368 1.8655 17.9368 2.2874 Q17.9368 2.5687 17.7728 2.7562 Q17.6087 2.9437 17.3431 2.9437 Q17.1868 2.9437 17.0775 2.8499 Q16.9681 2.7562 16.9681 2.5843 Q16.9681 2.3499 17.14 2.1859 Q17.3118 2.0218 17.5306 2.0218 L17.5462 2.0218 Q17.4368 1.8499 17.2181 1.7718 Q16.9993 1.6937 16.7493 1.6937 Q16.1712 1.6937 15.7259 2.1937 Q15.2806 2.6937 15.0618 3.389 Q14.8431 4.0843 14.8431 4.6624 Z"
      /><path style="stroke:none;" d="M23.6214 7.3187 Q22.7776 6.6624 22.1761 5.8109 Q21.5745 4.9593 21.1917 3.9906 Q20.8089 3.0218 20.6136 1.9671 Q20.4182 0.9124 20.4182 -0.1501 Q20.4182 -1.2282 20.6136 -2.2829 Q20.8089 -3.3376 21.1995 -4.3141 Q21.5901 -5.2907 22.1995 -6.1344 Q22.8089 -6.9782 23.6214 -7.6188 Q23.6214 -7.6501 23.6839 -7.6501 L23.8245 -7.6501 Q23.8714 -7.6501 23.9104 -7.611 Q23.9495 -7.5719 23.9495 -7.5251 Q23.9495 -7.4469 23.9182 -7.4157 Q23.1839 -6.7126 22.6995 -5.8922 Q22.2151 -5.0719 21.9182 -4.1422 Q21.6214 -3.2126 21.4886 -2.2204 Q21.3557 -1.2282 21.3557 -0.1501 Q21.3557 4.6156 23.9026 7.0999 Q23.9495 7.1312 23.9495 7.2249 Q23.9495 7.2562 23.9104 7.3031 Q23.8714 7.3499 23.8245 7.3499 L23.6839 7.3499 Q23.6214 7.3499 23.6214 7.3187 Z"
      /><path style="stroke:none;" d="M25.736 2.3812 Q25.736 2.1624 25.7672 1.9593 L26.861 -2.3376 L25.2829 -2.3376 Q25.1266 -2.3376 25.1266 -2.5407 Q25.1891 -2.8688 25.3297 -2.8688 L26.986 -2.8688 L27.5954 -5.3063 Q27.6422 -5.5094 27.8219 -5.6501 Q28.0016 -5.7907 28.2204 -5.7907 Q28.4079 -5.7907 28.5407 -5.6735 Q28.6735 -5.5563 28.6735 -5.3688 Q28.6735 -5.3219 28.6657 -5.2985 Q28.6579 -5.2751 28.6579 -5.2438 L28.0485 -2.8688 L29.5954 -2.8688 Q29.7516 -2.8688 29.7516 -2.6657 Q29.736 -2.6344 29.7204 -2.5485 Q29.7047 -2.4626 29.6657 -2.4001 Q29.6266 -2.3376 29.5485 -2.3376 L27.9235 -2.3376 L26.8454 1.9906 Q26.736 2.4281 26.736 2.7249 Q26.736 3.3656 27.1735 3.3656 Q27.8297 3.3656 28.3375 2.7484 Q28.8454 2.1312 29.1266 1.3968 Q29.1735 1.3031 29.236 1.3031 L29.4235 1.3031 Q29.486 1.3031 29.5172 1.3421 Q29.5485 1.3812 29.5485 1.4437 Q29.5485 1.4749 29.5329 1.4906 Q29.2047 2.3968 28.5797 3.0843 Q27.9547 3.7718 27.1422 3.7718 Q26.5485 3.7718 26.1422 3.3812 Q25.736 2.9906 25.736 2.3812 Z"
      /><path style="stroke:none;" d="M31.1839 7.3499 Q31.0589 7.3499 31.0589 7.2249 Q31.0589 7.1468 31.0901 7.1156 Q33.6526 4.6156 33.6526 -0.1501 Q33.6526 -4.9157 31.1214 -7.4001 Q31.0589 -7.4313 31.0589 -7.5251 Q31.0589 -7.5719 31.098 -7.611 Q31.137 -7.6501 31.1839 -7.6501 L31.3245 -7.6501 Q31.3714 -7.6501 31.4026 -7.6188 Q32.4808 -6.7751 33.1995 -5.5563 Q33.9183 -4.3376 34.2464 -2.9626 Q34.5745 -1.5876 34.5745 -0.1501 Q34.5745 0.9124 34.3948 1.9437 Q34.2151 2.9749 33.8245 3.9749 Q33.4339 4.9749 32.8323 5.8187 Q32.2308 6.6624 31.4026 7.3187 Q31.3714 7.3499 31.3245 7.3499 L31.1839 7.3499 Z"
    /></g
    ><g style="stroke-linecap:butt; fill:red; text-rendering:geometricPrecision; image-rendering:optimizeQuality; color-rendering:optimizeQuality; stroke-linejoin:round; stroke:red; color-interpolation:linearRGB; stroke-width:2.5;"
    ><line y2="65.3273" style="fill:none;" x1="336.9605" x2="386.5659" y1="65.3273"
    /></g
    ><g transform="translate(390.2863,83.6727)" style="font-size:15px; text-rendering:geometricPrecision; color-rendering:optimizeQuality; image-rendering:optimizeQuality; font-family:'mwa_cmmi10'; color-interpolation:linearRGB;"
    ><path style="stroke:none;" d="M0.7969 3.3343 Q0.7969 3.2406 0.8125 3.1937 L2.9844 -5.4782 Q3.0469 -5.7282 3.0625 -5.8844 Q3.0625 -6.1188 2.0938 -6.1188 Q1.9375 -6.1188 1.9375 -6.3219 Q1.9375 -6.3532 1.9688 -6.4469 Q2 -6.5407 2.0391 -6.5954 Q2.0781 -6.6501 2.1406 -6.6501 L4.1719 -6.8063 L4.2188 -6.8063 Q4.2188 -6.7907 4.2656 -6.7672 Q4.3125 -6.7438 4.3281 -6.7282 Q4.3438 -6.6657 4.3438 -6.6188 L3.1719 -1.9313 Q4.1094 -3.0251 5.375 -3.0251 Q5.8906 -3.0251 6.2812 -2.8454 Q6.6719 -2.6657 6.8828 -2.2907 Q7.0938 -1.9157 7.0938 -1.4157 Q7.0938 -0.7907 6.8203 0.0765 Q6.5469 0.9437 6.1406 2.0218 Q5.9219 2.5218 5.9219 2.9281 Q5.9219 3.3656 6.2656 3.3656 Q6.8594 3.3656 7.25 2.7406 Q7.6406 2.1156 7.7969 1.3968 Q7.8281 1.3031 7.9219 1.3031 L8.0938 1.3031 Q8.1562 1.3031 8.1953 1.3421 Q8.2344 1.3812 8.2344 1.4437 Q8.2344 1.4593 8.2188 1.4906 Q8.0938 2.0218 7.8281 2.5453 Q7.5625 3.0687 7.1719 3.4203 Q6.7812 3.7718 6.2344 3.7718 Q5.7188 3.7718 5.3438 3.4046 Q4.9688 3.0374 4.9688 2.5218 Q4.9688 2.2406 5.0781 1.9437 Q5.5156 0.8031 5.7969 -0.0797 Q6.0781 -0.9626 6.0781 -1.6344 Q6.0781 -2.0719 5.9062 -2.3532 Q5.7344 -2.6344 5.3438 -2.6344 Q4.5312 -2.6344 3.9297 -2.1422 Q3.3281 -1.6501 2.8906 -0.8376 L1.875 3.2562 Q1.8125 3.4749 1.6484 3.6234 Q1.4844 3.7718 1.2656 3.7718 Q1.0625 3.7718 0.9297 3.639 Q0.7969 3.5062 0.7969 3.3343 Z"
    /></g
    ><g transform="translate(390.2863,83.6727)" style="font-size:10.5px; text-rendering:geometricPrecision; color-rendering:optimizeQuality; image-rendering:optimizeQuality; font-family:'mwa_cmmi10'; color-interpolation:linearRGB;"
    ><path style="stroke:none;" d="M9.408 5.678 Q9.408 5.6155 9.4236 5.5843 L10.1736 2.5999 Q10.2517 2.3343 10.2517 2.1155 Q10.2517 1.6937 9.9549 1.6937 Q9.6424 1.6937 9.4861 2.0687 Q9.3299 2.4437 9.1892 3.0062 Q9.1892 3.0374 9.1658 3.053 Q9.1424 3.0687 9.1111 3.0687 L9.0017 3.0687 Q8.9549 3.0687 8.9314 3.0296 Q8.908 2.9905 8.908 2.9749 Q9.0174 2.5374 9.1189 2.2327 Q9.2205 1.928 9.4314 1.678 Q9.6424 1.428 9.9549 1.428 Q10.3142 1.428 10.5721 1.6312 Q10.8299 1.8343 10.8924 2.1624 Q11.1424 1.8187 11.4705 1.6234 Q11.7986 1.428 12.1892 1.428 Q12.5017 1.428 12.7439 1.6155 Q12.9861 1.803 12.9861 2.1155 Q12.9861 2.3655 12.8299 2.5609 Q12.6736 2.7562 12.408 2.7562 Q12.2361 2.7562 12.1267 2.6546 Q12.0174 2.553 12.0174 2.3812 Q12.0174 2.1624 12.1814 1.9905 Q12.3455 1.8187 12.5486 1.8187 Q12.3924 1.6937 12.158 1.6937 Q11.7361 1.6937 11.4158 1.9984 Q11.0955 2.303 10.8455 2.7718 L10.1267 5.6312 Q10.0955 5.7718 9.9783 5.8655 Q9.8611 5.9593 9.7049 5.9593 Q9.5955 5.9593 9.5017 5.8812 Q9.408 5.803 9.408 5.678 Z"
      /><path style="stroke:none;" d="M14.4368 5.678 Q14.4368 5.6155 14.4525 5.5843 L15.2025 2.5999 Q15.2806 2.3343 15.2806 2.1155 Q15.2806 1.6937 14.9837 1.6937 Q14.6712 1.6937 14.515 2.0687 Q14.3587 2.4437 14.2181 3.0062 Q14.2181 3.0374 14.1946 3.053 Q14.1712 3.0687 14.14 3.0687 L14.0306 3.0687 Q13.9837 3.0687 13.9603 3.0296 Q13.9368 2.9905 13.9368 2.9749 Q14.0462 2.5374 14.1478 2.2327 Q14.2493 1.928 14.4603 1.678 Q14.6712 1.428 14.9837 1.428 Q15.3431 1.428 15.6009 1.6312 Q15.8587 1.8343 15.9212 2.1624 Q16.1712 1.8187 16.4993 1.6234 Q16.8275 1.428 17.2181 1.428 Q17.5306 1.428 17.7728 1.6155 Q18.015 1.803 18.015 2.1155 Q18.015 2.3655 17.8587 2.5609 Q17.7025 2.7562 17.4368 2.7562 Q17.265 2.7562 17.1556 2.6546 Q17.0462 2.553 17.0462 2.3812 Q17.0462 2.1624 17.2103 1.9905 Q17.3743 1.8187 17.5775 1.8187 Q17.4212 1.6937 17.1868 1.6937 Q16.765 1.6937 16.4446 1.9984 Q16.1243 2.303 15.8743 2.7718 L15.1556 5.6312 Q15.1243 5.7718 15.0071 5.8655 Q14.89 5.9593 14.7337 5.9593 Q14.6243 5.9593 14.5306 5.8812 Q14.4368 5.803 14.4368 5.678 Z"
      /><path style="stroke:none;" d="M19.8719 4.6624 Q19.8719 5.0999 20.0907 5.3968 Q20.3094 5.6937 20.7313 5.6937 Q21.325 5.6937 21.8719 5.4202 Q22.4188 5.1468 22.7782 4.6624 Q22.8094 4.6312 22.8563 4.6312 Q22.9032 4.6312 22.95 4.6937 Q22.9969 4.7562 22.9969 4.803 Q22.9969 4.8343 22.9813 4.8655 Q22.6219 5.3655 21.9969 5.6624 Q21.3719 5.9593 20.7157 5.9593 Q20.2313 5.9593 19.8641 5.7327 Q19.4969 5.5062 19.3016 5.1234 Q19.1063 4.7405 19.1063 4.2718 Q19.1063 3.5999 19.4813 2.9359 Q19.8563 2.2718 20.4813 1.8499 Q21.1063 1.428 21.7938 1.428 Q22.2469 1.428 22.6063 1.6468 Q22.9657 1.8655 22.9657 2.2874 Q22.9657 2.5687 22.8016 2.7562 Q22.6375 2.9437 22.3719 2.9437 Q22.2157 2.9437 22.1063 2.8499 Q21.9969 2.7562 21.9969 2.5843 Q21.9969 2.3499 22.1688 2.1859 Q22.3407 2.0218 22.5594 2.0218 L22.575 2.0218 Q22.4657 1.8499 22.2469 1.7718 Q22.0282 1.6937 21.7782 1.6937 Q21.2 1.6937 20.7547 2.1937 Q20.3094 2.6937 20.0907 3.389 Q19.8719 4.0843 19.8719 4.6624 Z"
      /><path style="stroke:none;" d="M28.6502 7.3187 Q27.8065 6.6624 27.2049 5.8109 Q26.6033 4.9593 26.2205 3.9906 Q25.8377 3.0218 25.6424 1.9671 Q25.4471 0.9124 25.4471 -0.1501 Q25.4471 -1.2282 25.6424 -2.2829 Q25.8377 -3.3376 26.2283 -4.3141 Q26.619 -5.2907 27.2283 -6.1344 Q27.8377 -6.9782 28.6502 -7.6188 Q28.6502 -7.6501 28.7127 -7.6501 L28.8533 -7.6501 Q28.9002 -7.6501 28.9393 -7.611 Q28.9783 -7.5719 28.9783 -7.5251 Q28.9783 -7.4469 28.9471 -7.4157 Q28.2127 -6.7126 27.7283 -5.8922 Q27.244 -5.0719 26.9471 -4.1422 Q26.6502 -3.2126 26.5174 -2.2204 Q26.3846 -1.2282 26.3846 -0.1501 Q26.3846 4.6156 28.9315 7.0999 Q28.9783 7.1312 28.9783 7.2249 Q28.9783 7.2562 28.9393 7.3031 Q28.9002 7.3499 28.8533 7.3499 L28.7127 7.3499 Q28.6502 7.3499 28.6502 7.3187 Z"
      /><path style="stroke:none;" d="M30.7648 2.3812 Q30.7648 2.1624 30.7961 1.9593 L31.8898 -2.3376 L30.3117 -2.3376 Q30.1554 -2.3376 30.1554 -2.5407 Q30.2179 -2.8688 30.3586 -2.8688 L32.0148 -2.8688 L32.6242 -5.3063 Q32.6711 -5.5094 32.8507 -5.6501 Q33.0304 -5.7907 33.2492 -5.7907 Q33.4367 -5.7907 33.5695 -5.6735 Q33.7023 -5.5563 33.7023 -5.3688 Q33.7023 -5.3219 33.6945 -5.2985 Q33.6867 -5.2751 33.6867 -5.2438 L33.0773 -2.8688 L34.6242 -2.8688 Q34.7804 -2.8688 34.7804 -2.6657 Q34.7648 -2.6344 34.7492 -2.5485 Q34.7336 -2.4626 34.6945 -2.4001 Q34.6554 -2.3376 34.5773 -2.3376 L32.9523 -2.3376 L31.8742 1.9906 Q31.7648 2.4281 31.7648 2.7249 Q31.7648 3.3656 32.2023 3.3656 Q32.8586 3.3656 33.3664 2.7484 Q33.8742 2.1312 34.1554 1.3968 Q34.2023 1.3031 34.2648 1.3031 L34.4523 1.3031 Q34.5148 1.3031 34.5461 1.3421 Q34.5773 1.3812 34.5773 1.4437 Q34.5773 1.4749 34.5617 1.4906 Q34.2336 2.3968 33.6086 3.0843 Q32.9836 3.7718 32.1711 3.7718 Q31.5773 3.7718 31.1711 3.3812 Q30.7648 2.9906 30.7648 2.3812 Z"
      /><path style="stroke:none;" d="M36.2127 7.3499 Q36.0877 7.3499 36.0877 7.2249 Q36.0877 7.1468 36.119 7.1156 Q38.6815 4.6156 38.6815 -0.1501 Q38.6815 -4.9157 36.1502 -7.4001 Q36.0877 -7.4313 36.0877 -7.5251 Q36.0877 -7.5719 36.1268 -7.611 Q36.1659 -7.6501 36.2127 -7.6501 L36.3534 -7.6501 Q36.4002 -7.6501 36.4315 -7.6188 Q37.5096 -6.7751 38.2284 -5.5563 Q38.9471 -4.3376 39.2752 -2.9626 Q39.6034 -1.5876 39.6034 -0.1501 Q39.6034 0.9124 39.4237 1.9437 Q39.244 2.9749 38.8534 3.9749 Q38.4627 4.9749 37.8612 5.8187 Q37.2596 6.6624 36.4315 7.3187 Q36.4002 7.3499 36.3534 7.3499 L36.2127 7.3499 Z"
    /></g
    ><g style="stroke-linecap:butt; fill:blue; text-rendering:geometricPrecision; image-rendering:optimizeQuality; color-rendering:optimizeQuality; stroke-linejoin:round; stroke:blue; color-interpolation:linearRGB; stroke-width:2.5;"
    ><line y2="83.6727" style="fill:none;" x1="336.9605" x2="386.5659" y1="83.6727"
    /></g
    ><g style="stroke-linecap:butt; fill:rgb(38,38,38); text-rendering:geometricPrecision; color-rendering:optimizeQuality; image-rendering:optimizeQuality; stroke:rgb(38,38,38); color-interpolation:linearRGB; stroke-width:0.8333;"
    ><path d="M332 95 L332 54 L436 54 L436 95 Z" style="fill:none; fill-rule:evenodd;"
    /></g
  ></g
></svg
>
