<?xml version="1.0"?>
<!DOCTYPE svg PUBLIC '-//W3C//DTD SVG 1.0//EN'
          'http://www.w3.org/TR/2001/REC-SVG-20010904/DTD/svg10.dtd'>
<svg xmlns:xlink="http://www.w3.org/1999/xlink" style="fill-opacity:1; color-rendering:auto; color-interpolation:auto; text-rendering:auto; stroke:black; stroke-linecap:square; stroke-miterlimit:10; shape-rendering:auto; stroke-opacity:1; fill:black; stroke-dasharray:none; font-weight:normal; stroke-width:1; font-family:'Dialog'; font-style:normal; stroke-linejoin:miter; font-size:12px; stroke-dashoffset:0; image-rendering:auto;" width="500" height="500" xmlns="http://www.w3.org/2000/svg"
><!--Generated by the Batik Graphics2D SVG Generator--><defs id="genericDefs"
  /><g
  ><defs id="defs1"
    ><clipPath clipPathUnits="userSpaceOnUse" id="clipPath1"
      ><path d="M0 0 L500 0 L500 500 L0 500 L0 0 Z"
      /></clipPath
    ></defs
    ><g style="fill:white; stroke:white;"
    ><rect x="0" y="0" width="500" style="clip-path:url(#clipPath1); stroke:none;" height="500"
    /></g
    ><g style="fill:white; text-rendering:optimizeSpeed; color-rendering:optimizeSpeed; image-rendering:optimizeSpeed; shape-rendering:crispEdges; stroke:white; color-interpolation:sRGB;"
    ><rect x="0" width="500" height="500" y="0" style="stroke:none;"
      /><path style="stroke:none;" d="M65 445 L453 445 L453 37 L65 37 Z"
    /></g
    ><g style="stroke-linecap:butt; fill-opacity:0.149; fill:rgb(38,38,38); text-rendering:geometricPrecision; image-rendering:optimizeQuality; color-rendering:optimizeQuality; stroke-linejoin:round; stroke:rgb(38,38,38); color-interpolation:linearRGB; stroke-width:0.8333; stroke-opacity:0.149;"
    ><line y2="37" style="fill:none;" x1="65" x2="65" y1="445"
      /><line y2="37" style="fill:none;" x1="114.7885" x2="114.7885" y1="445"
      /><line y2="37" style="fill:none;" x1="164.5769" x2="164.5769" y1="445"
      /><line y2="37" style="fill:none;" x1="214.3654" x2="214.3654" y1="445"
      /><line y2="37" style="fill:none;" x1="264.1539" x2="264.1539" y1="445"
      /><line y2="37" style="fill:none;" x1="313.9424" x2="313.9424" y1="445"
      /><line y2="37" style="fill:none;" x1="363.7308" x2="363.7308" y1="445"
      /><line y2="37" style="fill:none;" x1="413.5193" x2="413.5193" y1="445"
      /><line y2="445" style="fill:none;" x1="453" x2="65" y1="445"
      /><line y2="394" style="fill:none;" x1="453" x2="65" y1="394"
      /><line y2="343" style="fill:none;" x1="453" x2="65" y1="343"
      /><line y2="292" style="fill:none;" x1="453" x2="65" y1="292"
      /><line y2="241" style="fill:none;" x1="453" x2="65" y1="241"
      /><line y2="190" style="fill:none;" x1="453" x2="65" y1="190"
      /><line y2="139" style="fill:none;" x1="453" x2="65" y1="139"
      /><line y2="88" style="fill:none;" x1="453" x2="65" y1="88"
      /><line y2="37" style="fill:none;" x1="453" x2="65" y1="37"
      /><line x1="65" x2="65" y1="445" style="stroke-linecap:square; fill-opacity:1; fill:none; stroke-opacity:1;" y2="37"
      /><line x1="453" x2="453" y1="445" style="stroke-linecap:square; fill-opacity:1; fill:none; stroke-opacity:1;" y2="37"
      /><line x1="65" x2="69.08" y1="445" style="stroke-linecap:square; fill-opacity:1; fill:none; stroke-opacity:1;" y2="445"
      /><line x1="65" x2="69.08" y1="394" style="stroke-linecap:square; fill-opacity:1; fill:none; stroke-opacity:1;" y2="394"
      /><line x1="65" x2="69.08" y1="343" style="stroke-linecap:square; fill-opacity:1; fill:none; stroke-opacity:1;" y2="343"
      /><line x1="65" x2="69.08" y1="292" style="stroke-linecap:square; fill-opacity:1; fill:none; stroke-opacity:1;" y2="292"
      /><line x1="65" x2="69.08" y1="241" style="stroke-linecap:square; fill-opacity:1; fill:none; stroke-opacity:1;" y2="241"
      /><line x1="65" x2="69.08" y1="190" style="stroke-linecap:square; fill-opacity:1; fill:none; stroke-opacity:1;" y2="190"
      /><line x1="65" x2="69.08" y1="139" style="stroke-linecap:square; fill-opacity:1; fill:none; stroke-opacity:1;" y2="139"
      /><line x1="65" x2="69.08" y1="88" style="stroke-linecap:square; fill-opacity:1; fill:none; stroke-opacity:1;" y2="88"
      /><line x1="65" x2="69.08" y1="37" style="stroke-linecap:square; fill-opacity:1; fill:none; stroke-opacity:1;" y2="37"
      /><line x1="453" x2="448.92" y1="445" style="stroke-linecap:square; fill-opacity:1; fill:none; stroke-opacity:1;" y2="445"
      /><line x1="453" x2="448.92" y1="394" style="stroke-linecap:square; fill-opacity:1; fill:none; stroke-opacity:1;" y2="394"
      /><line x1="453" x2="448.92" y1="343" style="stroke-linecap:square; fill-opacity:1; fill:none; stroke-opacity:1;" y2="343"
      /><line x1="453" x2="448.92" y1="292" style="stroke-linecap:square; fill-opacity:1; fill:none; stroke-opacity:1;" y2="292"
      /><line x1="453" x2="448.92" y1="241" style="stroke-linecap:square; fill-opacity:1; fill:none; stroke-opacity:1;" y2="241"
      /><line x1="453" x2="448.92" y1="190" style="stroke-linecap:square; fill-opacity:1; fill:none; stroke-opacity:1;" y2="190"
      /><line x1="453" x2="448.92" y1="139" style="stroke-linecap:square; fill-opacity:1; fill:none; stroke-opacity:1;" y2="139"
      /><line x1="453" x2="448.92" y1="88" style="stroke-linecap:square; fill-opacity:1; fill:none; stroke-opacity:1;" y2="88"
      /><line x1="453" x2="448.92" y1="37" style="stroke-linecap:square; fill-opacity:1; fill:none; stroke-opacity:1;" y2="37"
    /></g
    ><g transform="translate(58.3333,445)" style="font-size:16.6667px; fill:rgb(38,38,38); text-rendering:geometricPrecision; image-rendering:optimizeQuality; color-rendering:optimizeQuality; font-family:'SansSerif'; stroke:rgb(38,38,38); color-interpolation:linearRGB;"
    ><path style="stroke:none;" d="M-14.4531 2.8438 L-14.4531 1.3438 L-9.875 1.3438 L-9.875 2.8438 L-14.4531 2.8438 ZM-3.9533 6.5 L-3.9533 3.5938 L-9.2346 3.5938 L-9.2346 2.2188 L-3.6877 -5.6719 L-2.469 -5.6719 L-2.469 2.2188 L-0.8127 2.2188 L-0.8127 3.5938 L-2.469 3.5938 L-2.469 6.5 L-3.9533 6.5 ZM-3.9533 2.2188 L-3.9533 -3.2656 L-7.7658 2.2188 L-3.9533 2.2188 Z"
    /></g
    ><g transform="translate(58.3333,394)" style="font-size:16.6667px; fill:rgb(38,38,38); text-rendering:geometricPrecision; image-rendering:optimizeQuality; color-rendering:optimizeQuality; font-family:'SansSerif'; stroke:rgb(38,38,38); color-interpolation:linearRGB;"
    ><path style="stroke:none;" d="M-14.4531 2.8438 L-14.4531 1.3438 L-9.875 1.3438 L-9.875 2.8438 L-14.4531 2.8438 ZM-8.7346 3.2812 L-7.2502 3.0938 Q-6.9846 4.3594 -6.3674 4.9219 Q-5.7502 5.4844 -4.8596 5.4844 Q-3.8127 5.4844 -3.0862 4.75 Q-2.3596 4.0156 -2.3596 2.9375 Q-2.3596 1.9062 -3.0315 1.2422 Q-3.7033 0.5781 -4.7346 0.5781 Q-5.1565 0.5781 -5.7971 0.7344 L-5.6252 -0.5781 Q-5.4846 -0.5625 -5.3908 -0.5625 Q-4.4377 -0.5625 -3.6721 -1.0547 Q-2.9065 -1.5469 -2.9065 -2.5938 Q-2.9065 -3.4062 -3.4612 -3.9453 Q-4.0158 -4.4844 -4.8908 -4.4844 Q-5.7658 -4.4844 -6.344 -3.9375 Q-6.9221 -3.3906 -7.094 -2.2969 L-8.594 -2.5625 Q-8.3127 -4.0625 -7.344 -4.8906 Q-6.3752 -5.7188 -4.9221 -5.7188 Q-3.9377 -5.7188 -3.094 -5.2891 Q-2.2502 -4.8594 -1.8127 -4.125 Q-1.3752 -3.3906 -1.3752 -2.5625 Q-1.3752 -1.7656 -1.7971 -1.1172 Q-2.219 -0.4688 -3.0471 -0.0938 Q-1.969 0.1562 -1.3674 0.9453 Q-0.7658 1.7344 -0.7658 2.9062 Q-0.7658 4.5 -1.9299 5.6094 Q-3.094 6.7188 -4.8752 6.7188 Q-6.469 6.7188 -7.5315 5.7656 Q-8.594 4.8125 -8.7346 3.2812 Z"
    /></g
    ><g transform="translate(58.3333,343)" style="font-size:16.6667px; fill:rgb(38,38,38); text-rendering:geometricPrecision; image-rendering:optimizeQuality; color-rendering:optimizeQuality; font-family:'SansSerif'; stroke:rgb(38,38,38); color-interpolation:linearRGB;"
    ><path style="stroke:none;" d="M-14.4531 2.8438 L-14.4531 1.3438 L-9.875 1.3438 L-9.875 2.8438 L-14.4531 2.8438 ZM-0.8908 5.0625 L-0.8908 6.5 L-8.9377 6.5 Q-8.9533 5.9531 -8.7658 5.4688 Q-8.4533 4.6406 -7.7815 3.8438 Q-7.1096 3.0469 -5.8283 2 Q-3.844 0.375 -3.1487 -0.5781 Q-2.4533 -1.5312 -2.4533 -2.375 Q-2.4533 -3.2656 -3.0862 -3.875 Q-3.719 -4.4844 -4.7346 -4.4844 Q-5.8127 -4.4844 -6.4612 -3.8359 Q-7.1096 -3.1875 -7.1252 -2.0469 L-8.6565 -2.2031 Q-8.5002 -3.9219 -7.469 -4.8203 Q-6.4377 -5.7188 -4.7033 -5.7188 Q-2.9533 -5.7188 -1.9299 -4.75 Q-0.9065 -3.7812 -0.9065 -2.3438 Q-0.9065 -1.6094 -1.2112 -0.9062 Q-1.5158 -0.2031 -2.2033 0.5781 Q-2.8908 1.3594 -4.5002 2.7188 Q-5.844 3.8594 -6.2268 4.2578 Q-6.6096 4.6562 -6.8596 5.0625 L-0.8908 5.0625 Z"
    /></g
    ><g transform="translate(58.3333,292)" style="font-size:16.6667px; fill:rgb(38,38,38); text-rendering:geometricPrecision; image-rendering:optimizeQuality; color-rendering:optimizeQuality; font-family:'SansSerif'; stroke:rgb(38,38,38); color-interpolation:linearRGB;"
    ><path style="stroke:none;" d="M-14.4531 2.8438 L-14.4531 1.3438 L-9.875 1.3438 L-9.875 2.8438 L-14.4531 2.8438 ZM-3.1252 6.5 L-4.6096 6.5 L-4.6096 -3.0156 Q-5.1565 -2.5 -6.0315 -1.9922 Q-6.9065 -1.4844 -7.6096 -1.2188 L-7.6096 -2.6719 Q-6.344 -3.25 -5.4065 -4.0938 Q-4.469 -4.9375 -4.0783 -5.7188 L-3.1252 -5.7188 L-3.1252 6.5 Z"
    /></g
    ><g transform="translate(58.3333,241)" style="font-size:16.6667px; fill:rgb(38,38,38); text-rendering:geometricPrecision; image-rendering:optimizeQuality; color-rendering:optimizeQuality; font-family:'SansSerif'; stroke:rgb(38,38,38); color-interpolation:linearRGB;"
    ><path style="stroke:none;" d="M-9.2969 0.5 Q-9.2969 -1.6562 -8.8516 -2.9766 Q-8.4062 -4.2969 -7.5312 -5.0078 Q-6.6562 -5.7188 -5.3281 -5.7188 Q-4.3438 -5.7188 -3.6094 -5.3281 Q-2.875 -4.9375 -2.3906 -4.1875 Q-1.9062 -3.4375 -1.6328 -2.375 Q-1.3594 -1.3125 -1.3594 0.5 Q-1.3594 2.6406 -1.7969 3.9531 Q-2.2344 5.2656 -3.1094 5.9844 Q-3.9844 6.7031 -5.3281 6.7031 Q-7.0938 6.7031 -8.0938 5.4531 Q-9.2969 3.9219 -9.2969 0.5 ZM-7.7656 0.5 Q-7.7656 3.5 -7.0625 4.4922 Q-6.3594 5.4844 -5.3281 5.4844 Q-4.2969 5.4844 -3.5938 4.4844 Q-2.8906 3.4844 -2.8906 0.5 Q-2.8906 -2.5 -3.5938 -3.4922 Q-4.2969 -4.4844 -5.3438 -4.4844 Q-6.375 -4.4844 -6.9844 -3.6094 Q-7.7656 -2.5 -7.7656 0.5 Z"
    /></g
    ><g transform="translate(58.3333,190)" style="font-size:16.6667px; fill:rgb(38,38,38); text-rendering:geometricPrecision; image-rendering:optimizeQuality; color-rendering:optimizeQuality; font-family:'SansSerif'; stroke:rgb(38,38,38); color-interpolation:linearRGB;"
    ><path style="stroke:none;" d="M-3.6719 6.5 L-5.1562 6.5 L-5.1562 -3.0156 Q-5.7031 -2.5 -6.5781 -1.9922 Q-7.4531 -1.4844 -8.1562 -1.2188 L-8.1562 -2.6719 Q-6.8906 -3.25 -5.9531 -4.0938 Q-5.0156 -4.9375 -4.625 -5.7188 L-3.6719 -5.7188 L-3.6719 6.5 Z"
    /></g
    ><g transform="translate(58.3333,139)" style="font-size:16.6667px; fill:rgb(38,38,38); text-rendering:geometricPrecision; image-rendering:optimizeQuality; color-rendering:optimizeQuality; font-family:'SansSerif'; stroke:rgb(38,38,38); color-interpolation:linearRGB;"
    ><path style="stroke:none;" d="M-1.4375 5.0625 L-1.4375 6.5 L-9.4844 6.5 Q-9.5 5.9531 -9.3125 5.4688 Q-9 4.6406 -8.3281 3.8438 Q-7.6562 3.0469 -6.375 2 Q-4.3906 0.375 -3.6953 -0.5781 Q-3 -1.5312 -3 -2.375 Q-3 -3.2656 -3.6328 -3.875 Q-4.2656 -4.4844 -5.2812 -4.4844 Q-6.3594 -4.4844 -7.0078 -3.8359 Q-7.6562 -3.1875 -7.6719 -2.0469 L-9.2031 -2.2031 Q-9.0469 -3.9219 -8.0156 -4.8203 Q-6.9844 -5.7188 -5.25 -5.7188 Q-3.5 -5.7188 -2.4766 -4.75 Q-1.4531 -3.7812 -1.4531 -2.3438 Q-1.4531 -1.6094 -1.7578 -0.9062 Q-2.0625 -0.2031 -2.75 0.5781 Q-3.4375 1.3594 -5.0469 2.7188 Q-6.3906 3.8594 -6.7734 4.2578 Q-7.1562 4.6562 -7.4062 5.0625 L-1.4375 5.0625 Z"
    /></g
    ><g transform="translate(58.3333,88)" style="font-size:16.6667px; fill:rgb(38,38,38); text-rendering:geometricPrecision; image-rendering:optimizeQuality; color-rendering:optimizeQuality; font-family:'SansSerif'; stroke:rgb(38,38,38); color-interpolation:linearRGB;"
    ><path style="stroke:none;" d="M-9.2812 3.2812 L-7.7969 3.0938 Q-7.5312 4.3594 -6.9141 4.9219 Q-6.2969 5.4844 -5.4062 5.4844 Q-4.3594 5.4844 -3.6328 4.75 Q-2.9062 4.0156 -2.9062 2.9375 Q-2.9062 1.9062 -3.5781 1.2422 Q-4.25 0.5781 -5.2812 0.5781 Q-5.7031 0.5781 -6.3438 0.7344 L-6.1719 -0.5781 Q-6.0312 -0.5625 -5.9375 -0.5625 Q-4.9844 -0.5625 -4.2188 -1.0547 Q-3.4531 -1.5469 -3.4531 -2.5938 Q-3.4531 -3.4062 -4.0078 -3.9453 Q-4.5625 -4.4844 -5.4375 -4.4844 Q-6.3125 -4.4844 -6.8906 -3.9375 Q-7.4688 -3.3906 -7.6406 -2.2969 L-9.1406 -2.5625 Q-8.8594 -4.0625 -7.8906 -4.8906 Q-6.9219 -5.7188 -5.4688 -5.7188 Q-4.4844 -5.7188 -3.6406 -5.2891 Q-2.7969 -4.8594 -2.3594 -4.125 Q-1.9219 -3.3906 -1.9219 -2.5625 Q-1.9219 -1.7656 -2.3438 -1.1172 Q-2.7656 -0.4688 -3.5938 -0.0938 Q-2.5156 0.1562 -1.9141 0.9453 Q-1.3125 1.7344 -1.3125 2.9062 Q-1.3125 4.5 -2.4766 5.6094 Q-3.6406 6.7188 -5.4219 6.7188 Q-7.0156 6.7188 -8.0781 5.7656 Q-9.1406 4.8125 -9.2812 3.2812 Z"
    /></g
    ><g transform="translate(58.3333,37)" style="font-size:16.6667px; fill:rgb(38,38,38); text-rendering:geometricPrecision; image-rendering:optimizeQuality; color-rendering:optimizeQuality; font-family:'SansSerif'; stroke:rgb(38,38,38); color-interpolation:linearRGB;"
    ><path style="stroke:none;" d="M-4.5 6.5 L-4.5 3.5938 L-9.7812 3.5938 L-9.7812 2.2188 L-4.2344 -5.6719 L-3.0156 -5.6719 L-3.0156 2.2188 L-1.3594 2.2188 L-1.3594 3.5938 L-3.0156 3.5938 L-3.0156 6.5 L-4.5 6.5 ZM-4.5 2.2188 L-4.5 -3.2656 L-8.3125 2.2188 L-4.5 2.2188 Z"
    /></g
    ><g transform="translate(38.3333,240.9998) rotate(-90)" style="font-size:18.3333px; fill:rgb(38,38,38); text-rendering:geometricPrecision; image-rendering:optimizeQuality; color-rendering:optimizeQuality; font-family:'mwa_cmr10'; stroke:rgb(38,38,38); color-interpolation:linearRGB;"
    ><path style="stroke:none;" d="M-37.871 -6.6001 L-37.871 -7.2407 Q-36.2617 -7.2407 -35.8867 -8.3032 L-32.1054 -19.2876 Q-32.0585 -19.4907 -31.8242 -19.4907 L-31.5898 -19.4907 Q-31.3554 -19.4907 -31.3085 -19.2876 L-27.3554 -7.8032 Q-27.1835 -7.4282 -26.7148 -7.3344 Q-26.246 -7.2407 -25.5429 -7.2407 L-25.5429 -6.6001 L-30.5585 -6.6001 L-30.5585 -7.2407 Q-29.0742 -7.2407 -29.0742 -7.7094 L-29.0742 -7.8032 L-30.0429 -10.6157 L-34.4179 -10.6157 L-35.2304 -8.3032 Q-35.246 -8.2407 -35.246 -8.1157 Q-35.246 -7.6626 -34.8164 -7.4516 Q-34.3867 -7.2407 -33.9023 -7.2407 L-33.9023 -6.6001 L-37.871 -6.6001 ZM-34.1992 -11.2407 L-30.2617 -11.2407 L-32.2304 -16.9907 L-34.1992 -11.2407 Z"
      /><path style="stroke:none;" d="M-24.1679 -6.6001 L-24.1679 -7.2407 Q-23.5429 -7.2407 -23.1523 -7.3344 Q-22.7616 -7.4282 -22.7616 -7.8032 L-22.7616 -12.7251 Q-22.7616 -13.1938 -22.9023 -13.4126 Q-23.0429 -13.6313 -23.3163 -13.6782 Q-23.5898 -13.7251 -24.1679 -13.7251 L-24.1679 -14.3657 L-21.5585 -14.5532 L-21.5585 -12.8032 Q-21.1991 -13.5688 -20.4882 -14.061 Q-19.7773 -14.5532 -18.9491 -14.5532 Q-16.871 -14.5532 -16.5116 -12.8657 Q-16.1523 -13.6157 -15.457 -14.0844 Q-14.7616 -14.5532 -13.9335 -14.5532 Q-13.121 -14.5532 -12.5585 -14.2876 Q-11.996 -14.0219 -11.7148 -13.4829 Q-11.4335 -12.9438 -11.4335 -12.1313 L-11.4335 -7.8032 Q-11.4335 -7.4282 -11.0351 -7.3344 Q-10.6366 -7.2407 -10.0273 -7.2407 L-10.0273 -6.6001 L-14.1523 -6.6001 L-14.1523 -7.2407 Q-13.5429 -7.2407 -13.1445 -7.3344 Q-12.746 -7.4282 -12.746 -7.8032 L-12.746 -12.0688 Q-12.746 -12.9751 -13.0038 -13.5298 Q-13.2616 -14.0844 -14.0429 -14.0844 Q-15.0898 -14.0844 -15.7616 -13.2485 Q-16.4335 -12.4126 -16.4335 -11.3501 L-16.4335 -7.8032 Q-16.4335 -7.4282 -16.0429 -7.3344 Q-15.6523 -7.2407 -15.0273 -7.2407 L-15.0273 -6.6001 L-19.1523 -6.6001 L-19.1523 -7.2407 Q-18.5429 -7.2407 -18.1445 -7.3344 Q-17.746 -7.4282 -17.746 -7.8032 L-17.746 -12.0688 Q-17.746 -12.9594 -18.0038 -13.5219 Q-18.2616 -14.0844 -19.0429 -14.0844 Q-20.0898 -14.0844 -20.7616 -13.2485 Q-21.4335 -12.4126 -21.4335 -11.3501 L-21.4335 -7.8032 Q-21.4335 -7.4282 -21.0429 -7.3344 Q-20.6523 -7.2407 -20.0429 -7.2407 L-20.0429 -6.6001 L-24.1679 -6.6001 Z"
      /><path style="stroke:none;" d="M-8.9526 -3.1157 L-8.9526 -3.7407 Q-8.3432 -3.7407 -7.9448 -3.8423 Q-7.5463 -3.9438 -7.5463 -4.3188 L-7.5463 -12.9907 Q-7.5463 -13.4751 -7.8979 -13.6001 Q-8.2494 -13.7251 -8.9526 -13.7251 L-8.9526 -14.3657 L-6.2963 -14.5532 L-6.2963 -13.4438 Q-5.7963 -13.9907 -5.1401 -14.2719 Q-4.4838 -14.5532 -3.7494 -14.5532 Q-2.6869 -14.5532 -1.8354 -13.9751 Q-0.9838 -13.3969 -0.5073 -12.4673 Q-0.0307 -11.5376 -0.0307 -10.4907 Q-0.0307 -9.3969 -0.5619 -8.4594 Q-1.0932 -7.5219 -2.0073 -6.9594 Q-2.9213 -6.3969 -4.0307 -6.3969 Q-5.3276 -6.3969 -6.2338 -7.4594 L-6.2338 -4.3188 Q-6.2338 -3.9438 -5.8354 -3.8423 Q-5.4369 -3.7407 -4.8276 -3.7407 L-4.8276 -3.1157 L-8.9526 -3.1157 ZM-6.2338 -8.3501 Q-5.9213 -7.7094 -5.3588 -7.2876 Q-4.7963 -6.8657 -4.1244 -6.8657 Q-3.4994 -6.8657 -3.0229 -7.2016 Q-2.5463 -7.5376 -2.2182 -8.1001 Q-1.8901 -8.6626 -1.7416 -9.2876 Q-1.5932 -9.9126 -1.5932 -10.4907 Q-1.5932 -11.2094 -1.851 -12.0454 Q-2.1088 -12.8813 -2.6401 -13.4594 Q-3.1713 -14.0376 -3.9213 -14.0376 Q-4.6557 -14.0376 -5.2651 -13.6626 Q-5.8744 -13.2876 -6.2338 -12.6469 L-6.2338 -8.3501 Z"
      /><path style="stroke:none;" d="M1.3108 -6.6001 L1.3108 -7.2407 Q1.9358 -7.2407 2.3264 -7.3344 Q2.717 -7.4282 2.717 -7.8032 L2.717 -17.2563 Q2.717 -17.7407 2.5764 -17.9516 Q2.4358 -18.1626 2.1623 -18.2094 Q1.8889 -18.2563 1.3108 -18.2563 L1.3108 -18.8969 L3.9826 -19.0844 L3.9826 -7.8032 Q3.9826 -7.4282 4.3811 -7.3344 Q4.7795 -7.2407 5.3889 -7.2407 L5.3889 -6.6001 L1.3108 -6.6001 Z"
      /><path style="stroke:none;" d="M6.4034 -6.6001 L6.4034 -7.2407 Q7.0284 -7.2407 7.419 -7.3344 Q7.8096 -7.4282 7.8096 -7.8032 L7.8096 -12.7251 Q7.8096 -13.4126 7.544 -13.5688 Q7.2784 -13.7251 6.4971 -13.7251 L6.4971 -14.3657 L9.0753 -14.5532 L9.0753 -7.8032 Q9.0753 -7.4282 9.419 -7.3344 Q9.7628 -7.2407 10.3409 -7.2407 L10.3409 -6.6001 L6.4034 -6.6001 ZM7.169 -17.6469 Q7.169 -18.0376 7.4737 -18.3423 Q7.7784 -18.6469 8.1534 -18.6469 Q8.419 -18.6469 8.6534 -18.5141 Q8.8878 -18.3813 9.0206 -18.1391 Q9.1534 -17.8969 9.1534 -17.6469 Q9.1534 -17.2563 8.8565 -16.9594 Q8.5596 -16.6626 8.1534 -16.6626 Q7.7784 -16.6626 7.4737 -16.9594 Q7.169 -17.2563 7.169 -17.6469 Z"
      /><path style="stroke:none;" d="M12.7929 -8.7563 L12.7929 -13.7251 L11.2929 -13.7251 L11.2929 -14.1938 Q12.4647 -14.1938 13.0194 -15.2954 Q13.5741 -16.3969 13.5741 -17.6782 L14.0897 -17.6782 L14.0897 -14.3657 L16.6366 -14.3657 L16.6366 -13.7251 L14.0897 -13.7251 L14.0897 -8.8032 Q14.0897 -8.0532 14.3397 -7.4907 Q14.5897 -6.9282 15.246 -6.9282 Q15.8554 -6.9282 16.1288 -7.5219 Q16.4022 -8.1157 16.4022 -8.8032 L16.4022 -9.8657 L16.9335 -9.8657 L16.9335 -8.7563 Q16.9335 -8.1938 16.7226 -7.6469 Q16.5116 -7.1001 16.1054 -6.7485 Q15.6991 -6.3969 15.121 -6.3969 Q14.0429 -6.3969 13.4179 -7.0454 Q12.7929 -7.6938 12.7929 -8.7563 Z"
      /><path style="stroke:none;" d="M20.0163 -8.7407 L20.0163 -12.7251 Q20.0163 -13.1938 19.8756 -13.4126 Q19.735 -13.6313 19.4616 -13.6782 Q19.1881 -13.7251 18.61 -13.7251 L18.61 -14.3657 L21.3444 -14.5532 L21.3444 -8.7407 Q21.3444 -8.0376 21.446 -7.6469 Q21.5475 -7.2563 21.8756 -7.061 Q22.2038 -6.8657 22.9225 -6.8657 Q23.8913 -6.8657 24.4616 -7.6782 Q25.0319 -8.4907 25.0319 -9.5219 L25.0319 -12.7251 Q25.0319 -13.1938 24.8835 -13.4126 Q24.735 -13.6313 24.4694 -13.6782 Q24.2038 -13.7251 23.6256 -13.7251 L23.6256 -14.3657 L26.3444 -14.5532 L26.3444 -8.2407 Q26.3444 -7.7563 26.485 -7.5454 Q26.6256 -7.3344 26.8991 -7.2876 Q27.1725 -7.2407 27.7506 -7.2407 L27.7506 -6.6001 L25.0788 -6.3969 L25.0788 -7.9126 Q24.7506 -7.2407 24.1491 -6.8188 Q23.5475 -6.3969 22.8288 -6.3969 Q21.5475 -6.3969 20.7819 -6.9438 Q20.0163 -7.4907 20.0163 -8.7407 Z"
      /><path style="stroke:none;" d="M32.6546 -6.3969 Q31.5921 -6.3969 30.7171 -6.9751 Q29.8421 -7.5532 29.3499 -8.4907 Q28.8577 -9.4282 28.8577 -10.4907 Q28.8577 -11.5688 29.389 -12.5063 Q29.9202 -13.4438 30.8343 -13.9985 Q31.7484 -14.5532 32.8577 -14.5532 Q33.514 -14.5532 34.0999 -14.2798 Q34.6859 -14.0063 35.1234 -13.5063 L35.1234 -17.2563 Q35.1234 -17.7407 34.9749 -17.9516 Q34.8265 -18.1626 34.5609 -18.2094 Q34.2952 -18.2563 33.7171 -18.2563 L33.7171 -18.8969 L36.389 -19.0844 L36.389 -8.2407 Q36.389 -7.7563 36.5296 -7.5454 Q36.6702 -7.3344 36.9437 -7.2876 Q37.2171 -7.2407 37.7796 -7.2407 L37.7796 -6.6001 L35.0609 -6.3969 L35.0609 -7.5376 Q34.6077 -6.9907 33.9593 -6.6938 Q33.3109 -6.3969 32.6546 -6.3969 ZM30.8265 -8.1626 Q31.1234 -7.5688 31.639 -7.2173 Q32.1546 -6.8657 32.764 -6.8657 Q33.514 -6.8657 34.139 -7.3032 Q34.764 -7.7407 35.0609 -8.4126 L35.0609 -12.7407 Q34.8577 -13.1313 34.5374 -13.4438 Q34.2171 -13.7563 33.8187 -13.9204 Q33.4202 -14.0844 32.9671 -14.0844 Q32.0296 -14.0844 31.4593 -13.5532 Q30.889 -13.0219 30.6546 -12.1938 Q30.4202 -11.3657 30.4202 -10.4751 Q30.4202 -9.7407 30.4984 -9.2094 Q30.5765 -8.6782 30.8265 -8.1626 Z"
    /></g
    ><g style="stroke-linecap:butt; fill:rgb(38,38,38); text-rendering:geometricPrecision; image-rendering:optimizeQuality; color-rendering:optimizeQuality; stroke-linejoin:round; stroke:rgb(38,38,38); color-interpolation:linearRGB; stroke-width:0.8333;"
    ><line y2="241" style="fill:none;" x1="65" x2="453" y1="241"
    /></g
    ><g transform="translate(210.8647,292)" style="fill:red; text-rendering:geometricPrecision; color-rendering:optimizeQuality; image-rendering:optimizeQuality; color-interpolation:linearRGB; stroke:red;"
    ><circle r="5" style="stroke:none;" cx="0" cy="0"
    /></g
    ><g transform="translate(210.8647,292)" style="stroke-linecap:butt; fill:red; text-rendering:geometricPrecision; color-rendering:optimizeQuality; image-rendering:optimizeQuality; color-interpolation:linearRGB; stroke:red;"
    ><circle r="5" style="fill:none;" cx="0" cy="0"
    /></g
    ><g transform="translate(226.4236,88)" style="fill:red; text-rendering:geometricPrecision; color-rendering:optimizeQuality; image-rendering:optimizeQuality; color-interpolation:linearRGB; stroke:red;"
    ><circle r="5" style="stroke:none;" cx="0" cy="0"
    /></g
    ><g transform="translate(226.4236,88)" style="stroke-linecap:butt; fill:red; text-rendering:geometricPrecision; color-rendering:optimizeQuality; image-rendering:optimizeQuality; color-interpolation:linearRGB; stroke:red;"
    ><circle r="5" style="fill:none;" cx="0" cy="0"
    /></g
    ><g transform="translate(241.9825,394)" style="fill:red; text-rendering:geometricPrecision; color-rendering:optimizeQuality; image-rendering:optimizeQuality; color-interpolation:linearRGB; stroke:red;"
    ><circle r="5" style="stroke:none;" cx="0" cy="0"
    /></g
    ><g transform="translate(241.9825,394)" style="stroke-linecap:butt; fill:red; text-rendering:geometricPrecision; color-rendering:optimizeQuality; image-rendering:optimizeQuality; color-interpolation:linearRGB; stroke:red;"
    ><circle r="5" style="fill:none;" cx="0" cy="0"
    /></g
    ><g transform="translate(257.5414,292)" style="fill:red; text-rendering:geometricPrecision; color-rendering:optimizeQuality; image-rendering:optimizeQuality; color-interpolation:linearRGB; stroke:red;"
    ><circle r="5" style="stroke:none;" cx="0" cy="0"
    /></g
    ><g transform="translate(257.5414,292)" style="stroke-linecap:butt; fill:red; text-rendering:geometricPrecision; color-rendering:optimizeQuality; image-rendering:optimizeQuality; color-interpolation:linearRGB; stroke:red;"
    ><circle r="5" style="fill:none;" cx="0" cy="0"
    /></g
    ><g transform="translate(273.1003,190)" style="fill:red; text-rendering:geometricPrecision; color-rendering:optimizeQuality; image-rendering:optimizeQuality; color-interpolation:linearRGB; stroke:red;"
    ><circle r="5" style="stroke:none;" cx="0" cy="0"
    /></g
    ><g transform="translate(273.1003,190)" style="stroke-linecap:butt; fill:red; text-rendering:geometricPrecision; color-rendering:optimizeQuality; image-rendering:optimizeQuality; color-interpolation:linearRGB; stroke:red;"
    ><circle r="5" style="fill:none;" cx="0" cy="0"
    /></g
    ><g transform="translate(288.6591,394)" style="fill:red; text-rendering:geometricPrecision; color-rendering:optimizeQuality; image-rendering:optimizeQuality; color-interpolation:linearRGB; stroke:red;"
    ><circle r="5" style="stroke:none;" cx="0" cy="0"
    /></g
    ><g transform="translate(288.6591,394)" style="stroke-linecap:butt; fill:red; text-rendering:geometricPrecision; color-rendering:optimizeQuality; image-rendering:optimizeQuality; color-interpolation:linearRGB; stroke:red;"
    ><circle r="5" style="fill:none;" cx="0" cy="0"
    /></g
    ><g transform="translate(304.218,190)" style="fill:red; text-rendering:geometricPrecision; color-rendering:optimizeQuality; image-rendering:optimizeQuality; color-interpolation:linearRGB; stroke:red;"
    ><circle r="5" style="stroke:none;" cx="0" cy="0"
    /></g
    ><g transform="translate(304.218,190)" style="stroke-linecap:butt; fill:red; text-rendering:geometricPrecision; color-rendering:optimizeQuality; image-rendering:optimizeQuality; color-interpolation:linearRGB; stroke:red;"
    ><circle r="5" style="fill:none;" cx="0" cy="0"
    /></g
    ><g transform="translate(319.7769,88)" style="fill:red; text-rendering:geometricPrecision; color-rendering:optimizeQuality; image-rendering:optimizeQuality; color-interpolation:linearRGB; stroke:red;"
    ><circle r="5" style="stroke:none;" cx="0" cy="0"
    /></g
    ><g transform="translate(319.7769,88)" style="stroke-linecap:butt; fill:red; text-rendering:geometricPrecision; color-rendering:optimizeQuality; image-rendering:optimizeQuality; color-interpolation:linearRGB; stroke:red;"
    ><circle r="5" style="fill:none;" cx="0" cy="0"
    /></g
    ><g transform="translate(335.3358,190)" style="fill:red; text-rendering:geometricPrecision; color-rendering:optimizeQuality; image-rendering:optimizeQuality; color-interpolation:linearRGB; stroke:red;"
    ><circle r="5" style="stroke:none;" cx="0" cy="0"
    /></g
    ><g transform="translate(335.3358,190)" style="stroke-linecap:butt; fill:red; text-rendering:geometricPrecision; color-rendering:optimizeQuality; image-rendering:optimizeQuality; color-interpolation:linearRGB; stroke:red;"
    ><circle r="5" style="fill:none;" cx="0" cy="0"
    /></g
    ><g transform="translate(350.8947,190)" style="fill:red; text-rendering:geometricPrecision; color-rendering:optimizeQuality; image-rendering:optimizeQuality; color-interpolation:linearRGB; stroke:red;"
    ><circle r="5" style="stroke:none;" cx="0" cy="0"
    /></g
    ><g transform="translate(350.8947,190)" style="stroke-linecap:butt; fill:red; text-rendering:geometricPrecision; color-rendering:optimizeQuality; image-rendering:optimizeQuality; color-interpolation:linearRGB; stroke:red;"
    ><circle r="5" style="fill:none;" cx="0" cy="0"
    /></g
    ><g transform="translate(366.4536,88)" style="fill:red; text-rendering:geometricPrecision; color-rendering:optimizeQuality; image-rendering:optimizeQuality; color-interpolation:linearRGB; stroke:red;"
    ><circle r="5" style="stroke:none;" cx="0" cy="0"
    /></g
    ><g transform="translate(366.4536,88)" style="stroke-linecap:butt; fill:red; text-rendering:geometricPrecision; color-rendering:optimizeQuality; image-rendering:optimizeQuality; color-interpolation:linearRGB; stroke:red;"
    ><circle r="5" style="fill:none;" cx="0" cy="0"
    /></g
    ><g transform="translate(382.0125,394)" style="fill:red; text-rendering:geometricPrecision; color-rendering:optimizeQuality; image-rendering:optimizeQuality; color-interpolation:linearRGB; stroke:red;"
    ><circle r="5" style="stroke:none;" cx="0" cy="0"
    /></g
    ><g transform="translate(382.0125,394)" style="stroke-linecap:butt; fill:red; text-rendering:geometricPrecision; color-rendering:optimizeQuality; image-rendering:optimizeQuality; color-interpolation:linearRGB; stroke:red;"
    ><circle r="5" style="fill:none;" cx="0" cy="0"
    /></g
    ><g transform="translate(397.5714,190)" style="fill:red; text-rendering:geometricPrecision; color-rendering:optimizeQuality; image-rendering:optimizeQuality; color-interpolation:linearRGB; stroke:red;"
    ><circle r="5" style="stroke:none;" cx="0" cy="0"
    /></g
    ><g transform="translate(397.5714,190)" style="stroke-linecap:butt; fill:red; text-rendering:geometricPrecision; color-rendering:optimizeQuality; image-rendering:optimizeQuality; color-interpolation:linearRGB; stroke:red;"
    ><circle r="5" style="fill:none;" cx="0" cy="0"
    /></g
    ><g transform="translate(413.1303,394)" style="fill:red; text-rendering:geometricPrecision; color-rendering:optimizeQuality; image-rendering:optimizeQuality; color-interpolation:linearRGB; stroke:red;"
    ><circle r="5" style="stroke:none;" cx="0" cy="0"
    /></g
    ><g transform="translate(413.1303,394)" style="stroke-linecap:butt; fill:red; text-rendering:geometricPrecision; color-rendering:optimizeQuality; image-rendering:optimizeQuality; color-interpolation:linearRGB; stroke:red;"
    ><circle r="5" style="fill:none;" cx="0" cy="0"
    /></g
    ><g transform="translate(428.6892,190)" style="fill:red; text-rendering:geometricPrecision; color-rendering:optimizeQuality; image-rendering:optimizeQuality; color-interpolation:linearRGB; stroke:red;"
    ><circle r="5" style="stroke:none;" cx="0" cy="0"
    /></g
    ><g transform="translate(428.6892,190)" style="stroke-linecap:butt; fill:red; text-rendering:geometricPrecision; color-rendering:optimizeQuality; image-rendering:optimizeQuality; color-interpolation:linearRGB; stroke:red;"
    ><circle r="5" style="fill:none;" cx="0" cy="0"
    /></g
    ><g transform="translate(444.2481,88)" style="fill:red; text-rendering:geometricPrecision; color-rendering:optimizeQuality; image-rendering:optimizeQuality; color-interpolation:linearRGB; stroke:red;"
    ><circle r="5" style="stroke:none;" cx="0" cy="0"
    /></g
    ><g transform="translate(444.2481,88)" style="stroke-linecap:butt; fill:red; text-rendering:geometricPrecision; color-rendering:optimizeQuality; image-rendering:optimizeQuality; color-interpolation:linearRGB; stroke:red;"
    ><circle r="5" style="fill:none;" cx="0" cy="0"
    /></g
    ><g style="stroke-linecap:butt; fill:red; text-rendering:geometricPrecision; image-rendering:optimizeQuality; color-rendering:optimizeQuality; stroke-linejoin:bevel; stroke-dasharray:10,6; stroke:red; color-interpolation:linearRGB; stroke-width:0.8333; stroke-miterlimit:1;"
    ><line y2="292" style="fill:none;" x1="210.8647" x2="210.8647" y1="241"
      /><line y2="88" style="fill:none;" x1="226.4236" x2="226.4236" y1="241"
      /><line y2="394" style="fill:none;" x1="241.9825" x2="241.9825" y1="241"
      /><line y2="292" style="fill:none;" x1="257.5414" x2="257.5414" y1="241"
      /><line y2="190" style="fill:none;" x1="273.1003" x2="273.1003" y1="241"
      /><line y2="394" style="fill:none;" x1="288.6591" x2="288.6591" y1="241"
      /><line y2="190" style="fill:none;" x1="304.218" x2="304.218" y1="241"
      /><line y2="88" style="fill:none;" x1="319.7769" x2="319.7769" y1="241"
      /><line y2="190" style="fill:none;" x1="335.3358" x2="335.3358" y1="241"
      /><line y2="190" style="fill:none;" x1="350.8947" x2="350.8947" y1="241"
      /><line y2="88" style="fill:none;" x1="366.4536" x2="366.4536" y1="241"
      /><line y2="394" style="fill:none;" x1="382.0125" x2="382.0125" y1="241"
      /><line y2="190" style="fill:none;" x1="397.5714" x2="397.5714" y1="241"
      /><line y2="394" style="fill:none;" x1="413.1303" x2="413.1303" y1="241"
      /><line y2="190" style="fill:none;" x1="428.6892" x2="428.6892" y1="241"
      /><line y2="88" style="fill:none;" x1="444.2481" x2="444.2481" y1="241"
    /></g
    ><g style="stroke-linecap:butt; text-rendering:geometricPrecision; color-rendering:optimizeQuality; image-rendering:optimizeQuality; stroke-linejoin:round; color-interpolation:linearRGB; stroke-width:1.6667;"
    ><path d="M65 241.1325 L65.9724 241.1769 L66.9449 241.2133 L67.9173 241.2392 L68.8897 241.2529 L69.8622 241.2531 L70.8346 241.2394 L71.807 241.2118 L72.7794 241.1715 L73.7519 241.1202 L74.7243 241.0603 L75.6967 240.9948 L76.6692 240.9271 L77.6416 240.8608 L78.614 240.7996 L79.5865 240.7469 L80.5589 240.3084 L81.5313 240.1485 L82.5038 240.0289 L83.4762 239.9577 L84.4486 239.9407 L85.4211 239.9807 L86.3935 240.0776 L87.3659 240.2281 L88.3383 240.4258 L89.3108 240.6616 L90.2832 240.9238 L91.2556 241.1991 L92.2281 241.4729 L93.2005 241.7303 L94.1729 241.957 L95.1454 242.1397 L96.1178 242.6648 L97.0902 242.8619 L98.0627 242.966 L99.0351 242.9685 L100.0075 242.8661 L100.9799 242.661 L101.9524 242.3615 L102.9248 241.9808 L103.8972 241.5375 L104.8697 241.0538 L105.8421 240.555 L106.8145 240.0678 L107.787 239.619 L108.7594 239.2341 L109.7318 238.9358 L110.7043 238.7422 L111.6767 238.7992 L112.6491 238.8929 L113.6216 239.1033 L114.594 239.4212 L115.5664 239.831 L116.5388 240.3114 L117.5113 240.8367 L118.4837 241.3777 L119.4561 241.9038 L120.4286 242.3841 L121.401 242.7898 L122.3734 243.0952 L123.3459 243.2801 L124.3183 243.3303 L125.2907 243.2394 L126.2632 243.0089 L127.2356 242.5161 L128.208 241.9996 L129.1805 241.4046 L130.1529 240.7648 L131.1253 240.1183 L132.0977 239.5047 L133.0702 238.964 L134.0426 238.5332 L135.015 238.2448 L135.9875 238.1244 L136.9599 238.1887 L137.9323 238.4442 L138.9048 238.8865 L139.8772 239.4997 L140.8496 240.2567 L141.8221 241.1203 L142.7945 242.4421 L143.7669 243.5078 L144.7393 244.5014 L145.7118 245.3586 L146.6842 246.0187 L147.6566 246.4287 L148.6291 246.5461 L149.6015 246.3421 L150.5739 245.8045 L151.5464 244.9386 L152.5188 243.7683 L153.4912 242.3365 L154.4637 240.703 L155.4361 238.9431 L156.4085 237.1441 L157.381 235.4017 L158.3534 233.6828 L159.3258 232.3062 L160.2982 231.2833 L161.2707 230.6962 L162.2431 230.61 L163.2155 231.0679 L164.188 232.0879 L165.1604 233.6602 L166.1328 235.7457 L167.1053 238.2762 L168.0777 241.1562 L169.0501 244.2654 L170.0226 247.4636 L170.995 250.596 L171.9674 253.5002 L172.9398 256.0136 L173.9123 257.5836 L174.8847 258.733 L175.8571 259.1059 L176.8296 258.6242 L177.802 257.2453 L178.7744 254.966 L179.7469 251.8256 L180.7193 247.9067 L181.6917 243.3344 L182.6642 238.2736 L183.6366 232.9241 L184.609 227.5137 L185.5815 222.2907 L186.5539 217.5134 L187.5263 213.4405 L188.4987 210.3191 L189.4712 208.2415 L190.4436 207.6198 L191.416 208.5216 L192.3885 211.0449 L193.3609 215.2277 L194.3333 221.0427 L195.3058 228.3951 L196.2782 237.1217 L197.2506 246.9942 L198.2231 257.7241 L199.1955 268.9704 L200.1679 280.3504 L201.1404 291.452 L202.1128 301.8473 L203.0852 311.1079 L204.0576 318.8213 L205.0301 324.4731 L206.0025 327.9488 L206.9749 328.8935 L207.9474 327.1072 L208.9198 322.4724 L209.8922 314.9604 L210.8647 304.6365 L211.8371 291.6603 L212.8095 276.2836 L213.782 258.845 L214.7544 239.7611 L215.7268 219.5148 L216.6992 198.6416 L217.6717 177.7138 L218.6441 157.3222 L219.6165 138.0587 L220.589 120.0997 L221.5614 104.6454 L222.5338 91.9407 L223.5063 82.4094 L224.4787 76.3927 L225.4511 74.1372 L226.4236 75.7878 L227.396 81.3826 L228.3684 90.8518 L229.3409 104.02 L230.3133 120.6116 L231.2857 140.2595 L232.2581 162.5164 L233.2306 186.8689 L234.203 212.7522 L235.1754 239.5679 L236.1479 267.098 L237.1203 294.0661 L238.0927 320.1157 L239.0652 344.6767 L240.0376 367.2286 L241.01 387.3137 L241.9825 404.5469 L242.9549 418.6242 L243.9273 429.3276 L244.8997 436.5271 L245.8722 440.181 L246.8446 440.3323 L247.817 437.1038 L248.7895 430.6909 L249.7619 421.3524 L250.7343 409.4009 L251.7068 395.0594 L252.6792 378.9351 L253.6516 361.3554 L254.6241 342.7396 L255.5965 323.506 L256.5689 304.063 L257.5414 284.8007 L258.5138 266.0849 L259.4862 248.2509 L260.4586 231.6002 L261.4311 216.3979 L262.4035 202.8707 L263.3759 191.2066 L264.3484 181.5556 L265.3208 174.0302 L266.2932 168.7065 L267.2657 166.0236 L268.2381 165.3283 L269.2105 166.8377 L270.183 170.4911 L271.1554 176.2003 L272.1278 183.8501 L273.1003 193.3001 L274.0727 204.3848 L275.0451 216.915 L276.0175 230.6778 L276.99 245.4384 L277.9624 260.941 L278.9348 276.9111 L279.9073 293.0578 L280.8797 309.0774 L281.8521 324.6576 L282.8246 339.3499 L283.797 353.0612 L284.7694 365.4065 L285.7419 376.0988 L286.7143 384.8738 L287.6867 391.4972 L288.6591 395.7719 L289.6316 397.5441 L290.604 396.7099 L291.5764 393.2196 L292.5489 387.0815 L293.5213 378.3633 L294.4937 367.1926 L295.4662 353.7549 L296.4386 338.2903 L297.411 321.0871 L298.3835 302.0779 L299.3559 282.2872 L300.3283 261.8595 L301.3008 241.1982 L302.2732 220.7047 L303.2456 200.7664 L304.218 181.7451 L305.1905 163.9659 L306.1629 147.7082 L307.1353 133.1975 L308.1078 120.6002 L309.0802 110.0195 L310.0526 101.4952 L311.0251 95.0046 L311.9975 90.4667 L312.9699 87.7488 L313.9424 86.2764 L314.9148 86.5005 L315.8872 87.9467 L316.8596 90.3769 L317.8321 93.5515 L318.8045 97.241 L319.7769 101.2361 L320.7494 105.3563 L321.7218 109.4578 L322.6942 113.4379 L323.6667 117.238 L324.6391 120.8442 L325.6115 124.285 L326.584 127.6265 L327.5564 130.966 L328.5288 134.4234 L329.5013 138.2636 L330.4737 142.3998 L331.4461 147.0362 L332.4185 152.2733 L333.391 158.1808 L334.3634 164.7883 L335.3358 172.0784 L336.3083 179.9816 L337.2807 188.3745 L338.2531 197.0797 L339.2256 205.8697 L340.198 214.4734 L341.1704 222.5852 L342.1429 229.8766 L343.1153 236.0095 L344.0877 240.6518 L345.0602 243.6254 L346.0326 244.4367 L347.005 242.946 L347.9774 238.9983 L348.9499 232.5182 L349.9223 223.5202 L350.8947 212.114 L351.8672 198.5084 L352.8396 183.0092 L353.812 166.0142 L354.7845 148.004 L355.7569 129.5289 L356.7293 111.1919 L357.7018 93.547 L358.6742 77.4602 L359.6466 63.4331 L360.619 51.9321 L361.5915 43.7186 L362.5639 39.1729 L363.5363 38.6576 L364.5088 42.4182 L365.4812 50.5693 L366.4536 63.0865 L367.4261 79.8022 L368.3985 100.4069 L369.3709 124.4562 L370.3434 151.3817 L371.3158 180.5082 L372.2882 211.0741 L373.2607 242.5045 L374.2331 273.288 L375.2055 302.9668 L376.1779 330.3116 L377.1504 355.2048 L378.1228 376.706 L379.0952 394.2268 L380.0677 407.3037 L381.0401 415.6145 L382.0125 418.9906 L382.985 417.4241 L383.9574 411.0685 L384.9298 400.2343 L385.9023 385.379 L386.8747 367.0912 L387.8471 346.0709 L388.8195 322.8568 L389.792 298.949 L390.7644 274.8185 L391.7368 251.2016 L392.7093 229.1581 L393.6817 209.3882 L394.6541 192.5897 L395.6266 179.3502 L396.599 170.1284 L397.5714 165.2381 L398.5439 164.8386 L399.5163 168.9303 L400.4887 177.3559 L401.4612 189.8074 L402.4336 205.8381 L403.406 224.8797 L404.3784 246.1806 L405.3509 269.214 L406.3233 293.0503 L407.2957 316.4743 L408.2682 339.3385 L409.2406 360.6286 L410.213 379.6401 L411.1855 395.7525 L412.1579 408.4489 L413.1303 417.3315 L414.1028 422.1324 L415.0752 422.7198 L416.0476 419.0986 L417.0201 411.4062 L417.9925 399.9043 L418.9649 384.9657 L419.9373 367.1401 L420.9098 346.7517 L421.8822 324.5312 L422.8546 301.5043 L423.8271 277.6437 L424.7995 253.8085 L425.7719 230.5726 L426.7444 208.4548 L427.7168 187.9023 L428.6892 169.2786 L429.6617 152.8545 L430.6341 138.8026 L431.6065 127.1969 L432.5789 118.0154 L433.5514 111.1467 L434.5238 106.3998 L435.4962 103.2682 L436.4687 102.0949 L437.4411 102.1272 L438.4135 103.3893 L439.386 104.8449 L440.3584 106.3763 L441.3308 107.6502 L442.3033 108.3809 L443.2757 108.3414 L444.2481 107.3726 L445.2206 105.3889 L446.193 102.3807 L447.1654 98.4128 L448.1378 93.621 L449.1103 88.2041 L450.0827 82.4148 L451.0551 76.63 L452.0276 70.9542 L453 65.8589 L453.0462 65.6666" style="fill:none; fill-rule:evenodd;"
    /></g
    ><g style="fill:rgb(38,38,38); text-rendering:geometricPrecision; image-rendering:optimizeQuality; color-rendering:optimizeQuality; stroke-linejoin:round; stroke:rgb(38,38,38); color-interpolation:linearRGB; stroke-width:0.8333;"
    ><line y2="445" style="fill:none;" x1="65" x2="453" y1="445"
      /><line y2="37" style="fill:none;" x1="65" x2="453" y1="37"
      /><line y2="440.92" style="fill:none;" x1="65" x2="65" y1="445"
      /><line y2="440.92" style="fill:none;" x1="114.7885" x2="114.7885" y1="445"
      /><line y2="440.92" style="fill:none;" x1="164.5769" x2="164.5769" y1="445"
      /><line y2="440.92" style="fill:none;" x1="214.3654" x2="214.3654" y1="445"
      /><line y2="440.92" style="fill:none;" x1="264.1539" x2="264.1539" y1="445"
      /><line y2="440.92" style="fill:none;" x1="313.9424" x2="313.9424" y1="445"
      /><line y2="440.92" style="fill:none;" x1="363.7308" x2="363.7308" y1="445"
      /><line y2="440.92" style="fill:none;" x1="413.5193" x2="413.5193" y1="445"
      /><line y2="41.08" style="fill:none;" x1="65" x2="65" y1="37"
      /><line y2="41.08" style="fill:none;" x1="114.7885" x2="114.7885" y1="37"
      /><line y2="41.08" style="fill:none;" x1="164.5769" x2="164.5769" y1="37"
      /><line y2="41.08" style="fill:none;" x1="214.3654" x2="214.3654" y1="37"
      /><line y2="41.08" style="fill:none;" x1="264.1539" x2="264.1539" y1="37"
      /><line y2="41.08" style="fill:none;" x1="313.9424" x2="313.9424" y1="37"
      /><line y2="41.08" style="fill:none;" x1="363.7308" x2="363.7308" y1="37"
      /><line y2="41.08" style="fill:none;" x1="413.5193" x2="413.5193" y1="37"
    /></g
    ><g transform="translate(65,451.6667)" style="font-size:16.6667px; fill:rgb(38,38,38); text-rendering:geometricPrecision; image-rendering:optimizeQuality; color-rendering:optimizeQuality; font-family:'SansSerif'; stroke:rgb(38,38,38); color-interpolation:linearRGB;"
    ><path style="stroke:none;" d="M-4.2969 11 Q-4.2969 8.8438 -3.8516 7.5234 Q-3.4062 6.2031 -2.5312 5.4922 Q-1.6562 4.7812 -0.3281 4.7812 Q0.6562 4.7812 1.3906 5.1719 Q2.125 5.5625 2.6094 6.3125 Q3.0938 7.0625 3.3672 8.125 Q3.6406 9.1875 3.6406 11 Q3.6406 13.1406 3.2031 14.4531 Q2.7656 15.7656 1.8906 16.4844 Q1.0156 17.2031 -0.3281 17.2031 Q-2.0938 17.2031 -3.0938 15.9531 Q-4.2969 14.4219 -4.2969 11 ZM-2.7656 11 Q-2.7656 14 -2.0625 14.9922 Q-1.3594 15.9844 -0.3281 15.9844 Q0.7031 15.9844 1.4062 14.9844 Q2.1094 13.9844 2.1094 11 Q2.1094 8 1.4062 7.0078 Q0.7031 6.0156 -0.3438 6.0156 Q-1.375 6.0156 -1.9844 6.8906 Q-2.7656 8 -2.7656 11 Z"
    /></g
    ><g transform="translate(114.7885,451.6667)" style="font-size:16.6667px; fill:rgb(38,38,38); text-rendering:geometricPrecision; image-rendering:optimizeQuality; color-rendering:optimizeQuality; font-family:'SansSerif'; stroke:rgb(38,38,38); color-interpolation:linearRGB;"
    ><path style="stroke:none;" d="M1.3281 17 L-0.1562 17 L-0.1562 7.4844 Q-0.7031 8 -1.5781 8.5078 Q-2.4531 9.0156 -3.1562 9.2812 L-3.1562 7.8281 Q-1.8906 7.25 -0.9531 6.4062 Q-0.0156 5.5625 0.375 4.7812 L1.3281 4.7812 L1.3281 17 Z"
    /></g
    ><g transform="translate(164.5769,451.6667)" style="font-size:16.6667px; fill:rgb(38,38,38); text-rendering:geometricPrecision; image-rendering:optimizeQuality; color-rendering:optimizeQuality; font-family:'SansSerif'; stroke:rgb(38,38,38); color-interpolation:linearRGB;"
    ><path style="stroke:none;" d="M3.5625 15.5625 L3.5625 17 L-4.4844 17 Q-4.5 16.4531 -4.3125 15.9688 Q-4 15.1406 -3.3281 14.3438 Q-2.6562 13.5469 -1.375 12.5 Q0.6094 10.875 1.3047 9.9219 Q2 8.9688 2 8.125 Q2 7.2344 1.3672 6.625 Q0.7344 6.0156 -0.2812 6.0156 Q-1.3594 6.0156 -2.0078 6.6641 Q-2.6562 7.3125 -2.6719 8.4531 L-4.2031 8.2969 Q-4.0469 6.5781 -3.0156 5.6797 Q-1.9844 4.7812 -0.25 4.7812 Q1.5 4.7812 2.5234 5.75 Q3.5469 6.7188 3.5469 8.1562 Q3.5469 8.8906 3.2422 9.5938 Q2.9375 10.2969 2.25 11.0781 Q1.5625 11.8594 -0.0469 13.2188 Q-1.3906 14.3594 -1.7734 14.7578 Q-2.1562 15.1562 -2.4062 15.5625 L3.5625 15.5625 Z"
    /></g
    ><g transform="translate(214.3654,451.6667)" style="font-size:16.6667px; fill:rgb(38,38,38); text-rendering:geometricPrecision; image-rendering:optimizeQuality; color-rendering:optimizeQuality; font-family:'SansSerif'; stroke:rgb(38,38,38); color-interpolation:linearRGB;"
    ><path style="stroke:none;" d="M-4.2812 13.7812 L-2.7969 13.5938 Q-2.5312 14.8594 -1.9141 15.4219 Q-1.2969 15.9844 -0.4062 15.9844 Q0.6406 15.9844 1.3672 15.25 Q2.0938 14.5156 2.0938 13.4375 Q2.0938 12.4062 1.4219 11.7422 Q0.75 11.0781 -0.2812 11.0781 Q-0.7031 11.0781 -1.3438 11.2344 L-1.1719 9.9219 Q-1.0312 9.9375 -0.9375 9.9375 Q0.0156 9.9375 0.7812 9.4453 Q1.5469 8.9531 1.5469 7.9062 Q1.5469 7.0938 0.9922 6.5547 Q0.4375 6.0156 -0.4375 6.0156 Q-1.3125 6.0156 -1.8906 6.5625 Q-2.4688 7.1094 -2.6406 8.2031 L-4.1406 7.9375 Q-3.8594 6.4375 -2.8906 5.6094 Q-1.9219 4.7812 -0.4688 4.7812 Q0.5156 4.7812 1.3594 5.2109 Q2.2031 5.6406 2.6406 6.375 Q3.0781 7.1094 3.0781 7.9375 Q3.0781 8.7344 2.6562 9.3828 Q2.2344 10.0312 1.4062 10.4062 Q2.4844 10.6562 3.0859 11.4453 Q3.6875 12.2344 3.6875 13.4062 Q3.6875 15 2.5234 16.1094 Q1.3594 17.2188 -0.4219 17.2188 Q-2.0156 17.2188 -3.0781 16.2656 Q-4.1406 15.3125 -4.2812 13.7812 Z"
    /></g
    ><g transform="translate(264.1539,451.6667)" style="font-size:16.6667px; fill:rgb(38,38,38); text-rendering:geometricPrecision; image-rendering:optimizeQuality; color-rendering:optimizeQuality; font-family:'SansSerif'; stroke:rgb(38,38,38); color-interpolation:linearRGB;"
    ><path style="stroke:none;" d="M0.5 17 L0.5 14.0938 L-4.7812 14.0938 L-4.7812 12.7188 L0.7656 4.8281 L1.9844 4.8281 L1.9844 12.7188 L3.6406 12.7188 L3.6406 14.0938 L1.9844 14.0938 L1.9844 17 L0.5 17 ZM0.5 12.7188 L0.5 7.2344 L-3.3125 12.7188 L0.5 12.7188 Z"
    /></g
    ><g transform="translate(313.9424,451.6667)" style="font-size:16.6667px; fill:rgb(38,38,38); text-rendering:geometricPrecision; image-rendering:optimizeQuality; color-rendering:optimizeQuality; font-family:'SansSerif'; stroke:rgb(38,38,38); color-interpolation:linearRGB;"
    ><path style="stroke:none;" d="M-4.2969 13.8125 L-2.7188 13.6719 Q-2.5469 14.8281 -1.9141 15.4062 Q-1.2812 15.9844 -0.3906 15.9844 Q0.6875 15.9844 1.4375 15.1719 Q2.1875 14.3594 2.1875 13 Q2.1875 11.7344 1.4688 10.9922 Q0.75 10.25 -0.4062 10.25 Q-1.125 10.25 -1.7109 10.5781 Q-2.2969 10.9062 -2.625 11.4375 L-4.0312 11.25 L-2.8438 5 L3.2031 5 L3.2031 6.4219 L-1.6562 6.4219 L-2.3125 9.6875 Q-1.2188 8.9375 -0.0156 8.9375 Q1.5781 8.9375 2.6797 10.0391 Q3.7812 11.1406 3.7812 12.875 Q3.7812 14.5312 2.8125 15.7344 Q1.6406 17.2031 -0.3906 17.2031 Q-2.0469 17.2031 -3.0938 16.2734 Q-4.1406 15.3438 -4.2969 13.8125 Z"
    /></g
    ><g transform="translate(363.7308,451.6667)" style="font-size:16.6667px; fill:rgb(38,38,38); text-rendering:geometricPrecision; image-rendering:optimizeQuality; color-rendering:optimizeQuality; font-family:'SansSerif'; stroke:rgb(38,38,38); color-interpolation:linearRGB;"
    ><path style="stroke:none;" d="M3.4531 7.8125 L1.9688 7.9219 Q1.7812 7.0469 1.4062 6.6562 Q0.7969 6.0156 -0.0781 6.0156 Q-0.7969 6.0156 -1.3438 6.4062 Q-2.0469 6.9219 -2.4531 7.9062 Q-2.8594 8.8906 -2.875 10.7188 Q-2.3281 9.9062 -1.5547 9.5078 Q-0.7812 9.1094 0.0781 9.1094 Q1.5781 9.1094 2.625 10.2109 Q3.6719 11.3125 3.6719 13.0469 Q3.6719 14.1875 3.1797 15.1719 Q2.6875 16.1562 1.8203 16.6797 Q0.9531 17.2031 -0.1406 17.2031 Q-2 17.2031 -3.1797 15.8281 Q-4.3594 14.4531 -4.3594 11.3125 Q-4.3594 7.7812 -3.0625 6.1719 Q-1.9219 4.7812 0 4.7812 Q1.4375 4.7812 2.3594 5.5859 Q3.2812 6.3906 3.4531 7.8125 ZM-2.6406 13.0625 Q-2.6406 13.8281 -2.3125 14.5312 Q-1.9844 15.2344 -1.3984 15.6094 Q-0.8125 15.9844 -0.1562 15.9844 Q0.7812 15.9844 1.4609 15.2188 Q2.1406 14.4531 2.1406 13.1406 Q2.1406 11.875 1.4688 11.1484 Q0.7969 10.4219 -0.2188 10.4219 Q-1.2344 10.4219 -1.9375 11.1484 Q-2.6406 11.875 -2.6406 13.0625 Z"
    /></g
    ><g transform="translate(413.5193,451.6667)" style="font-size:16.6667px; fill:rgb(38,38,38); text-rendering:geometricPrecision; image-rendering:optimizeQuality; color-rendering:optimizeQuality; font-family:'SansSerif'; stroke:rgb(38,38,38); color-interpolation:linearRGB;"
    ><path style="stroke:none;" d="M-4.1875 6.4219 L-4.1875 4.9844 L3.6875 4.9844 L3.6875 6.1562 Q2.5156 7.3906 1.375 9.4375 Q0.2344 11.4844 -0.3906 13.6562 Q-0.8281 15.1875 -0.9531 17 L-2.5 17 Q-2.4688 15.5625 -1.9297 13.5312 Q-1.3906 11.5 -0.3828 9.6094 Q0.625 7.7188 1.7656 6.4219 L-4.1875 6.4219 Z"
    /></g
    ><g transform="translate(259.0002,474.3333)" style="font-size:18.3333px; fill:rgb(38,38,38); text-rendering:geometricPrecision; image-rendering:optimizeQuality; color-rendering:optimizeQuality; font-family:'mwa_cmr10'; stroke:rgb(38,38,38); color-interpolation:linearRGB;"
    ><path style="stroke:none;" d="M-85.3607 15.3999 L-85.3607 14.7593 Q-84.4544 14.7593 -83.6029 14.6656 Q-82.7513 14.5718 -82.7513 14.1968 L-82.7513 4.3062 Q-82.7513 3.9156 -82.9701 3.8296 Q-83.1888 3.7437 -83.6732 3.7437 L-84.4232 3.7437 Q-85.9076 3.7437 -86.5326 4.3843 Q-86.8607 4.7124 -87.0013 5.4312 Q-87.1419 6.1499 -87.2357 7.2281 L-87.7513 7.2281 L-87.4076 3.1031 L-76.4232 3.1031 L-76.0794 7.2281 L-76.6107 7.2281 Q-76.7044 6.0718 -76.8372 5.3843 Q-76.9701 4.6968 -77.2982 4.3843 Q-77.9232 3.7437 -79.4076 3.7437 L-80.1576 3.7437 Q-80.4857 3.7437 -80.6654 3.7671 Q-80.8451 3.7906 -80.9622 3.9156 Q-81.0794 4.0406 -81.0794 4.3062 L-81.0794 14.1968 Q-81.0794 14.5718 -80.2279 14.6656 Q-79.3763 14.7593 -78.4701 14.7593 L-78.4701 15.3999 L-85.3607 15.3999 Z"
      /><path style="stroke:none;" d="M-74.6199 15.3999 L-74.6199 14.7593 Q-73.9949 14.7593 -73.6043 14.6656 Q-73.2137 14.5718 -73.2137 14.1968 L-73.2137 9.2749 Q-73.2137 8.5874 -73.4793 8.4312 Q-73.7449 8.2749 -74.5262 8.2749 L-74.5262 7.6343 L-71.9481 7.4468 L-71.9481 14.1968 Q-71.9481 14.5718 -71.6043 14.6656 Q-71.2606 14.7593 -70.6824 14.7593 L-70.6824 15.3999 L-74.6199 15.3999 ZM-73.8543 4.3531 Q-73.8543 3.9624 -73.5496 3.6577 Q-73.2449 3.3531 -72.8699 3.3531 Q-72.6043 3.3531 -72.3699 3.4859 Q-72.1356 3.6187 -72.0027 3.8609 Q-71.8699 4.1031 -71.8699 4.3531 Q-71.8699 4.7437 -72.1668 5.0406 Q-72.4637 5.3374 -72.8699 5.3374 Q-73.2449 5.3374 -73.5496 5.0406 Q-73.8543 4.7437 -73.8543 4.3531 Z"
      /><path style="stroke:none;" d="M-65.5898 15.6031 Q-66.6836 15.6031 -67.6055 15.0249 Q-68.5273 14.4468 -69.0508 13.4859 Q-69.5742 12.5249 -69.5742 11.4468 Q-69.5742 10.3999 -69.0976 9.4468 Q-68.6211 8.4937 -67.7617 7.9156 Q-66.9023 7.3374 -65.8398 7.3374 Q-65.0273 7.3374 -64.4101 7.6109 Q-63.793 7.8843 -63.4023 8.3765 Q-63.0117 8.8687 -62.8086 9.5406 Q-62.6055 10.2124 -62.6055 11.0093 Q-62.6055 11.2437 -62.793 11.2437 L-67.9961 11.2437 L-67.9961 11.4312 Q-67.9961 12.9312 -67.3945 14.0015 Q-66.793 15.0718 -65.4336 15.0718 Q-64.8867 15.0718 -64.4101 14.8296 Q-63.9336 14.5874 -63.5898 14.1421 Q-63.2461 13.6968 -63.1211 13.1968 Q-63.1055 13.1343 -63.0586 13.0874 Q-63.0117 13.0406 -62.9492 13.0406 L-62.793 13.0406 Q-62.6055 13.0406 -62.6055 13.2749 Q-62.8555 14.2906 -63.6992 14.9468 Q-64.543 15.6031 -65.5898 15.6031 ZM-67.9805 10.7906 L-63.8711 10.7906 Q-63.8711 10.1187 -64.0664 9.4234 Q-64.2617 8.7281 -64.6992 8.2671 Q-65.1367 7.8062 -65.8398 7.8062 Q-66.8711 7.8062 -67.4258 8.7593 Q-67.9805 9.7124 -67.9805 10.7906 Z"
      /><path style="stroke:none;" d="M-61.3948 15.3999 L-61.3948 14.7593 Q-60.7698 14.7593 -60.3792 14.6656 Q-59.9886 14.5718 -59.9886 14.1968 L-59.9886 9.2749 Q-59.9886 8.8062 -60.1292 8.5874 Q-60.2698 8.3687 -60.5432 8.3218 Q-60.8167 8.2749 -61.3948 8.2749 L-61.3948 7.6343 L-58.7854 7.4468 L-58.7854 9.1968 Q-58.4261 8.4312 -57.7151 7.939 Q-57.0042 7.4468 -56.1761 7.4468 Q-54.0979 7.4468 -53.7386 9.1343 Q-53.3792 8.3843 -52.6839 7.9156 Q-51.9886 7.4468 -51.1604 7.4468 Q-50.3479 7.4468 -49.7854 7.7124 Q-49.2229 7.9781 -48.9417 8.5171 Q-48.6604 9.0562 -48.6604 9.8687 L-48.6604 14.1968 Q-48.6604 14.5718 -48.262 14.6656 Q-47.8636 14.7593 -47.2542 14.7593 L-47.2542 15.3999 L-51.3792 15.3999 L-51.3792 14.7593 Q-50.7698 14.7593 -50.3714 14.6656 Q-49.9729 14.5718 -49.9729 14.1968 L-49.9729 9.9312 Q-49.9729 9.0249 -50.2307 8.4702 Q-50.4886 7.9156 -51.2698 7.9156 Q-52.3167 7.9156 -52.9886 8.7515 Q-53.6604 9.5874 -53.6604 10.6499 L-53.6604 14.1968 Q-53.6604 14.5718 -53.2698 14.6656 Q-52.8792 14.7593 -52.2542 14.7593 L-52.2542 15.3999 L-56.3792 15.3999 L-56.3792 14.7593 Q-55.7698 14.7593 -55.3714 14.6656 Q-54.9729 14.5718 -54.9729 14.1968 L-54.9729 9.9312 Q-54.9729 9.0406 -55.2307 8.4781 Q-55.4886 7.9156 -56.2698 7.9156 Q-57.3167 7.9156 -57.9886 8.7515 Q-58.6604 9.5874 -58.6604 10.6499 L-58.6604 14.1968 Q-58.6604 14.5718 -58.2698 14.6656 Q-57.8792 14.7593 -57.2698 14.7593 L-57.2698 15.3999 L-61.3948 15.3999 Z"
      /><path style="stroke:none;" d="M-46.1795 18.8843 L-46.1795 18.2593 Q-45.5701 18.2593 -45.1717 18.1577 Q-44.7732 18.0562 -44.7732 17.6812 L-44.7732 9.0093 Q-44.7732 8.5249 -45.1248 8.3999 Q-45.4764 8.2749 -46.1795 8.2749 L-46.1795 7.6343 L-43.5232 7.4468 L-43.5232 8.5562 Q-43.0232 8.0093 -42.367 7.7281 Q-41.7107 7.4468 -40.9764 7.4468 Q-39.9139 7.4468 -39.0623 8.0249 Q-38.2107 8.6031 -37.7342 9.5327 Q-37.2576 10.4624 -37.2576 11.5093 Q-37.2576 12.6031 -37.7889 13.5406 Q-38.3201 14.4781 -39.2342 15.0406 Q-40.1482 15.6031 -41.2576 15.6031 Q-42.5545 15.6031 -43.4607 14.5406 L-43.4607 17.6812 Q-43.4607 18.0562 -43.0623 18.1577 Q-42.6639 18.2593 -42.0545 18.2593 L-42.0545 18.8843 L-46.1795 18.8843 ZM-43.4607 13.6499 Q-43.1482 14.2906 -42.5857 14.7124 Q-42.0232 15.1343 -41.3514 15.1343 Q-40.7264 15.1343 -40.2498 14.7984 Q-39.7732 14.4624 -39.4451 13.8999 Q-39.117 13.3374 -38.9685 12.7124 Q-38.8201 12.0874 -38.8201 11.5093 Q-38.8201 10.7906 -39.0779 9.9546 Q-39.3357 9.1187 -39.867 8.5406 Q-40.3982 7.9624 -41.1482 7.9624 Q-41.8826 7.9624 -42.492 8.3374 Q-43.1014 8.7124 -43.4607 9.3531 L-43.4607 13.6499 Z"
      /><path style="stroke:none;" d="M-31.4537 15.6031 Q-32.5319 15.6031 -33.4537 15.0562 Q-34.3756 14.5093 -34.9147 13.5796 Q-35.4537 12.6499 -35.4537 11.5718 Q-35.4537 10.7437 -35.1569 9.9781 Q-34.86 9.2124 -34.3131 8.6109 Q-33.7662 8.0093 -33.0397 7.6734 Q-32.3131 7.3374 -31.4537 7.3374 Q-30.3444 7.3374 -29.4381 7.9156 Q-28.5319 8.4937 -28.0006 9.4781 Q-27.4694 10.4624 -27.4694 11.5718 Q-27.4694 12.6499 -28.0084 13.5796 Q-28.5475 14.5093 -29.4616 15.0562 Q-30.3756 15.6031 -31.4537 15.6031 ZM-31.4537 15.0718 Q-30.0162 15.0718 -29.5319 14.0249 Q-29.0475 12.9781 -29.0475 11.3687 Q-29.0475 10.4624 -29.1412 9.8687 Q-29.235 9.2749 -29.5631 8.7906 Q-29.7662 8.4937 -30.0787 8.2671 Q-30.3912 8.0406 -30.735 7.9234 Q-31.0787 7.8062 -31.4537 7.8062 Q-32.0162 7.8062 -32.5241 8.064 Q-33.0319 8.3218 -33.36 8.7906 Q-33.6881 9.3062 -33.7819 9.9156 Q-33.8756 10.5249 -33.8756 11.3687 Q-33.8756 12.3687 -33.7037 13.1734 Q-33.5319 13.9781 -33.0006 14.5249 Q-32.4694 15.0718 -31.4537 15.0718 Z"
      /><path style="stroke:none;" d="M-16.1916 15.6031 Q-17.2853 15.6031 -18.1681 15.0327 Q-19.0509 14.4624 -19.5666 13.5171 Q-20.0822 12.5718 -20.0822 11.5093 Q-20.0822 10.4468 -19.5744 9.4702 Q-19.0666 8.4937 -18.1759 7.9156 Q-17.2853 7.3374 -16.1916 7.3374 Q-15.1447 7.3374 -14.2775 7.7437 Q-13.4103 8.1499 -13.4103 9.1031 Q-13.4103 9.4468 -13.6603 9.7046 Q-13.9103 9.9624 -14.2697 9.9624 Q-14.6291 9.9624 -14.8791 9.7046 Q-15.1291 9.4468 -15.1291 9.1031 Q-15.1291 8.7749 -14.9259 8.5484 Q-14.7228 8.3218 -14.4259 8.2593 Q-15.0509 7.8531 -16.1759 7.8531 Q-17.0353 7.8531 -17.5666 8.4234 Q-18.0978 8.9937 -18.3088 9.8374 Q-18.5197 10.6812 -18.5197 11.5093 Q-18.5197 12.3843 -18.2541 13.1968 Q-17.9884 14.0093 -17.4181 14.5406 Q-16.8478 15.0718 -15.9728 15.0718 Q-15.1134 15.0718 -14.5197 14.5484 Q-13.9259 14.0249 -13.7072 13.1812 Q-13.7072 13.0718 -13.5666 13.0718 L-13.3478 13.0718 Q-13.2853 13.0718 -13.2463 13.1265 Q-13.2072 13.1812 -13.2072 13.2437 L-13.2072 13.2906 Q-13.4728 14.3531 -14.2853 14.9781 Q-15.0978 15.6031 -16.1916 15.6031 Z"
      /><path style="stroke:none;" d="M-8.0278 15.6031 Q-9.1059 15.6031 -10.0278 15.0562 Q-10.9497 14.5093 -11.4887 13.5796 Q-12.0278 12.6499 -12.0278 11.5718 Q-12.0278 10.7437 -11.7309 9.9781 Q-11.434 9.2124 -10.8872 8.6109 Q-10.3403 8.0093 -9.6137 7.6734 Q-8.8872 7.3374 -8.0278 7.3374 Q-6.9184 7.3374 -6.0122 7.9156 Q-5.1059 8.4937 -4.5747 9.4781 Q-4.0434 10.4624 -4.0434 11.5718 Q-4.0434 12.6499 -4.5825 13.5796 Q-5.1215 14.5093 -6.0356 15.0562 Q-6.9497 15.6031 -8.0278 15.6031 ZM-8.0278 15.0718 Q-6.5903 15.0718 -6.1059 14.0249 Q-5.6215 12.9781 -5.6215 11.3687 Q-5.6215 10.4624 -5.7153 9.8687 Q-5.809 9.2749 -6.1372 8.7906 Q-6.3403 8.4937 -6.6528 8.2671 Q-6.9653 8.0406 -7.309 7.9234 Q-7.6528 7.8062 -8.0278 7.8062 Q-8.5903 7.8062 -9.0981 8.064 Q-9.6059 8.3218 -9.934 8.7906 Q-10.2622 9.3062 -10.3559 9.9156 Q-10.4497 10.5249 -10.4497 11.3687 Q-10.4497 12.3687 -10.2778 13.1734 Q-10.1059 13.9781 -9.5747 14.5249 Q-9.0434 15.0718 -8.0278 15.0718 Z"
      /><path style="stroke:none;" d="M-2.8299 15.3999 L-2.8299 14.7593 Q-2.2049 14.7593 -1.8142 14.6656 Q-1.4236 14.5718 -1.4236 14.1968 L-1.4236 9.2749 Q-1.4236 8.8062 -1.5642 8.5874 Q-1.7049 8.3687 -1.9783 8.3218 Q-2.2517 8.2749 -2.8299 8.2749 L-2.8299 7.6343 L-0.2205 7.4468 L-0.2205 9.1968 Q0.1389 8.4312 0.8498 7.939 Q1.5608 7.4468 2.3889 7.4468 Q3.6389 7.4468 4.2717 8.0406 Q4.9045 8.6343 4.9045 9.8687 L4.9045 14.1968 Q4.9045 14.5718 5.2951 14.6656 Q5.6858 14.7593 6.3108 14.7593 L6.3108 15.3999 L2.1858 15.3999 L2.1858 14.7593 Q2.7951 14.7593 3.1936 14.6656 Q3.592 14.5718 3.592 14.1968 L3.592 9.9312 Q3.592 9.0406 3.3342 8.4781 Q3.0764 7.9156 2.2951 7.9156 Q1.2483 7.9156 0.5764 8.7515 Q-0.0955 9.5874 -0.0955 10.6499 L-0.0955 14.1968 Q-0.0955 14.5718 0.2951 14.6656 Q0.6858 14.7593 1.2951 14.7593 L1.2951 15.3999 L-2.8299 15.3999 Z"
      /><path style="stroke:none;" d="M8.1586 13.2437 L8.1586 8.2749 L6.6586 8.2749 L6.6586 7.8062 Q7.8305 7.8062 8.3852 6.7046 Q8.9398 5.6031 8.9398 4.3218 L9.4555 4.3218 L9.4555 7.6343 L12.0023 7.6343 L12.0023 8.2749 L9.4555 8.2749 L9.4555 13.1968 Q9.4555 13.9468 9.7055 14.5093 Q9.9555 15.0718 10.6117 15.0718 Q11.2211 15.0718 11.4945 14.4781 Q11.768 13.8843 11.768 13.1968 L11.768 12.1343 L12.2992 12.1343 L12.2992 13.2437 Q12.2992 13.8062 12.0883 14.3531 Q11.8773 14.8999 11.4711 15.2515 Q11.0648 15.6031 10.4867 15.6031 Q9.4086 15.6031 8.7836 14.9546 Q8.1586 14.3062 8.1586 13.2437 Z"
      /><path style="stroke:none;" d="M13.9914 15.3999 L13.9914 14.7593 Q14.6164 14.7593 15.007 14.6656 Q15.3976 14.5718 15.3976 14.1968 L15.3976 9.2749 Q15.3976 8.5874 15.132 8.4312 Q14.8664 8.2749 14.0851 8.2749 L14.0851 7.6343 L16.6632 7.4468 L16.6632 14.1968 Q16.6632 14.5718 17.007 14.6656 Q17.3507 14.7593 17.9289 14.7593 L17.9289 15.3999 L13.9914 15.3999 ZM14.757 4.3531 Q14.757 3.9624 15.0617 3.6577 Q15.3664 3.3531 15.7414 3.3531 Q16.007 3.3531 16.2414 3.4859 Q16.4757 3.6187 16.6086 3.8609 Q16.7414 4.1031 16.7414 4.3531 Q16.7414 4.7437 16.4445 5.0406 Q16.1476 5.3374 15.7414 5.3374 Q15.3664 5.3374 15.0617 5.0406 Q14.757 4.7437 14.757 4.3531 Z"
      /><path style="stroke:none;" d="M19.0683 15.3999 L19.0683 14.7593 Q19.6933 14.7593 20.084 14.6656 Q20.4746 14.5718 20.4746 14.1968 L20.4746 9.2749 Q20.4746 8.8062 20.334 8.5874 Q20.1933 8.3687 19.9199 8.3218 Q19.6465 8.2749 19.0683 8.2749 L19.0683 7.6343 L21.6777 7.4468 L21.6777 9.1968 Q22.0371 8.4312 22.748 7.939 Q23.459 7.4468 24.2871 7.4468 Q25.5371 7.4468 26.1699 8.0406 Q26.8027 8.6343 26.8027 9.8687 L26.8027 14.1968 Q26.8027 14.5718 27.1933 14.6656 Q27.584 14.7593 28.209 14.7593 L28.209 15.3999 L24.084 15.3999 L24.084 14.7593 Q24.6933 14.7593 25.0918 14.6656 Q25.4902 14.5718 25.4902 14.1968 L25.4902 9.9312 Q25.4902 9.0406 25.2324 8.4781 Q24.9746 7.9156 24.1933 7.9156 Q23.1465 7.9156 22.4746 8.7515 Q21.8027 9.5874 21.8027 10.6499 L21.8027 14.1968 Q21.8027 14.5718 22.1933 14.6656 Q22.584 14.7593 23.1933 14.7593 L23.1933 15.3999 L19.0683 15.3999 Z"
      /><path style="stroke:none;" d="M30.1505 13.2593 L30.1505 9.2749 Q30.1505 8.8062 30.0099 8.5874 Q29.8693 8.3687 29.5959 8.3218 Q29.3224 8.2749 28.7443 8.2749 L28.7443 7.6343 L31.4787 7.4468 L31.4787 13.2593 Q31.4787 13.9624 31.5802 14.3531 Q31.6818 14.7437 32.0099 14.939 Q32.338 15.1343 33.0568 15.1343 Q34.0255 15.1343 34.5959 14.3218 Q35.1662 13.5093 35.1662 12.4781 L35.1662 9.2749 Q35.1662 8.8062 35.0177 8.5874 Q34.8693 8.3687 34.6037 8.3218 Q34.338 8.2749 33.7599 8.2749 L33.7599 7.6343 L36.4787 7.4468 L36.4787 13.7593 Q36.4787 14.2437 36.6193 14.4546 Q36.7599 14.6656 37.0334 14.7124 Q37.3068 14.7593 37.8849 14.7593 L37.8849 15.3999 L35.213 15.6031 L35.213 14.0874 Q34.8849 14.7593 34.2834 15.1812 Q33.6818 15.6031 32.963 15.6031 Q31.6818 15.6031 30.9162 15.0562 Q30.1505 14.5093 30.1505 13.2593 Z"
      /><path style="stroke:none;" d="M42.8983 15.6031 Q41.8201 15.6031 40.8983 15.0562 Q39.9764 14.5093 39.4373 13.5796 Q38.8983 12.6499 38.8983 11.5718 Q38.8983 10.7437 39.1951 9.9781 Q39.492 9.2124 40.0389 8.6109 Q40.5858 8.0093 41.3123 7.6734 Q42.0389 7.3374 42.8983 7.3374 Q44.0076 7.3374 44.9139 7.9156 Q45.8201 8.4937 46.3514 9.4781 Q46.8826 10.4624 46.8826 11.5718 Q46.8826 12.6499 46.3436 13.5796 Q45.8045 14.5093 44.8904 15.0562 Q43.9764 15.6031 42.8983 15.6031 ZM42.8983 15.0718 Q44.3358 15.0718 44.8201 14.0249 Q45.3045 12.9781 45.3045 11.3687 Q45.3045 10.4624 45.2108 9.8687 Q45.117 9.2749 44.7889 8.7906 Q44.5858 8.4937 44.2733 8.2671 Q43.9608 8.0406 43.617 7.9234 Q43.2733 7.8062 42.8983 7.8062 Q42.3358 7.8062 41.8279 8.064 Q41.3201 8.3218 40.992 8.7906 Q40.6639 9.3062 40.5701 9.9156 Q40.4764 10.5249 40.4764 11.3687 Q40.4764 12.3687 40.6483 13.1734 Q40.8201 13.9781 41.3514 14.5249 Q41.8826 15.0718 42.8983 15.0718 Z"
      /><path style="stroke:none;" d="M55.8011 19.8999 L55.8011 1.8999 L58.2698 1.8999 L58.2698 2.6187 L56.5198 2.6187 L56.5198 19.1812 L58.2698 19.1812 L58.2698 19.8999 L55.8011 19.8999 Z"
      /><path style="stroke:none;" d="M59.3624 15.4468 L59.3624 12.5093 Q59.3624 12.3687 59.5187 12.3687 L59.7374 12.3687 Q59.8468 12.3687 59.878 12.5093 Q60.3937 15.1343 62.3155 15.1343 Q63.1593 15.1343 63.7374 14.7437 Q64.3155 14.3531 64.3155 13.5406 Q64.3155 12.9624 63.8702 12.5562 Q63.4249 12.1499 62.7999 11.9937 L61.5968 11.7593 Q60.9874 11.6343 60.4952 11.3609 Q60.003 11.0874 59.6827 10.6343 Q59.3624 10.1812 59.3624 9.5874 Q59.3624 8.7906 59.7843 8.2827 Q60.2062 7.7749 60.8702 7.5562 Q61.5343 7.3374 62.3155 7.3374 Q63.2374 7.3374 63.9249 7.8218 L64.4405 7.3687 Q64.4405 7.3374 64.5187 7.3374 L64.6593 7.3374 Q64.7062 7.3374 64.753 7.3843 Q64.7999 7.4312 64.7999 7.4781 L64.7999 9.8374 Q64.7999 10.0093 64.6593 10.0093 L64.4405 10.0093 Q64.2843 10.0093 64.2843 9.8374 Q64.2843 8.8999 63.7608 8.3296 Q63.2374 7.7593 62.2999 7.7593 Q61.4874 7.7593 60.8937 8.0562 Q60.2999 8.3531 60.2999 9.0874 Q60.2999 9.5874 60.7218 9.9077 Q61.1437 10.2281 61.7218 10.3687 L62.9405 10.5874 Q63.5655 10.7281 64.0968 11.064 Q64.628 11.3999 64.9405 11.9077 Q65.253 12.4156 65.253 13.0562 Q65.253 13.7124 65.0265 14.189 Q64.7999 14.6656 64.4015 14.9859 Q64.003 15.3062 63.4562 15.4546 Q62.9093 15.6031 62.3155 15.6031 Q61.1905 15.6031 60.3937 14.8531 L59.7218 15.5562 Q59.7218 15.6031 59.628 15.6031 L59.5187 15.6031 Q59.3624 15.6031 59.3624 15.4468 Z"
      /><path style="stroke:none;" d="M70.4845 15.6031 Q69.3908 15.6031 68.4689 15.0249 Q67.547 14.4468 67.0236 13.4859 Q66.5001 12.5249 66.5001 11.4468 Q66.5001 10.3999 66.9767 9.4468 Q67.4533 8.4937 68.3126 7.9156 Q69.172 7.3374 70.2345 7.3374 Q71.047 7.3374 71.6642 7.6109 Q72.2814 7.8843 72.672 8.3765 Q73.0626 8.8687 73.2658 9.5406 Q73.4689 10.2124 73.4689 11.0093 Q73.4689 11.2437 73.2814 11.2437 L68.0783 11.2437 L68.0783 11.4312 Q68.0783 12.9312 68.6798 14.0015 Q69.2814 15.0718 70.6408 15.0718 Q71.1876 15.0718 71.6642 14.8296 Q72.1408 14.5874 72.4845 14.1421 Q72.8283 13.6968 72.9533 13.1968 Q72.9689 13.1343 73.0158 13.0874 Q73.0626 13.0406 73.1251 13.0406 L73.2814 13.0406 Q73.4689 13.0406 73.4689 13.2749 Q73.2189 14.2906 72.3751 14.9468 Q71.5314 15.6031 70.4845 15.6031 ZM68.0939 10.7906 L72.2033 10.7906 Q72.2033 10.1187 72.008 9.4234 Q71.8126 8.7281 71.3751 8.2671 Q70.9376 7.8062 70.2345 7.8062 Q69.2033 7.8062 68.6486 8.7593 Q68.0939 9.7124 68.0939 10.7906 Z"
      /><path style="stroke:none;" d="M74.6483 16.8062 Q74.6483 16.1656 75.117 15.689 Q75.5858 15.2124 76.2264 15.0093 Q75.867 14.7281 75.6795 14.314 Q75.492 13.8999 75.492 13.4468 Q75.492 12.6031 76.0233 11.9468 Q75.1952 11.1343 75.1952 10.0874 Q75.1952 9.5249 75.4373 9.0327 Q75.6795 8.5406 76.1092 8.1812 Q76.5389 7.8218 77.0702 7.6343 Q77.6014 7.4468 78.1483 7.4468 Q79.2264 7.4468 80.0702 8.0718 Q80.4452 7.6812 80.9452 7.4624 Q81.4452 7.2437 81.992 7.2437 Q82.3827 7.2437 82.6327 7.5171 Q82.8827 7.7906 82.8827 8.1812 Q82.8827 8.3999 82.7108 8.5718 Q82.5389 8.7437 82.3202 8.7437 Q82.1014 8.7437 81.9295 8.5718 Q81.7577 8.3999 81.7577 8.1812 Q81.7577 7.8531 81.9764 7.7124 Q81.0545 7.7124 80.3827 8.3531 Q80.7108 8.6812 80.9061 9.1499 Q81.1014 9.6187 81.1014 10.0874 Q81.1014 10.8531 80.6795 11.4624 Q80.2577 12.0718 79.5702 12.4156 Q78.8827 12.7593 78.1483 12.7593 Q77.1639 12.7593 76.3514 12.2124 Q76.0858 12.5718 76.0858 13.0093 Q76.0858 13.4781 76.3983 13.8374 Q76.7108 14.1968 77.1952 14.1968 L78.6639 14.1968 Q79.742 14.1968 80.6014 14.3921 Q81.4608 14.5874 82.0467 15.1656 Q82.6327 15.7437 82.6327 16.8062 Q82.6327 17.6031 81.9608 18.1265 Q81.2889 18.6499 80.367 18.8765 Q79.4452 19.1031 78.6483 19.1031 Q77.8514 19.1031 76.9217 18.8765 Q75.992 18.6499 75.3202 18.1265 Q74.6483 17.6031 74.6483 16.8062 ZM75.6639 16.8062 Q75.6639 17.4156 76.1561 17.8218 Q76.6483 18.2281 77.3436 18.4234 Q78.0389 18.6187 78.6483 18.6187 Q79.2577 18.6187 79.953 18.4234 Q80.6483 18.2281 81.1327 17.8218 Q81.617 17.4156 81.617 16.8062 Q81.617 15.8687 80.7577 15.5874 Q79.8983 15.3062 78.6639 15.3062 L77.1952 15.3062 Q76.7733 15.3062 76.4295 15.5093 Q76.0858 15.7124 75.8748 16.064 Q75.6639 16.4156 75.6639 16.8062 ZM78.1483 12.2749 Q79.6795 12.2749 79.6795 10.0874 Q79.6795 9.1499 79.3514 8.5406 Q79.0233 7.9312 78.1483 7.9312 Q77.2733 7.9312 76.9452 8.5406 Q76.617 9.1499 76.617 10.0874 Q76.617 10.6812 76.742 11.1656 Q76.867 11.6499 77.203 11.9624 Q77.5389 12.2749 78.1483 12.2749 Z"
      /><path style="stroke:none;" d="M83.7056 19.8999 L83.7056 19.1812 L85.4556 19.1812 L85.4556 2.6187 L83.7056 2.6187 L83.7056 1.8999 L86.1744 1.8999 L86.1744 19.8999 L83.7056 19.8999 Z"
    /></g
    ><g transform="translate(401,496)" style="font-size:16.6667px; fill:rgb(38,38,38); text-rendering:geometricPrecision; image-rendering:optimizeQuality; color-rendering:optimizeQuality; font-family:'mwb_cmsy10'; stroke:rgb(38,38,38); color-interpolation:linearRGB;"
    ><path style="stroke:none;" d="M2.5 -0.4844 Q2.5 -0.625 2.5781 -0.7344 L6.125 -4.25 L2.5781 -7.7812 Q2.5 -7.875 2.5 -8.0156 Q2.5 -8.1406 2.6016 -8.2422 Q2.7031 -8.3438 2.8438 -8.3438 Q2.9531 -8.3438 3.0938 -8.25 L6.6094 -4.7188 L10.125 -8.25 Q10.2656 -8.3438 10.375 -8.3438 Q10.5156 -8.3438 10.6094 -8.25 Q10.7031 -8.1562 10.7031 -8.0156 Q10.7031 -7.875 10.625 -7.7812 L7.0938 -4.25 L10.625 -0.7344 Q10.7031 -0.625 10.7031 -0.4844 Q10.7031 -0.3438 10.6094 -0.25 Q10.5156 -0.1562 10.375 -0.1562 Q10.25 -0.1562 10.125 -0.2812 L6.6094 -3.7812 L3.0938 -0.2812 Q2.9688 -0.1562 2.8438 -0.1562 Q2.7031 -0.1562 2.6016 -0.2578 Q2.5 -0.3594 2.5 -0.4844 Z"
    /></g
    ><g transform="translate(414,496)" style="font-size:16.6667px; fill:rgb(38,38,38); text-rendering:geometricPrecision; image-rendering:optimizeQuality; color-rendering:optimizeQuality; font-family:'SansSerif'; stroke:rgb(38,38,38); color-interpolation:linearRGB;"
    ><path style="stroke:none;" d="M6.3281 0 L4.8438 0 L4.8438 -9.5156 Q4.2969 -9 3.4219 -8.4922 Q2.5469 -7.9844 1.8438 -7.7188 L1.8438 -9.1719 Q3.1094 -9.75 4.0469 -10.5938 Q4.9844 -11.4375 5.375 -12.2188 L6.3281 -12.2188 L6.3281 0 ZM9.9665 -6 Q9.9665 -8.1562 10.4118 -9.4766 Q10.8572 -10.7969 11.7322 -11.5078 Q12.6072 -12.2188 13.9353 -12.2188 Q14.9197 -12.2188 15.654 -11.8281 Q16.3884 -11.4375 16.8728 -10.6875 Q17.3572 -9.9375 17.6306 -8.875 Q17.904 -7.8125 17.904 -6 Q17.904 -3.8594 17.4665 -2.5469 Q17.029 -1.2344 16.154 -0.5156 Q15.279 0.2031 13.9353 0.2031 Q12.1697 0.2031 11.1697 -1.0469 Q9.9665 -2.5781 9.9665 -6 ZM11.4978 -6 Q11.4978 -3 12.2009 -2.0078 Q12.904 -1.0156 13.9353 -1.0156 Q14.9665 -1.0156 15.6697 -2.0156 Q16.3728 -3.0156 16.3728 -6 Q16.3728 -9 15.6697 -9.9922 Q14.9665 -10.9844 13.9197 -10.9844 Q12.8884 -10.9844 12.279 -10.1094 Q11.4978 -9 11.4978 -6 Z"
    /></g
    ><g transform="translate(433,488)" style="font-size:13.3333px; fill:rgb(38,38,38); text-rendering:geometricPrecision; image-rendering:optimizeQuality; color-rendering:optimizeQuality; font-family:'SansSerif'; stroke:rgb(38,38,38); color-interpolation:linearRGB;"
    ><path style="stroke:none;" d="M0.4062 -2.7969 L0.4062 -3.9375 L3.9219 -3.9375 L3.9219 -2.7969 L0.4062 -2.7969 ZM9.2769 0 L8.1363 0 L8.1363 -7.2812 Q7.7144 -6.8906 7.0504 -6.4922 Q6.3863 -6.0938 5.855 -5.9062 L5.855 -7.0156 Q6.8082 -7.4531 7.5269 -8.0938 Q8.2457 -8.7344 8.5425 -9.3438 L9.2769 -9.3438 L9.2769 0 ZM12.3838 -4.5938 Q12.3838 -6.2344 12.7198 -7.2422 Q13.0557 -8.25 13.7276 -8.7969 Q14.3994 -9.3438 15.4151 -9.3438 Q16.1651 -9.3438 16.7276 -9.0391 Q17.2901 -8.7344 17.6573 -8.1719 Q18.0244 -7.6094 18.2354 -6.7891 Q18.4463 -5.9688 18.4463 -4.5938 Q18.4463 -2.9531 18.1104 -1.9453 Q17.7744 -0.9375 17.1026 -0.3906 Q16.4307 0.1562 15.4151 0.1562 Q14.0713 0.1562 13.2901 -0.8125 Q12.3838 -1.9688 12.3838 -4.5938 ZM13.5557 -4.5938 Q13.5557 -2.2969 14.0869 -1.5391 Q14.6182 -0.7812 15.4151 -0.7812 Q16.1963 -0.7812 16.7354 -1.5391 Q17.2744 -2.2969 17.2744 -4.5938 Q17.2744 -6.8906 16.7354 -7.6406 Q16.1963 -8.3906 15.3994 -8.3906 Q14.6182 -8.3906 14.1338 -7.7344 Q13.5557 -6.875 13.5557 -4.5938 Z"
    /></g
  ></g
></svg
>
