<?xml version="1.0" encoding="utf-8" standalone="no"?>
<!DOCTYPE svg PUBLIC "-//W3C//DTD SVG 1.1//EN"
  "http://www.w3.org/Graphics/SVG/1.1/DTD/svg11.dtd">
<svg height="748.74875pt" version="1.1" viewBox="0 0 751.364063 748.74875" width="751.364063pt" xmlns="http://www.w3.org/2000/svg" xmlns:xlink="http://www.w3.org/1999/xlink">
 <metadata>
  <rdf:RDF xmlns:cc="http://creativecommons.org/ns#" xmlns:dc="http://purl.org/dc/elements/1.1/" xmlns:rdf="http://www.w3.org/1999/02/22-rdf-syntax-ns#">
   <cc:Work>
    <dc:type rdf:resource="http://purl.org/dc/dcmitype/StillImage"/>
    <dc:date>2021-08-04T19:04:51.644697</dc:date>
    <dc:format>image/svg+xml</dc:format>
    <dc:creator>
     <cc:Agent>
      <dc:title>Matplotlib v3.4.2, https://matplotlib.org/</dc:title>
     </cc:Agent>
    </dc:creator>
   </cc:Work>
  </rdf:RDF>
 </metadata>
 <defs>
  <style type="text/css">*{stroke-linecap:butt;stroke-linejoin:round;}</style>
 </defs>
 <g id="figure_1">
  <g id="patch_1">
   <path d="M 0 748.74875 
L 751.364063 748.74875 
L 751.364063 0 
L 0 0 
z
" style="fill:#ffffff;"/>
  </g>
  <g id="axes_1">
   <g id="patch_2">
    <path d="M 61.839063 338.634375 
L 731.439063 338.634375 
L 731.439063 36.234375 
L 61.839063 36.234375 
z
" style="fill:#ffffff;"/>
   </g>
   <g id="PathCollection_1">
    <defs>
     <path d="M 0 5 
C 1.326016 5 2.597899 4.473168 3.535534 3.535534 
C 4.473168 2.597899 5 1.326016 5 0 
C 5 -1.326016 4.473168 -2.597899 3.535534 -3.535534 
C 2.597899 -4.473168 1.326016 -5 0 -5 
C -1.326016 -5 -2.597899 -4.473168 -3.535534 -3.535534 
C -4.473168 -2.597899 -5 -1.326016 -5 0 
C -5 1.326016 -4.473168 2.597899 -3.535534 3.535534 
C -2.597899 4.473168 -1.326016 5 0 5 
z
" id="md890717ce4" style="stroke:#808080;"/>
    </defs>
    <g clip-path="url(#p0fb52dfba4)">
     <use style="fill:#808080;stroke:#808080;" x="68.535063" xlink:href="#md890717ce4" y="263.034375"/>
    </g>
   </g>
   <g id="PathCollection_2">
    <g clip-path="url(#p0fb52dfba4)">
     <use style="fill:#808080;stroke:#808080;" x="95.319062" xlink:href="#md890717ce4" y="111.834375"/>
    </g>
   </g>
   <g id="PathCollection_3">
    <g clip-path="url(#p0fb52dfba4)">
     <use style="fill:#808080;stroke:#808080;" x="122.103063" xlink:href="#md890717ce4" y="263.034375"/>
    </g>
   </g>
   <g id="PathCollection_4">
    <g clip-path="url(#p0fb52dfba4)">
     <use style="fill:#808080;stroke:#808080;" x="148.887062" xlink:href="#md890717ce4" y="263.034375"/>
    </g>
   </g>
   <g id="PathCollection_5">
    <g clip-path="url(#p0fb52dfba4)">
     <use style="fill:#808080;stroke:#808080;" x="175.671062" xlink:href="#md890717ce4" y="111.834375"/>
    </g>
   </g>
   <g id="PathCollection_6">
    <g clip-path="url(#p0fb52dfba4)">
     <use style="fill:#808080;stroke:#808080;" x="202.455063" xlink:href="#md890717ce4" y="111.834375"/>
    </g>
   </g>
   <g id="PathCollection_7">
    <g clip-path="url(#p0fb52dfba4)">
     <use style="fill:#808080;stroke:#808080;" x="229.239062" xlink:href="#md890717ce4" y="263.034375"/>
    </g>
   </g>
   <g id="PathCollection_8">
    <g clip-path="url(#p0fb52dfba4)">
     <use style="fill:#808080;stroke:#808080;" x="256.023062" xlink:href="#md890717ce4" y="263.034375"/>
    </g>
   </g>
   <g id="PathCollection_9">
    <g clip-path="url(#p0fb52dfba4)">
     <use style="fill:#808080;stroke:#808080;" x="282.807063" xlink:href="#md890717ce4" y="263.034375"/>
    </g>
   </g>
   <g id="PathCollection_10">
    <g clip-path="url(#p0fb52dfba4)">
     <use style="fill:#808080;stroke:#808080;" x="309.591062" xlink:href="#md890717ce4" y="111.834375"/>
    </g>
   </g>
   <g id="PathCollection_11">
    <g clip-path="url(#p0fb52dfba4)">
     <use style="fill:#808080;stroke:#808080;" x="336.375063" xlink:href="#md890717ce4" y="263.034375"/>
    </g>
   </g>
   <g id="PathCollection_12">
    <g clip-path="url(#p0fb52dfba4)">
     <use style="fill:#808080;stroke:#808080;" x="363.159062" xlink:href="#md890717ce4" y="263.034375"/>
    </g>
   </g>
   <g id="PathCollection_13">
    <g clip-path="url(#p0fb52dfba4)">
     <use style="fill:#808080;stroke:#808080;" x="389.943062" xlink:href="#md890717ce4" y="263.034375"/>
    </g>
   </g>
   <g id="PathCollection_14">
    <g clip-path="url(#p0fb52dfba4)">
     <use style="fill:#808080;stroke:#808080;" x="416.727063" xlink:href="#md890717ce4" y="111.834375"/>
    </g>
   </g>
   <g id="PathCollection_15">
    <g clip-path="url(#p0fb52dfba4)">
     <use style="fill:#808080;stroke:#808080;" x="443.511062" xlink:href="#md890717ce4" y="263.034375"/>
    </g>
   </g>
   <g id="PathCollection_16">
    <g clip-path="url(#p0fb52dfba4)">
     <use style="fill:#808080;stroke:#808080;" x="470.295063" xlink:href="#md890717ce4" y="263.034375"/>
    </g>
   </g>
   <g id="PathCollection_17">
    <g clip-path="url(#p0fb52dfba4)">
     <use style="fill:#808080;stroke:#808080;" x="497.079062" xlink:href="#md890717ce4" y="263.034375"/>
    </g>
   </g>
   <g id="PathCollection_18">
    <g clip-path="url(#p0fb52dfba4)">
     <use style="fill:#808080;stroke:#808080;" x="523.863062" xlink:href="#md890717ce4" y="263.034375"/>
    </g>
   </g>
   <g id="PathCollection_19">
    <g clip-path="url(#p0fb52dfba4)">
     <use style="fill:#808080;stroke:#808080;" x="550.647063" xlink:href="#md890717ce4" y="263.034375"/>
    </g>
   </g>
   <g id="PathCollection_20">
    <g clip-path="url(#p0fb52dfba4)">
     <use style="fill:#808080;stroke:#808080;" x="577.431062" xlink:href="#md890717ce4" y="263.034375"/>
    </g>
   </g>
   <g id="PathCollection_21">
    <g clip-path="url(#p0fb52dfba4)">
     <use style="fill:#808080;stroke:#808080;" x="604.215063" xlink:href="#md890717ce4" y="263.034375"/>
    </g>
   </g>
   <g id="PathCollection_22">
    <g clip-path="url(#p0fb52dfba4)">
     <use style="fill:#808080;stroke:#808080;" x="630.999063" xlink:href="#md890717ce4" y="263.034375"/>
    </g>
   </g>
   <g id="PathCollection_23">
    <g clip-path="url(#p0fb52dfba4)">
     <use style="fill:#808080;stroke:#808080;" x="657.783062" xlink:href="#md890717ce4" y="111.834375"/>
    </g>
   </g>
   <g id="PathCollection_24">
    <g clip-path="url(#p0fb52dfba4)">
     <use style="fill:#808080;stroke:#808080;" x="684.567063" xlink:href="#md890717ce4" y="263.034375"/>
    </g>
   </g>
   <g id="PathCollection_25">
    <g clip-path="url(#p0fb52dfba4)">
     <use style="fill:#808080;stroke:#808080;" x="711.351062" xlink:href="#md890717ce4" y="263.034375"/>
    </g>
   </g>
   <g id="matplotlib.axis_1">
    <g id="xtick_1">
     <g id="line2d_1">
      <path clip-path="url(#p0fb52dfba4)" d="M 61.839063 338.634375 
L 61.839063 36.234375 
" style="fill:none;stroke:#b0b0b0;stroke-dasharray:3.7,1.6;stroke-dashoffset:0;"/>
     </g>
     <g id="line2d_2">
      <defs>
       <path d="M 0 0 
L 0 3.5 
" id="m9eb4ad871e" style="stroke:#000000;stroke-width:0.8;"/>
      </defs>
      <g>
       <use style="stroke:#000000;stroke-width:0.8;" x="61.839063" xlink:href="#m9eb4ad871e" y="338.634375"/>
      </g>
     </g>
     <g id="text_1">
      <!-- 1000 -->
      <g transform="translate(49.114063 353.232812)scale(0.1 -0.1)">
       <defs>
        <path d="M 794 531 
L 1825 531 
L 1825 4091 
L 703 3866 
L 703 4441 
L 1819 4666 
L 2450 4666 
L 2450 531 
L 3481 531 
L 3481 0 
L 794 0 
L 794 531 
z
" id="DejaVuSans-31" transform="scale(0.015625)"/>
        <path d="M 2034 4250 
Q 1547 4250 1301 3770 
Q 1056 3291 1056 2328 
Q 1056 1369 1301 889 
Q 1547 409 2034 409 
Q 2525 409 2770 889 
Q 3016 1369 3016 2328 
Q 3016 3291 2770 3770 
Q 2525 4250 2034 4250 
z
M 2034 4750 
Q 2819 4750 3233 4129 
Q 3647 3509 3647 2328 
Q 3647 1150 3233 529 
Q 2819 -91 2034 -91 
Q 1250 -91 836 529 
Q 422 1150 422 2328 
Q 422 3509 836 4129 
Q 1250 4750 2034 4750 
z
" id="DejaVuSans-30" transform="scale(0.015625)"/>
       </defs>
       <use xlink:href="#DejaVuSans-31"/>
       <use x="63.623047" xlink:href="#DejaVuSans-30"/>
       <use x="127.246094" xlink:href="#DejaVuSans-30"/>
       <use x="190.869141" xlink:href="#DejaVuSans-30"/>
      </g>
     </g>
    </g>
    <g id="xtick_2">
     <g id="line2d_3">
      <path clip-path="url(#p0fb52dfba4)" d="M 195.759063 338.634375 
L 195.759063 36.234375 
" style="fill:none;stroke:#b0b0b0;stroke-dasharray:3.7,1.6;stroke-dashoffset:0;"/>
     </g>
     <g id="line2d_4">
      <g>
       <use style="stroke:#000000;stroke-width:0.8;" x="195.759063" xlink:href="#m9eb4ad871e" y="338.634375"/>
      </g>
     </g>
     <g id="text_2">
      <!-- 1020 -->
      <g transform="translate(183.034063 353.232812)scale(0.1 -0.1)">
       <defs>
        <path d="M 1228 531 
L 3431 531 
L 3431 0 
L 469 0 
L 469 531 
Q 828 903 1448 1529 
Q 2069 2156 2228 2338 
Q 2531 2678 2651 2914 
Q 2772 3150 2772 3378 
Q 2772 3750 2511 3984 
Q 2250 4219 1831 4219 
Q 1534 4219 1204 4116 
Q 875 4013 500 3803 
L 500 4441 
Q 881 4594 1212 4672 
Q 1544 4750 1819 4750 
Q 2544 4750 2975 4387 
Q 3406 4025 3406 3419 
Q 3406 3131 3298 2873 
Q 3191 2616 2906 2266 
Q 2828 2175 2409 1742 
Q 1991 1309 1228 531 
z
" id="DejaVuSans-32" transform="scale(0.015625)"/>
       </defs>
       <use xlink:href="#DejaVuSans-31"/>
       <use x="63.623047" xlink:href="#DejaVuSans-30"/>
       <use x="127.246094" xlink:href="#DejaVuSans-32"/>
       <use x="190.869141" xlink:href="#DejaVuSans-30"/>
      </g>
     </g>
    </g>
    <g id="xtick_3">
     <g id="line2d_5">
      <path clip-path="url(#p0fb52dfba4)" d="M 329.679063 338.634375 
L 329.679063 36.234375 
" style="fill:none;stroke:#b0b0b0;stroke-dasharray:3.7,1.6;stroke-dashoffset:0;"/>
     </g>
     <g id="line2d_6">
      <g>
       <use style="stroke:#000000;stroke-width:0.8;" x="329.679063" xlink:href="#m9eb4ad871e" y="338.634375"/>
      </g>
     </g>
     <g id="text_3">
      <!-- 1040 -->
      <g transform="translate(316.954063 353.232812)scale(0.1 -0.1)">
       <defs>
        <path d="M 2419 4116 
L 825 1625 
L 2419 1625 
L 2419 4116 
z
M 2253 4666 
L 3047 4666 
L 3047 1625 
L 3713 1625 
L 3713 1100 
L 3047 1100 
L 3047 0 
L 2419 0 
L 2419 1100 
L 313 1100 
L 313 1709 
L 2253 4666 
z
" id="DejaVuSans-34" transform="scale(0.015625)"/>
       </defs>
       <use xlink:href="#DejaVuSans-31"/>
       <use x="63.623047" xlink:href="#DejaVuSans-30"/>
       <use x="127.246094" xlink:href="#DejaVuSans-34"/>
       <use x="190.869141" xlink:href="#DejaVuSans-30"/>
      </g>
     </g>
    </g>
    <g id="xtick_4">
     <g id="line2d_7">
      <path clip-path="url(#p0fb52dfba4)" d="M 463.599063 338.634375 
L 463.599063 36.234375 
" style="fill:none;stroke:#b0b0b0;stroke-dasharray:3.7,1.6;stroke-dashoffset:0;"/>
     </g>
     <g id="line2d_8">
      <g>
       <use style="stroke:#000000;stroke-width:0.8;" x="463.599063" xlink:href="#m9eb4ad871e" y="338.634375"/>
      </g>
     </g>
     <g id="text_4">
      <!-- 1060 -->
      <g transform="translate(450.874063 353.232812)scale(0.1 -0.1)">
       <defs>
        <path d="M 2113 2584 
Q 1688 2584 1439 2293 
Q 1191 2003 1191 1497 
Q 1191 994 1439 701 
Q 1688 409 2113 409 
Q 2538 409 2786 701 
Q 3034 994 3034 1497 
Q 3034 2003 2786 2293 
Q 2538 2584 2113 2584 
z
M 3366 4563 
L 3366 3988 
Q 3128 4100 2886 4159 
Q 2644 4219 2406 4219 
Q 1781 4219 1451 3797 
Q 1122 3375 1075 2522 
Q 1259 2794 1537 2939 
Q 1816 3084 2150 3084 
Q 2853 3084 3261 2657 
Q 3669 2231 3669 1497 
Q 3669 778 3244 343 
Q 2819 -91 2113 -91 
Q 1303 -91 875 529 
Q 447 1150 447 2328 
Q 447 3434 972 4092 
Q 1497 4750 2381 4750 
Q 2619 4750 2861 4703 
Q 3103 4656 3366 4563 
z
" id="DejaVuSans-36" transform="scale(0.015625)"/>
       </defs>
       <use xlink:href="#DejaVuSans-31"/>
       <use x="63.623047" xlink:href="#DejaVuSans-30"/>
       <use x="127.246094" xlink:href="#DejaVuSans-36"/>
       <use x="190.869141" xlink:href="#DejaVuSans-30"/>
      </g>
     </g>
    </g>
    <g id="xtick_5">
     <g id="line2d_9">
      <path clip-path="url(#p0fb52dfba4)" d="M 597.519062 338.634375 
L 597.519062 36.234375 
" style="fill:none;stroke:#b0b0b0;stroke-dasharray:3.7,1.6;stroke-dashoffset:0;"/>
     </g>
     <g id="line2d_10">
      <g>
       <use style="stroke:#000000;stroke-width:0.8;" x="597.519062" xlink:href="#m9eb4ad871e" y="338.634375"/>
      </g>
     </g>
     <g id="text_5">
      <!-- 1080 -->
      <g transform="translate(584.794062 353.232812)scale(0.1 -0.1)">
       <defs>
        <path d="M 2034 2216 
Q 1584 2216 1326 1975 
Q 1069 1734 1069 1313 
Q 1069 891 1326 650 
Q 1584 409 2034 409 
Q 2484 409 2743 651 
Q 3003 894 3003 1313 
Q 3003 1734 2745 1975 
Q 2488 2216 2034 2216 
z
M 1403 2484 
Q 997 2584 770 2862 
Q 544 3141 544 3541 
Q 544 4100 942 4425 
Q 1341 4750 2034 4750 
Q 2731 4750 3128 4425 
Q 3525 4100 3525 3541 
Q 3525 3141 3298 2862 
Q 3072 2584 2669 2484 
Q 3125 2378 3379 2068 
Q 3634 1759 3634 1313 
Q 3634 634 3220 271 
Q 2806 -91 2034 -91 
Q 1263 -91 848 271 
Q 434 634 434 1313 
Q 434 1759 690 2068 
Q 947 2378 1403 2484 
z
M 1172 3481 
Q 1172 3119 1398 2916 
Q 1625 2713 2034 2713 
Q 2441 2713 2670 2916 
Q 2900 3119 2900 3481 
Q 2900 3844 2670 4047 
Q 2441 4250 2034 4250 
Q 1625 4250 1398 4047 
Q 1172 3844 1172 3481 
z
" id="DejaVuSans-38" transform="scale(0.015625)"/>
       </defs>
       <use xlink:href="#DejaVuSans-31"/>
       <use x="63.623047" xlink:href="#DejaVuSans-30"/>
       <use x="127.246094" xlink:href="#DejaVuSans-38"/>
       <use x="190.869141" xlink:href="#DejaVuSans-30"/>
      </g>
     </g>
    </g>
    <g id="xtick_6">
     <g id="line2d_11">
      <path clip-path="url(#p0fb52dfba4)" d="M 731.439062 338.634375 
L 731.439062 36.234375 
" style="fill:none;stroke:#b0b0b0;stroke-dasharray:3.7,1.6;stroke-dashoffset:0;"/>
     </g>
     <g id="line2d_12">
      <g>
       <use style="stroke:#000000;stroke-width:0.8;" x="731.439062" xlink:href="#m9eb4ad871e" y="338.634375"/>
      </g>
     </g>
     <g id="text_6">
      <!-- 1100 -->
      <g transform="translate(718.714062 353.232812)scale(0.1 -0.1)">
       <use xlink:href="#DejaVuSans-31"/>
       <use x="63.623047" xlink:href="#DejaVuSans-31"/>
       <use x="127.246094" xlink:href="#DejaVuSans-30"/>
       <use x="190.869141" xlink:href="#DejaVuSans-30"/>
      </g>
     </g>
    </g>
   </g>
   <g id="matplotlib.axis_2">
    <g id="ytick_1">
     <g id="line2d_13">
      <path clip-path="url(#p0fb52dfba4)" d="M 61.839063 338.634375 
L 731.439063 338.634375 
" style="fill:none;stroke:#b0b0b0;stroke-dasharray:3.7,1.6;stroke-dashoffset:0;"/>
     </g>
     <g id="line2d_14">
      <defs>
       <path d="M 0 0 
L -3.5 0 
" id="m381a5a26c9" style="stroke:#000000;stroke-width:0.8;"/>
      </defs>
      <g>
       <use style="stroke:#000000;stroke-width:0.8;" x="61.839063" xlink:href="#m381a5a26c9" y="338.634375"/>
      </g>
     </g>
     <g id="text_7">
      <!-- −2.0 -->
      <g transform="translate(30.55625 342.433594)scale(0.1 -0.1)">
       <defs>
        <path d="M 678 2272 
L 4684 2272 
L 4684 1741 
L 678 1741 
L 678 2272 
z
" id="DejaVuSans-2212" transform="scale(0.015625)"/>
        <path d="M 684 794 
L 1344 794 
L 1344 0 
L 684 0 
L 684 794 
z
" id="DejaVuSans-2e" transform="scale(0.015625)"/>
       </defs>
       <use xlink:href="#DejaVuSans-2212"/>
       <use x="83.789062" xlink:href="#DejaVuSans-32"/>
       <use x="147.412109" xlink:href="#DejaVuSans-2e"/>
       <use x="179.199219" xlink:href="#DejaVuSans-30"/>
      </g>
     </g>
    </g>
    <g id="ytick_2">
     <g id="line2d_15">
      <path clip-path="url(#p0fb52dfba4)" d="M 61.839063 300.834375 
L 731.439063 300.834375 
" style="fill:none;stroke:#b0b0b0;stroke-dasharray:3.7,1.6;stroke-dashoffset:0;"/>
     </g>
     <g id="line2d_16">
      <g>
       <use style="stroke:#000000;stroke-width:0.8;" x="61.839063" xlink:href="#m381a5a26c9" y="300.834375"/>
      </g>
     </g>
     <g id="text_8">
      <!-- −1.5 -->
      <g transform="translate(30.55625 304.633594)scale(0.1 -0.1)">
       <defs>
        <path d="M 691 4666 
L 3169 4666 
L 3169 4134 
L 1269 4134 
L 1269 2991 
Q 1406 3038 1543 3061 
Q 1681 3084 1819 3084 
Q 2600 3084 3056 2656 
Q 3513 2228 3513 1497 
Q 3513 744 3044 326 
Q 2575 -91 1722 -91 
Q 1428 -91 1123 -41 
Q 819 9 494 109 
L 494 744 
Q 775 591 1075 516 
Q 1375 441 1709 441 
Q 2250 441 2565 725 
Q 2881 1009 2881 1497 
Q 2881 1984 2565 2268 
Q 2250 2553 1709 2553 
Q 1456 2553 1204 2497 
Q 953 2441 691 2322 
L 691 4666 
z
" id="DejaVuSans-35" transform="scale(0.015625)"/>
       </defs>
       <use xlink:href="#DejaVuSans-2212"/>
       <use x="83.789062" xlink:href="#DejaVuSans-31"/>
       <use x="147.412109" xlink:href="#DejaVuSans-2e"/>
       <use x="179.199219" xlink:href="#DejaVuSans-35"/>
      </g>
     </g>
    </g>
    <g id="ytick_3">
     <g id="line2d_17">
      <path clip-path="url(#p0fb52dfba4)" d="M 61.839063 263.034375 
L 731.439063 263.034375 
" style="fill:none;stroke:#b0b0b0;stroke-dasharray:3.7,1.6;stroke-dashoffset:0;"/>
     </g>
     <g id="line2d_18">
      <g>
       <use style="stroke:#000000;stroke-width:0.8;" x="61.839063" xlink:href="#m381a5a26c9" y="263.034375"/>
      </g>
     </g>
     <g id="text_9">
      <!-- −1.0 -->
      <g transform="translate(30.55625 266.833594)scale(0.1 -0.1)">
       <use xlink:href="#DejaVuSans-2212"/>
       <use x="83.789062" xlink:href="#DejaVuSans-31"/>
       <use x="147.412109" xlink:href="#DejaVuSans-2e"/>
       <use x="179.199219" xlink:href="#DejaVuSans-30"/>
      </g>
     </g>
    </g>
    <g id="ytick_4">
     <g id="line2d_19">
      <path clip-path="url(#p0fb52dfba4)" d="M 61.839063 225.234375 
L 731.439063 225.234375 
" style="fill:none;stroke:#b0b0b0;stroke-dasharray:3.7,1.6;stroke-dashoffset:0;"/>
     </g>
     <g id="line2d_20">
      <g>
       <use style="stroke:#000000;stroke-width:0.8;" x="61.839063" xlink:href="#m381a5a26c9" y="225.234375"/>
      </g>
     </g>
     <g id="text_10">
      <!-- −0.5 -->
      <g transform="translate(30.55625 229.033594)scale(0.1 -0.1)">
       <use xlink:href="#DejaVuSans-2212"/>
       <use x="83.789062" xlink:href="#DejaVuSans-30"/>
       <use x="147.412109" xlink:href="#DejaVuSans-2e"/>
       <use x="179.199219" xlink:href="#DejaVuSans-35"/>
      </g>
     </g>
    </g>
    <g id="ytick_5">
     <g id="line2d_21">
      <path clip-path="url(#p0fb52dfba4)" d="M 61.839063 187.434375 
L 731.439063 187.434375 
" style="fill:none;stroke:#b0b0b0;stroke-dasharray:3.7,1.6;stroke-dashoffset:0;"/>
     </g>
     <g id="line2d_22">
      <g>
       <use style="stroke:#000000;stroke-width:0.8;" x="61.839063" xlink:href="#m381a5a26c9" y="187.434375"/>
      </g>
     </g>
     <g id="text_11">
      <!-- 0.0 -->
      <g transform="translate(38.935938 191.233594)scale(0.1 -0.1)">
       <use xlink:href="#DejaVuSans-30"/>
       <use x="63.623047" xlink:href="#DejaVuSans-2e"/>
       <use x="95.410156" xlink:href="#DejaVuSans-30"/>
      </g>
     </g>
    </g>
    <g id="ytick_6">
     <g id="line2d_23">
      <path clip-path="url(#p0fb52dfba4)" d="M 61.839063 149.634375 
L 731.439063 149.634375 
" style="fill:none;stroke:#b0b0b0;stroke-dasharray:3.7,1.6;stroke-dashoffset:0;"/>
     </g>
     <g id="line2d_24">
      <g>
       <use style="stroke:#000000;stroke-width:0.8;" x="61.839063" xlink:href="#m381a5a26c9" y="149.634375"/>
      </g>
     </g>
     <g id="text_12">
      <!-- 0.5 -->
      <g transform="translate(38.935938 153.433594)scale(0.1 -0.1)">
       <use xlink:href="#DejaVuSans-30"/>
       <use x="63.623047" xlink:href="#DejaVuSans-2e"/>
       <use x="95.410156" xlink:href="#DejaVuSans-35"/>
      </g>
     </g>
    </g>
    <g id="ytick_7">
     <g id="line2d_25">
      <path clip-path="url(#p0fb52dfba4)" d="M 61.839063 111.834375 
L 731.439063 111.834375 
" style="fill:none;stroke:#b0b0b0;stroke-dasharray:3.7,1.6;stroke-dashoffset:0;"/>
     </g>
     <g id="line2d_26">
      <g>
       <use style="stroke:#000000;stroke-width:0.8;" x="61.839063" xlink:href="#m381a5a26c9" y="111.834375"/>
      </g>
     </g>
     <g id="text_13">
      <!-- 1.0 -->
      <g transform="translate(38.935938 115.633594)scale(0.1 -0.1)">
       <use xlink:href="#DejaVuSans-31"/>
       <use x="63.623047" xlink:href="#DejaVuSans-2e"/>
       <use x="95.410156" xlink:href="#DejaVuSans-30"/>
      </g>
     </g>
    </g>
    <g id="ytick_8">
     <g id="line2d_27">
      <path clip-path="url(#p0fb52dfba4)" d="M 61.839063 74.034375 
L 731.439063 74.034375 
" style="fill:none;stroke:#b0b0b0;stroke-dasharray:3.7,1.6;stroke-dashoffset:0;"/>
     </g>
     <g id="line2d_28">
      <g>
       <use style="stroke:#000000;stroke-width:0.8;" x="61.839063" xlink:href="#m381a5a26c9" y="74.034375"/>
      </g>
     </g>
     <g id="text_14">
      <!-- 1.5 -->
      <g transform="translate(38.935938 77.833594)scale(0.1 -0.1)">
       <use xlink:href="#DejaVuSans-31"/>
       <use x="63.623047" xlink:href="#DejaVuSans-2e"/>
       <use x="95.410156" xlink:href="#DejaVuSans-35"/>
      </g>
     </g>
    </g>
    <g id="ytick_9">
     <g id="line2d_29">
      <path clip-path="url(#p0fb52dfba4)" d="M 61.839063 36.234375 
L 731.439063 36.234375 
" style="fill:none;stroke:#b0b0b0;stroke-dasharray:3.7,1.6;stroke-dashoffset:0;"/>
     </g>
     <g id="line2d_30">
      <g>
       <use style="stroke:#000000;stroke-width:0.8;" x="61.839063" xlink:href="#m381a5a26c9" y="36.234375"/>
      </g>
     </g>
     <g id="text_15">
      <!-- 2.0 -->
      <g transform="translate(38.935938 40.033594)scale(0.1 -0.1)">
       <use xlink:href="#DejaVuSans-32"/>
       <use x="63.623047" xlink:href="#DejaVuSans-2e"/>
       <use x="95.410156" xlink:href="#DejaVuSans-30"/>
      </g>
     </g>
    </g>
    <g id="text_16">
     <!-- Magnitud -->
     <g transform="translate(22.396875 234.260937)rotate(-90)scale(0.2 -0.2)">
      <defs>
       <path d="M 628 4666 
L 1569 4666 
L 2759 1491 
L 3956 4666 
L 4897 4666 
L 4897 0 
L 4281 0 
L 4281 4097 
L 3078 897 
L 2444 897 
L 1241 4097 
L 1241 0 
L 628 0 
L 628 4666 
z
" id="DejaVuSans-4d" transform="scale(0.015625)"/>
       <path d="M 2194 1759 
Q 1497 1759 1228 1600 
Q 959 1441 959 1056 
Q 959 750 1161 570 
Q 1363 391 1709 391 
Q 2188 391 2477 730 
Q 2766 1069 2766 1631 
L 2766 1759 
L 2194 1759 
z
M 3341 1997 
L 3341 0 
L 2766 0 
L 2766 531 
Q 2569 213 2275 61 
Q 1981 -91 1556 -91 
Q 1019 -91 701 211 
Q 384 513 384 1019 
Q 384 1609 779 1909 
Q 1175 2209 1959 2209 
L 2766 2209 
L 2766 2266 
Q 2766 2663 2505 2880 
Q 2244 3097 1772 3097 
Q 1472 3097 1187 3025 
Q 903 2953 641 2809 
L 641 3341 
Q 956 3463 1253 3523 
Q 1550 3584 1831 3584 
Q 2591 3584 2966 3190 
Q 3341 2797 3341 1997 
z
" id="DejaVuSans-61" transform="scale(0.015625)"/>
       <path d="M 2906 1791 
Q 2906 2416 2648 2759 
Q 2391 3103 1925 3103 
Q 1463 3103 1205 2759 
Q 947 2416 947 1791 
Q 947 1169 1205 825 
Q 1463 481 1925 481 
Q 2391 481 2648 825 
Q 2906 1169 2906 1791 
z
M 3481 434 
Q 3481 -459 3084 -895 
Q 2688 -1331 1869 -1331 
Q 1566 -1331 1297 -1286 
Q 1028 -1241 775 -1147 
L 775 -588 
Q 1028 -725 1275 -790 
Q 1522 -856 1778 -856 
Q 2344 -856 2625 -561 
Q 2906 -266 2906 331 
L 2906 616 
Q 2728 306 2450 153 
Q 2172 0 1784 0 
Q 1141 0 747 490 
Q 353 981 353 1791 
Q 353 2603 747 3093 
Q 1141 3584 1784 3584 
Q 2172 3584 2450 3431 
Q 2728 3278 2906 2969 
L 2906 3500 
L 3481 3500 
L 3481 434 
z
" id="DejaVuSans-67" transform="scale(0.015625)"/>
       <path d="M 3513 2113 
L 3513 0 
L 2938 0 
L 2938 2094 
Q 2938 2591 2744 2837 
Q 2550 3084 2163 3084 
Q 1697 3084 1428 2787 
Q 1159 2491 1159 1978 
L 1159 0 
L 581 0 
L 581 3500 
L 1159 3500 
L 1159 2956 
Q 1366 3272 1645 3428 
Q 1925 3584 2291 3584 
Q 2894 3584 3203 3211 
Q 3513 2838 3513 2113 
z
" id="DejaVuSans-6e" transform="scale(0.015625)"/>
       <path d="M 603 3500 
L 1178 3500 
L 1178 0 
L 603 0 
L 603 3500 
z
M 603 4863 
L 1178 4863 
L 1178 4134 
L 603 4134 
L 603 4863 
z
" id="DejaVuSans-69" transform="scale(0.015625)"/>
       <path d="M 1172 4494 
L 1172 3500 
L 2356 3500 
L 2356 3053 
L 1172 3053 
L 1172 1153 
Q 1172 725 1289 603 
Q 1406 481 1766 481 
L 2356 481 
L 2356 0 
L 1766 0 
Q 1100 0 847 248 
Q 594 497 594 1153 
L 594 3053 
L 172 3053 
L 172 3500 
L 594 3500 
L 594 4494 
L 1172 4494 
z
" id="DejaVuSans-74" transform="scale(0.015625)"/>
       <path d="M 544 1381 
L 544 3500 
L 1119 3500 
L 1119 1403 
Q 1119 906 1312 657 
Q 1506 409 1894 409 
Q 2359 409 2629 706 
Q 2900 1003 2900 1516 
L 2900 3500 
L 3475 3500 
L 3475 0 
L 2900 0 
L 2900 538 
Q 2691 219 2414 64 
Q 2138 -91 1772 -91 
Q 1169 -91 856 284 
Q 544 659 544 1381 
z
M 1991 3584 
L 1991 3584 
z
" id="DejaVuSans-75" transform="scale(0.015625)"/>
       <path d="M 2906 2969 
L 2906 4863 
L 3481 4863 
L 3481 0 
L 2906 0 
L 2906 525 
Q 2725 213 2448 61 
Q 2172 -91 1784 -91 
Q 1150 -91 751 415 
Q 353 922 353 1747 
Q 353 2572 751 3078 
Q 1150 3584 1784 3584 
Q 2172 3584 2448 3432 
Q 2725 3281 2906 2969 
z
M 947 1747 
Q 947 1113 1208 752 
Q 1469 391 1925 391 
Q 2381 391 2643 752 
Q 2906 1113 2906 1747 
Q 2906 2381 2643 2742 
Q 2381 3103 1925 3103 
Q 1469 3103 1208 2742 
Q 947 2381 947 1747 
z
" id="DejaVuSans-64" transform="scale(0.015625)"/>
      </defs>
      <use xlink:href="#DejaVuSans-4d"/>
      <use x="86.279297" xlink:href="#DejaVuSans-61"/>
      <use x="147.558594" xlink:href="#DejaVuSans-67"/>
      <use x="211.035156" xlink:href="#DejaVuSans-6e"/>
      <use x="274.414062" xlink:href="#DejaVuSans-69"/>
      <use x="302.197266" xlink:href="#DejaVuSans-74"/>
      <use x="341.40625" xlink:href="#DejaVuSans-75"/>
      <use x="404.785156" xlink:href="#DejaVuSans-64"/>
     </g>
    </g>
   </g>
   <g id="line2d_31">
    <path clip-path="url(#p0fb52dfba4)" d="M 55.143063 281.934375 
L 61.839063 277.209375 
L 68.535063 263.034375 
L 75.231063 220.509375 
L 81.927062 168.534375 
L 88.623062 126.009375 
L 95.319062 111.834375 
L 102.015062 126.009375 
L 108.711062 168.534375 
L 115.407062 220.509375 
L 122.103063 263.034375 
L 128.799063 286.659375 
L 135.495063 300.834375 
L 142.191063 286.659375 
L 148.887062 263.034375 
L 155.583062 229.959375 
L 162.279062 187.434375 
L 168.975062 144.909375 
L 175.671062 111.834375 
L 182.367062 88.209375 
L 189.063063 74.034375 
L 195.759063 88.209375 
L 202.455063 111.834375 
L 209.151063 144.909375 
L 215.847062 187.434375 
L 222.543062 229.959375 
L 229.239062 263.034375 
L 235.935062 277.209375 
L 242.631062 281.934375 
L 249.327062 267.759375 
L 256.023062 263.034375 
L 262.719063 267.759375 
L 269.415063 281.934375 
L 276.111063 277.209375 
L 282.807063 263.034375 
L 289.503062 220.509375 
L 296.199062 168.534375 
L 302.895062 126.009375 
L 309.591062 111.834375 
L 316.287062 126.009375 
L 322.983062 168.534375 
L 329.679063 220.509375 
L 336.375063 263.034375 
L 343.071063 277.209375 
L 349.767063 281.934375 
L 356.463062 267.759375 
L 363.159062 263.034375 
L 369.855062 267.759375 
L 376.551062 281.934375 
L 383.247062 277.209375 
L 389.943062 263.034375 
L 396.639063 220.509375 
L 403.335063 168.534375 
L 410.031063 126.009375 
L 416.727063 111.834375 
L 423.423063 126.009375 
L 430.119062 168.534375 
L 436.815062 220.509375 
L 443.511062 263.034375 
L 450.207062 277.209375 
L 456.903062 281.934375 
L 463.599063 267.759375 
L 470.295063 263.034375 
L 476.991063 258.309375 
L 483.687063 263.034375 
L 490.383063 258.309375 
L 497.079062 263.034375 
L 503.775062 258.309375 
L 510.471062 263.034375 
L 517.167062 258.309375 
L 523.863062 263.034375 
L 530.559062 258.309375 
L 537.255063 263.034375 
L 543.951063 258.309375 
L 550.647063 263.034375 
L 557.343063 258.309375 
L 564.039062 263.034375 
L 570.735062 258.309375 
L 577.431062 263.034375 
L 584.127062 258.309375 
L 590.823062 263.034375 
L 597.519062 258.309375 
L 604.215063 263.034375 
L 610.911063 267.759375 
L 617.607063 281.934375 
L 624.303063 277.209375 
L 630.999063 263.034375 
L 637.695062 220.509375 
L 644.391062 168.534375 
L 651.087062 126.009375 
L 657.783062 111.834375 
L 664.479062 126.009375 
L 671.175063 168.534375 
L 677.871063 220.509375 
L 684.567063 263.034375 
L 691.263063 277.209375 
L 697.959063 281.934375 
L 704.655062 267.759375 
L 711.351062 263.034375 
L 718.047062 258.309375 
L 724.743062 263.034375 
L 731.439062 258.309375 
L 738.135063 263.034375 
" style="fill:none;stroke:#ff0000;stroke-linecap:square;stroke-width:3;"/>
   </g>
   <g id="patch_3">
    <path d="M 61.839063 338.634375 
L 61.839063 36.234375 
" style="fill:none;stroke:#000000;stroke-linecap:square;stroke-linejoin:miter;stroke-width:0.8;"/>
   </g>
   <g id="patch_4">
    <path d="M 731.439063 338.634375 
L 731.439063 36.234375 
" style="fill:none;stroke:#000000;stroke-linecap:square;stroke-linejoin:miter;stroke-width:0.8;"/>
   </g>
   <g id="patch_5">
    <path d="M 61.839063 338.634375 
L 731.439062 338.634375 
" style="fill:none;stroke:#000000;stroke-linecap:square;stroke-linejoin:miter;stroke-width:0.8;"/>
   </g>
   <g id="patch_6">
    <path d="M 61.839063 36.234375 
L 731.439062 36.234375 
" style="fill:none;stroke:#000000;stroke-linecap:square;stroke-linejoin:miter;stroke-width:0.8;"/>
   </g>
   <g id="text_17">
    <!-- $In - Phase$ -->
    <g transform="translate(319.389063 29.995312)scale(0.3 -0.3)">
     <defs>
      <path d="M 1081 4666 
L 1716 4666 
L 806 0 
L 172 0 
L 1081 4666 
z
" id="DejaVuSans-Oblique-49" transform="scale(0.015625)"/>
      <path d="M 3566 2113 
L 3156 0 
L 2578 0 
L 2988 2091 
Q 3016 2238 3031 2350 
Q 3047 2463 3047 2528 
Q 3047 2791 2881 2937 
Q 2716 3084 2419 3084 
Q 1956 3084 1622 2776 
Q 1288 2469 1184 1941 
L 800 0 
L 225 0 
L 903 3500 
L 1478 3500 
L 1363 2950 
Q 1603 3253 1940 3418 
Q 2278 3584 2650 3584 
Q 3113 3584 3367 3334 
Q 3622 3084 3622 2631 
Q 3622 2519 3608 2391 
Q 3594 2263 3566 2113 
z
" id="DejaVuSans-Oblique-6e" transform="scale(0.015625)"/>
      <path d="M 1081 4666 
L 2541 4666 
Q 3178 4666 3512 4369 
Q 3847 4072 3847 3500 
Q 3847 2731 3353 2303 
Q 2859 1875 1966 1875 
L 1172 1875 
L 806 0 
L 172 0 
L 1081 4666 
z
M 1613 4147 
L 1275 2394 
L 2069 2394 
Q 2606 2394 2893 2669 
Q 3181 2944 3181 3456 
Q 3181 3784 2986 3965 
Q 2791 4147 2438 4147 
L 1613 4147 
z
" id="DejaVuSans-Oblique-50" transform="scale(0.015625)"/>
      <path d="M 3566 2113 
L 3156 0 
L 2578 0 
L 2988 2091 
Q 3016 2238 3031 2350 
Q 3047 2463 3047 2528 
Q 3047 2791 2881 2937 
Q 2716 3084 2419 3084 
Q 1956 3084 1617 2771 
Q 1278 2459 1178 1941 
L 800 0 
L 225 0 
L 1172 4863 
L 1747 4863 
L 1375 2950 
Q 1594 3244 1934 3414 
Q 2275 3584 2650 3584 
Q 3113 3584 3367 3334 
Q 3622 3084 3622 2631 
Q 3622 2519 3608 2391 
Q 3594 2263 3566 2113 
z
" id="DejaVuSans-Oblique-68" transform="scale(0.015625)"/>
      <path d="M 3438 1997 
L 3047 0 
L 2472 0 
L 2578 531 
Q 2325 219 2001 64 
Q 1678 -91 1281 -91 
Q 834 -91 548 182 
Q 263 456 263 884 
Q 263 1497 752 1853 
Q 1241 2209 2100 2209 
L 2900 2209 
L 2931 2363 
Q 2938 2388 2941 2417 
Q 2944 2447 2944 2509 
Q 2944 2788 2717 2942 
Q 2491 3097 2081 3097 
Q 1800 3097 1504 3025 
Q 1209 2953 897 2809 
L 997 3341 
Q 1322 3463 1633 3523 
Q 1944 3584 2234 3584 
Q 2853 3584 3176 3315 
Q 3500 3047 3500 2534 
Q 3500 2431 3484 2292 
Q 3469 2153 3438 1997 
z
M 2816 1759 
L 2241 1759 
Q 1534 1759 1195 1570 
Q 856 1381 856 984 
Q 856 709 1029 553 
Q 1203 397 1509 397 
Q 1978 397 2328 733 
Q 2678 1069 2791 1631 
L 2816 1759 
z
" id="DejaVuSans-Oblique-61" transform="scale(0.015625)"/>
      <path d="M 3200 3397 
L 3091 2853 
Q 2863 2978 2609 3040 
Q 2356 3103 2088 3103 
Q 1634 3103 1373 2948 
Q 1113 2794 1113 2528 
Q 1113 2219 1719 2053 
Q 1766 2041 1788 2034 
L 1972 1978 
Q 2547 1819 2739 1644 
Q 2931 1469 2931 1166 
Q 2931 609 2489 259 
Q 2047 -91 1331 -91 
Q 1053 -91 747 -37 
Q 441 16 72 128 
L 184 722 
Q 500 559 806 475 
Q 1113 391 1394 391 
Q 1816 391 2080 572 
Q 2344 753 2344 1031 
Q 2344 1331 1650 1516 
L 1591 1531 
L 1394 1581 
Q 956 1697 753 1886 
Q 550 2075 550 2369 
Q 550 2928 970 3256 
Q 1391 3584 2113 3584 
Q 2397 3584 2667 3537 
Q 2938 3491 3200 3397 
z
" id="DejaVuSans-Oblique-73" transform="scale(0.015625)"/>
      <path d="M 3078 2063 
Q 3088 2113 3092 2166 
Q 3097 2219 3097 2272 
Q 3097 2653 2873 2875 
Q 2650 3097 2266 3097 
Q 1838 3097 1509 2826 
Q 1181 2556 1013 2059 
L 3078 2063 
z
M 3578 1613 
L 903 1613 
Q 884 1494 878 1425 
Q 872 1356 872 1306 
Q 872 872 1139 634 
Q 1406 397 1894 397 
Q 2269 397 2603 481 
Q 2938 566 3225 728 
L 3116 159 
Q 2806 34 2476 -28 
Q 2147 -91 1806 -91 
Q 1078 -91 686 257 
Q 294 606 294 1247 
Q 294 1794 489 2264 
Q 684 2734 1063 3103 
Q 1306 3334 1642 3459 
Q 1978 3584 2356 3584 
Q 2950 3584 3301 3228 
Q 3653 2872 3653 2272 
Q 3653 2128 3634 1964 
Q 3616 1800 3578 1613 
z
" id="DejaVuSans-Oblique-65" transform="scale(0.015625)"/>
     </defs>
     <use transform="translate(0 0.015625)" xlink:href="#DejaVuSans-Oblique-49"/>
     <use transform="translate(29.492188 0.015625)" xlink:href="#DejaVuSans-Oblique-6e"/>
     <use transform="translate(112.353516 0.015625)" xlink:href="#DejaVuSans-2212"/>
     <use transform="translate(215.625 0.015625)" xlink:href="#DejaVuSans-Oblique-50"/>
     <use transform="translate(275.927734 0.015625)" xlink:href="#DejaVuSans-Oblique-68"/>
     <use transform="translate(339.306641 0.015625)" xlink:href="#DejaVuSans-Oblique-61"/>
     <use transform="translate(400.585938 0.015625)" xlink:href="#DejaVuSans-Oblique-73"/>
     <use transform="translate(452.685547 0.015625)" xlink:href="#DejaVuSans-Oblique-65"/>
    </g>
   </g>
  </g>
  <g id="axes_2">
   <g id="patch_7">
    <path d="M 61.839063 701.514375 
L 731.439063 701.514375 
L 731.439063 399.114375 
L 61.839063 399.114375 
z
" style="fill:#ffffff;"/>
   </g>
   <g id="PathCollection_26">
    <g clip-path="url(#pd8f9cb6b19)">
     <use style="fill:#808080;stroke:#808080;" x="68.535063" xlink:href="#md890717ce4" y="625.914375"/>
    </g>
   </g>
   <g id="PathCollection_27">
    <g clip-path="url(#pd8f9cb6b19)">
     <use style="fill:#808080;stroke:#808080;" x="95.319062" xlink:href="#md890717ce4" y="474.714375"/>
    </g>
   </g>
   <g id="PathCollection_28">
    <g clip-path="url(#pd8f9cb6b19)">
     <use style="fill:#808080;stroke:#808080;" x="122.103063" xlink:href="#md890717ce4" y="625.914375"/>
    </g>
   </g>
   <g id="PathCollection_29">
    <g clip-path="url(#pd8f9cb6b19)">
     <use style="fill:#808080;stroke:#808080;" x="148.887062" xlink:href="#md890717ce4" y="474.714375"/>
    </g>
   </g>
   <g id="PathCollection_30">
    <g clip-path="url(#pd8f9cb6b19)">
     <use style="fill:#808080;stroke:#808080;" x="175.671062" xlink:href="#md890717ce4" y="625.914375"/>
    </g>
   </g>
   <g id="PathCollection_31">
    <g clip-path="url(#pd8f9cb6b19)">
     <use style="fill:#808080;stroke:#808080;" x="202.455063" xlink:href="#md890717ce4" y="625.914375"/>
    </g>
   </g>
   <g id="PathCollection_32">
    <g clip-path="url(#pd8f9cb6b19)">
     <use style="fill:#808080;stroke:#808080;" x="229.239062" xlink:href="#md890717ce4" y="474.714375"/>
    </g>
   </g>
   <g id="PathCollection_33">
    <g clip-path="url(#pd8f9cb6b19)">
     <use style="fill:#808080;stroke:#808080;" x="256.023062" xlink:href="#md890717ce4" y="474.714375"/>
    </g>
   </g>
   <g id="PathCollection_34">
    <g clip-path="url(#pd8f9cb6b19)">
     <use style="fill:#808080;stroke:#808080;" x="282.807063" xlink:href="#md890717ce4" y="625.914375"/>
    </g>
   </g>
   <g id="PathCollection_35">
    <g clip-path="url(#pd8f9cb6b19)">
     <use style="fill:#808080;stroke:#808080;" x="309.591062" xlink:href="#md890717ce4" y="625.914375"/>
    </g>
   </g>
   <g id="PathCollection_36">
    <g clip-path="url(#pd8f9cb6b19)">
     <use style="fill:#808080;stroke:#808080;" x="336.375063" xlink:href="#md890717ce4" y="474.714375"/>
    </g>
   </g>
   <g id="PathCollection_37">
    <g clip-path="url(#pd8f9cb6b19)">
     <use style="fill:#808080;stroke:#808080;" x="363.159062" xlink:href="#md890717ce4" y="474.714375"/>
    </g>
   </g>
   <g id="PathCollection_38">
    <g clip-path="url(#pd8f9cb6b19)">
     <use style="fill:#808080;stroke:#808080;" x="389.943062" xlink:href="#md890717ce4" y="625.914375"/>
    </g>
   </g>
   <g id="PathCollection_39">
    <g clip-path="url(#pd8f9cb6b19)">
     <use style="fill:#808080;stroke:#808080;" x="416.727063" xlink:href="#md890717ce4" y="625.914375"/>
    </g>
   </g>
   <g id="PathCollection_40">
    <g clip-path="url(#pd8f9cb6b19)">
     <use style="fill:#808080;stroke:#808080;" x="443.511062" xlink:href="#md890717ce4" y="625.914375"/>
    </g>
   </g>
   <g id="PathCollection_41">
    <g clip-path="url(#pd8f9cb6b19)">
     <use style="fill:#808080;stroke:#808080;" x="470.295063" xlink:href="#md890717ce4" y="625.914375"/>
    </g>
   </g>
   <g id="PathCollection_42">
    <g clip-path="url(#pd8f9cb6b19)">
     <use style="fill:#808080;stroke:#808080;" x="497.079062" xlink:href="#md890717ce4" y="625.914375"/>
    </g>
   </g>
   <g id="PathCollection_43">
    <g clip-path="url(#pd8f9cb6b19)">
     <use style="fill:#808080;stroke:#808080;" x="523.863062" xlink:href="#md890717ce4" y="625.914375"/>
    </g>
   </g>
   <g id="PathCollection_44">
    <g clip-path="url(#pd8f9cb6b19)">
     <use style="fill:#808080;stroke:#808080;" x="550.647063" xlink:href="#md890717ce4" y="625.914375"/>
    </g>
   </g>
   <g id="PathCollection_45">
    <g clip-path="url(#pd8f9cb6b19)">
     <use style="fill:#808080;stroke:#808080;" x="577.431062" xlink:href="#md890717ce4" y="474.714375"/>
    </g>
   </g>
   <g id="PathCollection_46">
    <g clip-path="url(#pd8f9cb6b19)">
     <use style="fill:#808080;stroke:#808080;" x="604.215063" xlink:href="#md890717ce4" y="474.714375"/>
    </g>
   </g>
   <g id="PathCollection_47">
    <g clip-path="url(#pd8f9cb6b19)">
     <use style="fill:#808080;stroke:#808080;" x="630.999063" xlink:href="#md890717ce4" y="625.914375"/>
    </g>
   </g>
   <g id="PathCollection_48">
    <g clip-path="url(#pd8f9cb6b19)">
     <use style="fill:#808080;stroke:#808080;" x="657.783062" xlink:href="#md890717ce4" y="625.914375"/>
    </g>
   </g>
   <g id="PathCollection_49">
    <g clip-path="url(#pd8f9cb6b19)">
     <use style="fill:#808080;stroke:#808080;" x="684.567063" xlink:href="#md890717ce4" y="625.914375"/>
    </g>
   </g>
   <g id="PathCollection_50">
    <g clip-path="url(#pd8f9cb6b19)">
     <use style="fill:#808080;stroke:#808080;" x="711.351062" xlink:href="#md890717ce4" y="474.714375"/>
    </g>
   </g>
   <g id="matplotlib.axis_3">
    <g id="xtick_7">
     <g id="line2d_32">
      <path clip-path="url(#pd8f9cb6b19)" d="M 61.839063 701.514375 
L 61.839063 399.114375 
" style="fill:none;stroke:#b0b0b0;stroke-dasharray:3.7,1.6;stroke-dashoffset:0;"/>
     </g>
     <g id="line2d_33">
      <g>
       <use style="stroke:#000000;stroke-width:0.8;" x="61.839063" xlink:href="#m9eb4ad871e" y="701.514375"/>
      </g>
     </g>
     <g id="text_18">
      <!-- 1000 -->
      <g transform="translate(49.114063 716.112812)scale(0.1 -0.1)">
       <use xlink:href="#DejaVuSans-31"/>
       <use x="63.623047" xlink:href="#DejaVuSans-30"/>
       <use x="127.246094" xlink:href="#DejaVuSans-30"/>
       <use x="190.869141" xlink:href="#DejaVuSans-30"/>
      </g>
     </g>
    </g>
    <g id="xtick_8">
     <g id="line2d_34">
      <path clip-path="url(#pd8f9cb6b19)" d="M 195.759063 701.514375 
L 195.759063 399.114375 
" style="fill:none;stroke:#b0b0b0;stroke-dasharray:3.7,1.6;stroke-dashoffset:0;"/>
     </g>
     <g id="line2d_35">
      <g>
       <use style="stroke:#000000;stroke-width:0.8;" x="195.759063" xlink:href="#m9eb4ad871e" y="701.514375"/>
      </g>
     </g>
     <g id="text_19">
      <!-- 1020 -->
      <g transform="translate(183.034063 716.112812)scale(0.1 -0.1)">
       <use xlink:href="#DejaVuSans-31"/>
       <use x="63.623047" xlink:href="#DejaVuSans-30"/>
       <use x="127.246094" xlink:href="#DejaVuSans-32"/>
       <use x="190.869141" xlink:href="#DejaVuSans-30"/>
      </g>
     </g>
    </g>
    <g id="xtick_9">
     <g id="line2d_36">
      <path clip-path="url(#pd8f9cb6b19)" d="M 329.679063 701.514375 
L 329.679063 399.114375 
" style="fill:none;stroke:#b0b0b0;stroke-dasharray:3.7,1.6;stroke-dashoffset:0;"/>
     </g>
     <g id="line2d_37">
      <g>
       <use style="stroke:#000000;stroke-width:0.8;" x="329.679063" xlink:href="#m9eb4ad871e" y="701.514375"/>
      </g>
     </g>
     <g id="text_20">
      <!-- 1040 -->
      <g transform="translate(316.954063 716.112812)scale(0.1 -0.1)">
       <use xlink:href="#DejaVuSans-31"/>
       <use x="63.623047" xlink:href="#DejaVuSans-30"/>
       <use x="127.246094" xlink:href="#DejaVuSans-34"/>
       <use x="190.869141" xlink:href="#DejaVuSans-30"/>
      </g>
     </g>
    </g>
    <g id="xtick_10">
     <g id="line2d_38">
      <path clip-path="url(#pd8f9cb6b19)" d="M 463.599063 701.514375 
L 463.599063 399.114375 
" style="fill:none;stroke:#b0b0b0;stroke-dasharray:3.7,1.6;stroke-dashoffset:0;"/>
     </g>
     <g id="line2d_39">
      <g>
       <use style="stroke:#000000;stroke-width:0.8;" x="463.599063" xlink:href="#m9eb4ad871e" y="701.514375"/>
      </g>
     </g>
     <g id="text_21">
      <!-- 1060 -->
      <g transform="translate(450.874063 716.112812)scale(0.1 -0.1)">
       <use xlink:href="#DejaVuSans-31"/>
       <use x="63.623047" xlink:href="#DejaVuSans-30"/>
       <use x="127.246094" xlink:href="#DejaVuSans-36"/>
       <use x="190.869141" xlink:href="#DejaVuSans-30"/>
      </g>
     </g>
    </g>
    <g id="xtick_11">
     <g id="line2d_40">
      <path clip-path="url(#pd8f9cb6b19)" d="M 597.519062 701.514375 
L 597.519062 399.114375 
" style="fill:none;stroke:#b0b0b0;stroke-dasharray:3.7,1.6;stroke-dashoffset:0;"/>
     </g>
     <g id="line2d_41">
      <g>
       <use style="stroke:#000000;stroke-width:0.8;" x="597.519062" xlink:href="#m9eb4ad871e" y="701.514375"/>
      </g>
     </g>
     <g id="text_22">
      <!-- 1080 -->
      <g transform="translate(584.794062 716.112812)scale(0.1 -0.1)">
       <use xlink:href="#DejaVuSans-31"/>
       <use x="63.623047" xlink:href="#DejaVuSans-30"/>
       <use x="127.246094" xlink:href="#DejaVuSans-38"/>
       <use x="190.869141" xlink:href="#DejaVuSans-30"/>
      </g>
     </g>
    </g>
    <g id="xtick_12">
     <g id="line2d_42">
      <path clip-path="url(#pd8f9cb6b19)" d="M 731.439062 701.514375 
L 731.439062 399.114375 
" style="fill:none;stroke:#b0b0b0;stroke-dasharray:3.7,1.6;stroke-dashoffset:0;"/>
     </g>
     <g id="line2d_43">
      <g>
       <use style="stroke:#000000;stroke-width:0.8;" x="731.439062" xlink:href="#m9eb4ad871e" y="701.514375"/>
      </g>
     </g>
     <g id="text_23">
      <!-- 1100 -->
      <g transform="translate(718.714062 716.112812)scale(0.1 -0.1)">
       <use xlink:href="#DejaVuSans-31"/>
       <use x="63.623047" xlink:href="#DejaVuSans-31"/>
       <use x="127.246094" xlink:href="#DejaVuSans-30"/>
       <use x="190.869141" xlink:href="#DejaVuSans-30"/>
      </g>
     </g>
    </g>
    <g id="text_24">
     <!-- Muestras -->
     <g transform="translate(350.942188 737.389375)scale(0.2 -0.2)">
      <defs>
       <path d="M 3597 1894 
L 3597 1613 
L 953 1613 
Q 991 1019 1311 708 
Q 1631 397 2203 397 
Q 2534 397 2845 478 
Q 3156 559 3463 722 
L 3463 178 
Q 3153 47 2828 -22 
Q 2503 -91 2169 -91 
Q 1331 -91 842 396 
Q 353 884 353 1716 
Q 353 2575 817 3079 
Q 1281 3584 2069 3584 
Q 2775 3584 3186 3129 
Q 3597 2675 3597 1894 
z
M 3022 2063 
Q 3016 2534 2758 2815 
Q 2500 3097 2075 3097 
Q 1594 3097 1305 2825 
Q 1016 2553 972 2059 
L 3022 2063 
z
" id="DejaVuSans-65" transform="scale(0.015625)"/>
       <path d="M 2834 3397 
L 2834 2853 
Q 2591 2978 2328 3040 
Q 2066 3103 1784 3103 
Q 1356 3103 1142 2972 
Q 928 2841 928 2578 
Q 928 2378 1081 2264 
Q 1234 2150 1697 2047 
L 1894 2003 
Q 2506 1872 2764 1633 
Q 3022 1394 3022 966 
Q 3022 478 2636 193 
Q 2250 -91 1575 -91 
Q 1294 -91 989 -36 
Q 684 19 347 128 
L 347 722 
Q 666 556 975 473 
Q 1284 391 1588 391 
Q 1994 391 2212 530 
Q 2431 669 2431 922 
Q 2431 1156 2273 1281 
Q 2116 1406 1581 1522 
L 1381 1569 
Q 847 1681 609 1914 
Q 372 2147 372 2553 
Q 372 3047 722 3315 
Q 1072 3584 1716 3584 
Q 2034 3584 2315 3537 
Q 2597 3491 2834 3397 
z
" id="DejaVuSans-73" transform="scale(0.015625)"/>
       <path d="M 2631 2963 
Q 2534 3019 2420 3045 
Q 2306 3072 2169 3072 
Q 1681 3072 1420 2755 
Q 1159 2438 1159 1844 
L 1159 0 
L 581 0 
L 581 3500 
L 1159 3500 
L 1159 2956 
Q 1341 3275 1631 3429 
Q 1922 3584 2338 3584 
Q 2397 3584 2469 3576 
Q 2541 3569 2628 3553 
L 2631 2963 
z
" id="DejaVuSans-72" transform="scale(0.015625)"/>
      </defs>
      <use xlink:href="#DejaVuSans-4d"/>
      <use x="86.279297" xlink:href="#DejaVuSans-75"/>
      <use x="149.658203" xlink:href="#DejaVuSans-65"/>
      <use x="211.181641" xlink:href="#DejaVuSans-73"/>
      <use x="263.28125" xlink:href="#DejaVuSans-74"/>
      <use x="302.490234" xlink:href="#DejaVuSans-72"/>
      <use x="343.603516" xlink:href="#DejaVuSans-61"/>
      <use x="404.882812" xlink:href="#DejaVuSans-73"/>
     </g>
    </g>
   </g>
   <g id="matplotlib.axis_4">
    <g id="ytick_10">
     <g id="line2d_44">
      <path clip-path="url(#pd8f9cb6b19)" d="M 61.839063 701.514375 
L 731.439063 701.514375 
" style="fill:none;stroke:#b0b0b0;stroke-dasharray:3.7,1.6;stroke-dashoffset:0;"/>
     </g>
     <g id="line2d_45">
      <g>
       <use style="stroke:#000000;stroke-width:0.8;" x="61.839063" xlink:href="#m381a5a26c9" y="701.514375"/>
      </g>
     </g>
     <g id="text_25">
      <!-- −2.0 -->
      <g transform="translate(30.55625 705.313594)scale(0.1 -0.1)">
       <use xlink:href="#DejaVuSans-2212"/>
       <use x="83.789062" xlink:href="#DejaVuSans-32"/>
       <use x="147.412109" xlink:href="#DejaVuSans-2e"/>
       <use x="179.199219" xlink:href="#DejaVuSans-30"/>
      </g>
     </g>
    </g>
    <g id="ytick_11">
     <g id="line2d_46">
      <path clip-path="url(#pd8f9cb6b19)" d="M 61.839063 663.714375 
L 731.439063 663.714375 
" style="fill:none;stroke:#b0b0b0;stroke-dasharray:3.7,1.6;stroke-dashoffset:0;"/>
     </g>
     <g id="line2d_47">
      <g>
       <use style="stroke:#000000;stroke-width:0.8;" x="61.839063" xlink:href="#m381a5a26c9" y="663.714375"/>
      </g>
     </g>
     <g id="text_26">
      <!-- −1.5 -->
      <g transform="translate(30.55625 667.513594)scale(0.1 -0.1)">
       <use xlink:href="#DejaVuSans-2212"/>
       <use x="83.789062" xlink:href="#DejaVuSans-31"/>
       <use x="147.412109" xlink:href="#DejaVuSans-2e"/>
       <use x="179.199219" xlink:href="#DejaVuSans-35"/>
      </g>
     </g>
    </g>
    <g id="ytick_12">
     <g id="line2d_48">
      <path clip-path="url(#pd8f9cb6b19)" d="M 61.839063 625.914375 
L 731.439063 625.914375 
" style="fill:none;stroke:#b0b0b0;stroke-dasharray:3.7,1.6;stroke-dashoffset:0;"/>
     </g>
     <g id="line2d_49">
      <g>
       <use style="stroke:#000000;stroke-width:0.8;" x="61.839063" xlink:href="#m381a5a26c9" y="625.914375"/>
      </g>
     </g>
     <g id="text_27">
      <!-- −1.0 -->
      <g transform="translate(30.55625 629.713594)scale(0.1 -0.1)">
       <use xlink:href="#DejaVuSans-2212"/>
       <use x="83.789062" xlink:href="#DejaVuSans-31"/>
       <use x="147.412109" xlink:href="#DejaVuSans-2e"/>
       <use x="179.199219" xlink:href="#DejaVuSans-30"/>
      </g>
     </g>
    </g>
    <g id="ytick_13">
     <g id="line2d_50">
      <path clip-path="url(#pd8f9cb6b19)" d="M 61.839063 588.114375 
L 731.439063 588.114375 
" style="fill:none;stroke:#b0b0b0;stroke-dasharray:3.7,1.6;stroke-dashoffset:0;"/>
     </g>
     <g id="line2d_51">
      <g>
       <use style="stroke:#000000;stroke-width:0.8;" x="61.839063" xlink:href="#m381a5a26c9" y="588.114375"/>
      </g>
     </g>
     <g id="text_28">
      <!-- −0.5 -->
      <g transform="translate(30.55625 591.913594)scale(0.1 -0.1)">
       <use xlink:href="#DejaVuSans-2212"/>
       <use x="83.789062" xlink:href="#DejaVuSans-30"/>
       <use x="147.412109" xlink:href="#DejaVuSans-2e"/>
       <use x="179.199219" xlink:href="#DejaVuSans-35"/>
      </g>
     </g>
    </g>
    <g id="ytick_14">
     <g id="line2d_52">
      <path clip-path="url(#pd8f9cb6b19)" d="M 61.839063 550.314375 
L 731.439063 550.314375 
" style="fill:none;stroke:#b0b0b0;stroke-dasharray:3.7,1.6;stroke-dashoffset:0;"/>
     </g>
     <g id="line2d_53">
      <g>
       <use style="stroke:#000000;stroke-width:0.8;" x="61.839063" xlink:href="#m381a5a26c9" y="550.314375"/>
      </g>
     </g>
     <g id="text_29">
      <!-- 0.0 -->
      <g transform="translate(38.935938 554.113594)scale(0.1 -0.1)">
       <use xlink:href="#DejaVuSans-30"/>
       <use x="63.623047" xlink:href="#DejaVuSans-2e"/>
       <use x="95.410156" xlink:href="#DejaVuSans-30"/>
      </g>
     </g>
    </g>
    <g id="ytick_15">
     <g id="line2d_54">
      <path clip-path="url(#pd8f9cb6b19)" d="M 61.839063 512.514375 
L 731.439063 512.514375 
" style="fill:none;stroke:#b0b0b0;stroke-dasharray:3.7,1.6;stroke-dashoffset:0;"/>
     </g>
     <g id="line2d_55">
      <g>
       <use style="stroke:#000000;stroke-width:0.8;" x="61.839063" xlink:href="#m381a5a26c9" y="512.514375"/>
      </g>
     </g>
     <g id="text_30">
      <!-- 0.5 -->
      <g transform="translate(38.935938 516.313594)scale(0.1 -0.1)">
       <use xlink:href="#DejaVuSans-30"/>
       <use x="63.623047" xlink:href="#DejaVuSans-2e"/>
       <use x="95.410156" xlink:href="#DejaVuSans-35"/>
      </g>
     </g>
    </g>
    <g id="ytick_16">
     <g id="line2d_56">
      <path clip-path="url(#pd8f9cb6b19)" d="M 61.839063 474.714375 
L 731.439063 474.714375 
" style="fill:none;stroke:#b0b0b0;stroke-dasharray:3.7,1.6;stroke-dashoffset:0;"/>
     </g>
     <g id="line2d_57">
      <g>
       <use style="stroke:#000000;stroke-width:0.8;" x="61.839063" xlink:href="#m381a5a26c9" y="474.714375"/>
      </g>
     </g>
     <g id="text_31">
      <!-- 1.0 -->
      <g transform="translate(38.935938 478.513594)scale(0.1 -0.1)">
       <use xlink:href="#DejaVuSans-31"/>
       <use x="63.623047" xlink:href="#DejaVuSans-2e"/>
       <use x="95.410156" xlink:href="#DejaVuSans-30"/>
      </g>
     </g>
    </g>
    <g id="ytick_17">
     <g id="line2d_58">
      <path clip-path="url(#pd8f9cb6b19)" d="M 61.839063 436.914375 
L 731.439063 436.914375 
" style="fill:none;stroke:#b0b0b0;stroke-dasharray:3.7,1.6;stroke-dashoffset:0;"/>
     </g>
     <g id="line2d_59">
      <g>
       <use style="stroke:#000000;stroke-width:0.8;" x="61.839063" xlink:href="#m381a5a26c9" y="436.914375"/>
      </g>
     </g>
     <g id="text_32">
      <!-- 1.5 -->
      <g transform="translate(38.935938 440.713594)scale(0.1 -0.1)">
       <use xlink:href="#DejaVuSans-31"/>
       <use x="63.623047" xlink:href="#DejaVuSans-2e"/>
       <use x="95.410156" xlink:href="#DejaVuSans-35"/>
      </g>
     </g>
    </g>
    <g id="ytick_18">
     <g id="line2d_60">
      <path clip-path="url(#pd8f9cb6b19)" d="M 61.839063 399.114375 
L 731.439063 399.114375 
" style="fill:none;stroke:#b0b0b0;stroke-dasharray:3.7,1.6;stroke-dashoffset:0;"/>
     </g>
     <g id="line2d_61">
      <g>
       <use style="stroke:#000000;stroke-width:0.8;" x="61.839063" xlink:href="#m381a5a26c9" y="399.114375"/>
      </g>
     </g>
     <g id="text_33">
      <!-- 2.0 -->
      <g transform="translate(38.935938 402.913594)scale(0.1 -0.1)">
       <use xlink:href="#DejaVuSans-32"/>
       <use x="63.623047" xlink:href="#DejaVuSans-2e"/>
       <use x="95.410156" xlink:href="#DejaVuSans-30"/>
      </g>
     </g>
    </g>
    <g id="text_34">
     <!-- Magnitud -->
     <g transform="translate(22.396875 597.140937)rotate(-90)scale(0.2 -0.2)">
      <use xlink:href="#DejaVuSans-4d"/>
      <use x="86.279297" xlink:href="#DejaVuSans-61"/>
      <use x="147.558594" xlink:href="#DejaVuSans-67"/>
      <use x="211.035156" xlink:href="#DejaVuSans-6e"/>
      <use x="274.414062" xlink:href="#DejaVuSans-69"/>
      <use x="302.197266" xlink:href="#DejaVuSans-74"/>
      <use x="341.40625" xlink:href="#DejaVuSans-75"/>
      <use x="404.785156" xlink:href="#DejaVuSans-64"/>
     </g>
    </g>
   </g>
   <g id="line2d_62">
    <path clip-path="url(#pd8f9cb6b19)" d="M 55.143063 569.214375 
L 61.839063 611.739375 
L 68.535063 625.914375 
L 75.231063 602.289375 
L 81.927062 550.314375 
L 88.623062 498.339375 
L 95.319062 474.714375 
L 102.015062 498.339375 
L 108.711062 550.314375 
L 115.407062 602.289375 
L 122.103063 625.914375 
L 128.799063 602.289375 
L 135.495063 550.314375 
L 142.191063 498.339375 
L 148.887062 474.714375 
L 155.583062 488.889375 
L 162.279062 531.414375 
L 168.975062 583.389375 
L 175.671062 625.914375 
L 182.367062 649.539375 
L 189.063063 663.714375 
L 195.759063 649.539375 
L 202.455063 625.914375 
L 209.151063 592.839375 
L 215.847062 550.314375 
L 222.543062 507.789375 
L 229.239062 474.714375 
L 235.935062 451.089375 
L 242.631062 436.914375 
L 249.327062 451.089375 
L 256.023062 474.714375 
L 262.719063 507.789375 
L 269.415063 550.314375 
L 276.111063 592.839375 
L 282.807063 625.914375 
L 289.503062 649.539375 
L 296.199062 663.714375 
L 302.895062 649.539375 
L 309.591062 625.914375 
L 316.287062 592.839375 
L 322.983062 550.314375 
L 329.679063 507.789375 
L 336.375063 474.714375 
L 343.071063 451.089375 
L 349.767063 436.914375 
L 356.463062 451.089375 
L 363.159062 474.714375 
L 369.855062 507.789375 
L 376.551062 550.314375 
L 383.247062 592.839375 
L 389.943062 625.914375 
L 396.639063 640.089375 
L 403.335063 644.814375 
L 410.031063 630.639375 
L 416.727063 625.914375 
L 423.423063 621.189375 
L 430.119062 625.914375 
L 436.815062 621.189375 
L 443.511062 625.914375 
L 450.207062 621.189375 
L 456.903062 625.914375 
L 463.599063 621.189375 
L 470.295063 625.914375 
L 476.991063 621.189375 
L 483.687063 625.914375 
L 490.383063 621.189375 
L 497.079062 625.914375 
L 503.775062 621.189375 
L 510.471062 625.914375 
L 517.167062 621.189375 
L 523.863062 625.914375 
L 530.559062 630.639375 
L 537.255063 644.814375 
L 543.951063 640.089375 
L 550.647063 625.914375 
L 557.343063 592.839375 
L 564.039062 550.314375 
L 570.735062 507.789375 
L 577.431062 474.714375 
L 584.127062 451.089375 
L 590.823062 436.914375 
L 597.519062 451.089375 
L 604.215063 474.714375 
L 610.911063 507.789375 
L 617.607063 550.314375 
L 624.303063 592.839375 
L 630.999063 625.914375 
L 637.695062 640.089375 
L 644.391062 644.814375 
L 651.087062 630.639375 
L 657.783062 625.914375 
L 664.479062 630.639375 
L 671.175063 644.814375 
L 677.871063 640.089375 
L 684.567063 625.914375 
L 691.263063 592.839375 
L 697.959063 550.314375 
L 704.655062 507.789375 
L 711.351062 474.714375 
L 718.047062 451.089375 
L 724.743062 436.914375 
L 731.439062 451.089375 
L 738.135063 474.714375 
" style="fill:none;stroke:#0000ff;stroke-linecap:square;stroke-width:3;"/>
   </g>
   <g id="patch_8">
    <path d="M 61.839063 701.514375 
L 61.839063 399.114375 
" style="fill:none;stroke:#000000;stroke-linecap:square;stroke-linejoin:miter;stroke-width:0.8;"/>
   </g>
   <g id="patch_9">
    <path d="M 731.439063 701.514375 
L 731.439063 399.114375 
" style="fill:none;stroke:#000000;stroke-linecap:square;stroke-linejoin:miter;stroke-width:0.8;"/>
   </g>
   <g id="patch_10">
    <path d="M 61.839063 701.514375 
L 731.439062 701.514375 
" style="fill:none;stroke:#000000;stroke-linecap:square;stroke-linejoin:miter;stroke-width:0.8;"/>
   </g>
   <g id="patch_11">
    <path d="M 61.839063 399.114375 
L 731.439062 399.114375 
" style="fill:none;stroke:#000000;stroke-linecap:square;stroke-linejoin:miter;stroke-width:0.8;"/>
   </g>
   <g id="text_35">
    <!-- $Quadrature$ -->
    <g transform="translate(310.389063 392.875312)scale(0.3 -0.3)">
     <defs>
      <path d="M 2309 -84 
Q 2275 -88 2237 -89 
Q 2200 -91 2125 -91 
Q 1250 -91 756 411 
Q 263 913 263 1797 
Q 263 2319 452 2844 
Q 641 3369 978 3788 
Q 1369 4269 1858 4509 
Q 2347 4750 2938 4750 
Q 3794 4750 4287 4245 
Q 4781 3741 4781 2869 
Q 4781 1928 4265 1147 
Q 3750 366 2919 44 
L 3553 -825 
L 2847 -825 
L 2309 -84 
z
M 2919 4238 
Q 2400 4238 2003 3986 
Q 1606 3734 1313 3219 
Q 1125 2891 1026 2522 
Q 928 2153 928 1778 
Q 928 1128 1239 775 
Q 1550 422 2119 422 
Q 2631 422 3032 676 
Q 3434 931 3719 1434 
Q 3909 1772 4009 2142 
Q 4109 2513 4109 2881 
Q 4109 3528 3796 3883 
Q 3484 4238 2919 4238 
z
" id="DejaVuSans-Oblique-51" transform="scale(0.015625)"/>
      <path d="M 428 1388 
L 838 3500 
L 1416 3500 
L 1006 1409 
Q 975 1256 961 1147 
Q 947 1038 947 966 
Q 947 700 1109 554 
Q 1272 409 1569 409 
Q 2031 409 2368 721 
Q 2706 1034 2809 1563 
L 3194 3500 
L 3769 3500 
L 3091 0 
L 2516 0 
L 2631 550 
Q 2388 244 2052 76 
Q 1716 -91 1338 -91 
Q 878 -91 622 161 
Q 366 413 366 863 
Q 366 956 381 1097 
Q 397 1238 428 1388 
z
" id="DejaVuSans-Oblique-75" transform="scale(0.015625)"/>
      <path d="M 2675 525 
Q 2444 222 2128 65 
Q 1813 -91 1428 -91 
Q 903 -91 598 267 
Q 294 625 294 1247 
Q 294 1766 478 2236 
Q 663 2706 1013 3078 
Q 1244 3325 1534 3454 
Q 1825 3584 2144 3584 
Q 2481 3584 2739 3421 
Q 2997 3259 3138 2956 
L 3513 4863 
L 4091 4863 
L 3144 0 
L 2566 0 
L 2675 525 
z
M 891 1350 
Q 891 897 1095 644 
Q 1300 391 1663 391 
Q 1931 391 2161 520 
Q 2391 650 2566 903 
Q 2750 1166 2856 1509 
Q 2963 1853 2963 2188 
Q 2963 2622 2758 2865 
Q 2553 3109 2194 3109 
Q 1922 3109 1687 2981 
Q 1453 2853 1288 2613 
Q 1106 2353 998 2009 
Q 891 1666 891 1350 
z
" id="DejaVuSans-Oblique-64" transform="scale(0.015625)"/>
      <path d="M 2853 2969 
Q 2766 3016 2653 3041 
Q 2541 3066 2413 3066 
Q 1953 3066 1609 2717 
Q 1266 2369 1153 1784 
L 800 0 
L 225 0 
L 909 3500 
L 1484 3500 
L 1375 2956 
Q 1603 3259 1920 3421 
Q 2238 3584 2597 3584 
Q 2691 3584 2781 3573 
Q 2872 3563 2963 3538 
L 2853 2969 
z
" id="DejaVuSans-Oblique-72" transform="scale(0.015625)"/>
      <path d="M 2706 3500 
L 2619 3053 
L 1472 3053 
L 1100 1153 
Q 1081 1047 1072 975 
Q 1063 903 1063 863 
Q 1063 663 1183 572 
Q 1303 481 1569 481 
L 2150 481 
L 2053 0 
L 1503 0 
Q 991 0 739 200 
Q 488 400 488 806 
Q 488 878 497 964 
Q 506 1050 525 1153 
L 897 3053 
L 409 3053 
L 500 3500 
L 978 3500 
L 1172 4494 
L 1747 4494 
L 1556 3500 
L 2706 3500 
z
" id="DejaVuSans-Oblique-74" transform="scale(0.015625)"/>
     </defs>
     <use transform="translate(0 0.015625)" xlink:href="#DejaVuSans-Oblique-51"/>
     <use transform="translate(78.710938 0.015625)" xlink:href="#DejaVuSans-Oblique-75"/>
     <use transform="translate(142.089844 0.015625)" xlink:href="#DejaVuSans-Oblique-61"/>
     <use transform="translate(203.369141 0.015625)" xlink:href="#DejaVuSans-Oblique-64"/>
     <use transform="translate(266.845703 0.015625)" xlink:href="#DejaVuSans-Oblique-72"/>
     <use transform="translate(307.958984 0.015625)" xlink:href="#DejaVuSans-Oblique-61"/>
     <use transform="translate(369.238281 0.015625)" xlink:href="#DejaVuSans-Oblique-74"/>
     <use transform="translate(408.447266 0.015625)" xlink:href="#DejaVuSans-Oblique-75"/>
     <use transform="translate(471.826172 0.015625)" xlink:href="#DejaVuSans-Oblique-72"/>
     <use transform="translate(512.939453 0.015625)" xlink:href="#DejaVuSans-Oblique-65"/>
    </g>
   </g>
  </g>
 </g>
 <defs>
  <clipPath id="p0fb52dfba4">
   <rect height="302.4" width="669.6" x="61.839063" y="36.234375"/>
  </clipPath>
  <clipPath id="pd8f9cb6b19">
   <rect height="302.4" width="669.6" x="61.839063" y="399.114375"/>
  </clipPath>
 </defs>
</svg>
