0000000000000	0
1111111110000	8176
0000000000000	0
0000000000000	0
0000000000000	0
1111111110000	8176
1111111111111	8191
1111111111110	8190
1111111111110	8190
1111111110000	8176
0000000000011	3
0000000001000	8
0000000001100	12
0000000010000	16
0000000010011	19
0000000010110	22
0000000010100	20
0000000010000	16
0000000000111	7
1111111111100	8188
1111111110011	8179
1111111110000	8176
1111111110101	8181
0000000000000	0
0000000001011	11
0000000010000	16
0000000001011	11
0000000000000	0
1111111110101	8181
1111111110000	8176
1111111110101	8181
0000000000000	0
0000000001011	11
0000000010000	16
0000000001011	11
0000000000000	0
1111111110101	8181
1111111110000	8176
1111111110101	8181
0000000000000	0
0000000001011	11
0000000010000	16
0000000001011	11
0000000000000	0
1111111110101	8181
1111111110000	8176
1111111110101	8181
0000000000000	0
0000000001011	11
0000000010000	16
0000000001101	13
0000000000100	4
1111111111001	8185
1111111110000	8176
1111111101101	8173
1111111101100	8172
1111111101111	8175
1111111110000	8176
1111111110001	8177
1111111110000	8176
1111111110001	8177
1111111110000	8176
1111111110001	8177
1111111110000	8176
1111111110001	8177
1111111110000	8176
1111111110001	8177
1111111110000	8176
1111111110001	8177
1111111110000	8176
1111111101111	8175
1111111101100	8172
1111111101101	8173
1111111110000	8176
1111111111001	8185
0000000000100	4
0000000001101	13
0000000010000	16
0000000001011	11
0000000000000	0
1111111110101	8181
1111111110000	8176
1111111110101	8181
0000000000000	0
0000000001011	11
0000000010000	16
0000000001101	13
0000000000100	4
1111111111001	8185
1111111110000	8176
1111111101011	8171
1111111101000	8168
1111111101011	8171
1111111110000	8176
1111111111001	8185
0000000000100	4
0000000001101	13
0000000010000	16
0000000001011	11
0000000000000	0
1111111110101	8181
1111111110000	8176
1111111110101	8181
0000000000000	0
0000000001011	11
0000000010000	16
0000000001011	11
0000000000000	0
1111111110101	8181
1111111110000	8176
1111111110011	8179
1111111111100	8188
0000000000111	7
0000000010000	16
0000000010011	19
0000000010100	20
0000000010001	17
0000000010000	16
0000000001111	15
0000000010000	16
0000000001111	15
0000000010000	16
0000000010001	17
0000000010100	20
0000000010011	19
0000000010000	16
0000000001001	9
0000000000000	0
1111111110111	8183
1111111110000	8176
1111111101011	8171
1111111101000	8168
1111111101011	8171
1111111110000	8176
1111111111001	8185
0000000000100	4
0000000001101	13
0000000010000	16
0000000001011	11
0000000000000	0
1111111110101	8181
1111111110000	8176
1111111110011	8179
1111111111100	8188
0000000000111	7
0000000010000	16
0000000010011	19
0000000010100	20
0000000010001	17
0000000010000	16
0000000010001	17
0000000010100	20
0000000010011	19
0000000010000	16
0000000000111	7
1111111111100	8188
1111111110011	8179
1111111110000	8176
1111111110011	8179
1111111111100	8188
0000000000111	7
0000000010000	16
0000000010011	19
0000000010100	20
0000000010001	17
0000000010000	16
0000000010001	17
0000000010100	20
0000000010011	19
0000000010000	16
0000000001001	9
0000000000000	0
1111111110111	8183
1111111110000	8176
1111111101101	8173
1111111101100	8172
1111111101111	8175
1111111110000	8176
1111111110001	8177
1111111110000	8176
1111111110001	8177
1111111110000	8176
1111111110001	8177
1111111110000	8176
1111111110001	8177
1111111110000	8176
1111111110001	8177
1111111110000	8176
1111111110001	8177
1111111110000	8176
1111111101111	8175
1111111101100	8172
1111111101101	8173
1111111110000	8176
1111111110111	8183
0000000000000	0
0000000001001	9
0000000010000	16
0000000010011	19
0000000010100	20
0000000010001	17
0000000010000	16
0000000010001	17
0000000010100	20
0000000010011	19
0000000010000	16
0000000001001	9
0000000000000	0
1111111110111	8183
1111111110000	8176
1111111101011	8171
1111111101000	8168
1111111101011	8171
1111111110000	8176
1111111110111	8183
0000000000000	0
0000000001001	9
0000000010000	16
0000000010011	19
0000000010100	20
0000000010001	17
0000000010000	16
0000000010001	17
0000000010100	20
0000000010011	19
0000000010000	16
0000000000111	7
1111111111100	8188
1111111110011	8179
1111111110000	8176
1111111110101	8181
0000000000000	0
0000000001011	11
0000000010000	16
0000000001101	13
0000000000100	4
1111111111001	8185
1111111110000	8176
1111111101011	8171
1111111101000	8168
1111111101011	8171
1111111110000	8176
1111111111001	8185
0000000000100	4
0000000001101	13
0000000010000	16
0000000001101	13
0000000000100	4
1111111111001	8185
1111111110000	8176
1111111101011	8171
1111111101000	8168
1111111101011	8171
1111111110000	8176
1111111110111	8183
0000000000000	0
0000000001001	9
0000000010000	16
0000000010011	19
0000000010100	20
0000000010001	17
0000000010000	16
0000000001111	15
0000000010000	16
0000000001111	15
0000000010000	16
0000000010001	17
0000000010100	20
0000000010011	19
0000000010000	16
0000000000111	7
1111111111100	8188
1111111110011	8179
1111111110000	8176
1111111110101	8181
0000000000000	0
0000000001011	11
0000000010000	16
0000000001011	11
0000000000000	0
1111111110101	8181
1111111110000	8176
1111111110011	8179
1111111111100	8188
0000000000111	7
0000000010000	16
0000000010011	19
0000000010100	20
0000000010001	17
0000000010000	16
0000000010001	17
0000000010100	20
0000000010011	19
0000000010000	16
0000000000111	7
1111111111100	8188
1111111110011	8179
1111111110000	8176
1111111110101	8181
0000000000000	0
0000000001011	11
0000000010000	16
0000000001011	11
0000000000000	0
1111111110101	8181
1111111110000	8176
1111111110101	8181
0000000000000	0
0000000001011	11
0000000010000	16
0000000001101	13
0000000000100	4
1111111111001	8185
1111111110000	8176
1111111101101	8173
1111111101100	8172
1111111101111	8175
1111111110000	8176
1111111101111	8175
1111111101100	8172
1111111101101	8173
1111111110000	8176
1111111111001	8185
0000000000100	4
0000000001101	13
0000000010000	16
0000000001101	13
0000000000100	4
1111111111001	8185
1111111110000	8176
1111111101011	8171
1111111101000	8168
1111111101011	8171
1111111110000	8176
1111111111001	8185
0000000000100	4
0000000001101	13
0000000010000	16
0000000001101	13
0000000000100	4
1111111111001	8185
1111111110000	8176
1111111101101	8173
1111111101100	8172
1111111101111	8175
1111111110000	8176
1111111110001	8177
1111111110000	8176
1111111110001	8177
1111111110000	8176
1111111101111	8175
1111111101100	8172
1111111101101	8173
1111111110000	8176
1111111110111	8183
0000000000000	0
0000000001001	9
0000000010000	16
0000000010101	21
0000000011000	24
0000000010101	21
0000000010000	16
0000000001001	9
0000000000000	0
1111111110111	8183
1111111110000	8176
1111111101011	8171
1111111101000	8168
1111111101011	8171
1111111110000	8176
1111111110111	8183
0000000000000	0
0000000001001	9
0000000010000	16
0000000010011	19
0000000010100	20
0000000010001	17
0000000010000	16
0000000010001	17
0000000010100	20
0000000010011	19
0000000010000	16
0000000001001	9
0000000000000	0
1111111110111	8183
1111111110000	8176
1111111101101	8173
1111111101100	8172
1111111101111	8175
1111111110000	8176
1111111110001	8177
1111111110000	8176
1111111110001	8177
1111111110000	8176
1111111101111	8175
1111111101100	8172
1111111101101	8173
1111111110000	8176
1111111111001	8185
0000000000100	4
0000000001101	13
0000000010000	16
0000000001011	11
0000000000000	0
1111111110101	8181
1111111110000	8176
1111111110011	8179
1111111111100	8188
0000000000111	7
0000000010000	16
0000000010011	19
0000000010100	20
0000000010001	17
0000000010000	16
0000000001111	15
0000000010000	16
0000000001111	15
0000000010000	16
0000000010001	17
0000000010100	20
0000000010011	19
0000000010000	16
0000000000111	7
1111111111100	8188
1111111110011	8179
1111111110000	8176
1111111110011	8179
1111111111100	8188
0000000000111	7
0000000010000	16
0000000010101	21
0000000011000	24
0000000010101	21
0000000010000	16
0000000000111	7
1111111111100	8188
1111111110011	8179
1111111110000	8176
1111111110011	8179
1111111111100	8188
0000000000111	7
0000000010000	16
0000000010101	21
0000000011000	24
0000000010101	21
0000000010000	16
0000000001001	9
0000000000000	0
1111111110111	8183
1111111110000	8176
1111111101011	8171
1111111101000	8168
1111111101011	8171
1111111110000	8176
1111111110111	8183
0000000000000	0
0000000001001	9
0000000010000	16
0000000010101	21
0000000011000	24
0000000010101	21
0000000010000	16
0000000000111	7
1111111111100	8188
1111111110011	8179
1111111110000	8176
1111111110101	8181
0000000000000	0
0000000001011	11
0000000010000	16
0000000001101	13
0000000000100	4
1111111111001	8185
1111111110000	8176
1111111101101	8173
1111111101100	8172
1111111101111	8175
1111111110000	8176
1111111110001	8177
1111111110000	8176
1111111110001	8177
1111111110000	8176
1111111101111	8175
1111111101100	8172
1111111101101	8173
1111111110000	8176
1111111110111	8183
0000000000000	0
0000000001001	9
0000000010000	16
0000000010011	19
0000000010100	20
0000000010001	17
0000000010000	16
0000000010001	17
0000000010100	20
0000000010011	19
0000000010000	16
0000000000111	7
1111111111100	8188
1111111110011	8179
1111111110000	8176
1111111110011	8179
1111111111100	8188
0000000000111	7
0000000010000	16
0000000010011	19
0000000010100	20
0000000010001	17
0000000010000	16
0000000001111	15
0000000010000	16
0000000001111	15
0000000010000	16
0000000010001	17
0000000010100	20
0000000010011	19
0000000010000	16
0000000001001	9
0000000000000	0
1111111110111	8183
1111111110000	8176
1111111101101	8173
1111111101100	8172
1111111101111	8175
1111111110000	8176
1111111110001	8177
1111111110000	8176
1111111110001	8177
1111111110000	8176
1111111101111	8175
1111111101100	8172
1111111101101	8173
1111111110000	8176
1111111110111	8183
0000000000000	0
0000000001001	9
0000000010000	16
0000000010011	19
0000000010100	20
0000000010001	17
0000000010000	16
0000000001111	15
0000000010000	16
0000000001111	15
0000000010000	16
0000000001111	15
0000000010000	16
0000000001111	15
0000000010000	16
0000000001111	15
0000000010000	16
0000000001111	15
0000000010000	16
0000000001111	15
0000000010000	16
0000000001111	15
0000000010000	16
0000000001111	15
0000000010000	16
0000000001111	15
0000000010000	16
0000000001111	15
0000000010000	16
0000000001111	15
0000000010000	16
0000000010001	17
0000000010100	20
0000000010011	19
0000000010000	16
0000000001001	9
0000000000000	0
1111111110111	8183
1111111110000	8176
1111111101101	8173
1111111101100	8172
1111111101111	8175
1111111110000	8176
1111111110001	8177
1111111110000	8176
1111111110001	8177
1111111110000	8176
1111111110001	8177
1111111110000	8176
1111111110001	8177
1111111110000	8176
1111111101111	8175
1111111101100	8172
1111111101101	8173
1111111110000	8176
1111111110111	8183
0000000000000	0
0000000001001	9
0000000010000	16
0000000010011	19
0000000010100	20
0000000010001	17
0000000010000	16
0000000001111	15
0000000010000	16
0000000001111	15
0000000010000	16
0000000010001	17
0000000010100	20
0000000010011	19
0000000010000	16
0000000000111	7
1111111111100	8188
1111111110011	8179
1111111110000	8176
1111111110011	8179
1111111111100	8188
0000000000111	7
0000000010000	16
0000000010011	19
0000000010100	20
0000000010001	17
0000000010000	16
0000000001111	15
0000000010000	16
0000000001111	15
0000000010000	16
0000000001111	15
0000000010000	16
0000000001111	15
0000000010000	16
0000000010001	17
0000000010100	20
0000000010011	19
0000000010000	16
0000000001001	9
0000000000000	0
1111111110111	8183
1111111110000	8176
1111111101101	8173
1111111101100	8172
1111111101111	8175
1111111110000	8176
1111111101111	8175
1111111101100	8172
1111111101101	8173
1111111110000	8176
1111111111001	8185
0000000000100	4
0000000001101	13
0000000010000	16
0000000001011	11
0000000000000	0
1111111110101	8181
1111111110000	8176
1111111110011	8179
1111111111100	8188
0000000000111	7
0000000010000	16
0000000010011	19
0000000010100	20
0000000010001	17
0000000010000	16
0000000010001	17
0000000010100	20
0000000010011	19
0000000010000	16
0000000001001	9
0000000000000	0
1111111110111	8183
1111111110000	8176
1111111101011	8171
1111111101000	8168
1111111101011	8171
1111111110000	8176
1111111110111	8183
0000000000000	0
0000000001001	9
0000000010000	16
0000000010101	21
0000000011000	24
0000000010101	21
0000000010000	16
0000000001001	9
0000000000000	0
1111111110111	8183
1111111110000	8176
1111111101011	8171
1111111101000	8168
1111111101011	8171
1111111110000	8176
1111111111001	8185
0000000000100	4
0000000001101	13
0000000010000	16
0000000001101	13
0000000000100	4
1111111111001	8185
1111111110000	8176
1111111101101	8173
1111111101100	8172
1111111101111	8175
1111111110000	8176
1111111110001	8177
1111111110000	8176
1111111110001	8177
1111111110000	8176
1111111110001	8177
1111111110000	8176
1111111110001	8177
1111111110000	8176
1111111101111	8175
1111111101100	8172
1111111101101	8173
1111111110000	8176
1111111111001	8185
0000000000100	4
0000000001101	13
0000000010000	16
0000000001101	13
0000000000100	4
1111111111001	8185
1111111110000	8176
1111111101011	8171
1111111101000	8168
1111111101011	8171
1111111110000	8176
1111111111001	8185
0000000000100	4
0000000001101	13
0000000010000	16
0000000001011	11
0000000000000	0
1111111110101	8181
1111111110000	8176
1111111110101	8181
0000000000000	0
0000000001011	11
0000000010000	16
0000000001101	13
0000000000100	4
1111111111001	8185
1111111110000	8176
1111111101011	8171
1111111101000	8168
1111111101011	8171
1111111110000	8176
1111111110111	8183
0000000000000	0
0000000001001	9
0000000010000	16
0000000010011	19
0000000010100	20
0000000010001	17
0000000010000	16
0000000010001	17
0000000010100	20
0000000010011	19
0000000010000	16
0000000000111	7
1111111111100	8188
1111111110011	8179
1111111110000	8176
1111111110011	8179
1111111111100	8188
0000000000111	7
0000000010000	16
0000000010101	21
0000000011000	24
0000000010101	21
0000000010000	16
0000000000111	7
1111111111100	8188
1111111110011	8179
1111111110000	8176
1111111110101	8181
0000000000000	0
0000000001011	11
0000000010000	16
0000000001101	13
0000000000100	4
1111111111001	8185
1111111110000	8176
1111111101101	8173
1111111101100	8172
1111111101111	8175
1111111110000	8176
1111111101111	8175
1111111101100	8172
1111111101101	8173
1111111110000	8176
1111111110111	8183
0000000000000	0
0000000001001	9
0000000010000	16
0000000010011	19
0000000010100	20
0000000010001	17
0000000010000	16
0000000001111	15
0000000010000	16
0000000001111	15
0000000010000	16
0000000010001	17
0000000010100	20
0000000010011	19
0000000010000	16
0000000001001	9
0000000000000	0
1111111110111	8183
1111111110000	8176
1111111101011	8171
1111111101000	8168
1111111101011	8171
1111111110000	8176
1111111110111	8183
0000000000000	0
0000000001001	9
0000000010000	16
0000000010011	19
0000000010100	20
0000000010001	17
0000000010000	16
0000000001111	15
0000000010000	16
0000000001111	15
0000000010000	16
0000000001111	15
0000000010000	16
0000000001111	15
0000000010000	16
0000000010001	17
0000000010100	20
0000000010011	19
0000000010000	16
0000000001001	9
0000000000000	0
1111111110111	8183
1111111110000	8176
1111111101011	8171
1111111101000	8168
1111111101011	8171
1111111110000	8176
1111111110111	8183
0000000000000	0
0000000001001	9
0000000010000	16
0000000010101	21
0000000011000	24
0000000010101	21
0000000010000	16
0000000000111	7
1111111111100	8188
1111111110011	8179
1111111110000	8176
1111111110011	8179
1111111111100	8188
0000000000111	7
0000000010000	16
0000000010101	21
0000000011000	24
0000000010101	21
0000000010000	16
0000000001001	9
0000000000000	0
1111111110111	8183
1111111110000	8176
1111111101101	8173
1111111101100	8172
1111111101111	8175
1111111110000	8176
1111111101111	8175
1111111101100	8172
1111111101101	8173
1111111110000	8176
1111111111001	8185
0000000000100	4
0000000001101	13
0000000010000	16
0000000001011	11
0000000000000	0
1111111110101	8181
1111111110000	8176
1111111110101	8181
0000000000000	0
0000000001011	11
0000000010000	16
0000000001011	11
0000000000000	0
1111111110101	8181
1111111110000	8176
1111111110101	8181
0000000000000	0
0000000001011	11
0000000010000	16
0000000001101	13
0000000000100	4
1111111111001	8185
1111111110000	8176
1111111101011	8171
1111111101000	8168
1111111101011	8171
1111111110000	8176
1111111111001	8185
0000000000100	4
0000000001101	13
0000000010000	16
0000000001101	13
0000000000100	4
1111111111001	8185
1111111110000	8176
1111111101101	8173
1111111101100	8172
1111111101111	8175
1111111110000	8176
1111111101111	8175
1111111101100	8172
1111111101101	8173
1111111110000	8176
1111111110111	8183
0000000000000	0
0000000001001	9
0000000010000	16
0000000010011	19
0000000010100	20
0000000010001	17
0000000010000	16
0000000010001	17
0000000010100	20
0000000010011	19
0000000010000	16
0000000001001	9
0000000000000	0
1111111110111	8183
1111111110000	8176
1111111101101	8173
1111111101100	8172
1111111101111	8175
1111111110000	8176
1111111101111	8175
1111111101100	8172
1111111101101	8173
1111111110000	8176
1111111110111	8183
0000000000000	0
0000000001001	9
0000000010000	16
0000000010101	21
0000000011000	24
0000000010101	21
0000000010000	16
0000000000111	7
1111111111100	8188
1111111110011	8179
1111111110000	8176
1111111110011	8179
1111111111100	8188
0000000000111	7
0000000010000	16
0000000010101	21
0000000011000	24
0000000010101	21
0000000010000	16
0000000000111	7
1111111111100	8188
1111111110011	8179
1111111110000	8176
1111111110101	8181
0000000000000	0
0000000001011	11
0000000010000	16
0000000001011	11
0000000000000	0
1111111110101	8181
1111111110000	8176
1111111110101	8181
0000000000000	0
0000000001011	11
0000000010000	16
0000000001011	11
0000000000000	0
1111111110101	8181
1111111110000	8176
1111111110011	8179
1111111111100	8188
0000000000111	7
0000000010000	16
0000000010011	19
0000000010100	20
0000000010001	17
0000000010000	16
0000000010001	17
0000000010100	20
0000000010011	19
0000000010000	16
0000000001001	9
0000000000000	0
1111111110111	8183
1111111110000	8176
1111111101101	8173
1111111101100	8172
1111111101111	8175
1111111110000	8176
1111111101111	8175
1111111101100	8172
1111111101101	8173
1111111110000	8176
1111111111001	8185
0000000000100	4
0000000001101	13
0000000010000	16
0000000001101	13
0000000000100	4
1111111111001	8185
1111111110000	8176
1111111101011	8171
1111111101000	8168
1111111101011	8171
1111111110000	8176
1111111110111	8183
0000000000000	0
0000000001001	9
0000000010000	16
0000000010101	21
0000000011000	24
0000000010101	21
0000000010000	16
0000000001001	9
0000000000000	0
1111111110111	8183
1111111110000	8176
1111111101101	8173
1111111101100	8172
1111111101111	8175
1111111110000	8176
1111111101111	8175
1111111101100	8172
1111111101101	8173
1111111110000	8176
1111111111001	8185
0000000000100	4
0000000001101	13
0000000010000	16
0000000001101	13
0000000000100	4
1111111111001	8185
1111111110000	8176
1111111101101	8173
1111111101100	8172
1111111101111	8175
1111111110000	8176
1111111101111	8175
1111111101100	8172
1111111101101	8173
1111111110000	8176
1111111111001	8185
0000000000100	4
0000000001101	13
0000000010000	16
0000000001101	13
0000000000100	4
1111111111001	8185
1111111110000	8176
1111111101101	8173
1111111101100	8172
1111111101111	8175
1111111110000	8176
1111111110001	8177
1111111110000	8176
1111111110001	8177
1111111110000	8176
1111111110001	8177
1111111110000	8176
1111111110001	8177
1111111110000	8176
1111111110001	8177
1111111110000	8176
1111111110001	8177
1111111110000	8176
1111111110001	8177
1111111110000	8176
1111111110001	8177
1111111110000	8176
1111111110001	8177
1111111110000	8176
1111111110001	8177
1111111110000	8176
1111111101111	8175
1111111101100	8172
1111111101101	8173
1111111110000	8176
1111111111001	8185
0000000000100	4
0000000001101	13
0000000010000	16
0000000001101	13
0000000000100	4
1111111111001	8185
1111111110000	8176
1111111101101	8173
1111111101100	8172
1111111101111	8175
1111111110000	8176
1111111110001	8177
1111111110000	8176
1111111110001	8177
1111111110000	8176
1111111101111	8175
1111111101100	8172
1111111101101	8173
1111111110000	8176
1111111111001	8185
0000000000100	4
0000000001101	13
0000000010000	16
0000000001101	13
0000000000100	4
1111111111001	8185
1111111110000	8176
1111111101101	8173
1111111101100	8172
1111111101111	8175
1111111110000	8176
1111111101111	8175
1111111101100	8172
1111111101101	8173
1111111110000	8176
1111111110111	8183
0000000000000	0
0000000001001	9
0000000010000	16
0000000010101	21
0000000011000	24
0000000010101	21
0000000010000	16
0000000001001	9
0000000000000	0
1111111110111	8183
1111111110000	8176
1111111101101	8173
1111111101100	8172
1111111101111	8175
1111111110000	8176
1111111110001	8177
1111111110000	8176
1111111110001	8177
1111111110000	8176
1111111101111	8175
1111111101100	8172
1111111101101	8173
1111111110000	8176
1111111111001	8185
0000000000100	4
0000000001101	13
0000000010000	16
0000000001101	13
0000000000100	4
1111111111001	8185
1111111110000	8176
1111111101011	8171
1111111101000	8168
1111111101011	8171
1111111110000	8176
1111111110111	8183
0000000000000	0
0000000001001	9
0000000010000	16
0000000010011	19
0000000010100	20
0000000010001	17
0000000010000	16
0000000010001	17
0000000010100	20
0000000010011	19
0000000010000	16
0000000001001	9
0000000000000	0
1111111110111	8183
1111111110000	8176
1111111101011	8171
1111111101000	8168
1111111101011	8171
1111111110000	8176
1111111111001	8185
0000000000100	4
0000000001101	13
0000000010000	16
0000000001011	11
0000000000000	0
1111111110101	8181
1111111110000	8176
1111111110101	8181
0000000000000	0
0000000001011	11
0000000010000	16
0000000001011	11
0000000000000	0
1111111110101	8181
1111111110000	8176
1111111110101	8181
0000000000000	0
0000000001011	11
0000000010000	16
0000000001011	11
0000000000000	0
1111111110101	8181
1111111110000	8176
1111111110011	8179
1111111111100	8188
0000000000111	7
0000000010000	16
0000000010101	21
0000000011000	24
0000000010101	21
0000000010000	16
0000000001001	9
0000000000000	0
1111111110111	8183
1111111110000	8176
1111111101101	8173
1111111101100	8172
1111111101111	8175
1111111110000	8176
1111111110001	8177
1111111110000	8176
1111111110001	8177
1111111110000	8176
1111111101111	8175
1111111101100	8172
1111111101101	8173
1111111110000	8176
1111111110111	8183
0000000000000	0
0000000001001	9
0000000010000	16
0000000010101	21
0000000011000	24
0000000010101	21
0000000010000	16
0000000000111	7
1111111111100	8188
1111111110011	8179
1111111110000	8176
1111111110011	8179
1111111111100	8188
0000000000111	7
0000000010000	16
0000000010011	19
0000000010100	20
0000000010001	17
0000000010000	16
0000000001111	15
0000000010000	16
0000000001111	15
0000000010000	16
0000000010001	17
0000000010100	20
0000000010011	19
0000000010000	16
0000000000111	7
1111111111100	8188
1111111110011	8179
1111111110000	8176
1111111110101	8181
0000000000000	0
0000000001011	11
0000000010000	16
0000000001101	13
0000000000100	4
1111111111001	8185
1111111110000	8176
1111111101011	8171
1111111101000	8168
1111111101011	8171
1111111110000	8176
1111111110111	8183
0000000000000	0
0000000001001	9
0000000010000	16
0000000010101	21
0000000011000	24
0000000010101	21
0000000010000	16
0000000000111	7
1111111111100	8188
1111111110011	8179
1111111110000	8176
1111111110011	8179
1111111111100	8188
0000000000111	7
0000000010000	16
0000000010011	19
0000000010100	20
0000000010001	17
0000000010000	16
0000000010001	17
0000000010100	20
0000000010011	19
0000000010000	16
0000000001001	9
0000000000000	0
1111111110111	8183
1111111110000	8176
1111111101011	8171
1111111101000	8168
1111111101011	8171
1111111110000	8176
1111111111001	8185
0000000000100	4
0000000001101	13
0000000010000	16
0000000001101	13
0000000000100	4
1111111111001	8185
1111111110000	8176
1111111101101	8173
1111111101100	8172
1111111101111	8175
1111111110000	8176
1111111101111	8175
1111111101100	8172
1111111101101	8173
1111111110000	8176
1111111111001	8185
0000000000100	4
0000000001101	13
0000000010000	16
0000000001011	11
0000000000000	0
1111111110101	8181
1111111110000	8176
1111111110101	8181
0000000000000	0
0000000001011	11
0000000010000	16
0000000001101	13
0000000000100	4
1111111111001	8185
1111111110000	8176
1111111101101	8173
1111111101100	8172
1111111101111	8175
1111111110000	8176
1111111110001	8177
1111111110000	8176
1111111110001	8177
1111111110000	8176
1111111101111	8175
1111111101100	8172
1111111101101	8173
1111111110000	8176
1111111111001	8185
0000000000100	4
0000000001101	13
0000000010000	16
0000000001011	11
0000000000000	0
1111111110101	8181
1111111110000	8176
1111111110101	8181
0000000000000	0
0000000001011	11
0000000010000	16
0000000001011	11
0000000000000	0
1111111110101	8181
1111111110000	8176
1111111110011	8179
1111111111100	8188
0000000000111	7
0000000010000	16
0000000010101	21
0000000011000	24
0000000010101	21
0000000010000	16
0000000000111	7
1111111111100	8188
1111111110011	8179
1111111110000	8176
1111111110101	8181
0000000000000	0
0000000001011	11
0000000010000	16
0000000001101	13
0000000000100	4
1111111111001	8185
1111111110000	8176
1111111101011	8171
1111111101000	8168
1111111101011	8171
1111111110000	8176
1111111110111	8183
0000000000000	0
0000000001001	9
0000000010000	16
0000000010011	19
0000000010100	20
0000000010001	17
0000000010000	16
0000000001111	15
0000000010000	16
0000000001111	15
0000000010000	16
0000000001111	15
0000000010000	16
0000000001111	15
0000000010000	16
0000000001111	15
0000000010000	16
0000000001111	15
0000000010000	16
0000000010001	17
0000000010100	20
0000000010011	19
0000000010000	16
0000000000111	7
1111111111100	8188
1111111110011	8179
1111111110000	8176
1111111110011	8179
1111111111100	8188
0000000000111	7
0000000010000	16
0000000010101	21
0000000011000	24
0000000010101	21
0000000010000	16
0000000001001	9
0000000000000	0
1111111110111	8183
1111111110000	8176
1111111101011	8171
1111111101000	8168
1111111101011	8171
1111111110000	8176
1111111111001	8185
0000000000100	4
0000000001101	13
0000000010000	16
0000000001101	13
0000000000100	4
1111111111001	8185
1111111110000	8176
1111111101011	8171
1111111101000	8168
1111111101011	8171
1111111110000	8176
1111111111001	8185
0000000000100	4
0000000001101	13
0000000010000	16
0000000001101	13
0000000000100	4
1111111111001	8185
1111111110000	8176
1111111101011	8171
1111111101000	8168
1111111101011	8171
1111111110000	8176
1111111111001	8185
0000000000100	4
0000000001101	13
0000000010000	16
0000000001011	11
0000000000000	0
1111111110101	8181
1111111110000	8176
1111111110011	8179
1111111111100	8188
0000000000111	7
0000000010000	16
0000000010101	21
0000000011000	24
0000000010101	21
0000000010000	16
0000000000111	7
1111111111100	8188
1111111110011	8179
1111111110000	8176
1111111110011	8179
1111111111100	8188
0000000000111	7
0000000010000	16
0000000010011	19
0000000010100	20
0000000010001	17
0000000010000	16
0000000001111	15
0000000010000	16
0000000001111	15
0000000010000	16
0000000001111	15
0000000010000	16
0000000001111	15
0000000010000	16
0000000001111	15
0000000010000	16
0000000001111	15
0000000010000	16
0000000010001	17
0000000010100	20
0000000010011	19
0000000010000	16
0000000001001	9
0000000000000	0
1111111110111	8183
1111111110000	8176
1111111101011	8171
1111111101000	8168
1111111101011	8171
1111111110000	8176
1111111111001	8185
0000000000100	4
0000000001101	13
0000000010000	16
0000000001101	13
0000000000100	4
1111111111001	8185
1111111110000	8176
1111111101011	8171
1111111101000	8168
1111111101011	8171
1111111110000	8176
1111111110111	8183
0000000000000	0
0000000001001	9
0000000010000	16
0000000010101	21
0000000011000	24
0000000010101	21
0000000010000	16
0000000000111	7
1111111111100	8188
1111111110011	8179
1111111110000	8176
1111111110101	8181
0000000000000	0
0000000001011	11
0000000010000	16
0000000001011	11
0000000000000	0
1111111110101	8181
1111111110000	8176
1111111110101	8181
0000000000000	0
0000000001011	11
0000000010000	16
0000000001101	13
0000000000100	4
1111111111001	8185
1111111110000	8176
1111111101011	8171
1111111101000	8168
1111111101011	8171
1111111110000	8176
1111111110111	8183
0000000000000	0
0000000001001	9
0000000010000	16
0000000010101	21
0000000011000	24
0000000010101	21
0000000010000	16
0000000001001	9
0000000000000	0
1111111110111	8183
1111111110000	8176
1111111101011	8171
1111111101000	8168
1111111101011	8171
1111111110000	8176
1111111110111	8183
0000000000000	0
0000000001001	9
0000000010000	16
0000000010101	21
0000000011000	24
0000000010101	21
0000000010000	16
0000000001001	9
0000000000000	0
1111111110111	8183
1111111110000	8176
1111111101101	8173
1111111101100	8172
1111111101111	8175
1111111110000	8176
1111111110001	8177
1111111110000	8176
1111111110001	8177
1111111110000	8176
1111111110001	8177
1111111110000	8176
1111111110001	8177
1111111110000	8176
1111111110001	8177
1111111110000	8176
1111111110001	8177
1111111110000	8176
1111111110001	8177
1111111110000	8176
1111111110001	8177
1111111110000	8176
1111111101111	8175
1111111101100	8172
1111111101101	8173
1111111110000	8176
1111111110111	8183
0000000000000	0
0000000001001	9
0000000010000	16
0000000010101	21
0000000011000	24
0000000010101	21
0000000010000	16
0000000001001	9
0000000000000	0
1111111110111	8183
1111111110000	8176
1111111101101	8173
1111111101100	8172
1111111101111	8175
1111111110000	8176
1111111101111	8175
1111111101100	8172
1111111101101	8173
1111111110000	8176
1111111110111	8183
0000000000000	0
0000000001001	9
0000000010000	16
0000000010101	21
0000000011000	24
0000000010101	21
0000000010000	16
0000000001001	9
0000000000000	0
1111111110111	8183
1111111110000	8176
1111111101011	8171
1111111101000	8168
1111111101011	8171
1111111110000	8176
1111111111001	8185
0000000000100	4
0000000001101	13
0000000010000	16
0000000001011	11
0000000000000	0
1111111110101	8181
1111111110000	8176
1111111110101	8181
0000000000000	0
0000000001011	11
0000000010000	16
0000000001101	13
0000000000100	4
1111111111001	8185
1111111110000	8176
1111111101101	8173
1111111101100	8172
1111111101111	8175
1111111110000	8176
1111111101111	8175
1111111101100	8172
1111111101101	8173
1111111110000	8176
1111111110111	8183
0000000000000	0
0000000001001	9
0000000010000	16
0000000010101	21
0000000011000	24
0000000010101	21
0000000010000	16
0000000000111	7
1111111111100	8188
1111111110011	8179
1111111110000	8176
1111111110101	8181
0000000000000	0
0000000001011	11
0000000010000	16
0000000001101	13
0000000000100	4
1111111111001	8185
1111111110000	8176
1111111101011	8171
1111111101000	8168
1111111101011	8171
1111111110000	8176
1111111111001	8185
0000000000100	4
0000000001101	13
0000000010000	16
0000000001011	11
0000000000000	0
1111111110101	8181
1111111110000	8176
1111111110011	8179
1111111111100	8188
0000000000111	7
0000000010000	16
0000000010011	19
0000000010100	20
0000000010001	17
0000000010000	16
0000000001111	15
0000000010000	16
0000000001111	15
0000000010000	16
0000000001111	15
0000000010000	16
0000000001111	15
0000000010000	16
0000000001111	15
0000000010000	16
0000000001111	15
0000000010000	16
0000000001111	15
0000000010000	16
0000000001111	15
0000000010000	16
0000000010001	17
0000000010100	20
0000000010011	19
0000000010000	16
0000000000111	7
1111111111100	8188
1111111110011	8179
1111111110000	8176
1111111110101	8181
0000000000000	0
0000000001011	11
0000000010000	16
0000000001101	13
0000000000100	4
1111111111001	8185
1111111110000	8176
1111111101101	8173
1111111101100	8172
1111111101111	8175
1111111110000	8176
1111111101111	8175
1111111101100	8172
1111111101101	8173
1111111110000	8176
1111111111001	8185
0000000000100	4
0000000001101	13
0000000010000	16
0000000001011	11
0000000000000	0
1111111110101	8181
1111111110000	8176
1111111110011	8179
1111111111100	8188
0000000000111	7
0000000010000	16
0000000010101	21
0000000011000	24
0000000010101	21
0000000010000	16
0000000001001	9
0000000000000	0
1111111110111	8183
1111111110000	8176
1111111101101	8173
1111111101100	8172
1111111101111	8175
1111111110000	8176
1111111101111	8175
1111111101100	8172
1111111101101	8173
1111111110000	8176
1111111110111	8183
0000000000000	0
0000000001001	9
0000000010000	16
0000000010011	19
0000000010100	20
0000000010001	17
0000000010000	16
0000000010001	17
0000000010100	20
0000000010011	19
0000000010000	16
0000000000111	7
1111111111100	8188
1111111110011	8179
1111111110000	8176
1111111110101	8181
0000000000000	0
0000000001011	11
0000000010000	16
0000000001011	11
0000000000000	0
1111111110101	8181
1111111110000	8176
1111111110011	8179
1111111111100	8188
0000000000111	7
0000000010000	16
0000000010101	21
0000000011000	24
0000000010101	21
0000000010000	16
0000000001001	9
0000000000000	0
1111111110111	8183
1111111110000	8176
1111111101011	8171
1111111101000	8168
1111111101011	8171
1111111110000	8176
1111111111001	8185
0000000000100	4
0000000001101	13
0000000010000	16
0000000001011	11
0000000000000	0
1111111110101	8181
1111111110000	8176
1111111110011	8179
1111111111100	8188
0000000000111	7
0000000010000	16
0000000010101	21
0000000011000	24
0000000010101	21
0000000010000	16
0000000001001	9
0000000000000	0
1111111110111	8183
1111111110000	8176
1111111101011	8171
1111111101000	8168
1111111101011	8171
1111111110000	8176
1111111110111	8183
0000000000000	0
0000000001001	9
0000000010000	16
0000000010011	19
0000000010100	20
0000000010001	17
0000000010000	16
0000000001111	15
0000000010000	16
0000000001111	15
0000000010000	16
0000000010001	17
0000000010100	20
0000000010011	19
0000000010000	16
0000000001001	9
0000000000000	0
1111111110111	8183
1111111110000	8176
1111111101101	8173
1111111101100	8172
1111111101111	8175
1111111110000	8176
1111111101111	8175
1111111101100	8172
1111111101101	8173
1111111110000	8176
1111111110111	8183
0000000000000	0
0000000001001	9
0000000010000	16
0000000010011	19
0000000010100	20
0000000010001	17
0000000010000	16
0000000001111	15
0000000010000	16
0000000001111	15
0000000010000	16
0000000001111	15
0000000010000	16
0000000001111	15
0000000010000	16
0000000010001	17
0000000010100	20
0000000010011	19
0000000010000	16
0000000000111	7
1111111111100	8188
1111111110011	8179
1111111110000	8176
1111111110011	8179
1111111111100	8188
0000000000111	7
0000000010000	16
0000000010011	19
0000000010100	20
0000000010001	17
0000000010000	16
0000000010001	17
0000000010100	20
0000000010011	19
0000000010000	16
0000000000111	7
1111111111100	8188
1111111110011	8179
1111111110000	8176
1111111110101	8181
0000000000000	0
0000000001011	11
0000000010000	16
0000000001101	13
0000000000100	4
1111111111001	8185
1111111110000	8176
1111111101101	8173
1111111101100	8172
1111111101111	8175
1111111110000	8176
1111111110001	8177
1111111110000	8176
1111111110001	8177
1111111110000	8176
1111111110001	8177
1111111110000	8176
1111111110001	8177
1111111110000	8176
1111111101111	8175
1111111101100	8172
1111111101101	8173
1111111110000	8176
1111111110111	8183
0000000000000	0
0000000001001	9
0000000010000	16
0000000010101	21
0000000011000	24
0000000010101	21
0000000010000	16
0000000000111	7
1111111111100	8188
1111111110011	8179
1111111110000	8176
1111111110101	8181
0000000000000	0
0000000001011	11
0000000010000	16
0000000001011	11
0000000000000	0
1111111110101	8181
1111111110000	8176
1111111110011	8179
1111111111100	8188
0000000000111	7
0000000010000	16
0000000010101	21
0000000011000	24
0000000010101	21
0000000010000	16
0000000000111	7
1111111111100	8188
1111111110011	8179
1111111110000	8176
1111111110011	8179
1111111111100	8188
0000000000111	7
0000000010000	16
0000000010101	21
0000000011000	24
0000000010101	21
0000000010000	16
0000000000111	7
1111111111100	8188
1111111110011	8179
1111111110000	8176
1111111110011	8179
1111111111100	8188
0000000000111	7
0000000010000	16
0000000010011	19
0000000010100	20
0000000010001	17
0000000010000	16
0000000010001	17
0000000010100	20
0000000010011	19
0000000010000	16
0000000000111	7
1111111111100	8188
1111111110011	8179
1111111110000	8176
1111111110011	8179
1111111111100	8188
0000000000111	7
0000000010000	16
0000000010101	21
0000000011000	24
0000000010101	21
0000000010000	16
0000000001001	9
0000000000000	0
1111111110111	8183
1111111110000	8176
1111111101101	8173
1111111101100	8172
1111111101111	8175
1111111110000	8176
1111111110001	8177
1111111110000	8176
1111111110001	8177
1111111110000	8176
1111111110001	8177
1111111110000	8176
1111111110001	8177
1111111110000	8176
1111111101111	8175
1111111101100	8172
1111111101101	8173
1111111110000	8176
1111111111001	8185
0000000000100	4
0000000001101	13
0000000010000	16
0000000001011	11
0000000000000	0
1111111110101	8181
1111111110000	8176
1111111110011	8179
1111111111100	8188
0000000000111	7
0000000010000	16
0000000010101	21
0000000011000	24
0000000010101	21
0000000010000	16
0000000000111	7
1111111111100	8188
1111111110011	8179
1111111110000	8176
1111111110101	8181
0000000000000	0
0000000001011	11
0000000010000	16
0000000001011	11
0000000000000	0
1111111110101	8181
1111111110000	8176
1111111110011	8179
1111111111100	8188
0000000000111	7
0000000010000	16
0000000010011	19
0000000010100	20
0000000010001	17
0000000010000	16
0000000001111	15
0000000010000	16
0000000001111	15
0000000010000	16
0000000001111	15
0000000010000	16
0000000001111	15
0000000010000	16
0000000010001	17
0000000010100	20
0000000010011	19
0000000010000	16
0000000000111	7
1111111111100	8188
1111111110011	8179
1111111110000	8176
1111111110101	8181
0000000000000	0
0000000001011	11
0000000010000	16
0000000001011	11
0000000000000	0
1111111110101	8181
1111111110000	8176
1111111110101	8181
0000000000000	0
0000000001011	11
0000000010000	16
0000000001011	11
0000000000000	0
1111111110101	8181
1111111110000	8176
1111111110101	8181
0000000000000	0
0000000001011	11
0000000010000	16
0000000001011	11
0000000000000	0
1111111110101	8181
1111111110000	8176
1111111110101	8181
0000000000000	0
0000000001011	11
0000000010000	16
0000000001101	13
0000000000100	4
1111111111001	8185
1111111110000	8176
1111111101101	8173
1111111101100	8172
1111111101111	8175
1111111110000	8176
1111111110001	8177
1111111110000	8176
1111111110001	8177
1111111110000	8176
1111111110001	8177
1111111110000	8176
1111111110001	8177
1111111110000	8176
1111111110001	8177
1111111110000	8176
1111111110001	8177
1111111110000	8176
1111111101111	8175
1111111101100	8172
1111111101101	8173
1111111110000	8176
1111111111001	8185
0000000000100	4
0000000001101	13
0000000010000	16
0000000001011	11
0000000000000	0
1111111110101	8181
1111111110000	8176
1111111110101	8181
0000000000000	0
0000000001011	11
0000000010000	16
0000000001101	13
0000000000100	4
1111111111001	8185
1111111110000	8176
1111111101011	8171
1111111101000	8168
1111111101011	8171
1111111110000	8176
1111111111001	8185
0000000000100	4
0000000001101	13
0000000010000	16
0000000001011	11
0000000000000	0
1111111110101	8181
1111111110000	8176
1111111110101	8181
0000000000000	0
0000000001011	11
0000000010000	16
0000000001011	11
0000000000000	0
1111111110101	8181
1111111110000	8176
1111111110011	8179
1111111111100	8188
0000000000111	7
0000000010000	16
0000000010011	19
0000000010100	20
0000000010001	17
0000000010000	16
0000000001111	15
0000000010000	16
0000000001111	15
0000000010000	16
0000000010001	17
0000000010100	20
0000000010011	19
0000000010000	16
0000000001001	9
0000000000000	0
1111111110111	8183
1111111110000	8176
1111111101011	8171
1111111101000	8168
1111111101011	8171
1111111110000	8176
1111111111001	8185
0000000000100	4
0000000001101	13
0000000010000	16
0000000001011	11
0000000000000	0
1111111110101	8181
1111111110000	8176
1111111110011	8179
1111111111100	8188
0000000000111	7
0000000010000	16
0000000010011	19
0000000010100	20
0000000010001	17
0000000010000	16
0000000010001	17
0000000010100	20
0000000010011	19
0000000010000	16
0000000000111	7
1111111111100	8188
1111111110011	8179
1111111110000	8176
1111111110011	8179
1111111111100	8188
0000000000111	7
0000000010000	16
0000000010011	19
0000000010100	20
0000000010001	17
0000000010000	16
0000000010001	17
0000000010100	20
0000000010011	19
0000000010000	16
0000000001001	9
0000000000000	0
1111111110111	8183
1111111110000	8176
1111111101101	8173
1111111101100	8172
1111111101111	8175
1111111110000	8176
1111111110001	8177
1111111110000	8176
1111111110001	8177
1111111110000	8176
1111111110001	8177
1111111110000	8176
1111111110001	8177
1111111110000	8176
1111111110001	8177
1111111110000	8176
1111111110001	8177
1111111110000	8176
1111111101111	8175
1111111101100	8172
1111111101101	8173
1111111110000	8176
1111111110111	8183
0000000000000	0
0000000001001	9
0000000010000	16
0000000010011	19
0000000010100	20
0000000010001	17
0000000010000	16
0000000010001	17
0000000010100	20
0000000010011	19
0000000010000	16
0000000001001	9
0000000000000	0
1111111110111	8183
1111111110000	8176
1111111101011	8171
1111111101000	8168
1111111101011	8171
1111111110000	8176
1111111110111	8183
0000000000000	0
0000000001001	9
0000000010000	16
0000000010011	19
0000000010100	20
0000000010001	17
0000000010000	16
0000000010001	17
0000000010100	20
0000000010011	19
0000000010000	16
0000000000111	7
1111111111100	8188
1111111110011	8179
1111111110000	8176
1111111110101	8181
0000000000000	0
0000000001011	11
0000000010000	16
0000000001101	13
0000000000100	4
1111111111001	8185
1111111110000	8176
1111111101011	8171
1111111101000	8168
1111111101011	8171
1111111110000	8176
1111111111001	8185
0000000000100	4
0000000001101	13
0000000010000	16
0000000001101	13
0000000000100	4
1111111111001	8185
1111111110000	8176
1111111101011	8171
1111111101000	8168
1111111101011	8171
1111111110000	8176
1111111110111	8183
0000000000000	0
0000000001001	9
0000000010000	16
0000000010011	19
0000000010100	20
0000000010001	17
0000000010000	16
0000000001111	15
0000000010000	16
0000000001111	15
0000000010000	16
0000000010001	17
0000000010100	20
0000000010011	19
0000000010000	16
0000000000111	7
1111111111100	8188
1111111110011	8179
1111111110000	8176
1111111110101	8181
0000000000000	0
0000000001011	11
0000000010000	16
0000000001011	11
0000000000000	0
1111111110101	8181
1111111110000	8176
1111111110011	8179
1111111111100	8188
0000000000111	7
0000000010000	16
0000000010011	19
0000000010100	20
0000000010001	17
0000000010000	16
0000000010001	17
0000000010100	20
0000000010011	19
0000000010000	16
0000000000111	7
1111111111100	8188
1111111110011	8179
1111111110000	8176
1111111110101	8181
0000000000000	0
0000000001011	11
0000000010000	16
0000000001011	11
0000000000000	0
1111111110101	8181
1111111110000	8176
1111111110101	8181
0000000000000	0
0000000001011	11
0000000010000	16
0000000001101	13
0000000000100	4
1111111111001	8185
1111111110000	8176
1111111101101	8173
1111111101100	8172
1111111101111	8175
1111111110000	8176
1111111101111	8175
1111111101100	8172
1111111101101	8173
1111111110000	8176
1111111111001	8185
0000000000100	4
0000000001101	13
0000000010000	16
0000000001101	13
0000000000100	4
1111111111001	8185
1111111110000	8176
1111111101011	8171
1111111101000	8168
1111111101011	8171
1111111110000	8176
1111111111001	8185
0000000000100	4
0000000001101	13
0000000010000	16
0000000001101	13
0000000000100	4
1111111111001	8185
1111111110000	8176
1111111101101	8173
1111111101100	8172
1111111101111	8175
1111111110000	8176
1111111110001	8177
1111111110000	8176
1111111110001	8177
1111111110000	8176
1111111101111	8175
1111111101100	8172
1111111101101	8173
1111111110000	8176
1111111110111	8183
0000000000000	0
0000000001001	9
0000000010000	16
0000000010101	21
0000000011000	24
0000000010101	21
0000000010000	16
0000000001001	9
0000000000000	0
1111111110111	8183
1111111110000	8176
1111111101011	8171
1111111101000	8168
1111111101011	8171
1111111110000	8176
1111111110111	8183
0000000000000	0
0000000001001	9
0000000010000	16
0000000010011	19
0000000010100	20
0000000010001	17
0000000010000	16
0000000010001	17
0000000010100	20
0000000010011	19
0000000010000	16
0000000001001	9
0000000000000	0
1111111110111	8183
1111111110000	8176
1111111101101	8173
1111111101100	8172
1111111101111	8175
1111111110000	8176
1111111110001	8177
1111111110000	8176
1111111110001	8177
1111111110000	8176
1111111101111	8175
1111111101100	8172
1111111101101	8173
1111111110000	8176
1111111111001	8185
0000000000100	4
0000000001101	13
0000000010000	16
0000000001011	11
0000000000000	0
1111111110101	8181
1111111110000	8176
1111111110011	8179
1111111111100	8188
0000000000111	7
0000000010000	16
0000000010011	19
0000000010100	20
0000000010001	17
0000000010000	16
0000000001111	15
0000000010000	16
0000000001111	15
0000000010000	16
0000000010001	17
0000000010100	20
0000000010011	19
0000000010000	16
0000000000111	7
1111111111100	8188
1111111110011	8179
1111111110000	8176
1111111110011	8179
1111111111100	8188
0000000000111	7
0000000010000	16
0000000010101	21
0000000011000	24
0000000010101	21
0000000010000	16
0000000000111	7
1111111111100	8188
1111111110011	8179
1111111110000	8176
1111111110011	8179
1111111111100	8188
0000000000111	7
0000000010000	16
0000000010101	21
0000000011000	24
0000000010101	21
0000000010000	16
0000000001001	9
0000000000000	0
1111111110111	8183
1111111110000	8176
1111111101011	8171
1111111101000	8168
1111111101011	8171
1111111110000	8176
1111111110111	8183
0000000000000	0
0000000001001	9
0000000010000	16
0000000010101	21
0000000011000	24
0000000010101	21
0000000010000	16
0000000000111	7
1111111111100	8188
1111111110011	8179
1111111110000	8176
1111111110101	8181
0000000000000	0
0000000001011	11
0000000010000	16
0000000001101	13
0000000000100	4
1111111111001	8185
1111111110000	8176
1111111101101	8173
1111111101100	8172
1111111101111	8175
1111111110000	8176
1111111110001	8177
1111111110000	8176
1111111110001	8177
1111111110000	8176
1111111101111	8175
1111111101100	8172
1111111101101	8173
1111111110000	8176
1111111110111	8183
0000000000000	0
0000000001001	9
0000000010000	16
0000000010011	19
0000000010100	20
0000000010001	17
0000000010000	16
0000000010001	17
0000000010100	20
0000000010011	19
0000000010000	16
0000000000111	7
1111111111100	8188
1111111110011	8179
1111111110000	8176
1111111110011	8179
1111111111100	8188
0000000000111	7
0000000010000	16
0000000010011	19
0000000010100	20
0000000010001	17
0000000010000	16
0000000001111	15
0000000010000	16
0000000001111	15
0000000010000	16
0000000010001	17
0000000010100	20
0000000010011	19
0000000010000	16
0000000001001	9
0000000000000	0
1111111110111	8183
1111111110000	8176
1111111101101	8173
1111111101100	8172
1111111101111	8175
1111111110000	8176
1111111110001	8177
1111111110000	8176
1111111110001	8177
1111111110000	8176
1111111101111	8175
1111111101100	8172
1111111101101	8173
1111111110000	8176
1111111110111	8183
0000000000000	0
0000000001001	9
0000000010000	16
0000000010011	19
0000000010100	20
0000000010001	17
0000000010000	16
0000000001111	15
0000000010000	16
0000000001111	15
0000000010000	16
0000000001111	15
0000000010000	16
0000000001111	15
0000000010000	16
0000000001111	15
0000000010000	16
0000000001111	15
0000000010000	16
0000000001111	15
0000000010000	16
0000000001111	15
0000000010000	16
0000000001111	15
0000000010000	16
0000000001111	15
0000000010000	16
0000000001111	15
0000000010000	16
0000000001111	15
0000000010000	16
0000000010001	17
0000000010100	20
0000000010011	19
0000000010000	16
0000000001001	9
0000000000000	0
1111111110111	8183
1111111110000	8176
1111111101101	8173
1111111101100	8172
1111111101111	8175
1111111110000	8176
1111111110001	8177
1111111110000	8176
1111111110001	8177
1111111110000	8176
1111111110001	8177
1111111110000	8176
1111111110001	8177
1111111110000	8176
1111111101111	8175
1111111101100	8172
1111111101101	8173
1111111110000	8176
1111111110111	8183
0000000000000	0
0000000001001	9
0000000010000	16
0000000010011	19
0000000010100	20
0000000010001	17
0000000010000	16
0000000001111	15
0000000010000	16
0000000001111	15
0000000010000	16
0000000010001	17
0000000010100	20
0000000010011	19
0000000010000	16
0000000000111	7
1111111111100	8188
1111111110011	8179
1111111110000	8176
1111111110011	8179
1111111111100	8188
0000000000111	7
0000000010000	16
0000000010011	19
0000000010100	20
0000000010001	17
0000000010000	16
0000000001111	15
0000000010000	16
0000000001111	15
0000000010000	16
0000000001111	15
0000000010000	16
0000000001111	15
0000000010000	16
0000000010001	17
0000000010100	20
0000000010011	19
0000000010000	16
0000000001001	9
0000000000000	0
1111111110111	8183
1111111110000	8176
1111111101101	8173
1111111101100	8172
1111111101111	8175
1111111110000	8176
1111111101111	8175
1111111101100	8172
1111111101101	8173
1111111110000	8176
1111111111001	8185
0000000000100	4
0000000001101	13
0000000010000	16
0000000001011	11
0000000000000	0
1111111110101	8181
1111111110000	8176
1111111110011	8179
1111111111100	8188
0000000000111	7
0000000010000	16
0000000010011	19
0000000010100	20
0000000010001	17
0000000010000	16
0000000010001	17
0000000010100	20
0000000010011	19
0000000010000	16
0000000001001	9
0000000000000	0
1111111110111	8183
1111111110000	8176
1111111101011	8171
1111111101000	8168
1111111101011	8171
1111111110000	8176
1111111110111	8183
0000000000000	0
0000000001001	9
0000000010000	16
0000000010101	21
0000000011000	24
0000000010101	21
0000000010000	16
0000000001001	9
0000000000000	0
1111111110111	8183
1111111110000	8176
1111111101011	8171
1111111101000	8168
1111111101011	8171
1111111110000	8176
1111111111001	8185
0000000000100	4
0000000001101	13
0000000010000	16
0000000001101	13
0000000000100	4
1111111111001	8185
1111111110000	8176
1111111101101	8173
1111111101100	8172
1111111101111	8175
1111111110000	8176
1111111110001	8177
1111111110000	8176
1111111110001	8177
1111111110000	8176
1111111110001	8177
1111111110000	8176
1111111110001	8177
1111111110000	8176
1111111101111	8175
1111111101100	8172
1111111101101	8173
1111111110000	8176
1111111111001	8185
0000000000100	4
0000000001101	13
0000000010000	16
0000000001101	13
0000000000100	4
1111111111001	8185
1111111110000	8176
1111111101011	8171
1111111101000	8168
1111111101011	8171
1111111110000	8176
1111111111001	8185
0000000000100	4
0000000001101	13
0000000010000	16
0000000001011	11
0000000000000	0
1111111110101	8181
1111111110000	8176
1111111110101	8181
0000000000000	0
0000000001011	11
0000000010000	16
0000000001101	13
0000000000100	4
1111111111001	8185
1111111110000	8176
1111111101011	8171
1111111101000	8168
1111111101011	8171
1111111110000	8176
1111111110111	8183
0000000000000	0
0000000001001	9
0000000010000	16
0000000010011	19
0000000010100	20
0000000010001	17
0000000010000	16
0000000010001	17
0000000010100	20
0000000010011	19
0000000010000	16
0000000000111	7
1111111111100	8188
1111111110011	8179
1111111110000	8176
1111111110011	8179
1111111111100	8188
0000000000111	7
0000000010000	16
0000000010101	21
0000000011000	24
0000000010101	21
0000000010000	16
0000000000111	7
1111111111100	8188
1111111110011	8179
1111111110000	8176
1111111110101	8181
0000000000000	0
0000000001011	11
0000000010000	16
0000000001101	13
0000000000100	4
1111111111001	8185
1111111110000	8176
1111111101101	8173
1111111101100	8172
1111111101111	8175
1111111110000	8176
1111111101111	8175
1111111101100	8172
1111111101101	8173
1111111110000	8176
1111111110111	8183
0000000000000	0
0000000001001	9
0000000010000	16
0000000010011	19
0000000010100	20
0000000010001	17
0000000010000	16
0000000001111	15
0000000010000	16
0000000001111	15
0000000010000	16
0000000010001	17
0000000010100	20
0000000010011	19
0000000010000	16
0000000001001	9
0000000000000	0
1111111110111	8183
1111111110000	8176
1111111101011	8171
1111111101000	8168
1111111101011	8171
1111111110000	8176
1111111110111	8183
0000000000000	0
0000000001001	9
0000000010000	16
0000000010011	19
0000000010100	20
0000000010001	17
0000000010000	16
0000000001111	15
0000000010000	16
0000000001111	15
0000000010000	16
0000000001111	15
0000000010000	16
0000000001111	15
0000000010000	16
0000000010001	17
0000000010100	20
0000000010011	19
0000000010000	16
0000000001001	9
0000000000000	0
1111111110111	8183
1111111110000	8176
1111111101011	8171
1111111101000	8168
1111111101011	8171
1111111110000	8176
1111111110111	8183
0000000000000	0
0000000001001	9
0000000010000	16
0000000010101	21
0000000011000	24
0000000010101	21
0000000010000	16
0000000000111	7
1111111111100	8188
1111111110011	8179
1111111110000	8176
1111111110011	8179
1111111111100	8188
0000000000111	7
0000000010000	16
0000000010101	21
0000000011000	24
0000000010101	21
0000000010000	16
0000000001001	9
0000000000000	0
1111111110111	8183
1111111110000	8176
1111111101101	8173
1111111101100	8172
1111111101111	8175
1111111110000	8176
1111111101111	8175
1111111101100	8172
1111111101101	8173
1111111110000	8176
1111111111001	8185
0000000000100	4
0000000001101	13
0000000010000	16
0000000001011	11
0000000000000	0
1111111110101	8181
1111111110000	8176
1111111110101	8181
0000000000000	0
0000000001011	11
0000000010000	16
0000000001011	11
0000000000000	0
1111111110101	8181
1111111110000	8176
1111111110101	8181
0000000000000	0
0000000001011	11
0000000010000	16
0000000001101	13
0000000000100	4
1111111111001	8185
1111111110000	8176
1111111101011	8171
1111111101000	8168
1111111101011	8171
1111111110000	8176
1111111111001	8185
0000000000100	4
0000000001101	13
0000000010000	16
0000000001101	13
0000000000100	4
1111111111001	8185
1111111110000	8176
1111111101101	8173
1111111101100	8172
1111111101111	8175
1111111110000	8176
1111111101111	8175
1111111101100	8172
1111111101101	8173
1111111110000	8176
1111111110111	8183
0000000000000	0
0000000001001	9
0000000010000	16
0000000010011	19
0000000010100	20
0000000010001	17
0000000010000	16
0000000010001	17
0000000010100	20
0000000010011	19
0000000010000	16
0000000001001	9
0000000000000	0
1111111110111	8183
1111111110000	8176
1111111101101	8173
1111111101100	8172
1111111101111	8175
1111111110000	8176
1111111101111	8175
1111111101100	8172
1111111101101	8173
1111111110000	8176
1111111110111	8183
0000000000000	0
0000000001001	9
0000000010000	16
0000000010101	21
0000000011000	24
0000000010101	21
0000000010000	16
0000000000111	7
1111111111100	8188
1111111110011	8179
1111111110000	8176
1111111110011	8179
1111111111100	8188
0000000000111	7
0000000010000	16
0000000010101	21
0000000011000	24
0000000010101	21
0000000010000	16
0000000000111	7
1111111111100	8188
1111111110011	8179
1111111110000	8176
1111111110101	8181
0000000000000	0
0000000001011	11
0000000010000	16
0000000001011	11
0000000000000	0
1111111110101	8181
1111111110000	8176
1111111110101	8181
0000000000000	0
0000000001011	11
0000000010000	16
0000000001011	11
0000000000000	0
1111111110101	8181
1111111110000	8176
1111111110011	8179
1111111111100	8188
0000000000111	7
0000000010000	16
0000000010011	19
0000000010100	20
0000000010001	17
0000000010000	16
0000000010001	17
0000000010100	20
0000000010011	19
0000000010000	16
0000000001001	9
0000000000000	0
1111111110111	8183
1111111110000	8176
1111111101101	8173
1111111101100	8172
1111111101111	8175
1111111110000	8176
1111111101111	8175
1111111101100	8172
1111111101101	8173
1111111110000	8176
1111111111001	8185
0000000000100	4
0000000001101	13
0000000010000	16
0000000001101	13
0000000000100	4
1111111111001	8185
1111111110000	8176
1111111101011	8171
1111111101000	8168
1111111101011	8171
1111111110000	8176
1111111110111	8183
0000000000000	0
0000000001001	9
0000000010000	16
0000000010101	21
0000000011000	24
0000000010101	21
0000000010000	16
0000000001001	9
0000000000000	0
1111111110111	8183
1111111110000	8176
1111111101101	8173
1111111101100	8172
1111111101111	8175
1111111110000	8176
1111111101111	8175
1111111101100	8172
1111111101101	8173
1111111110000	8176
1111111111001	8185
0000000000100	4
0000000001101	13
0000000010000	16
0000000001101	13
0000000000100	4
1111111111001	8185
1111111110000	8176
1111111101101	8173
1111111101100	8172
1111111101111	8175
1111111110000	8176
1111111101111	8175
1111111101100	8172
1111111101101	8173
1111111110000	8176
1111111111001	8185
0000000000100	4
0000000001101	13
0000000010000	16
0000000001101	13
0000000000100	4
1111111111001	8185
1111111110000	8176
1111111101101	8173
1111111101100	8172
1111111101111	8175
1111111110000	8176
1111111110001	8177
1111111110000	8176
1111111110001	8177
1111111110000	8176
1111111110001	8177
1111111110000	8176
1111111110001	8177
1111111110000	8176
1111111110001	8177
1111111110000	8176
1111111110001	8177
1111111110000	8176
1111111110001	8177
1111111110000	8176
1111111110001	8177
1111111110000	8176
1111111110001	8177
1111111110000	8176
1111111110001	8177
1111111110000	8176
1111111101111	8175
1111111101100	8172
1111111101101	8173
1111111110000	8176
1111111111001	8185
0000000000100	4
0000000001101	13
0000000010000	16
0000000001101	13
0000000000100	4
1111111111001	8185
1111111110000	8176
1111111101101	8173
1111111101100	8172
1111111101111	8175
1111111110000	8176
1111111110001	8177
1111111110000	8176
1111111110001	8177
1111111110000	8176
1111111101111	8175
1111111101100	8172
1111111101101	8173
1111111110000	8176
1111111111001	8185
0000000000100	4
0000000001101	13
0000000010000	16
0000000001101	13
0000000000100	4
1111111111001	8185
1111111110000	8176
1111111101101	8173
1111111101100	8172
1111111101111	8175
1111111110000	8176
1111111101111	8175
1111111101100	8172
1111111101101	8173
1111111110000	8176
1111111110111	8183
0000000000000	0
0000000001001	9
0000000010000	16
0000000010101	21
0000000011000	24
0000000010101	21
0000000010000	16
0000000001001	9
0000000000000	0
1111111110111	8183
1111111110000	8176
1111111101101	8173
1111111101100	8172
1111111101111	8175
1111111110000	8176
1111111110001	8177
1111111110000	8176
1111111110001	8177
1111111110000	8176
1111111101111	8175
1111111101100	8172
1111111101101	8173
1111111110000	8176
1111111111001	8185
0000000000100	4
0000000001101	13
0000000010000	16
0000000001101	13
0000000000100	4
1111111111001	8185
1111111110000	8176
1111111101011	8171
1111111101000	8168
1111111101011	8171
1111111110000	8176
1111111110111	8183
0000000000000	0
0000000001001	9
0000000010000	16
0000000010011	19
0000000010100	20
0000000010001	17
0000000010000	16
0000000010001	17
0000000010100	20
0000000010011	19
0000000010000	16
0000000001001	9
0000000000000	0
1111111110111	8183
1111111110000	8176
1111111101011	8171
1111111101000	8168
1111111101011	8171
1111111110000	8176
1111111111001	8185
0000000000100	4
0000000001101	13
0000000010000	16
0000000001011	11
0000000000000	0
1111111110101	8181
1111111110000	8176
1111111110101	8181
0000000000000	0
0000000001011	11
0000000010000	16
0000000001011	11
0000000000000	0
1111111110101	8181
1111111110000	8176
1111111110101	8181
0000000000000	0
0000000001011	11
0000000010000	16
0000000001011	11
0000000000000	0
1111111110101	8181
1111111110000	8176
1111111110011	8179
1111111111100	8188
0000000000111	7
0000000010000	16
0000000010101	21
0000000011000	24
0000000010101	21
0000000010000	16
0000000001001	9
0000000000000	0
1111111110111	8183
1111111110000	8176
1111111101101	8173
1111111101100	8172
1111111101111	8175
1111111110000	8176
1111111110001	8177
1111111110000	8176
1111111110001	8177
1111111110000	8176
1111111101111	8175
1111111101100	8172
1111111101101	8173
1111111110000	8176
1111111110111	8183
0000000000000	0
0000000001001	9
0000000010000	16
0000000010101	21
0000000011000	24
0000000010101	21
0000000010000	16
0000000000111	7
1111111111100	8188
1111111110011	8179
1111111110000	8176
1111111110011	8179
1111111111100	8188
0000000000111	7
0000000010000	16
0000000010011	19
0000000010100	20
0000000010001	17
0000000010000	16
0000000001111	15
0000000010000	16
0000000001111	15
0000000010000	16
0000000010001	17
0000000010100	20
0000000010011	19
0000000010000	16
0000000000111	7
1111111111100	8188
1111111110011	8179
1111111110000	8176
1111111110101	8181
0000000000000	0
0000000001011	11
0000000010000	16
0000000001101	13
0000000000100	4
1111111111001	8185
1111111110000	8176
1111111101011	8171
1111111101000	8168
1111111101011	8171
1111111110000	8176
1111111110111	8183
0000000000000	0
0000000001001	9
0000000010000	16
0000000010101	21
0000000011000	24
0000000010101	21
0000000010000	16
0000000000111	7
1111111111100	8188
1111111110011	8179
1111111110000	8176
1111111110011	8179
1111111111100	8188
0000000000111	7
0000000010000	16
0000000010011	19
0000000010100	20
0000000010001	17
0000000010000	16
0000000010001	17
0000000010100	20
0000000010011	19
0000000010000	16
0000000001001	9
0000000000000	0
1111111110111	8183
1111111110000	8176
1111111101011	8171
1111111101000	8168
1111111101011	8171
1111111110000	8176
1111111111001	8185
0000000000100	4
0000000001101	13
0000000010000	16
0000000001101	13
0000000000100	4
1111111111001	8185
1111111110000	8176
1111111101101	8173
1111111101100	8172
1111111101111	8175
1111111110000	8176
1111111101111	8175
1111111101100	8172
1111111101101	8173
1111111110000	8176
1111111111001	8185
0000000000100	4
0000000001101	13
0000000010000	16
0000000001011	11
0000000000000	0
1111111110101	8181
1111111110000	8176
1111111110101	8181
0000000000000	0
0000000001011	11
0000000010000	16
0000000001101	13
0000000000100	4
1111111111001	8185
1111111110000	8176
1111111101101	8173
1111111101100	8172
1111111101111	8175
1111111110000	8176
1111111110001	8177
1111111110000	8176
1111111110001	8177
1111111110000	8176
1111111101111	8175
1111111101100	8172
1111111101101	8173
1111111110000	8176
1111111111001	8185
0000000000100	4
0000000001101	13
0000000010000	16
0000000001011	11
0000000000000	0
1111111110101	8181
1111111110000	8176
1111111110101	8181
0000000000000	0
0000000001011	11
0000000010000	16
0000000001011	11
0000000000000	0
1111111110101	8181
1111111110000	8176
1111111110011	8179
1111111111100	8188
0000000000111	7
0000000010000	16
0000000010101	21
0000000011000	24
0000000010101	21
0000000010000	16
0000000000111	7
1111111111100	8188
1111111110011	8179
1111111110000	8176
1111111110101	8181
0000000000000	0
0000000001011	11
0000000010000	16
0000000001101	13
0000000000100	4
1111111111001	8185
1111111110000	8176
1111111101011	8171
1111111101000	8168
1111111101011	8171
1111111110000	8176
1111111110111	8183
0000000000000	0
0000000001001	9
0000000010000	16
0000000010011	19
0000000010100	20
0000000010001	17
0000000010000	16
0000000001111	15
0000000010000	16
0000000001111	15
0000000010000	16
0000000001111	15
0000000010000	16
0000000001111	15
0000000010000	16
0000000001111	15
0000000010000	16
0000000001111	15
0000000010000	16
0000000010001	17
0000000010100	20
0000000010011	19
0000000010000	16
0000000000111	7
1111111111100	8188
1111111110011	8179
1111111110000	8176
1111111110011	8179
1111111111100	8188
0000000000111	7
0000000010000	16
0000000010101	21
0000000011000	24
0000000010101	21
0000000010000	16
0000000001001	9
0000000000000	0
1111111110111	8183
1111111110000	8176
1111111101011	8171
1111111101000	8168
1111111101011	8171
1111111110000	8176
1111111111001	8185
0000000000100	4
0000000001101	13
0000000010000	16
0000000001101	13
0000000000100	4
1111111111001	8185
1111111110000	8176
1111111101011	8171
1111111101000	8168
1111111101011	8171
1111111110000	8176
1111111111001	8185
0000000000100	4
0000000001101	13
0000000010000	16
0000000001101	13
0000000000100	4
1111111111001	8185
1111111110000	8176
1111111101011	8171
1111111101000	8168
1111111101011	8171
1111111110000	8176
1111111111001	8185
0000000000100	4
0000000001101	13
0000000010000	16
0000000001011	11
0000000000000	0
1111111110101	8181
1111111110000	8176
1111111110011	8179
1111111111100	8188
0000000000111	7
0000000010000	16
0000000010101	21
0000000011000	24
0000000010101	21
0000000010000	16
0000000000111	7
1111111111100	8188
1111111110011	8179
1111111110000	8176
1111111110011	8179
1111111111100	8188
0000000000111	7
0000000010000	16
0000000010011	19
0000000010100	20
0000000010001	17
0000000010000	16
0000000001111	15
0000000010000	16
0000000001111	15
0000000010000	16
0000000001111	15
0000000010000	16
0000000001111	15
0000000010000	16
0000000001111	15
0000000010000	16
0000000001111	15
0000000010000	16
0000000010001	17
0000000010100	20
0000000010011	19
0000000010000	16
0000000001001	9
0000000000000	0
1111111110111	8183
1111111110000	8176
1111111101011	8171
1111111101000	8168
1111111101011	8171
1111111110000	8176
1111111111001	8185
0000000000100	4
0000000001101	13
0000000010000	16
0000000001101	13
0000000000100	4
1111111111001	8185
1111111110000	8176
1111111101011	8171
1111111101000	8168
1111111101011	8171
1111111110000	8176
1111111110111	8183
0000000000000	0
0000000001001	9
0000000010000	16
0000000010101	21
0000000011000	24
0000000010101	21
0000000010000	16
0000000000111	7
1111111111100	8188
1111111110011	8179
1111111110000	8176
1111111110101	8181
0000000000000	0
0000000001011	11
0000000010000	16
0000000001011	11
0000000000000	0
1111111110101	8181
1111111110000	8176
1111111110101	8181
0000000000000	0
0000000001011	11
0000000010000	16
0000000001101	13
0000000000100	4
1111111111001	8185
1111111110000	8176
1111111101011	8171
1111111101000	8168
1111111101011	8171
1111111110000	8176
1111111110111	8183
0000000000000	0
0000000001001	9
0000000010000	16
0000000010101	21
0000000011000	24
0000000010101	21
0000000010000	16
0000000001001	9
0000000000000	0
1111111110111	8183
1111111110000	8176
1111111101011	8171
1111111101000	8168
1111111101011	8171
1111111110000	8176
1111111110111	8183
0000000000000	0
0000000001001	9
0000000010000	16
0000000010101	21
0000000011000	24
0000000010101	21
0000000010000	16
0000000001001	9
0000000000000	0
1111111110111	8183
1111111110000	8176
1111111101101	8173
1111111101100	8172
1111111101111	8175
1111111110000	8176
1111111110001	8177
1111111110000	8176
1111111110001	8177
1111111110000	8176
1111111110001	8177
1111111110000	8176
1111111110001	8177
1111111110000	8176
1111111110001	8177
1111111110000	8176
1111111110001	8177
1111111110000	8176
1111111110001	8177
1111111110000	8176
1111111110001	8177
1111111110000	8176
1111111101111	8175
1111111101100	8172
1111111101101	8173
1111111110000	8176
1111111110111	8183
0000000000000	0
0000000001001	9
0000000010000	16
0000000010101	21
0000000011000	24
0000000010101	21
0000000010000	16
0000000001001	9
0000000000000	0
1111111110111	8183
1111111110000	8176
1111111101101	8173
1111111101100	8172
1111111101111	8175
1111111110000	8176
1111111101111	8175
1111111101100	8172
1111111101101	8173
1111111110000	8176
1111111110111	8183
0000000000000	0
0000000001001	9
0000000010000	16
0000000010101	21
0000000011000	24
0000000010101	21
0000000010000	16
0000000001001	9
0000000000000	0
1111111110111	8183
1111111110000	8176
1111111101011	8171
1111111101000	8168
1111111101011	8171
1111111110000	8176
1111111111001	8185
0000000000100	4
0000000001101	13
0000000010000	16
0000000001011	11
0000000000000	0
1111111110101	8181
1111111110000	8176
1111111110101	8181
0000000000000	0
0000000001011	11
0000000010000	16
0000000001101	13
0000000000100	4
1111111111001	8185
1111111110000	8176
1111111101101	8173
1111111101100	8172
1111111101111	8175
1111111110000	8176
1111111101111	8175
1111111101100	8172
1111111101101	8173
1111111110000	8176
1111111110111	8183
0000000000000	0
0000000001001	9
0000000010000	16
0000000010101	21
0000000011000	24
0000000010101	21
0000000010000	16
0000000000111	7
1111111111100	8188
1111111110011	8179
1111111110000	8176
1111111110101	8181
0000000000000	0
0000000001011	11
0000000010000	16
0000000001101	13
0000000000100	4
1111111111001	8185
1111111110000	8176
1111111101011	8171
1111111101000	8168
1111111101011	8171
1111111110000	8176
1111111111001	8185
0000000000100	4
0000000001101	13
0000000010000	16
0000000001011	11
0000000000000	0
1111111110101	8181
1111111110000	8176
1111111110011	8179
1111111111100	8188
0000000000111	7
0000000010000	16
0000000010011	19
0000000010100	20
0000000010001	17
0000000010000	16
0000000001111	15
0000000010000	16
0000000001111	15
0000000010000	16
0000000001111	15
0000000010000	16
0000000001111	15
0000000010000	16
0000000001111	15
0000000010000	16
0000000001111	15
0000000010000	16
0000000001111	15
0000000010000	16
0000000001111	15
0000000010000	16
0000000010001	17
0000000010100	20
0000000010011	19
0000000010000	16
0000000000111	7
1111111111100	8188
1111111110011	8179
1111111110000	8176
1111111110101	8181
0000000000000	0
0000000001011	11
0000000010000	16
0000000001101	13
0000000000100	4
1111111111001	8185
1111111110000	8176
1111111101101	8173
1111111101100	8172
1111111101111	8175
1111111110000	8176
1111111101111	8175
1111111101100	8172
1111111101101	8173
1111111110000	8176
1111111111001	8185
0000000000100	4
0000000001101	13
0000000010000	16
0000000001011	11
0000000000000	0
1111111110101	8181
1111111110000	8176
1111111110011	8179
1111111111100	8188
0000000000111	7
0000000010000	16
0000000010101	21
0000000011000	24
0000000010101	21
0000000010000	16
0000000001001	9
0000000000000	0
1111111110111	8183
1111111110000	8176
1111111101101	8173
1111111101100	8172
1111111101111	8175
1111111110000	8176
1111111101111	8175
1111111101100	8172
1111111101101	8173
1111111110000	8176
1111111110111	8183
0000000000000	0
0000000001001	9
0000000010000	16
0000000010011	19
0000000010100	20
0000000010001	17
0000000010000	16
0000000010001	17
0000000010100	20
0000000010011	19
0000000010000	16
0000000000111	7
1111111111100	8188
1111111110011	8179
1111111110000	8176
1111111110101	8181
0000000000000	0
0000000001011	11
0000000010000	16
0000000001011	11
0000000000000	0
1111111110101	8181
1111111110000	8176
1111111110011	8179
1111111111100	8188
0000000000111	7
0000000010000	16
0000000010101	21
0000000011000	24
0000000010101	21
0000000010000	16
0000000001001	9
0000000000000	0
1111111110111	8183
1111111110000	8176
1111111101011	8171
1111111101000	8168
1111111101011	8171
1111111110000	8176
1111111111001	8185
0000000000100	4
0000000001101	13
0000000010000	16
0000000001011	11
0000000000000	0
1111111110101	8181
1111111110000	8176
1111111110011	8179
1111111111100	8188
0000000000111	7
0000000010000	16
0000000010101	21
0000000011000	24
0000000010101	21
0000000010000	16
0000000001001	9
0000000000000	0
1111111110111	8183
1111111110000	8176
1111111101011	8171
1111111101000	8168
1111111101011	8171
1111111110000	8176
1111111110111	8183
0000000000000	0
0000000001001	9
0000000010000	16
0000000010011	19
0000000010100	20
0000000010001	17
0000000010000	16
0000000001111	15
0000000010000	16
0000000001111	15
0000000010000	16
0000000010001	17
0000000010100	20
0000000010011	19
0000000010000	16
0000000001001	9
0000000000000	0
1111111110111	8183
1111111110000	8176
1111111101101	8173
1111111101100	8172
1111111101111	8175
1111111110000	8176
1111111101111	8175
1111111101100	8172
1111111101101	8173
1111111110000	8176
1111111110111	8183
0000000000000	0
0000000001001	9
0000000010000	16
0000000010011	19
0000000010100	20
0000000010001	17
0000000010000	16
0000000001111	15
0000000010000	16
0000000001111	15
0000000010000	16
0000000001111	15
0000000010000	16
0000000001111	15
0000000010000	16
0000000010001	17
0000000010100	20
0000000010011	19
0000000010000	16
0000000000111	7
1111111111100	8188
1111111110011	8179
1111111110000	8176
1111111110011	8179
1111111111100	8188
0000000000111	7
0000000010000	16
0000000010011	19
0000000010100	20
0000000010001	17
0000000010000	16
0000000010001	17
0000000010100	20
0000000010011	19
0000000010000	16
0000000000111	7
1111111111100	8188
1111111110011	8179
1111111110000	8176
1111111110101	8181
0000000000000	0
0000000001011	11
0000000010000	16
0000000001101	13
0000000000100	4
1111111111001	8185
1111111110000	8176
1111111101101	8173
1111111101100	8172
1111111101111	8175
1111111110000	8176
1111111110001	8177
1111111110000	8176
1111111110001	8177
1111111110000	8176
1111111110001	8177
1111111110000	8176
1111111110001	8177
1111111110000	8176
1111111101111	8175
1111111101100	8172
1111111101101	8173
1111111110000	8176
1111111110111	8183
0000000000000	0
0000000001001	9
0000000010000	16
0000000010101	21
0000000011000	24
0000000010101	21
0000000010000	16
0000000000111	7
1111111111100	8188
1111111110011	8179
1111111110000	8176
1111111110101	8181
0000000000000	0
0000000001011	11
0000000010000	16
0000000001011	11
0000000000000	0
1111111110101	8181
1111111110000	8176
1111111110011	8179
1111111111100	8188
0000000000111	7
0000000010000	16
0000000010101	21
0000000011000	24
0000000010101	21
0000000010000	16
0000000000111	7
1111111111100	8188
