% This file was created by matlab2tikz.
%
\begin{tikzpicture}

\begin{axis}[%
width=5.681cm,
height=6cm,
at={(0cm,0cm)},
scale only axis,
xmin=-2,
xmax=23,
xlabel style={font=\color{white!15!black}},
xlabel={Tiempo Discreto},
ymin=0,
ymax=0.24,
ylabel style={font=\color{white!15!black}},
ylabel={Amplitud},
axis background/.style={fill=white},
title style={font=\bfseries},
title={Respuesta al impulso},
xmajorgrids,
ymajorgrids,
legend style={legend cell align=left, align=left, draw=white!15!black}
]
\addplot[ycomb, color=red, dashed, mark=*, mark options={solid, fill=red, red}] table[row sep=crcr] {%
0	0.2\\
1	0.16\\
2	0.128\\
3	0.1024\\
4	0.08192\\
5	0.065536\\
6	0.0524288\\
7	0.04194304\\
8	0.033554432\\
9	0.0268435456\\
10	0.02147483648\\
11	0.017179869184\\
12	0.0137438953472\\
13	0.01099511627776\\
14	0.008796093022208\\
15	0.0070368744177664\\
16	0.00562949953421312\\
17	0.0045035996273705\\
18	0.0036028797018964\\
19	0.00288230376151712\\
20	0.0023058430092137\\
};
\addplot[forget plot, color=white!15!black, dashed] table[row sep=crcr] {%
-2	0\\
23	0\\
};
\addlegendentry{$h[n]_{\alpha = 0.8}$}

\end{axis}
\end{tikzpicture}%