% This file was created by matlab2tikz.
%
\begin{tikzpicture}

\begin{axis}[%
width=5.706cm,
height=6cm,
at={(0cm,0cm)},
scale only axis,
xmin=-3.14159265358979,
xmax=3.14159265358979,
xlabel style={font=\color{white!15!black}},
xlabel={Frecuencia Discreta [rad/seg]},
ymin=-3.14159265358979,
ymax=3.14159265358979,
ylabel style={font=\color{white!15!black}},
ylabel={Fase [rad]},
axis background/.style={fill=white},
xmajorgrids,
ymajorgrids,
legend style={legend cell align=left, align=left, draw=white!15!black}
]
\addplot [color=blue, line width=1.0pt]
  table[row sep=crcr]{%
-3.14159265358979	0\\
-3.13545673043825	1.40819436327901\\
-3.12932080728671	1.24559239976314\\
-3.12318488413517	1.08299043624727\\
-3.11704896098362	0.920388472731387\\
-3.11091303783208	0.757786509215507\\
-3.10477711468054	0.59518454569963\\
-3.098641191529	0.432582582183752\\
-3.09250526837745	0.269980618667876\\
-3.08636934522591	0.107378655151993\\
-3.08023342207437	-0.0552233083638825\\
-3.07409749892282	-0.217825271879764\\
-3.06796157577128	-0.380427235395639\\
-3.06182565261974	-0.543029198911517\\
-3.0556897294682	-0.705631162427396\\
-3.04955380631665	-0.868233125943273\\
-3.04341788316511	-1.03083508945915\\
-3.03728196001357	-1.19343705297503\\
-3.03114603686203	-1.3560390164909\\
-3.02501011371048	1.622951673583\\
-3.01887419055894	1.46034971006713\\
-3.0127382674074	1.29774774655125\\
-3.00660234425586	1.13514578303537\\
-3.00046642110431	0.972543819519497\\
-2.99433049795277	0.80994185600362\\
-2.98819457480123	0.647339892487741\\
-2.98205865164969	0.484737928971863\\
-2.97592272849814	0.322135965455985\\
-2.9697868053466	0.159534001940107\\
-2.96365088219506	-0.00306796157577091\\
-2.95751495904352	-0.16566992509165\\
-2.95137903589197	-0.328271888607527\\
-2.94524311274043	-0.490873852123405\\
-2.93910718958889	-0.653475815639283\\
-2.93297126643735	-0.816077779155162\\
-2.9268353432858	-0.97867974267104\\
-2.92069942013426	-1.14128170618692\\
-2.91456349698272	-1.30388366970279\\
-2.90842757383118	1.67510702037111\\
-2.90229165067963	1.51250505685525\\
-2.89615572752809	1.34990309333937\\
-2.89001980437655	1.18730112982349\\
-2.88388388122501	1.02469916630761\\
-2.87774795807346	0.86209720279173\\
-2.87161203492192	0.699495239275852\\
-2.86547611177038	0.536893275759975\\
-2.85934018861884	0.374291312244097\\
-2.85320426546729	0.211689348728219\\
-2.84706834231575	0.0490873852123404\\
-2.84093241916421	-0.113514578303538\\
-2.83479649601267	-0.276116541819415\\
-2.82866057286112	-0.438718505335293\\
-2.82252464970958	-0.601320468851172\\
-2.81638872655804	-0.763922432367049\\
-2.81025280340649	-0.926524395882927\\
-2.80411688025495	-1.08912635939881\\
-2.79798095710341	-1.25172832291468\\
-2.79184503395187	1.7272623671592\\
-2.78570911080032	1.56466040364335\\
-2.77957318764878	1.40205844012747\\
-2.77343726449724	1.2394564766116\\
-2.7673013413457	1.07685451309572\\
-2.76116541819415	0.914252549579842\\
-2.75502949504261	0.751650586063964\\
-2.74889357189107	0.589048622548086\\
-2.74275764873953	0.426446659032209\\
-2.73662172558798	0.26384469551633\\
-2.73048580243644	0.101242732000452\\
-2.7243498792849	-0.0613592315154259\\
-2.71821395613336	-0.223961195031305\\
-2.71207803298181	-0.386563158547182\\
-2.70594210983027	-0.54916512206306\\
-2.69980618667873	-0.711767085578937\\
-2.69367026352719	-0.874369049094816\\
-2.68753434037564	-1.03697101261069\\
-2.6813984172241	-1.19957297612657\\
-2.67526249407256	1.77941771394732\\
-2.66912657092102	1.61681575043146\\
-2.66299064776947	1.45421378691559\\
-2.65685472461793	1.29161182339971\\
-2.65071880146639	1.12900985988383\\
-2.64458287831485	0.966407896367954\\
-2.6384469551633	0.803805932852075\\
-2.63231103201176	0.641203969336198\\
-2.62617510886022	0.47860200582032\\
-2.62003918570868	0.316000042304442\\
-2.61390326255713	0.153398078788564\\
-2.60776733940559	-0.00920388472731397\\
-2.60163141625405	-0.171805848243191\\
-2.5954954931025	-0.33440781175907\\
-2.58935956995096	-0.497009775274948\\
-2.58322364679942	-0.659611738790826\\
-2.57708772364788	-0.822213702306704\\
-2.57095180049633	-0.984815665822579\\
-2.56481587734479	-1.14741762933845\\
-2.55867995419325	1.83157306073548\\
-2.55254403104171	1.66897109721958\\
-2.54640810789016	1.5063691337037\\
-2.54027218473862	1.34376717018782\\
-2.53413626158708	1.18116520667194\\
-2.52800033843554	1.01856324315607\\
-2.52186441528399	0.855961279640188\\
-2.51572849213245	0.69335931612431\\
-2.50959256898091	0.530757352608433\\
-2.50345664582937	0.368155389092554\\
-2.49732072267782	0.205553425576676\\
-2.49118479952628	0.0429514620607982\\
-2.48504887637474	-0.11965050145508\\
-2.4789129532232	-0.282252464970958\\
-2.47277703007165	-0.444854428486837\\
-2.46664110692011	-0.607456392002714\\
-2.46050518376857	-0.770058355518592\\
-2.45436926061703	-0.93266031903447\\
-2.44823333746548	-1.09526228255035\\
-2.44209741431394	1.88372840752356\\
-2.4359614911624	1.72112644400769\\
-2.42982556801086	1.55852448049181\\
-2.42368964485931	1.39592251697593\\
-2.41755372170777	1.23332055346006\\
-2.41141779855623	1.07071858994418\\
-2.40528187540469	0.9081166264283\\
-2.39914595225314	0.745514662912421\\
-2.3930100291016	0.582912699396542\\
-2.38687410595006	0.420310735880666\\
-2.38073818279852	0.257708772364787\\
-2.37460225964697	0.0951068088489091\\
-2.36846633649543	-0.0674951546669684\\
-2.36233041334389	-0.230097118182845\\
-2.35619449019234	-0.392699081698724\\
-2.3500585670408	-0.555301045214601\\
-2.34392264388926	-0.717903008730478\\
-2.33778672073772	-0.880504972246359\\
-2.33165079758617	-1.04310693576223\\
-2.32551487443463	1.93588375431169\\
-2.31937895128309	1.7732817907958\\
-2.31324302813155	1.61067982727992\\
-2.30710710498	1.44807786376405\\
-2.30097118182846	1.28547590024817\\
-2.29483525867692	1.12287393673229\\
-2.28869933552538	0.96027197321641\\
-2.28256341237383	0.797670009700534\\
-2.27642748922229	0.635068046184656\\
-2.27029156607075	0.472466082668777\\
-2.26415564291921	0.3098641191529\\
-2.25801971976766	0.147262155637021\\
-2.25188379661612	-0.0153398078788567\\
-2.24574787346458	-0.177941771394734\\
-2.23961195031304	-0.340543734910612\\
-2.23347602716149	-0.503145698426491\\
-2.22734010400995	-0.665747661942369\\
-2.22120418085841	-0.828349625458245\\
-2.21506825770687	-0.990951588974125\\
-2.20893233455532	1.98803910109979\\
-2.20279641140378	1.82543713758391\\
-2.19666048825224	1.66283517406804\\
-2.1905245651007	1.50023321055216\\
-2.18438864194915	1.33763124703628\\
-2.17825271879761	1.1750292835204\\
-2.17211679564607	1.01242732000452\\
-2.16598087249453	0.849825356488645\\
-2.15984494934298	0.687223392972767\\
-2.15370902619144	0.524621429456889\\
-2.1475731030399	0.362019465941011\\
-2.14143717988836	0.199417502425133\\
-2.13530125673681	0.0368155389092552\\
-2.12916533358527	-0.125786424606623\\
-2.12302941043373	-0.2883883881225\\
-2.11689348728218	-0.450990351638379\\
-2.11075756413064	-0.613592315154254\\
-2.1046216409791	-0.776194278670134\\
-2.09848571782756	-0.938796242186006\\
-2.09234979467601	2.0401944478879\\
-2.08621387152447	1.87759248437203\\
-2.08007794837293	1.71499052085615\\
-2.07394202522139	1.55238855734027\\
-2.06780610206984	1.38978659382439\\
-2.0616701789183	1.22718463030851\\
-2.05553425576676	1.06458266679264\\
-2.04939833261522	0.901980703276757\\
-2.04326240946367	0.739378739760879\\
-2.03712648631213	0.576776776245001\\
-2.03099056316059	0.414174812729123\\
-2.02485464000905	0.251572849213246\\
-2.0187187168575	0.088970885697367\\
-2.01258279370596	-0.0736310778185104\\
-2.00644687055442	-0.236233041334388\\
-2.00031094740288	-0.398835004850268\\
-1.99417502425133	-0.561436968366147\\
-1.98803910109979	-0.724038931882024\\
-1.98190317794825	-0.886640895397897\\
-1.97576725479671	2.092349794676\\
-1.96963133164516	1.92974783116014\\
-1.96349540849362	1.76714586764426\\
-1.95735948534208	1.60454390412838\\
-1.95122356219054	1.4419419406125\\
-1.94508763903899	1.27933997709662\\
-1.93895171588745	1.11673801358075\\
-1.93281579273591	0.954136050064869\\
-1.92667986958437	0.791534086548991\\
-1.92054394643282	0.628932123033113\\
-1.91440802328128	0.466330159517234\\
-1.90827210012974	0.303728196001357\\
-1.9021361769782	0.141126232485478\\
-1.89600025382665	-0.0214757310303982\\
-1.88986433067511	-0.184077694546277\\
-1.88372840752357	-0.346679658062155\\
-1.87759248437202	-0.509281621578032\\
-1.87145656122048	-0.671883585093912\\
-1.86532063806894	-0.83448554860979\\
-1.8591847149174	2.14450514146413\\
-1.85304879176585	1.98190317794825\\
-1.84691286861431	1.81930121443237\\
-1.84077694546277	1.65669925091649\\
-1.83464102231123	1.49409728740061\\
-1.82850509915968	1.33149532388474\\
-1.82236917600814	1.16889336036886\\
-1.8162332528566	1.00629139685298\\
-1.81009732970506	0.843689433337103\\
-1.80396140655351	0.681087469821225\\
-1.79782548340197	0.518485506305347\\
-1.79168956025043	0.355883542789469\\
-1.78555363709889	0.193281579273591\\
-1.77941771394734	0.0306796157577136\\
-1.7732817907958	-0.131922347758164\\
-1.76714586764426	-0.294524311274043\\
-1.76100994449272	-0.457126274789921\\
-1.75487402134117	-0.619728238305799\\
-1.74873809818963	-0.782330201821683\\
-1.74260217503809	2.19666048825224\\
-1.73646625188655	2.03405852473636\\
-1.730330328735	1.87145656122048\\
-1.72419440558346	1.7088545977046\\
-1.71805848243192	1.54625263418873\\
-1.71192255928038	1.38365067067285\\
-1.70578663612883	1.22104870715697\\
-1.69965071297729	1.05844674364109\\
-1.69351478982575	0.895844780125215\\
-1.68737886667421	0.733242816609336\\
-1.68124294352266	0.570640853093459\\
-1.67510702037112	0.408038889577581\\
-1.66897109721958	0.245436926061702\\
-1.66283517406803	0.0828349625458248\\
-1.65669925091649	-0.0797670009700533\\
-1.65056332776495	-0.24236896448593\\
-1.64442740461341	-0.40497092800181\\
-1.63829148146186	-0.567572891517688\\
-1.63215555831032	-0.730174855033578\\
-1.62601963515878	2.24881583504034\\
-1.61988371200724	2.08621387152447\\
-1.61374778885569	1.92361190800859\\
-1.60761186570415	1.76100994449272\\
-1.60147594255261	1.59840798097684\\
-1.59534001940107	1.43580601746096\\
-1.58920409624952	1.27320405394508\\
-1.58306817309798	1.1106020904292\\
-1.57693224994644	0.948000126913323\\
-1.5707963267949	0.785398163397448\\
-1.56466040364335	0.622796199881568\\
-1.55852448049181	0.460194236365694\\
-1.55238855734027	0.297592272849814\\
-1.54625263418873	0.134990309333936\\
-1.54011671103718	-0.027611654181944\\
-1.53398078788564	-0.190213617697819\\
-1.5278448647341	-0.352815581213698\\
-1.52170894158256	-0.51541754472958\\
-1.51557301843101	-0.678019508245471\\
-1.50943709527947	2.30097118182845\\
-1.50330117212793	2.13836921831258\\
-1.49716524897639	1.9757672547967\\
-1.49102932582484	1.81316529128083\\
-1.4848934026733	1.65056332776495\\
-1.47875747952176	1.48796136424907\\
-1.47262155637022	1.32535940073319\\
-1.46648563321867	1.16275743721732\\
-1.46034971006713	1.00015547370144\\
-1.45421378691559	0.83755351018556\\
-1.44807786376405	0.674951546669682\\
-1.4419419406125	0.512349583153804\\
-1.43580601746096	0.349747619637926\\
-1.42967009430942	0.187145656122048\\
-1.42353417115788	0.0245436926061701\\
-1.41739824800633	-0.138058270909709\\
-1.41126232485479	-0.300660234425585\\
-1.40512640170325	-0.463262197941465\\
-1.3989904785517	-0.625864161457345\\
-1.39285455540016	2.35312652861658\\
-1.38671863224862	2.1905245651007\\
-1.38058270909708	2.02792260158482\\
-1.37444678594553	1.86532063806894\\
-1.36831086279399	1.70271867455306\\
-1.36217493964245	1.54011671103718\\
-1.35603901649091	1.37751474752131\\
-1.34990309333936	1.21491278400543\\
-1.34376717018782	1.05231082048955\\
-1.33763124703628	0.889708856973672\\
-1.33149532388474	0.727106893457794\\
-1.32535940073319	0.564504929941916\\
-1.31922347758165	0.401902966426038\\
-1.31308755443011	0.23930100291016\\
-1.30695163127857	0.076699039394282\\
-1.30081570812702	-0.0859029241215957\\
-1.29467978497548	-0.248504887637475\\
-1.28854386182394	-0.411106851153352\\
-1.2824079386724	-0.57370881466923\\
-1.27627201552085	2.40528187540469\\
-1.27013609236931	2.24267991188881\\
-1.26400016921777	2.08007794837293\\
-1.25786424606623	1.91747598485705\\
-1.25172832291468	1.75487402134117\\
-1.24559239976314	1.5922720578253\\
-1.2394564766116	1.42967009430942\\
-1.23332055346006	1.26706813079354\\
-1.22718463030851	1.10446616727766\\
-1.22104870715697	0.941864203761784\\
-1.21491278400543	0.779262240245906\\
-1.20877686085389	0.616660276730029\\
-1.20264093770234	0.45405831321415\\
-1.1965050145508	0.291456349698272\\
-1.19036909139926	0.128854386182394\\
-1.18423316824771	-0.0337475773334862\\
-1.17809724509617	-0.196349540849362\\
-1.17196132194463	-0.358951504365242\\
-1.16582539879309	-0.521553467881129\\
-1.15968947564154	2.45743722219279\\
-1.15355355249	2.29483525867692\\
-1.14741762933846	2.13223329516104\\
-1.14128170618692	1.96963133164516\\
-1.13514578303537	1.80702936812929\\
-1.12900985988383	1.64442740461341\\
-1.12287393673229	1.48182544109753\\
-1.11673801358075	1.31922347758165\\
-1.1106020904292	1.15662151406577\\
-1.10446616727766	0.994019550549896\\
-1.09833024412612	0.831417587034018\\
-1.09219432097458	0.66881562351814\\
-1.08605839782303	0.506213660002261\\
-1.07992247467149	0.343611696486384\\
-1.07378655151995	0.181009732970506\\
-1.06765062836841	0.0184077694546277\\
-1.06151470521686	-0.14419419406125\\
-1.05537878206532	-0.306796157577129\\
-1.04924285891378	-0.469398121093005\\
-1.04310693576224	2.50959256898091\\
-1.03697101261069	2.34699060546503\\
-1.03083508945915	2.18438864194915\\
-1.02469916630761	2.02178667843327\\
-1.01856324315607	1.8591847149174\\
-1.01242732000452	1.69658275140152\\
-1.00629139685298	1.53398078788564\\
-1.00015547370144	1.37137882436976\\
-0.994019550549896	1.20877686085389\\
-0.987883627398353	1.04617489733801\\
-0.981747704246811	0.883572933822129\\
-0.975611781095268	0.720970970306251\\
-0.969475857943725	0.558369006790373\\
-0.963339934792183	0.395767043274495\\
-0.95720401164064	0.233165079758617\\
-0.951068088489098	0.0705631162427391\\
-0.944932165337555	-0.0920388472731376\\
-0.938796242186013	-0.254640810789016\\
-0.93266031903447	-0.417242774304886\\
-0.926524395882927	2.56174791576902\\
-0.920388472731385	2.39914595225314\\
-0.914252549579842	2.23654398873726\\
-0.9081166264283	2.07394202522139\\
-0.901980703276757	1.91134006170551\\
-0.895844780125215	1.74873809818963\\
-0.889708856973672	1.58613613467375\\
-0.883572933822129	1.42353417115788\\
-0.877437010670587	1.260932207642\\
-0.871301087519044	1.09833024412612\\
-0.865165164367502	0.935728280610241\\
-0.859029241215959	0.773126317094363\\
-0.852893318064416	0.610524353578485\\
-0.846757394912874	0.447922390062607\\
-0.840621471761331	0.285320426546729\\
-0.834485548609789	0.122718463030852\\
-0.828349625458246	-0.0398835004850272\\
-0.822213702306704	-0.202485464000904\\
-0.816077779155161	-0.365087427516782\\
-0.809941856003618	2.61390326255713\\
-0.803805932852076	2.45130129904126\\
-0.797670009700533	2.28869933552538\\
-0.791534086548991	2.1260973720095\\
-0.785398163397448	1.96349540849362\\
-0.779262240245906	1.80089344497774\\
-0.773126317094363	1.63829148146186\\
-0.76699039394282	1.47568951794599\\
-0.760854470791278	1.31308755443011\\
-0.754718547639735	1.15048559091423\\
-0.748582624488193	0.987883627398354\\
-0.74244670133665	0.825281663882475\\
-0.736310778185108	0.662679700366597\\
-0.730174855033565	0.500077736850719\\
-0.724038931882023	0.337475773334841\\
-0.71790300873048	0.174873809818963\\
-0.711767085578937	0.0122718463030852\\
-0.705631162427395	-0.150330117212792\\
-0.699495239275852	-0.312932080728674\\
-0.69335931612431	2.66605860934525\\
-0.687223392972767	2.50345664582937\\
-0.681087469821225	2.34085468231349\\
-0.674951546669682	2.17825271879761\\
-0.66881562351814	2.01565075528173\\
-0.662679700366597	1.85304879176585\\
-0.656543777215055	1.69044682824998\\
-0.650407854063512	1.5278448647341\\
-0.644271930911969	1.36524290121822\\
-0.638136007760427	1.20264093770234\\
-0.632000084608884	1.04003897418646\\
-0.625864161457342	0.877437010670587\\
-0.619728238305799	0.714835047154709\\
-0.613592315154257	0.552233083638831\\
-0.607456392002714	0.389631120122953\\
-0.601320468851172	0.227029156607075\\
-0.595184545699629	0.0644271930911968\\
-0.589048622548086	-0.0981747704246814\\
-0.582912699396544	-0.260776733940562\\
-0.576776776245001	2.71821395613336\\
-0.570640853093459	2.55561199261748\\
-0.564504929941916	2.3930100291016\\
-0.558369006790373	2.23040806558572\\
-0.552233083638831	2.06780610206984\\
-0.546097160487288	1.90520413855397\\
-0.539961237335746	1.74260217503809\\
-0.533825314184203	1.58000021152221\\
-0.527689391032661	1.41739824800633\\
-0.521553467881118	1.25479628449045\\
-0.515417544729575	1.09219432097458\\
-0.509281621578033	0.929592357458699\\
-0.50314569842649	0.766990393942821\\
-0.497009775274948	0.604388430426943\\
-0.490873852123405	0.441786466911065\\
-0.484737928971863	0.279184503395187\\
-0.47860200582032	0.116582539879309\\
-0.472466082668777	-0.0460194236365701\\
-0.466330159517235	-0.208621387152455\\
-0.460194236365692	2.77036930292147\\
-0.45405831321415	2.60776733940559\\
-0.447922390062607	2.44516537588971\\
-0.441786466911064	2.28256341237383\\
-0.435650543759522	2.11996144885796\\
-0.429514620607979	1.95735948534208\\
-0.423378697456437	1.7947575218262\\
-0.417242774304894	1.63215555831032\\
-0.411106851153352	1.46955359479444\\
-0.404970928001809	1.30695163127857\\
-0.398835004850267	1.14434966776269\\
-0.392699081698724	0.98174770424681\\
-0.386563158547181	0.819145740730933\\
-0.380427235395639	0.656543777215054\\
-0.374291312244096	0.493941813699177\\
-0.368155389092554	0.331339850183298\\
-0.362019465941011	0.16873788666742\\
-0.355883542789469	0.00613592315154264\\
-0.349747619637926	-0.156466040364331\\
-0.343611696486384	2.82252464970958\\
-0.337475773334841	2.6599226861937\\
-0.331339850183299	2.49732072267782\\
-0.325203927031756	2.33471875916195\\
-0.319068003880213	2.17211679564607\\
-0.312932080728671	2.00951483213019\\
-0.306796157577128	1.84691286861431\\
-0.300660234425586	1.68431090509843\\
-0.294524311274043	1.52170894158256\\
-0.288388388122501	1.35910697806668\\
-0.282252464970958	1.1965050145508\\
-0.276116541819416	1.03390305103492\\
-0.269980618667873	0.871301087519044\\
-0.26384469551633	0.708699124003166\\
-0.257708772364788	0.546097160487289\\
-0.251572849213245	0.383495196971411\\
-0.245436926061703	0.220893233455533\\
-0.23930100291016	0.058291269939655\\
-0.233165079758618	-0.104310693576216\\
-0.227029156607075	2.87467999649769\\
-0.220893233455532	2.71207803298181\\
-0.21475731030399	2.54947606946594\\
-0.208621387152447	2.38687410595006\\
-0.202485464000905	2.22427214243418\\
-0.196349540849362	2.0616701789183\\
-0.19021361769782	1.89906821540242\\
-0.184077694546277	1.73646625188655\\
-0.177941771394734	1.57386428837067\\
-0.171805848243192	1.41126232485479\\
-0.165669925091649	1.24866036133891\\
-0.159534001940107	1.08605839782303\\
-0.153398078788564	0.923456434307156\\
-0.147262155637021	0.760854470791278\\
-0.141126232485479	0.5982525072754\\
-0.134990309333936	0.435650543759522\\
-0.128854386182394	0.273048580243645\\
-0.122718463030851	0.110446616727766\\
-0.116582539879309	-0.0521553467881155\\
-0.110446616727766	2.9268353432858\\
-0.104310693576223	2.76423337976993\\
-0.0981747704246811	2.60163141625405\\
-0.0920388472731384	2.43902945273817\\
-0.0859029241215961	2.27642748922229\\
-0.0797670009700533	2.11382552570641\\
-0.073631077818511	1.95122356219054\\
-0.0674951546669682	1.78862159867466\\
-0.0613592315154254	1.62601963515878\\
-0.0552233083638831	1.4634176716429\\
-0.0490873852123404	1.30081570812702\\
-0.042951462060798	1.13821374461115\\
-0.0368155389092553	0.975611781095268\\
-0.0306796157577129	0.81300981757939\\
-0.0245436926061702	0.650407854063512\\
-0.0184077694546279	0.487805890547634\\
-0.0122718463030851	0.325203927031756\\
-0.00613592315154277	0.162601963515878\\
4.44089209850063e-16	0\\
0.00613592315154277	-0.162601963515878\\
0.0122718463030855	-0.325203927031756\\
0.0184077694546279	-0.487805890547634\\
0.0245436926061706	-0.650407854063512\\
0.0306796157577129	-0.81300981757939\\
0.0368155389092557	-0.975611781095268\\
0.042951462060798	-1.13821374461115\\
0.0490873852123408	-1.30081570812702\\
0.0552233083638831	-1.4634176716429\\
0.0613592315154259	-1.62601963515878\\
0.0674951546669686	-1.78862159867466\\
0.073631077818511	-1.95122356219054\\
0.0797670009700537	-2.11382552570641\\
0.0859029241215961	-2.27642748922229\\
0.0920388472731388	-2.43902945273817\\
0.0981747704246811	-2.60163141625405\\
0.104310693576224	-2.76423337976993\\
0.110446616727766	-2.9268353432858\\
0.116582539879309	0.0521553467881155\\
0.122718463030851	-0.110446616727766\\
0.128854386182394	-0.273048580243645\\
0.134990309333937	-0.435650543759522\\
0.141126232485479	-0.5982525072754\\
0.147262155637022	-0.760854470791278\\
0.153398078788564	-0.923456434307156\\
0.159534001940107	-1.08605839782303\\
0.165669925091649	-1.24866036133891\\
0.171805848243192	-1.41126232485479\\
0.177941771394734	-1.57386428837067\\
0.184077694546277	-1.73646625188655\\
0.19021361769782	-1.89906821540242\\
0.196349540849362	-2.0616701789183\\
0.202485464000905	-2.22427214243418\\
0.208621387152447	-2.38687410595006\\
0.21475731030399	-2.54947606946594\\
0.220893233455532	-2.71207803298181\\
0.227029156607075	-2.87467999649769\\
0.233165079758618	0.104310693576216\\
0.23930100291016	-0.058291269939655\\
0.245436926061703	-0.220893233455533\\
0.251572849213245	-0.383495196971411\\
0.257708772364788	-0.546097160487289\\
0.26384469551633	-0.708699124003166\\
0.269980618667873	-0.871301087519044\\
0.276116541819416	-1.03390305103492\\
0.282252464970958	-1.1965050145508\\
0.288388388122501	-1.35910697806668\\
0.294524311274043	-1.52170894158256\\
0.300660234425586	-1.68431090509843\\
0.306796157577129	-1.84691286861431\\
0.312932080728671	-2.00951483213019\\
0.319068003880214	-2.17211679564607\\
0.325203927031756	-2.33471875916195\\
0.331339850183299	-2.49732072267782\\
0.337475773334841	-2.6599226861937\\
0.343611696486384	-2.82252464970958\\
0.349747619637927	0.156466040364331\\
0.355883542789469	-0.00613592315154264\\
0.362019465941012	-0.16873788666742\\
0.368155389092554	-0.331339850183298\\
0.374291312244097	-0.493941813699177\\
0.380427235395639	-0.656543777215054\\
0.386563158547182	-0.819145740730933\\
0.392699081698725	-0.98174770424681\\
0.398835004850267	-1.14434966776269\\
0.40497092800181	-1.30695163127857\\
0.411106851153352	-1.46955359479444\\
0.417242774304895	-1.63215555831032\\
0.423378697456437	-1.7947575218262\\
0.42951462060798	-1.95735948534208\\
0.435650543759522	-2.11996144885796\\
0.441786466911065	-2.28256341237383\\
0.447922390062607	-2.44516537588971\\
0.45405831321415	-2.60776733940559\\
0.460194236365693	-2.77036930292147\\
0.466330159517235	0.208621387152455\\
0.472466082668778	0.0460194236365701\\
0.47860200582032	-0.116582539879309\\
0.484737928971863	-0.279184503395187\\
0.490873852123405	-0.441786466911065\\
0.497009775274948	-0.604388430426943\\
0.50314569842649	-0.766990393942821\\
0.509281621578033	-0.929592357458699\\
0.515417544729575	-1.09219432097458\\
0.521553467881118	-1.25479628449045\\
0.527689391032661	-1.41739824800633\\
0.533825314184203	-1.58000021152221\\
0.539961237335746	-1.74260217503809\\
0.546097160487288	-1.90520413855397\\
0.552233083638831	-2.06780610206984\\
0.558369006790373	-2.23040806558572\\
0.564504929941916	-2.3930100291016\\
0.570640853093459	-2.55561199261748\\
0.576776776245001	-2.71821395613336\\
0.582912699396544	0.260776733940562\\
0.589048622548086	0.0981747704246814\\
0.595184545699629	-0.0644271930911968\\
0.601320468851172	-0.227029156607075\\
0.607456392002714	-0.389631120122953\\
0.613592315154257	-0.552233083638831\\
0.619728238305799	-0.714835047154709\\
0.625864161457342	-0.877437010670587\\
0.632000084608884	-1.04003897418646\\
0.638136007760427	-1.20264093770234\\
0.64427193091197	-1.36524290121822\\
0.650407854063512	-1.5278448647341\\
0.656543777215055	-1.69044682824998\\
0.662679700366597	-1.85304879176585\\
0.66881562351814	-2.01565075528173\\
0.674951546669682	-2.17825271879761\\
0.681087469821225	-2.34085468231349\\
0.687223392972768	-2.50345664582937\\
0.69335931612431	-2.66605860934525\\
0.699495239275853	0.312932080728674\\
0.705631162427395	0.150330117212792\\
0.711767085578938	-0.0122718463030852\\
0.717903008730481	-0.174873809818963\\
0.724038931882023	-0.337475773334841\\
0.730174855033566	-0.500077736850719\\
0.736310778185108	-0.662679700366597\\
0.742446701336651	-0.825281663882475\\
0.748582624488193	-0.987883627398354\\
0.754718547639736	-1.15048559091423\\
0.760854470791278	-1.31308755443011\\
0.766990393942821	-1.47568951794599\\
0.773126317094363	-1.63829148146186\\
0.779262240245906	-1.80089344497774\\
0.785398163397449	-1.96349540849362\\
0.791534086548991	-2.1260973720095\\
0.797670009700534	-2.28869933552538\\
0.803805932852076	-2.45130129904126\\
0.809941856003619	-2.61390326255713\\
0.816077779155161	0.365087427516782\\
0.822213702306704	0.202485464000904\\
0.828349625458246	0.0398835004850272\\
0.834485548609789	-0.122718463030852\\
0.840621471761331	-0.285320426546729\\
0.846757394912874	-0.447922390062607\\
0.852893318064417	-0.610524353578485\\
0.859029241215959	-0.773126317094363\\
0.865165164367502	-0.935728280610241\\
0.871301087519044	-1.09833024412612\\
0.877437010670587	-1.260932207642\\
0.88357293382213	-1.42353417115788\\
0.889708856973672	-1.58613613467375\\
0.895844780125215	-1.74873809818963\\
0.901980703276758	-1.91134006170551\\
0.908116626428299	-2.07394202522139\\
0.914252549579842	-2.23654398873726\\
0.920388472731386	-2.39914595225314\\
0.926524395882927	-2.56174791576902\\
0.93266031903447	0.417242774304886\\
0.938796242186013	0.254640810789016\\
0.944932165337555	0.0920388472731376\\
0.951068088489098	-0.0705631162427391\\
0.95720401164064	-0.233165079758617\\
0.963339934792183	-0.395767043274495\\
0.969475857943726	-0.558369006790373\\
0.975611781095268	-0.720970970306251\\
0.981747704246811	-0.883572933822129\\
0.987883627398354	-1.04617489733801\\
0.994019550549895	-1.20877686085389\\
1.00015547370144	-1.37137882436976\\
1.00629139685298	-1.53398078788564\\
1.01242732000452	-1.69658275140152\\
1.01856324315607	-1.8591847149174\\
1.02469916630761	-2.02178667843327\\
1.03083508945915	-2.18438864194915\\
1.03697101261069	-2.34699060546503\\
1.04310693576224	-2.50959256898091\\
1.04924285891378	0.469398121093005\\
1.05537878206532	0.306796157577129\\
1.06151470521686	0.14419419406125\\
1.06765062836841	-0.0184077694546277\\
1.07378655151995	-0.181009732970506\\
1.07992247467149	-0.343611696486384\\
1.08605839782303	-0.506213660002261\\
1.09219432097458	-0.66881562351814\\
1.09833024412612	-0.831417587034018\\
1.10446616727766	-0.994019550549896\\
1.1106020904292	-1.15662151406577\\
1.11673801358075	-1.31922347758165\\
1.12287393673229	-1.48182544109753\\
1.12900985988383	-1.64442740461341\\
1.13514578303537	-1.80702936812929\\
1.14128170618692	-1.96963133164516\\
1.14741762933846	-2.13223329516104\\
1.15355355249	-2.29483525867692\\
1.15968947564155	-2.45743722219279\\
1.16582539879309	0.521553467881129\\
1.17196132194463	0.358951504365242\\
1.17809724509617	0.196349540849362\\
1.18423316824772	0.0337475773334862\\
1.19036909139926	-0.128854386182394\\
1.1965050145508	-0.291456349698272\\
1.20264093770234	-0.45405831321415\\
1.20877686085389	-0.616660276730029\\
1.21491278400543	-0.779262240245906\\
1.22104870715697	-0.941864203761784\\
1.22718463030851	-1.10446616727766\\
1.23332055346006	-1.26706813079354\\
1.2394564766116	-1.42967009430942\\
1.24559239976314	-1.5922720578253\\
1.25172832291468	-1.75487402134117\\
1.25786424606623	-1.91747598485705\\
1.26400016921777	-2.08007794837293\\
1.27013609236931	-2.24267991188881\\
1.27627201552085	-2.40528187540469\\
1.2824079386724	0.57370881466923\\
1.28854386182394	0.411106851153352\\
1.29467978497548	0.248504887637475\\
1.30081570812702	0.0859029241215957\\
1.30695163127857	-0.076699039394282\\
1.31308755443011	-0.23930100291016\\
1.31922347758165	-0.401902966426038\\
1.32535940073319	-0.564504929941916\\
1.33149532388474	-0.727106893457794\\
1.33763124703628	-0.889708856973672\\
1.34376717018782	-1.05231082048955\\
1.34990309333936	-1.21491278400543\\
1.35603901649091	-1.37751474752131\\
1.36217493964245	-1.54011671103718\\
1.36831086279399	-1.70271867455306\\
1.37444678594554	-1.86532063806894\\
1.38058270909708	-2.02792260158482\\
1.38671863224862	-2.1905245651007\\
1.39285455540016	-2.35312652861658\\
1.3989904785517	0.625864161457345\\
1.40512640170325	0.463262197941465\\
1.41126232485479	0.300660234425585\\
1.41739824800633	0.138058270909709\\
1.42353417115788	-0.0245436926061701\\
1.42967009430942	-0.187145656122048\\
1.43580601746096	-0.349747619637926\\
1.4419419406125	-0.512349583153804\\
1.44807786376405	-0.674951546669682\\
1.45421378691559	-0.83755351018556\\
1.46034971006713	-1.00015547370144\\
1.46648563321867	-1.16275743721732\\
1.47262155637022	-1.32535940073319\\
1.47875747952176	-1.48796136424907\\
1.4848934026733	-1.65056332776495\\
1.49102932582484	-1.81316529128083\\
1.49716524897639	-1.9757672547967\\
1.50330117212793	-2.13836921831258\\
1.50943709527947	-2.30097118182845\\
1.51557301843101	0.678019508245471\\
1.52170894158256	0.51541754472958\\
1.5278448647341	0.352815581213698\\
1.53398078788564	0.190213617697819\\
1.54011671103718	0.027611654181944\\
1.54625263418873	-0.134990309333936\\
1.55238855734027	-0.297592272849814\\
1.55852448049181	-0.460194236365694\\
1.56466040364335	-0.622796199881568\\
1.5707963267949	-0.785398163397448\\
1.57693224994644	-0.948000126913323\\
1.58306817309798	-1.1106020904292\\
1.58920409624952	-1.27320405394508\\
1.59534001940107	-1.43580601746096\\
1.60147594255261	-1.59840798097684\\
1.60761186570415	-1.76100994449272\\
1.61374778885569	-1.92361190800859\\
1.61988371200724	-2.08621387152447\\
1.62601963515878	-2.24881583504034\\
1.63215555831032	0.730174855033578\\
1.63829148146186	0.567572891517688\\
1.64442740461341	0.40497092800181\\
1.65056332776495	0.24236896448593\\
1.65669925091649	0.0797670009700533\\
1.66283517406804	-0.0828349625458248\\
1.66897109721958	-0.245436926061702\\
1.67510702037112	-0.408038889577581\\
1.68124294352266	-0.570640853093459\\
1.68737886667421	-0.733242816609336\\
1.69351478982575	-0.895844780125215\\
1.69965071297729	-1.05844674364109\\
1.70578663612883	-1.22104870715697\\
1.71192255928038	-1.38365067067285\\
1.71805848243192	-1.54625263418873\\
1.72419440558346	-1.7088545977046\\
1.730330328735	-1.87145656122048\\
1.73646625188655	-2.03405852473636\\
1.74260217503809	-2.19666048825224\\
1.74873809818963	0.782330201821683\\
1.75487402134117	0.619728238305799\\
1.76100994449272	0.457126274789921\\
1.76714586764426	0.294524311274043\\
1.7732817907958	0.131922347758164\\
1.77941771394734	-0.0306796157577136\\
1.78555363709889	-0.193281579273591\\
1.79168956025043	-0.355883542789469\\
1.79782548340197	-0.518485506305347\\
1.80396140655351	-0.681087469821225\\
1.81009732970506	-0.843689433337103\\
1.8162332528566	-1.00629139685298\\
1.82236917600814	-1.16889336036886\\
1.82850509915968	-1.33149532388474\\
1.83464102231123	-1.49409728740061\\
1.84077694546277	-1.65669925091649\\
1.84691286861431	-1.81930121443237\\
1.85304879176585	-1.98190317794825\\
1.8591847149174	-2.14450514146413\\
1.86532063806894	0.83448554860979\\
1.87145656122048	0.671883585093912\\
1.87759248437203	0.509281621578032\\
1.88372840752357	0.346679658062155\\
1.88986433067511	0.184077694546277\\
1.89600025382665	0.0214757310303982\\
1.9021361769782	-0.141126232485478\\
1.90827210012974	-0.303728196001357\\
1.91440802328128	-0.466330159517234\\
1.92054394643282	-0.628932123033113\\
1.92667986958437	-0.791534086548991\\
1.93281579273591	-0.954136050064869\\
1.93895171588745	-1.11673801358075\\
1.94508763903899	-1.27933997709662\\
1.95122356219054	-1.4419419406125\\
1.95735948534208	-1.60454390412838\\
1.96349540849362	-1.76714586764426\\
1.96963133164516	-1.92974783116014\\
1.97576725479671	-2.092349794676\\
1.98190317794825	0.886640895397897\\
1.98803910109979	0.724038931882024\\
1.99417502425133	0.561436968366147\\
2.00031094740288	0.398835004850268\\
2.00644687055442	0.236233041334388\\
2.01258279370596	0.0736310778185104\\
2.0187187168575	-0.088970885697367\\
2.02485464000905	-0.251572849213246\\
2.03099056316059	-0.414174812729123\\
2.03712648631213	-0.576776776245001\\
2.04326240946367	-0.739378739760879\\
2.04939833261522	-0.901980703276757\\
2.05553425576676	-1.06458266679264\\
2.0616701789183	-1.22718463030851\\
2.06780610206985	-1.38978659382439\\
2.07394202522139	-1.55238855734027\\
2.08007794837293	-1.71499052085615\\
2.08621387152447	-1.87759248437203\\
2.09234979467601	-2.0401944478879\\
2.09848571782756	0.938796242186006\\
2.1046216409791	0.776194278670134\\
2.11075756413064	0.613592315154254\\
2.11689348728219	0.450990351638379\\
2.12302941043373	0.2883883881225\\
2.12916533358527	0.125786424606623\\
2.13530125673681	-0.0368155389092552\\
2.14143717988836	-0.199417502425133\\
2.1475731030399	-0.362019465941011\\
2.15370902619144	-0.524621429456889\\
2.15984494934298	-0.687223392972767\\
2.16598087249453	-0.849825356488645\\
2.17211679564607	-1.01242732000452\\
2.17825271879761	-1.1750292835204\\
2.18438864194915	-1.33763124703628\\
2.1905245651007	-1.50023321055216\\
2.19666048825224	-1.66283517406804\\
2.20279641140378	-1.82543713758391\\
2.20893233455532	-1.98803910109979\\
2.21506825770687	0.990951588974125\\
2.22120418085841	0.828349625458245\\
2.22734010400995	0.665747661942369\\
2.23347602716149	0.503145698426491\\
2.23961195031304	0.340543734910612\\
2.24574787346458	0.177941771394734\\
2.25188379661612	0.0153398078788567\\
2.25801971976766	-0.147262155637021\\
2.26415564291921	-0.3098641191529\\
2.27029156607075	-0.472466082668777\\
2.27642748922229	-0.635068046184656\\
2.28256341237383	-0.797670009700534\\
2.28869933552538	-0.96027197321641\\
2.29483525867692	-1.12287393673229\\
2.30097118182846	-1.28547590024817\\
2.30710710498	-1.44807786376405\\
2.31324302813155	-1.61067982727992\\
2.31937895128309	-1.7732817907958\\
2.32551487443463	-1.93588375431169\\
2.33165079758617	1.04310693576223\\
2.33778672073772	0.880504972246359\\
2.34392264388926	0.717903008730478\\
2.3500585670408	0.555301045214601\\
2.35619449019234	0.392699081698724\\
2.36233041334389	0.230097118182845\\
2.36846633649543	0.0674951546669684\\
2.37460225964697	-0.0951068088489091\\
2.38073818279852	-0.257708772364787\\
2.38687410595006	-0.420310735880666\\
2.3930100291016	-0.582912699396542\\
2.39914595225314	-0.745514662912421\\
2.40528187540469	-0.9081166264283\\
2.41141779855623	-1.07071858994418\\
2.41755372170777	-1.23332055346006\\
2.42368964485931	-1.39592251697593\\
2.42982556801086	-1.55852448049181\\
2.4359614911624	-1.72112644400769\\
2.44209741431394	-1.88372840752356\\
2.44823333746548	1.09526228255035\\
2.45436926061703	0.93266031903447\\
2.46050518376857	0.770058355518592\\
2.46664110692011	0.607456392002714\\
2.47277703007165	0.444854428486837\\
2.4789129532232	0.282252464970958\\
2.48504887637474	0.11965050145508\\
2.49118479952628	-0.0429514620607982\\
2.49732072267782	-0.205553425576676\\
2.50345664582937	-0.368155389092554\\
2.50959256898091	-0.530757352608433\\
2.51572849213245	-0.69335931612431\\
2.52186441528399	-0.855961279640188\\
2.52800033843554	-1.01856324315607\\
2.53413626158708	-1.18116520667194\\
2.54027218473862	-1.34376717018782\\
2.54640810789016	-1.5063691337037\\
2.55254403104171	-1.66897109721958\\
2.55867995419325	-1.83157306073548\\
2.56481587734479	1.14741762933845\\
2.57095180049633	0.984815665822579\\
2.57708772364788	0.822213702306704\\
2.58322364679942	0.659611738790826\\
2.58935956995096	0.497009775274948\\
2.59549549310251	0.33440781175907\\
2.60163141625405	0.171805848243191\\
2.60776733940559	0.00920388472731397\\
2.61390326255713	-0.153398078788564\\
2.62003918570868	-0.316000042304442\\
2.62617510886022	-0.47860200582032\\
2.63231103201176	-0.641203969336198\\
2.6384469551633	-0.803805932852075\\
2.64458287831485	-0.966407896367954\\
2.65071880146639	-1.12900985988383\\
2.65685472461793	-1.29161182339971\\
2.66299064776947	-1.45421378691559\\
2.66912657092102	-1.61681575043146\\
2.67526249407256	-1.77941771394732\\
2.6813984172241	1.19957297612657\\
2.68753434037564	1.03697101261069\\
2.69367026352719	0.874369049094816\\
2.69980618667873	0.711767085578937\\
2.70594210983027	0.54916512206306\\
2.71207803298181	0.386563158547182\\
2.71821395613336	0.223961195031305\\
2.7243498792849	0.0613592315154259\\
2.73048580243644	-0.101242732000452\\
2.73662172558798	-0.26384469551633\\
2.74275764873953	-0.426446659032209\\
2.74889357189107	-0.589048622548086\\
2.75502949504261	-0.751650586063964\\
2.76116541819415	-0.914252549579842\\
2.7673013413457	-1.07685451309572\\
2.77343726449724	-1.2394564766116\\
2.77957318764878	-1.40205844012747\\
2.78570911080032	-1.56466040364335\\
2.79184503395187	-1.7272623671592\\
2.79798095710341	1.25172832291468\\
2.80411688025495	1.08912635939881\\
2.8102528034065	0.926524395882927\\
2.81638872655804	0.763922432367049\\
2.82252464970958	0.601320468851172\\
2.82866057286112	0.438718505335293\\
2.83479649601267	0.276116541819415\\
2.84093241916421	0.113514578303538\\
2.84706834231575	-0.0490873852123404\\
2.85320426546729	-0.211689348728219\\
2.85934018861884	-0.374291312244097\\
2.86547611177038	-0.536893275759975\\
2.87161203492192	-0.699495239275852\\
2.87774795807346	-0.86209720279173\\
2.88388388122501	-1.02469916630761\\
2.89001980437655	-1.18730112982349\\
2.89615572752809	-1.34990309333937\\
2.90229165067963	-1.51250505685525\\
2.90842757383118	-1.67510702037111\\
2.91456349698272	1.30388366970279\\
2.92069942013426	1.14128170618692\\
2.9268353432858	0.97867974267104\\
2.93297126643735	0.816077779155162\\
2.93910718958889	0.653475815639283\\
2.94524311274043	0.490873852123405\\
2.95137903589197	0.328271888607527\\
2.95751495904352	0.16566992509165\\
2.96365088219506	0.00306796157577091\\
2.9697868053466	-0.159534001940107\\
2.97592272849814	-0.322135965455985\\
2.98205865164969	-0.484737928971863\\
2.98819457480123	-0.647339892487741\\
2.99433049795277	-0.80994185600362\\
3.00046642110431	-0.972543819519497\\
3.00660234425586	-1.13514578303537\\
3.0127382674074	-1.29774774655125\\
3.01887419055894	-1.46034971006713\\
3.02501011371048	-1.622951673583\\
3.03114603686203	1.3560390164909\\
3.03728196001357	1.19343705297503\\
3.04341788316511	1.03083508945915\\
3.04955380631665	0.868233125943273\\
3.0556897294682	0.705631162427396\\
3.06182565261974	0.543029198911517\\
3.06796157577128	0.380427235395639\\
3.07409749892282	0.217825271879764\\
3.08023342207437	0.0552233083638825\\
3.08636934522591	-0.107378655151993\\
3.09250526837745	-0.269980618667876\\
3.098641191529	-0.432582582183752\\
3.10477711468054	-0.59518454569963\\
3.11091303783208	-0.757786509215507\\
3.11704896098362	-0.920388472731387\\
3.12318488413517	-1.08299043624727\\
3.12932080728671	-1.24559239976314\\
3.13545673043825	-1.40819436327901\\
};
\addlegendentry{FIR}

\addplot [color=red, dashed, line width=2.0pt]
  table[row sep=crcr]{%
-3.14159265358979	1.56688873558236e-16\\
-3.13545673043825	0.00298929564769198\\
-3.12932080728671	0.00597858981546594\\
-3.12318488413517	0.00896788102329218\\
-3.11704896098362	0.011957167790919\\
-3.11091303783208	0.0149464486377599\\
-3.10477711468054	0.0179357220827836\\
-3.098641191529	0.0209249866444009\\
-3.09250526837745	0.0239142408403551\\
-3.08636934522591	0.0269034831876082\\
-3.08023342207437	0.0298927122022308\\
-3.07409749892282	0.0328819263992889\\
-3.06796157577128	0.0358711242927322\\
-3.06182565261974	0.0388603043952825\\
-3.0556897294682	0.0418494652183198\\
-3.04955380631665	0.0448386052717708\\
-3.04341788316511	0.047827723063995\\
-3.03728196001357	0.0508168171016726\\
-3.03114603686203	0.0538058858896896\\
-3.02501011371048	0.0567949279310257\\
-3.01887419055894	0.0597839417266383\\
-3.0127382674074	0.0627729257753501\\
-3.00660234425586	0.0657618785737329\\
-3.00046642110431	0.0687507986159927\\
-2.99433049795277	0.0717396843938554\\
-2.98819457480123	0.0747285343964492\\
-2.98205865164969	0.0777173471101897\\
-2.97592272849814	0.0807061210186619\\
-2.9697868053466	0.0836948546025048\\
-2.96365088219506	0.0866835463392912\\
-2.95751495904352	0.0896721947034122\\
-2.95137903589197	0.0926607981659565\\
-2.94524311274043	0.0956493551945919\\
-2.93910718958889	0.0986378642534463\\
-2.93297126643735	0.101626323802986\\
-2.9268353432858	0.104614732299895\\
-2.92069942013426	0.107603088196954\\
-2.91456349698272	0.110591389942918\\
-2.90842757383118	0.113579635982395\\
-2.90229165067963	0.116567824755718\\
-2.89615572752809	0.119555954698825\\
-2.89001980437655	0.122544024243133\\
-2.88388388122501	0.125532031815411\\
-2.87774795807346	0.128519975837655\\
-2.87161203492192	0.13150785472696\\
-2.86547611177038	0.134495666895392\\
-2.85934018861884	0.13748341074986\\
-2.85320426546729	0.140471084691985\\
-2.84706834231575	0.143458687117968\\
-2.84093241916421	0.146446216418463\\
-2.83479649601267	0.14943367097844\\
-2.82866057286112	0.152421049177054\\
-2.82252464970958	0.15540834938751\\
-2.81638872655804	0.158395569976927\\
-2.81025280340649	0.161382709306204\\
-2.80411688025495	0.164369765729878\\
-2.79798095710341	0.16735673759599\\
-2.79184503395187	0.170343623245943\\
-2.78570911080032	0.173330421014363\\
-2.77957318764878	0.176317129228954\\
-2.77343726449724	0.179303746210358\\
-2.7673013413457	0.18229027027201\\
-2.76116541819415	0.185276699719991\\
-2.75502949504261	0.188263032852883\\
-2.74889357189107	0.191249267961622\\
-2.74275764873953	0.194235403329343\\
-2.73662172558798	0.197221437231238\\
-2.73048580243644	0.200207367934394\\
-2.7243498792849	0.203193193697651\\
-2.71821395613336	0.206178912771435\\
-2.71207803298181	0.209164523397611\\
-2.70594210983027	0.21215002380932\\
-2.69980618667873	0.215135412230824\\
-2.69367026352719	0.218120686877337\\
-2.68753434037564	0.221105845954874\\
-2.6813984172241	0.224090887660077\\
-2.67526249407256	0.227075810180052\\
-2.66912657092102	0.230060611692207\\
-2.66299064776947	0.233045290364074\\
-2.65685472461793	0.236029844353144\\
-2.65071880146639	0.239014271806692\\
-2.64458287831485	0.241998570861604\\
-2.6384469551633	0.244982739644198\\
-2.63231103201176	0.247966776270049\\
-2.62617510886022	0.250950678843805\\
-2.62003918570868	0.253934445459009\\
-2.61390326255713	0.256918074197911\\
-2.60776733940559	0.259901563131282\\
-2.60163141625405	0.262884910318229\\
-2.5954954931025	0.265868113806001\\
-2.58935956995096	0.268851171629797\\
-2.58322364679942	0.271834081812573\\
-2.57708772364788	0.274816842364842\\
-2.57095180049633	0.277799451284475\\
-2.56481587734479	0.280781906556503\\
-2.55867995419325	0.283764206152905\\
-2.55254403104171	0.286746348032411\\
-2.54640810789016	0.289728330140283\\
-2.54027218473862	0.292710150408111\\
-2.53413626158708	0.295691806753594\\
-2.52800033843554	0.298673297080327\\
-2.52186441528399	0.301654619277576\\
-2.51572849213245	0.30463577122006\\
-2.50959256898091	0.307616750767725\\
-2.50345664582937	0.310597555765515\\
-2.49732072267782	0.313578184043141\\
-2.49118479952628	0.31655863341485\\
-2.48504887637474	0.319538901679182\\
-2.4789129532232	0.322518986618737\\
-2.47277703007165	0.325498885999927\\
-2.46664110692011	0.328478597572734\\
-2.46050518376857	0.331458119070455\\
-2.45436926061703	0.334437448209454\\
-2.44823333746548	0.337416582688905\\
-2.44209741431394	0.34039552019053\\
-2.4359614911624	0.343374258378339\\
-2.42982556801086	0.34635279489836\\
-2.42368964485931	0.349331127378371\\
-2.41755372170777	0.352309253427628\\
-2.41141779855623	0.355287170636583\\
-2.40528187540469	0.358264876576603\\
-2.39914595225314	0.361242368799689\\
-2.3930100291016	0.36421964483818\\
-2.38687410595006	0.367196702204465\\
-2.38073818279852	0.370173538390683\\
-2.37460225964697	0.37315015086842\\
-2.36846633649543	0.376126537088404\\
-2.36233041334389	0.379102694480196\\
-2.35619449019234	0.382078620451872\\
-2.3500585670408	0.385054312389703\\
-2.34392264388926	0.388029767657836\\
-2.33778672073772	0.391004983597958\\
-2.33165079758617	0.393979957528968\\
-2.32551487443463	0.396954686746635\\
-2.31937895128309	0.399929168523253\\
-2.31324302813155	0.402903400107298\\
-2.30710710498	0.405877378723067\\
-2.30097118182846	0.408851101570323\\
-2.29483525867692	0.411824565823929\\
-2.28869933552538	0.414797768633477\\
-2.28256341237383	0.417770707122913\\
-2.27642748922229	0.420743378390157\\
-2.27029156607075	0.42371577950671\\
-2.26415564291921	0.426687907517267\\
-2.25801971976766	0.429659759439314\\
-2.25188379661612	0.432631332262722\\
-2.24574787346458	0.435602622949337\\
-2.23961195031304	0.438573628432562\\
-2.23347602716149	0.441544345616925\\
-2.22734010400995	0.444514771377658\\
-2.22120418085841	0.447484902560252\\
-2.21506825770687	0.450454735980011\\
-2.20893233455532	0.453424268421601\\
-2.20279641140378	0.456393496638592\\
-2.19666048825224	0.459362417352988\\
-2.1905245651007	0.462331027254751\\
-2.18438864194915	0.465299323001323\\
-2.17825271879761	0.468267301217132\\
-2.17211679564607	0.471234958493096\\
-2.16598087249453	0.474202291386112\\
-2.15984494934298	0.477169296418549\\
-2.15370902619144	0.480135970077718\\
-2.1475731030399	0.483102308815341\\
-2.14143717988836	0.486068309047013\\
-2.13530125673681	0.48903396715165\\
-2.12916533358527	0.49199927947093\\
-2.12302941043373	0.494964242308726\\
-2.11689348728218	0.497928851930525\\
-2.11075756413064	0.500893104562843\\
-2.1046216409791	0.503856996392626\\
-2.09848571782756	0.506820523566641\\
-2.09234979467601	0.509783682190862\\
-2.08621387152447	0.512746468329832\\
-2.08007794837293	0.515708878006033\\
-2.07394202522139	0.518670907199229\\
-2.06780610206984	0.521632551845804\\
-2.0616701789183	0.524593807838091\\
-2.05553425576676	0.527554671023682\\
-2.04939833261522	0.530515137204736\\
-2.04326240946367	0.533475202137264\\
-2.03712648631213	0.536434861530407\\
-2.03099056316059	0.539394111045704\\
-2.02485464000905	0.542352946296339\\
-2.0187187168575	0.545311362846384\\
-2.01258279370596	0.548269356210019\\
-2.00644687055442	0.551226921850744\\
-2.00031094740288	0.554184055180576\\
-1.99417502425133	0.557140751559232\\
-1.98803910109979	0.56009700629329\\
-1.98190317794825	0.563052814635346\\
-1.97576725479671	0.56600817178315\\
-1.96963133164516	0.568963072878724\\
-1.96349540849362	0.571917513007464\\
-1.95735948534208	0.57487148719723\\
-1.95122356219054	0.57782499041742\\
-1.94508763903899	0.580778017578013\\
-1.93895171588745	0.583730563528615\\
-1.93281579273591	0.586682623057467\\
-1.92667986958437	0.589634190890452\\
-1.92054394643282	0.592585261690066\\
-1.91440802328128	0.595535830054385\\
-1.90827210012974	0.598485890516004\\
-1.9021361769782	0.601435437540956\\
-1.89600025382665	0.604384465527609\\
-1.88986433067511	0.607332968805552\\
-1.88372840752357	0.610280941634443\\
-1.87759248437202	0.613228378202849\\
-1.87145656122048	0.616175272627058\\
-1.86532063806894	0.61912161894986\\
-1.8591847149174	0.622067411139325\\
-1.85304879176585	0.625012643087532\\
-1.84691286861431	0.627957308609288\\
-1.84077694546277	0.630901401440824\\
-1.83464102231123	0.63384491523845\\
-1.82850509915968	0.6367878435772\\
-1.82236917600814	0.639730179949438\\
-1.8162332528566	0.642671917763443\\
-1.81009732970506	0.645613050341963\\
-1.80396140655351	0.648553570920737\\
-1.79782548340197	0.651493472646991\\
-1.79168956025043	0.654432748577904\\
-1.78555363709889	0.657371391679036\\
-1.77941771394734	0.660309394822735\\
-1.7732817907958	0.663246750786498\\
-1.76714586764426	0.666183452251307\\
-1.76100994449272	0.669119491799931\\
-1.75487402134117	0.672054861915184\\
-1.74873809818963	0.674989554978158\\
-1.74260217503809	0.67792356326641\\
-1.73646625188655	0.680856878952116\\
-1.730330328735	0.683789494100179\\
-1.72419440558346	0.68672140066631\\
-1.71805848243192	0.689652590495055\\
-1.71192255928038	0.692583055317785\\
-1.70578663612883	0.695512786750644\\
-1.69965071297729	0.698441776292453\\
-1.69351478982575	0.701370015322563\\
-1.68737886667421	0.70429749509867\\
-1.68124294352266	0.707224206754578\\
-1.67510702037112	0.710150141297909\\
-1.66897109721958	0.713075289607774\\
-1.66283517406803	0.715999642432379\\
-1.65669925091649	0.71892319038659\\
-1.65056332776495	0.721845923949436\\
-1.64442740461341	0.724767833461559\\
-1.63829148146186	0.727688909122612\\
-1.63215555831032	0.730609140988588\\
-1.62601963515878	0.733528518969096\\
-1.61988371200724	0.736447032824578\\
-1.61374778885569	0.739364672163455\\
-1.60761186570415	0.742281426439215\\
-1.60147594255261	0.745197284947427\\
-1.59534001940107	0.748112236822694\\
-1.58920409624952	0.751026271035533\\
-1.58306817309798	0.753939376389181\\
-1.57693224994644	0.756851541516327\\
-1.5707963267949	0.759762754875771\\
-1.56466040364335	0.762673004749001\\
-1.55852448049181	0.765582279236691\\
-1.55238855734027	0.768490566255118\\
-1.54625263418873	0.771397853532491\\
-1.54011671103718	0.774304128605194\\
-1.53398078788564	0.777209378813941\\
-1.5278448647341	0.780113591299833\\
-1.52170894158256	0.783016753000331\\
-1.51557301843101	0.785918850645116\\
-1.50943709527947	0.788819870751864\\
-1.50330117212793	0.791719799621909\\
-1.49716524897639	0.794618623335799\\
-1.49102932582484	0.797516327748749\\
-1.4848934026733	0.800412898485979\\
-1.47875747952176	0.803308320937932\\
-1.47262155637022	0.806202580255378\\
-1.46648563321867	0.809095661344396\\
-1.46034971006713	0.811987548861228\\
-1.45421378691559	0.814878227207\\
-1.44807786376405	0.817767680522318\\
-1.4419419406125	0.820655892681714\\
-1.43580601746096	0.823542847287967\\
-1.42967009430942	0.826428527666262\\
-1.42353417115788	0.829312916858206\\
-1.41739824800633	0.832195997615693\\
-1.41126232485479	0.835077752394599\\
-1.40512640170325	0.837958163348323\\
-1.3989904785517	0.840837212321153\\
-1.39285455540016	0.843714880841459\\
-1.38671863224862	0.846591150114704\\
-1.38058270909708	0.849466001016274\\
-1.37444678594553	0.852339414084111\\
-1.36831086279399	0.855211369511153\\
-1.36217493964245	0.858081847137567\\
-1.35603901649091	0.860950826442775\\
-1.34990309333936	0.863818286537263\\
-1.34376717018782	0.866684206154163\\
-1.33763124703628	0.86954856364061\\
-1.33149532388474	0.872411336948854\\
-1.32535940073319	0.875272503627135\\
-1.31922347758165	0.878132040810293\\
-1.31308755443011	0.880989925210128\\
-1.30695163127857	0.883846133105479\\
-1.30081570812702	0.886700640332032\\
-1.29467978497548	0.889553422271832\\
-1.28854386182394	0.892404453842501\\
-1.2824079386724	0.895253709486148\\
-1.27627201552085	0.898101163157956\\
-1.27013609236931	0.900946788314446\\
-1.26400016921777	0.903790557901397\\
-1.25786424606623	0.90663244434141\\
-1.25172832291468	0.909472419521116\\
-1.24559239976314	0.912310454778004\\
-1.2394564766116	0.915146520886854\\
-1.23332055346006	0.917980588045777\\
-1.22718463030851	0.920812625861831\\
-1.22104870715697	0.923642603336203\\
-1.21491278400543	0.926470488848955\\
-1.20877686085389	0.929296250143293\\
-1.20264093770234	0.932119854309369\\
-1.1965050145508	0.934941267767578\\
-1.19036909139926	0.937760456251349\\
-1.18423316824771	0.940577384789394\\
-1.17809724509617	0.943392017687411\\
-1.17196132194463	0.946204318509215\\
-1.16582539879309	0.949014250057273\\
-1.15968947564154	0.951821774352629\\
-1.15355355249	0.95462685261418\\
-1.14741762933846	0.957429445237306\\
-1.14128170618692	0.960229511771802\\
-1.13514578303537	0.963027010899103\\
-1.12900985988383	0.965821900408766\\
-1.12287393673229	0.968614137174192\\
-1.11673801358075	0.971403677127545\\
-1.1106020904292	0.974190475233844\\
-1.10446616727766	0.976974485464199\\
-1.09833024412612	0.979755660768154\\
-1.09219432097458	0.982533953045103\\
-1.08605839782303	0.985309313114734\\
-1.07992247467149	0.988081690686489\\
-1.07378655151995	0.990851034327959\\
-1.06765062836841	0.993617291432216\\
-1.06151470521686	0.996380408184005\\
-1.05537878206532	0.99914032952477\\
-1.04924285891378	1.00189699911645\\
-1.04310693576224	1.00465035930404\\
-1.03697101261069	1.00740035107674\\
-1.03083508945915	1.01014691402786\\
-1.02469916630761	1.01288998631317\\
-1.01856324315607	1.01562950460783\\
-1.01242732000452	1.01836540406172\\
-1.00629139685298	1.02109761825314\\
-1.00015547370144	1.02382607914091\\
-0.994019550549896	1.02655071701455\\
-0.987883627398353	1.02927146044276\\
-0.981747704246811	1.03198823621987\\
-0.975611781095268	1.0347009693104\\
-0.969475857943725	1.03740958279138\\
-0.963339934792183	1.04011399779262\\
-0.95720401164064	1.04281413343461\\
-0.951068088489098	1.04550990676407\\
-0.944932165337555	1.04820123268698\\
-0.938796242186013	1.05088802389905\\
-0.93266031903447	1.0535701908134\\
-0.926524395882927	1.05624764148545\\
-0.920388472731385	1.05892028153477\\
-0.914252549579842	1.06158801406384\\
-0.9081166264283	1.06425073957353\\
-0.901980703276757	1.06690835587518\\
-0.895844780125215	1.06956075799902\\
-0.889708856973672	1.07220783809897\\
-0.883572933822129	1.07484948535332\\
-0.877437010670587	1.07748558586142\\
-0.871301087519044	1.08011602253601\\
-0.865165164367502	1.08274067499094\\
-0.859029241215959	1.08535941942419\\
-0.852893318064416	1.08797212849585\\
-0.846757394912874	1.09057867120083\\
-0.840621471761331	1.09317891273611\\
-0.834485548609789	1.09577271436205\\
-0.828349625458246	1.09835993325775\\
-0.822213702306704	1.10094042236986\\
-0.816077779155161	1.1035140302547\\
-0.809941856003618	1.10608060091327\\
-0.803805932852076	1.10863997361874\\
-0.797670009700533	1.11119198273604\\
-0.791534086548991	1.11373645753326\\
-0.785398163397448	1.11627322198408\\
-0.779262240245906	1.1188020945612\\
-0.773126317094363	1.12132288801984\\
-0.76699039394282	1.12383540917105\\
-0.760854470791278	1.12633945864414\\
-0.754718547639735	1.12883483063767\\
-0.748582624488193	1.13132131265828\\
-0.74244670133665	1.1337986852467\\
-0.736310778185108	1.13626672169033\\
-0.730174855033565	1.1387251877213\\
-0.724038931882023	1.14117384119955\\
-0.71790300873048	1.14361243177967\\
-0.711767085578937	1.14604070056087\\
-0.705631162427395	1.14845837971878\\
-0.699495239275852	1.15086519211816\\
-0.69335931612431	1.15326085090535\\
-0.687223392972767	1.15564505907904\\
-0.681087469821225	1.15801750903827\\
-0.674951546669682	1.16037788210601\\
-0.66881562351814	1.1627258480269\\
-0.662679700366597	1.16506106443748\\
-0.656543777215055	1.16738317630708\\
-0.650407854063512	1.16969181534751\\
-0.644271930911969	1.17198659938961\\
-0.638136007760427	1.17426713172417\\
-0.632000084608884	1.17653300040523\\
-0.625864161457342	1.17878377751285\\
-0.619728238305799	1.18101901837288\\
-0.613592315154257	1.18323826073059\\
-0.607456392002714	1.18544102387508\\
-0.601320468851172	1.1876268077109\\
-0.595184545699629	1.18979509177327\\
-0.589048622548086	1.19194533418277\\
-0.582912699396544	1.19407697053514\\
-0.576776776245001	1.19618941272158\\
-0.570640853093459	1.19828204767421\\
-0.564504929941916	1.20035423603132\\
-0.558369006790373	1.20240531071622\\
-0.552233083638831	1.20443457542328\\
-0.546097160487288	1.20644130300385\\
-0.539961237335746	1.20842473374441\\
-0.533825314184203	1.21038407352841\\
-0.527689391032661	1.21231849187266\\
-0.521553467881118	1.21422711982802\\
-0.515417544729575	1.21610904773359\\
-0.509281621578033	1.21796332281218\\
-0.50314569842649	1.21978894659395\\
-0.497009775274948	1.22158487215384\\
-0.490873852123405	1.22335000114682\\
-0.484737928971863	1.22508318062361\\
-0.47860200582032	1.22678319960783\\
-0.472466082668777	1.22844878541342\\
-0.466330159517235	1.23007859967926\\
-0.460194236365692	1.23167123409529\\
-0.45405831321415	1.23322520579212\\
-0.447922390062607	1.2347389523627\\
-0.441786466911064	1.23621082648165\\
-0.435650543759522	1.23763909008402\\
-0.429514620607979	1.23902190806088\\
-0.423378697456437	1.24035734142465\\
-0.417242774304894	1.24164333989176\\
-0.411106851153352	1.24287773382399\\
-0.404970928001809	1.24405822546339\\
-0.398835004850267	1.2451823793879\\
-0.392699081698724	1.24624761210599\\
-0.386563158547181	1.24725118069915\\
-0.380427235395639	1.24819017040952\\
-0.374291312244096	1.24906148105739\\
-0.368155389092554	1.24986181215886\\
-0.362019465941011	1.25058764659721\\
-0.355883542789469	1.2512352326826\\
-0.349747619637926	1.25180056441295\\
-0.343611696486384	1.25227935972383\\
-0.337475773334841	1.25266703648627\\
-0.331339850183299	1.25295868597824\\
-0.325203927031756	1.25314904351705\\
-0.319068003880213	1.25323245589528\\
-0.312932080728671	1.25320284521123\\
-0.306796157577128	1.25305366862444\\
-0.300660234425586	1.25277787349679\\
-0.294524311274043	1.25236784729728\\
-0.288388388122501	1.25181536155242\\
-0.282252464970958	1.25111150901094\\
-0.276116541819416	1.25024663305827\\
-0.269980618667873	1.24921024825868\\
-0.26384469551633	1.24799095071699\\
-0.257708772364788	1.24657631673002\\
-0.251572849213245	1.24495278793521\\
-0.245436926061703	1.24310554084929\\
-0.23930100291016	1.24101833831429\\
-0.233165079758618	1.2386733599168\\
-0.227029156607075	1.2360510079041\\
-0.220893233455532	1.2331296844662\\
-0.21475731030399	1.22988553546097\\
-0.208621387152447	1.22629215470037\\
-0.202485464000905	1.22232024174872\\
-0.196349540849362	1.21793720476358\\
-0.19021361769782	1.21310669817577\\
-0.184077694546277	1.20778808288514\\
-0.177941771394734	1.20193579405537\\
-0.171805848243192	1.19549859841462\\
-0.165669925091649	1.18841871908318\\
-0.159534001940107	1.1806308012004\\
-0.153398078788564	1.17206068584286\\
-0.147262155637021	1.1626239527283\\
-0.141126232485479	1.15222418381277\\
-0.134990309333936	1.1407508899863\\
-0.128854386182394	1.12807703166579\\
-0.122718463030851	1.11405605146793\\
-0.116582539879309	1.0985183241822\\
-0.110446616727766	1.08126691787481\\
-0.104310693576223	1.06207255398465\\
-0.0981747704246811	1.04066766097615\\
-0.0920388472731384	1.01673944865985\\
-0.0859029241215961	0.989922011875737\\
-0.0797670009700533	0.959787642566068\\
-0.073631077818511	0.925837854140223\\
-0.0674951546669682	0.887495205694349\\
-0.0613592315154254	0.844098010077513\\
-0.0552233083638831	0.794901619076693\\
-0.0490873852123404	0.7390923918396\\
-0.042951462060798	0.675823662548532\\
-0.0368155389092553	0.604286370355783\\
-0.0306796157577129	0.523828339929575\\
-0.0245436926061702	0.434130847094275\\
-0.0184077694546279	0.335432164201166\\
-0.0122718463030851	0.228750865724028\\
-0.00613592315154277	0.116016783103716\\
4.44089209850063e-16	0\\
0.00613592315154277	-0.116016783103716\\
0.0122718463030855	-0.228750865724032\\
0.0184077694546279	-0.335432164201159\\
0.0245436926061706	-0.434130847094273\\
0.0306796157577129	-0.523828339929576\\
0.0368155389092557	-0.604286370355787\\
0.042951462060798	-0.675823662548529\\
0.0490873852123408	-0.739092391839599\\
0.0552233083638831	-0.794901619076694\\
0.0613592315154259	-0.844098010077517\\
0.0674951546669686	-0.887495205694347\\
0.073631077818511	-0.925837854140223\\
0.0797670009700537	-0.959787642566068\\
0.0859029241215961	-0.989922011875735\\
0.0920388472731388	-1.01673944865985\\
0.0981747704246811	-1.04066766097615\\
0.104310693576224	-1.06207255398465\\
0.110446616727766	-1.08126691787481\\
0.116582539879309	-1.0985183241822\\
0.122718463030851	-1.11405605146793\\
0.128854386182394	-1.12807703166579\\
0.134990309333937	-1.1407508899863\\
0.141126232485479	-1.15222418381277\\
0.147262155637022	-1.1626239527283\\
0.153398078788564	-1.17206068584286\\
0.159534001940107	-1.1806308012004\\
0.165669925091649	-1.18841871908318\\
0.171805848243192	-1.19549859841462\\
0.177941771394734	-1.20193579405537\\
0.184077694546277	-1.20778808288514\\
0.19021361769782	-1.21310669817577\\
0.196349540849362	-1.21793720476358\\
0.202485464000905	-1.22232024174872\\
0.208621387152447	-1.22629215470037\\
0.21475731030399	-1.22988553546097\\
0.220893233455532	-1.2331296844662\\
0.227029156607075	-1.2360510079041\\
0.233165079758618	-1.2386733599168\\
0.23930100291016	-1.24101833831429\\
0.245436926061703	-1.24310554084929\\
0.251572849213245	-1.24495278793521\\
0.257708772364788	-1.24657631673002\\
0.26384469551633	-1.24799095071699\\
0.269980618667873	-1.24921024825868\\
0.276116541819416	-1.25024663305827\\
0.282252464970958	-1.25111150901094\\
0.288388388122501	-1.25181536155242\\
0.294524311274043	-1.25236784729728\\
0.300660234425586	-1.25277787349679\\
0.306796157577129	-1.25305366862444\\
0.312932080728671	-1.25320284521123\\
0.319068003880214	-1.25323245589528\\
0.325203927031756	-1.25314904351705\\
0.331339850183299	-1.25295868597824\\
0.337475773334841	-1.25266703648627\\
0.343611696486384	-1.25227935972383\\
0.349747619637927	-1.25180056441295\\
0.355883542789469	-1.2512352326826\\
0.362019465941012	-1.25058764659721\\
0.368155389092554	-1.24986181215886\\
0.374291312244097	-1.24906148105739\\
0.380427235395639	-1.24819017040952\\
0.386563158547182	-1.24725118069915\\
0.392699081698725	-1.24624761210599\\
0.398835004850267	-1.2451823793879\\
0.40497092800181	-1.24405822546339\\
0.411106851153352	-1.24287773382399\\
0.417242774304895	-1.24164333989176\\
0.423378697456437	-1.24035734142465\\
0.42951462060798	-1.23902190806088\\
0.435650543759522	-1.23763909008402\\
0.441786466911065	-1.23621082648165\\
0.447922390062607	-1.2347389523627\\
0.45405831321415	-1.23322520579212\\
0.460194236365693	-1.23167123409529\\
0.466330159517235	-1.23007859967926\\
0.472466082668778	-1.22844878541342\\
0.47860200582032	-1.22678319960783\\
0.484737928971863	-1.22508318062361\\
0.490873852123405	-1.22335000114682\\
0.497009775274948	-1.22158487215384\\
0.50314569842649	-1.21978894659395\\
0.509281621578033	-1.21796332281218\\
0.515417544729575	-1.21610904773359\\
0.521553467881118	-1.21422711982802\\
0.527689391032661	-1.21231849187266\\
0.533825314184203	-1.21038407352841\\
0.539961237335746	-1.20842473374441\\
0.546097160487288	-1.20644130300385\\
0.552233083638831	-1.20443457542328\\
0.558369006790373	-1.20240531071622\\
0.564504929941916	-1.20035423603132\\
0.570640853093459	-1.19828204767421\\
0.576776776245001	-1.19618941272158\\
0.582912699396544	-1.19407697053514\\
0.589048622548086	-1.19194533418277\\
0.595184545699629	-1.18979509177327\\
0.601320468851172	-1.1876268077109\\
0.607456392002714	-1.18544102387508\\
0.613592315154257	-1.18323826073059\\
0.619728238305799	-1.18101901837288\\
0.625864161457342	-1.17878377751285\\
0.632000084608884	-1.17653300040523\\
0.638136007760427	-1.17426713172417\\
0.64427193091197	-1.17198659938961\\
0.650407854063512	-1.16969181534751\\
0.656543777215055	-1.16738317630708\\
0.662679700366597	-1.16506106443748\\
0.66881562351814	-1.1627258480269\\
0.674951546669682	-1.16037788210601\\
0.681087469821225	-1.15801750903827\\
0.687223392972768	-1.15564505907904\\
0.69335931612431	-1.15326085090535\\
0.699495239275853	-1.15086519211816\\
0.705631162427395	-1.14845837971878\\
0.711767085578938	-1.14604070056087\\
0.717903008730481	-1.14361243177967\\
0.724038931882023	-1.14117384119955\\
0.730174855033566	-1.1387251877213\\
0.736310778185108	-1.13626672169033\\
0.742446701336651	-1.1337986852467\\
0.748582624488193	-1.13132131265828\\
0.754718547639736	-1.12883483063767\\
0.760854470791278	-1.12633945864414\\
0.766990393942821	-1.12383540917105\\
0.773126317094363	-1.12132288801984\\
0.779262240245906	-1.1188020945612\\
0.785398163397449	-1.11627322198408\\
0.791534086548991	-1.11373645753326\\
0.797670009700534	-1.11119198273604\\
0.803805932852076	-1.10863997361874\\
0.809941856003619	-1.10608060091327\\
0.816077779155161	-1.1035140302547\\
0.822213702306704	-1.10094042236986\\
0.828349625458246	-1.09835993325775\\
0.834485548609789	-1.09577271436205\\
0.840621471761331	-1.09317891273611\\
0.846757394912874	-1.09057867120083\\
0.852893318064417	-1.08797212849585\\
0.859029241215959	-1.08535941942419\\
0.865165164367502	-1.08274067499094\\
0.871301087519044	-1.08011602253601\\
0.877437010670587	-1.07748558586142\\
0.88357293382213	-1.07484948535332\\
0.889708856973672	-1.07220783809897\\
0.895844780125215	-1.06956075799902\\
0.901980703276758	-1.06690835587518\\
0.908116626428299	-1.06425073957353\\
0.914252549579842	-1.06158801406384\\
0.920388472731386	-1.05892028153477\\
0.926524395882927	-1.05624764148545\\
0.93266031903447	-1.0535701908134\\
0.938796242186013	-1.05088802389905\\
0.944932165337555	-1.04820123268698\\
0.951068088489098	-1.04550990676406\\
0.95720401164064	-1.04281413343461\\
0.963339934792183	-1.04011399779262\\
0.969475857943726	-1.03740958279138\\
0.975611781095268	-1.0347009693104\\
0.981747704246811	-1.03198823621987\\
0.987883627398354	-1.02927146044276\\
0.994019550549895	-1.02655071701455\\
1.00015547370144	-1.02382607914091\\
1.00629139685298	-1.02109761825314\\
1.01242732000452	-1.01836540406172\\
1.01856324315607	-1.01562950460783\\
1.02469916630761	-1.01288998631317\\
1.03083508945915	-1.01014691402786\\
1.03697101261069	-1.00740035107674\\
1.04310693576224	-1.00465035930404\\
1.04924285891378	-1.00189699911645\\
1.05537878206532	-0.99914032952477\\
1.06151470521686	-0.996380408184005\\
1.06765062836841	-0.993617291432216\\
1.07378655151995	-0.990851034327959\\
1.07992247467149	-0.988081690686489\\
1.08605839782303	-0.985309313114734\\
1.09219432097458	-0.982533953045102\\
1.09833024412612	-0.979755660768154\\
1.10446616727766	-0.976974485464199\\
1.1106020904292	-0.974190475233844\\
1.11673801358075	-0.971403677127545\\
1.12287393673229	-0.968614137174193\\
1.12900985988383	-0.965821900408766\\
1.13514578303537	-0.963027010899102\\
1.14128170618692	-0.960229511771802\\
1.14741762933846	-0.957429445237306\\
1.15355355249	-0.95462685261418\\
1.15968947564155	-0.951821774352629\\
1.16582539879309	-0.949014250057274\\
1.17196132194463	-0.946204318509215\\
1.17809724509617	-0.943392017687411\\
1.18423316824772	-0.940577384789394\\
1.19036909139926	-0.93776045625135\\
1.1965050145508	-0.934941267767578\\
1.20264093770234	-0.932119854309369\\
1.20877686085389	-0.929296250143293\\
1.21491278400543	-0.926470488848955\\
1.22104870715697	-0.923642603336203\\
1.22718463030851	-0.920812625861831\\
1.23332055346006	-0.917980588045777\\
1.2394564766116	-0.915146520886854\\
1.24559239976314	-0.912310454778004\\
1.25172832291468	-0.909472419521116\\
1.25786424606623	-0.90663244434141\\
1.26400016921777	-0.903790557901397\\
1.27013609236931	-0.900946788314446\\
1.27627201552085	-0.898101163157956\\
1.2824079386724	-0.895253709486148\\
1.28854386182394	-0.892404453842501\\
1.29467978497548	-0.889553422271832\\
1.30081570812702	-0.886700640332033\\
1.30695163127857	-0.883846133105479\\
1.31308755443011	-0.880989925210128\\
1.31922347758165	-0.878132040810293\\
1.32535940073319	-0.875272503627135\\
1.33149532388474	-0.872411336948855\\
1.33763124703628	-0.86954856364061\\
1.34376717018782	-0.866684206154163\\
1.34990309333936	-0.863818286537263\\
1.35603901649091	-0.860950826442775\\
1.36217493964245	-0.858081847137567\\
1.36831086279399	-0.855211369511153\\
1.37444678594554	-0.852339414084111\\
1.38058270909708	-0.849466001016274\\
1.38671863224862	-0.846591150114704\\
1.39285455540016	-0.843714880841459\\
1.3989904785517	-0.840837212321153\\
1.40512640170325	-0.837958163348323\\
1.41126232485479	-0.835077752394599\\
1.41739824800633	-0.832195997615693\\
1.42353417115788	-0.829312916858206\\
1.42967009430942	-0.826428527666262\\
1.43580601746096	-0.823542847287967\\
1.4419419406125	-0.820655892681714\\
1.44807786376405	-0.817767680522318\\
1.45421378691559	-0.814878227207001\\
1.46034971006713	-0.811987548861228\\
1.46648563321867	-0.809095661344396\\
1.47262155637022	-0.806202580255378\\
1.47875747952176	-0.803308320937931\\
1.4848934026733	-0.800412898485979\\
1.49102932582484	-0.797516327748749\\
1.49716524897639	-0.794618623335798\\
1.50330117212793	-0.791719799621909\\
1.50943709527947	-0.788819870751864\\
1.51557301843101	-0.785918850645116\\
1.52170894158256	-0.783016753000331\\
1.5278448647341	-0.780113591299834\\
1.53398078788564	-0.777209378813941\\
1.54011671103718	-0.774304128605194\\
1.54625263418873	-0.771397853532491\\
1.55238855734027	-0.768490566255118\\
1.55852448049181	-0.76558227923669\\
1.56466040364335	-0.762673004749\\
1.5707963267949	-0.759762754875771\\
1.57693224994644	-0.756851541516327\\
1.58306817309798	-0.753939376389181\\
1.58920409624952	-0.751026271035533\\
1.59534001940107	-0.748112236822694\\
1.60147594255261	-0.745197284947427\\
1.60761186570415	-0.742281426439215\\
1.61374778885569	-0.739364672163455\\
1.61988371200724	-0.736447032824578\\
1.62601963515878	-0.733528518969095\\
1.63215555831032	-0.730609140988587\\
1.63829148146186	-0.727688909122612\\
1.64442740461341	-0.724767833461559\\
1.65056332776495	-0.721845923949436\\
1.65669925091649	-0.71892319038659\\
1.66283517406804	-0.715999642432379\\
1.66897109721958	-0.713075289607774\\
1.67510702037112	-0.710150141297909\\
1.68124294352266	-0.707224206754578\\
1.68737886667421	-0.70429749509867\\
1.69351478982575	-0.701370015322563\\
1.69965071297729	-0.698441776292453\\
1.70578663612883	-0.695512786750644\\
1.71192255928038	-0.692583055317785\\
1.71805848243192	-0.689652590495055\\
1.72419440558346	-0.68672140066631\\
1.730330328735	-0.683789494100179\\
1.73646625188655	-0.680856878952116\\
1.74260217503809	-0.677923563266411\\
1.74873809818963	-0.674989554978158\\
1.75487402134117	-0.672054861915184\\
1.76100994449272	-0.669119491799931\\
1.76714586764426	-0.666183452251307\\
1.7732817907958	-0.663246750786498\\
1.77941771394734	-0.660309394822735\\
1.78555363709889	-0.657371391679036\\
1.79168956025043	-0.654432748577904\\
1.79782548340197	-0.651493472646991\\
1.80396140655351	-0.648553570920737\\
1.81009732970506	-0.645613050341963\\
1.8162332528566	-0.642671917763443\\
1.82236917600814	-0.639730179949438\\
1.82850509915968	-0.6367878435772\\
1.83464102231123	-0.63384491523845\\
1.84077694546277	-0.630901401440824\\
1.84691286861431	-0.627957308609288\\
1.85304879176585	-0.625012643087532\\
1.8591847149174	-0.622067411139325\\
1.86532063806894	-0.619121618949861\\
1.87145656122048	-0.616175272627058\\
1.87759248437203	-0.61322837820285\\
1.88372840752357	-0.610280941634443\\
1.88986433067511	-0.607332968805552\\
1.89600025382665	-0.604384465527609\\
1.9021361769782	-0.601435437540956\\
1.90827210012974	-0.598485890516004\\
1.91440802328128	-0.595535830054385\\
1.92054394643282	-0.592585261690066\\
1.92667986958437	-0.589634190890452\\
1.93281579273591	-0.586682623057468\\
1.93895171588745	-0.583730563528615\\
1.94508763903899	-0.580778017578014\\
1.95122356219054	-0.57782499041742\\
1.95735948534208	-0.57487148719723\\
1.96349540849362	-0.571917513007464\\
1.96963133164516	-0.568963072878724\\
1.97576725479671	-0.566008171783151\\
1.98190317794825	-0.563052814635346\\
1.98803910109979	-0.56009700629329\\
1.99417502425133	-0.557140751559232\\
2.00031094740288	-0.554184055180577\\
2.00644687055442	-0.551226921850744\\
2.01258279370596	-0.548269356210019\\
2.0187187168575	-0.545311362846384\\
2.02485464000905	-0.542352946296339\\
2.03099056316059	-0.539394111045703\\
2.03712648631213	-0.536434861530407\\
2.04326240946367	-0.533475202137264\\
2.04939833261522	-0.530515137204736\\
2.05553425576676	-0.527554671023682\\
2.0616701789183	-0.524593807838091\\
2.06780610206985	-0.521632551845804\\
2.07394202522139	-0.518670907199229\\
2.08007794837293	-0.515708878006033\\
2.08621387152447	-0.512746468329832\\
2.09234979467601	-0.509783682190862\\
2.09848571782756	-0.506820523566641\\
2.1046216409791	-0.503856996392625\\
2.11075756413064	-0.500893104562843\\
2.11689348728219	-0.497928851930525\\
2.12302941043373	-0.494964242308726\\
2.12916533358527	-0.491999279470931\\
2.13530125673681	-0.489033967151651\\
2.14143717988836	-0.486068309047013\\
2.1475731030399	-0.483102308815341\\
2.15370902619144	-0.480135970077718\\
2.15984494934298	-0.477169296418549\\
2.16598087249453	-0.474202291386112\\
2.17211679564607	-0.471234958493095\\
2.17825271879761	-0.468267301217132\\
2.18438864194915	-0.465299323001323\\
2.1905245651007	-0.462331027254751\\
2.19666048825224	-0.459362417352988\\
2.20279641140378	-0.456393496638593\\
2.20893233455532	-0.453424268421601\\
2.21506825770687	-0.450454735980011\\
2.22120418085841	-0.447484902560252\\
2.22734010400995	-0.444514771377658\\
2.23347602716149	-0.441544345616925\\
2.23961195031304	-0.438573628432561\\
2.24574787346458	-0.435602622949337\\
2.25188379661612	-0.432631332262722\\
2.25801971976766	-0.429659759439314\\
2.26415564291921	-0.426687907517267\\
2.27029156607075	-0.42371577950671\\
2.27642748922229	-0.420743378390156\\
2.28256341237383	-0.417770707122913\\
2.28869933552538	-0.414797768633477\\
2.29483525867692	-0.411824565823929\\
2.30097118182846	-0.408851101570323\\
2.30710710498	-0.405877378723067\\
2.31324302813155	-0.402903400107298\\
2.31937895128309	-0.399929168523253\\
2.32551487443463	-0.396954686746635\\
2.33165079758617	-0.393979957528968\\
2.33778672073772	-0.391004983597958\\
2.34392264388926	-0.388029767657836\\
2.3500585670408	-0.385054312389703\\
2.35619449019234	-0.382078620451872\\
2.36233041334389	-0.379102694480196\\
2.36846633649543	-0.376126537088404\\
2.37460225964697	-0.37315015086842\\
2.38073818279852	-0.370173538390683\\
2.38687410595006	-0.367196702204465\\
2.3930100291016	-0.36421964483818\\
2.39914595225314	-0.361242368799689\\
2.40528187540469	-0.358264876576603\\
2.41141779855623	-0.355287170636583\\
2.41755372170777	-0.352309253427629\\
2.42368964485931	-0.349331127378371\\
2.42982556801086	-0.34635279489836\\
2.4359614911624	-0.343374258378339\\
2.44209741431394	-0.34039552019053\\
2.44823333746548	-0.337416582688905\\
2.45436926061703	-0.334437448209454\\
2.46050518376857	-0.331458119070455\\
2.46664110692011	-0.328478597572734\\
2.47277703007165	-0.325498885999927\\
2.4789129532232	-0.322518986618737\\
2.48504887637474	-0.319538901679182\\
2.49118479952628	-0.31655863341485\\
2.49732072267782	-0.313578184043141\\
2.50345664582937	-0.310597555765515\\
2.50959256898091	-0.307616750767725\\
2.51572849213245	-0.30463577122006\\
2.52186441528399	-0.301654619277576\\
2.52800033843554	-0.298673297080327\\
2.53413626158708	-0.295691806753594\\
2.54027218473862	-0.292710150408111\\
2.54640810789016	-0.289728330140283\\
2.55254403104171	-0.286746348032411\\
2.55867995419325	-0.283764206152905\\
2.56481587734479	-0.280781906556503\\
2.57095180049633	-0.277799451284475\\
2.57708772364788	-0.274816842364842\\
2.58322364679942	-0.271834081812573\\
2.58935956995096	-0.268851171629797\\
2.59549549310251	-0.265868113806001\\
2.60163141625405	-0.262884910318229\\
2.60776733940559	-0.259901563131282\\
2.61390326255713	-0.256918074197911\\
2.62003918570868	-0.253934445459009\\
2.62617510886022	-0.250950678843806\\
2.63231103201176	-0.247966776270049\\
2.6384469551633	-0.244982739644198\\
2.64458287831485	-0.241998570861604\\
2.65071880146639	-0.239014271806692\\
2.65685472461793	-0.236029844353144\\
2.66299064776947	-0.233045290364074\\
2.66912657092102	-0.230060611692207\\
2.67526249407256	-0.227075810180052\\
2.6813984172241	-0.224090887660076\\
2.68753434037564	-0.221105845954874\\
2.69367026352719	-0.218120686877337\\
2.69980618667873	-0.215135412230824\\
2.70594210983027	-0.212150023809321\\
2.71207803298181	-0.209164523397611\\
2.71821395613336	-0.206178912771435\\
2.7243498792849	-0.203193193697651\\
2.73048580243644	-0.200207367934395\\
2.73662172558798	-0.197221437231237\\
2.74275764873953	-0.194235403329343\\
2.74889357189107	-0.191249267961622\\
2.75502949504261	-0.188263032852883\\
2.76116541819415	-0.185276699719991\\
2.7673013413457	-0.182290270272009\\
2.77343726449724	-0.179303746210358\\
2.77957318764878	-0.176317129228954\\
2.78570911080032	-0.173330421014363\\
2.79184503395187	-0.170343623245943\\
2.79798095710341	-0.16735673759599\\
2.80411688025495	-0.164369765729878\\
2.8102528034065	-0.161382709306204\\
2.81638872655804	-0.158395569976927\\
2.82252464970958	-0.15540834938751\\
2.82866057286112	-0.152421049177054\\
2.83479649601267	-0.14943367097844\\
2.84093241916421	-0.146446216418463\\
2.84706834231575	-0.143458687117968\\
2.85320426546729	-0.140471084691985\\
2.85934018861884	-0.13748341074986\\
2.86547611177038	-0.134495666895392\\
2.87161203492192	-0.13150785472696\\
2.87774795807346	-0.128519975837655\\
2.88388388122501	-0.125532031815411\\
2.89001980437655	-0.122544024243133\\
2.89615572752809	-0.119555954698825\\
2.90229165067963	-0.116567824755718\\
2.90842757383118	-0.113579635982395\\
2.91456349698272	-0.110591389942918\\
2.92069942013426	-0.107603088196954\\
2.9268353432858	-0.104614732299895\\
2.93297126643735	-0.101626323802986\\
2.93910718958889	-0.0986378642534463\\
2.94524311274043	-0.0956493551945921\\
2.95137903589197	-0.0926607981659564\\
2.95751495904352	-0.0896721947034121\\
2.96365088219506	-0.0866835463392913\\
2.9697868053466	-0.0836948546025047\\
2.97592272849814	-0.0807061210186621\\
2.98205865164969	-0.0777173471101896\\
2.98819457480123	-0.0747285343964493\\
2.99433049795277	-0.0717396843938553\\
3.00046642110431	-0.0687507986159928\\
3.00660234425586	-0.0657618785737328\\
3.0127382674074	-0.06277292577535\\
3.01887419055894	-0.0597839417266384\\
3.02501011371048	-0.0567949279310256\\
3.03114603686203	-0.0538058858896897\\
3.03728196001357	-0.0508168171016725\\
3.04341788316511	-0.0478277230639951\\
3.04955380631665	-0.0448386052717707\\
3.0556897294682	-0.0418494652183199\\
3.06182565261974	-0.0388603043952825\\
3.06796157577128	-0.0358711242927323\\
3.07409749892282	-0.0328819263992888\\
3.08023342207437	-0.0298927122022307\\
3.08636934522591	-0.0269034831876083\\
3.09250526837745	-0.023914240840355\\
3.098641191529	-0.020924986644401\\
3.10477711468054	-0.0179357220827835\\
3.11091303783208	-0.01494644863776\\
3.11704896098362	-0.0119571677909189\\
3.12318488413517	-0.00896788102329229\\
3.12932080728671	-0.00597858981546584\\
3.13545673043825	-0.0029892956476921\\
};
\addlegendentry{IIR}

\end{axis}
\end{tikzpicture}%