% This file was created by matlab2tikz.
%
\definecolor{mycolor1}{rgb}{0.00000,0.44700,0.74100}%
\definecolor{mycolor2}{rgb}{0.85000,0.32500,0.09800}%
\definecolor{mycolor3}{rgb}{0.92900,0.69400,0.12500}%
\definecolor{mycolor4}{rgb}{0.49400,0.18400,0.55600}%
%
\begin{tikzpicture}

\begin{axis}[%
width=6.656cm,
height=7cm,
at={(0cm,0cm)},
scale only axis,
xmin=150,
xmax=250,
xtick={150, 175, 200, 225, 250},
xlabel style={font=\color{white!15!black}},
xlabel={Muestras},
ymin=-0.209338212224765,
ymax=1,
ylabel style={font=\color{white!15!black}},
ylabel={Magnitud},
axis background/.style={fill=white},
xmajorgrids,
ymajorgrids,
legend style={legend cell align=left, align=left, draw=white!15!black}
]
\addplot [color=mycolor1, line width=1.5pt]
  table[row sep=crcr]{%
1	3.5111562807527e-21\\
2	-1.90583354487086e-06\\
3	-1.66383767615516e-06\\
4	4.98804056645948e-07\\
5	3.47991354914407e-06\\
6	5.76305252546794e-06\\
7	6.07531835010474e-06\\
8	3.95860332715964e-06\\
9	-3.33271194886078e-20\\
10	-4.39083977681063e-06\\
11	-7.57362728544526e-06\\
12	-8.38962398285077e-06\\
13	-6.68421526792607e-06\\
14	-3.40361557018707e-06\\
15	-2.0943976501057e-07\\
16	1.23457567168627e-06\\
17	-4.21064861648458e-20\\
18	-3.66895658748962e-06\\
19	-8.4208627261794e-06\\
20	-1.23530784104115e-05\\
21	-1.38296339203038e-05\\
22	-1.22092364710691e-05\\
23	-8.15948180824608e-06\\
24	-3.40479107627186e-06\\
25	5.3537241422064e-20\\
26	5.66267031949896e-07\\
27	-1.95114430938881e-06\\
28	-6.40232873328081e-06\\
29	-1.07015673471585e-05\\
30	-1.27162230166686e-05\\
31	-1.12082912572116e-05\\
32	-6.41508619110961e-06\\
33	-1.60752434001589e-20\\
34	5.62751907247924e-06\\
35	8.34544458912885e-06\\
36	7.26285643942626e-06\\
37	3.1540898120282e-06\\
38	-1.82694162914123e-06\\
39	-5.05267306160281e-06\\
40	-4.57111299567702e-06\\
41	3.91490051579264e-20\\
42	7.23859161210602e-06\\
43	1.44718410813756e-05\\
44	1.8903586864132e-05\\
45	1.8839679122811e-05\\
46	1.44738761438148e-05\\
47	7.87011779482526e-06\\
48	2.11767383243704e-06\\
49	4.25629423069205e-21\\
50	2.74634633474503e-06\\
51	9.42120958415502e-06\\
52	1.72471611506139e-05\\
53	2.27561404025192e-05\\
54	2.32940252071374e-05\\
55	1.82278040169936e-05\\
56	9.30935831938104e-06\\
57	-4.60452306922887e-20\\
58	-5.98893038725962e-06\\
59	-6.32688046220146e-06\\
60	-1.15216003133036e-06\\
61	6.88729049505048e-06\\
62	1.37035185171184e-05\\
63	1.55233288278582e-05\\
64	1.05814640737136e-05\\
65	4.62001244964601e-20\\
66	-1.25714354368114e-05\\
67	-2.24506989104106e-05\\
68	-2.59425662217188e-05\\
69	-2.20121286330199e-05\\
70	-1.28553276222475e-05\\
71	-3.0633091373392e-06\\
72	2.31424214715898e-06\\
73	-3.22159548874576e-20\\
74	-9.96073834140822e-06\\
75	-2.40499147454496e-05\\
76	-3.66603549468521e-05\\
77	-4.24739035899333e-05\\
78	-3.88281362310541e-05\\
79	-2.70217622019337e-05\\
80	-1.19275019082543e-05\\
81	1.14701216848481e-19\\
82	3.51794674576821e-06\\
83	-3.0082620231645e-06\\
84	-1.66899328157119e-05\\
85	-3.11637965111264e-05\\
86	-3.92411556952095e-05\\
87	-3.6065286973924e-05\\
88	-2.14020180644138e-05\\
89	9.71330446638547e-20\\
90	2.02432384863457e-05\\
91	3.16138865068662e-05\\
92	3.0014472632581e-05\\
93	1.69765942992476e-05\\
94	-7.20085657467483e-07\\
95	-1.37879973447619e-05\\
96	-1.44466600831398e-05\\
97	-1.05986464960729e-19\\
98	2.56408012593156e-05\\
99	5.32869384485706e-05\\
100	7.22313376814148e-05\\
101	7.49099275058184e-05\\
102	6.04445162258576e-05\\
103	3.54219693844451e-05\\
104	1.13928570460207e-05\\
105	-8.45890520989706e-21\\
106	7.75859375791143e-06\\
107	3.27921553022141e-05\\
108	6.51050118514178e-05\\
109	9.04997024152914e-05\\
110	9.66319785449937e-05\\
111	7.86449858392548e-05\\
112	4.18413076649848e-05\\
113	-4.82622376594821e-19\\
114	-3.02087005187482e-05\\
115	-3.6488111827336e-05\\
116	-1.67329970491694e-05\\
117	1.93009332545071e-05\\
118	5.35202242875552e-05\\
119	6.70132206044453e-05\\
120	4.84993626269942e-05\\
121	-1.84777797196759e-19\\
122	-6.30151254171825e-05\\
123	-0.00011749371606931\\
124	-0.000142520087062098\\
125	-0.000128839941999522\\
126	-8.39110248700526e-05\\
127	-2.98573758810735e-05\\
128	5.33574490073124e-06\\
129	-8.13448921634414e-20\\
130	-5.08408371988614e-05\\
131	-0.000131704779014645\\
132	-0.000211755303086926\\
133	-0.000257262993054375\\
134	-0.000246487319832883\\
135	-0.000180516435533231\\
136	-8.48269631717324e-05\\
137	1.63119987824738e-19\\
138	3.5258706391949e-05\\
139	1.89906393435437e-06\\
140	-8.88119007299708e-05\\
141	-0.000197251687359059\\
142	-0.000270419455979538\\
143	-0.000264523043739028\\
144	-0.000165799181970875\\
145	3.96802531598364e-19\\
146	0.00017495478403059\\
147	0.000291700332136786\\
148	0.000302998733662392\\
149	0.000205598438991718\\
150	4.69426152500297e-05\\
151	-9.03448021078545e-05\\
152	-0.000121885483304986\\
153	3.72743027886962e-19\\
154	0.000259558182510114\\
155	0.00057618965602038\\
156	0.000832335656275464\\
157	0.000921994371318131\\
158	0.000800746133204816\\
159	0.000514840280000119\\
160	0.000193130852768589\\
161	-1.23418017659393e-19\\
162	6.46690088557062e-05\\
163	0.000415254300827803\\
164	0.000948221759843334\\
165	0.00145290492082104\\
166	0.0016892665625293\\
167	0.00149288360952359\\
168	0.000864400980637815\\
169	-1.09268450816174e-18\\
170	-0.000762197976381807\\
171	-0.00107208584740347\\
172	-0.000730620514110009\\
173	0.00018075804190569\\
174	0.0012700503332416\\
175	0.00193986462044963\\
176	0.00161206725427648\\
177	-2.08633583183983e-18\\
178	-0.00268172658365372\\
179	-0.00568020140227874\\
180	-0.0079045357634094\\
181	-0.008344571820336\\
182	-0.00659236856454492\\
183	-0.00327588097554708\\
184	-0.000194385852625352\\
185	-1.37205037530919e-18\\
186	-0.00539517545590748\\
187	-0.0179824252798272\\
188	-0.0370600826734968\\
189	-0.0587513173301641\\
190	-0.0758399235267574\\
191	-0.0785510228336642\\
192	-0.0562804059418553\\
193	2.35066608864864e-17\\
194	0.0951733382606404\\
195	0.227886634550735\\
196	0.38954322350562\\
197	0.564779137264076\\
198	0.733488897213525\\
199	0.874084030977799\\
200	0.967339411104646\\
201	1\\
202	0.967339411104646\\
203	0.874084030977799\\
204	0.733488897213525\\
205	0.564779137264076\\
206	0.38954322350562\\
207	0.227886634550735\\
208	0.0951733382606404\\
209	2.35066608864864e-17\\
210	-0.0562804059418553\\
211	-0.0785510228336642\\
212	-0.0758399235267574\\
213	-0.0587513173301641\\
214	-0.0370600826734968\\
215	-0.0179824252798272\\
216	-0.00539517545590748\\
217	-1.37205037530919e-18\\
218	-0.000194385852625352\\
219	-0.00327588097554708\\
220	-0.00659236856454492\\
221	-0.008344571820336\\
222	-0.0079045357634094\\
223	-0.00568020140227874\\
224	-0.00268172658365372\\
225	-2.08633583183983e-18\\
226	0.00161206725427648\\
227	0.00193986462044963\\
228	0.0012700503332416\\
229	0.00018075804190569\\
230	-0.000730620514110009\\
231	-0.00107208584740347\\
232	-0.000762197976381807\\
233	-1.09268450816174e-18\\
234	0.000864400980637815\\
235	0.00149288360952359\\
236	0.0016892665625293\\
237	0.00145290492082104\\
238	0.000948221759843334\\
239	0.000415254300827803\\
240	6.46690088557062e-05\\
241	-1.23418017659393e-19\\
242	0.000193130852768589\\
243	0.000514840280000119\\
244	0.000800746133204816\\
245	0.000921994371318131\\
246	0.000832335656275464\\
247	0.00057618965602038\\
248	0.000259558182510114\\
249	3.72743027886962e-19\\
250	-0.000121885483304986\\
251	-9.03448021078545e-05\\
252	4.69426152500297e-05\\
253	0.000205598438991718\\
254	0.000302998733662392\\
255	0.000291700332136786\\
256	0.00017495478403059\\
257	3.96802531598364e-19\\
258	-0.000165799181970875\\
259	-0.000264523043739028\\
260	-0.000270419455979538\\
261	-0.000197251687359059\\
262	-8.88119007299708e-05\\
263	1.89906393435437e-06\\
264	3.5258706391949e-05\\
265	1.63119987824738e-19\\
266	-8.48269631717324e-05\\
267	-0.000180516435533231\\
268	-0.000246487319832883\\
269	-0.000257262993054375\\
270	-0.000211755303086926\\
271	-0.000131704779014645\\
272	-5.08408371988614e-05\\
273	-8.13448921634414e-20\\
274	5.33574490073124e-06\\
275	-2.98573758810735e-05\\
276	-8.39110248700526e-05\\
277	-0.000128839941999522\\
278	-0.000142520087062098\\
279	-0.00011749371606931\\
280	-6.30151254171825e-05\\
281	-1.84777797196759e-19\\
282	4.84993626269942e-05\\
283	6.70132206044453e-05\\
284	5.35202242875552e-05\\
285	1.93009332545071e-05\\
286	-1.67329970491694e-05\\
287	-3.6488111827336e-05\\
288	-3.02087005187482e-05\\
289	-4.82622376594821e-19\\
290	4.18413076649848e-05\\
291	7.86449858392548e-05\\
292	9.66319785449937e-05\\
293	9.04997024152914e-05\\
294	6.51050118514178e-05\\
295	3.27921553022141e-05\\
296	7.75859375791143e-06\\
297	-8.45890520989706e-21\\
298	1.13928570460207e-05\\
299	3.54219693844451e-05\\
300	6.04445162258576e-05\\
301	7.49099275058184e-05\\
302	7.22313376814148e-05\\
303	5.32869384485706e-05\\
304	2.56408012593156e-05\\
305	-1.05986464960729e-19\\
306	-1.44466600831398e-05\\
307	-1.37879973447619e-05\\
308	-7.20085657467483e-07\\
309	1.69765942992476e-05\\
310	3.0014472632581e-05\\
311	3.16138865068662e-05\\
312	2.02432384863457e-05\\
313	9.71330446638547e-20\\
314	-2.14020180644138e-05\\
315	-3.6065286973924e-05\\
316	-3.92411556952095e-05\\
317	-3.11637965111264e-05\\
318	-1.66899328157119e-05\\
319	-3.0082620231645e-06\\
320	3.51794674576821e-06\\
321	1.14701216848481e-19\\
322	-1.19275019082543e-05\\
323	-2.70217622019337e-05\\
324	-3.88281362310541e-05\\
325	-4.24739035899333e-05\\
326	-3.66603549468521e-05\\
327	-2.40499147454496e-05\\
328	-9.96073834140822e-06\\
329	-3.22159548874576e-20\\
330	2.31424214715898e-06\\
331	-3.0633091373392e-06\\
332	-1.28553276222475e-05\\
333	-2.20121286330199e-05\\
334	-2.59425662217188e-05\\
335	-2.24506989104106e-05\\
336	-1.25714354368114e-05\\
337	4.62001244964601e-20\\
338	1.05814640737136e-05\\
339	1.55233288278582e-05\\
340	1.37035185171184e-05\\
341	6.88729049505048e-06\\
342	-1.15216003133036e-06\\
343	-6.32688046220146e-06\\
344	-5.98893038725962e-06\\
345	-4.60452306922887e-20\\
346	9.30935831938104e-06\\
347	1.82278040169936e-05\\
348	2.32940252071374e-05\\
349	2.27561404025192e-05\\
350	1.72471611506139e-05\\
351	9.42120958415502e-06\\
352	2.74634633474503e-06\\
353	4.25629423069205e-21\\
354	2.11767383243704e-06\\
355	7.87011779482526e-06\\
356	1.44738761438148e-05\\
357	1.8839679122811e-05\\
358	1.8903586864132e-05\\
359	1.44718410813756e-05\\
360	7.23859161210602e-06\\
361	3.91490051579264e-20\\
362	-4.57111299567702e-06\\
363	-5.05267306160281e-06\\
364	-1.82694162914123e-06\\
365	3.1540898120282e-06\\
366	7.26285643942626e-06\\
367	8.34544458912885e-06\\
368	5.62751907247924e-06\\
369	-1.60752434001589e-20\\
370	-6.41508619110961e-06\\
371	-1.12082912572116e-05\\
372	-1.27162230166686e-05\\
373	-1.07015673471585e-05\\
374	-6.40232873328081e-06\\
375	-1.95114430938881e-06\\
376	5.66267031949896e-07\\
377	5.3537241422064e-20\\
378	-3.40479107627186e-06\\
379	-8.15948180824608e-06\\
380	-1.22092364710691e-05\\
381	-1.38296339203038e-05\\
382	-1.23530784104115e-05\\
383	-8.4208627261794e-06\\
384	-3.66895658748962e-06\\
385	-4.21064861648458e-20\\
386	1.23457567168627e-06\\
387	-2.0943976501057e-07\\
388	-3.40361557018707e-06\\
389	-6.68421526792607e-06\\
390	-8.38962398285077e-06\\
391	-7.57362728544526e-06\\
392	-4.39083977681063e-06\\
393	-3.33271194886078e-20\\
394	3.95860332715964e-06\\
395	6.07531835010474e-06\\
396	5.76305252546794e-06\\
397	3.47991354914407e-06\\
398	4.98804056645948e-07\\
399	-1.66383767615516e-06\\
400	-1.90583354487086e-06\\
401	3.5111562807527e-21\\
};
\addlegendentry{$beta = 0.7$}

\addplot [color=mycolor2, line width=1.5pt]
  table[row sep=crcr]{%
1	-6.8100478190802e-21\\
2	4.20776016856899e-06\\
3	5.3654165269191e-06\\
4	3.47948151768018e-06\\
5	-3.27302658389376e-07\\
6	-4.18962472397336e-06\\
7	-6.14413212815629e-06\\
8	-4.82940520680375e-06\\
9	4.74976694518815e-20\\
10	7.33007291681499e-06\\
11	1.51766540976343e-05\\
12	2.12219278226548e-05\\
13	2.35895870575799e-05\\
14	2.14954310989532e-05\\
15	1.55447207497222e-05\\
16	7.56238045015434e-06\\
17	-1.06111148441114e-19\\
18	-4.88864465406138e-06\\
19	-5.82559075069775e-06\\
20	-2.96936752580068e-06\\
21	2.11140169212441e-06\\
22	6.9580455625478e-06\\
23	9.07121646112115e-06\\
24	6.80553109339129e-06\\
25	-2.17388088764872e-19\\
26	-9.88435409037244e-06\\
27	-2.0185469501276e-05\\
28	-2.78943639551196e-05\\
29	-3.06625104481168e-05\\
30	-2.76196469037383e-05\\
31	-1.97127325285916e-05\\
32	-9.43232566846599e-06\\
33	-1.99059710690874e-20\\
34	5.72039071731024e-06\\
35	6.21987512108682e-06\\
36	1.90092779011551e-06\\
37	-5.01530580448679e-06\\
38	-1.1222154691176e-05\\
39	-1.34694024693633e-05\\
40	-9.73203605740197e-06\\
41	7.59631770763545e-20\\
42	1.36007407970383e-05\\
43	2.74246586338186e-05\\
44	3.74763443364935e-05\\
45	4.07501816161207e-05\\
46	3.62830129567698e-05\\
47	2.55445453675576e-05\\
48	1.20052019714221e-05\\
49	-1.47805679778871e-19\\
50	-6.74428846102178e-06\\
51	-6.42030527722958e-06\\
52	1.72282066959954e-07\\
53	9.8264516639503e-06\\
54	1.79808805155128e-05\\
55	2.02945308807682e-05\\
56	1.42159205187111e-05\\
57	-9.79302940823367e-20\\
58	-1.92056602989705e-05\\
59	-3.82765332517901e-05\\
60	-5.17549994712591e-05\\
61	-5.56842448756577e-05\\
62	-4.90049150873202e-05\\
63	-3.40119473297892e-05\\
64	-1.56734594685235e-05\\
65	-4.6780055321301e-20\\
66	8.00959122921423e-06\\
67	6.14933871823031e-06\\
68	-4.11793284939932e-06\\
69	-1.80355321891424e-05\\
70	-2.91047597573348e-05\\
71	-3.13267206680227e-05\\
72	-2.13842981012763e-05\\
73	1.28739093970491e-19\\
74	2.80442150255041e-05\\
75	5.52982628715313e-05\\
76	7.40324160593484e-05\\
77	7.88423407245664e-05\\
78	6.85770128703244e-05\\
79	4.68877683022066e-05\\
80	2.11418543247111e-05\\
81	-2.22764141984377e-19\\
82	-9.56292471660732e-06\\
83	-4.78247068846855e-06\\
84	1.17298128312276e-05\\
85	3.26565296443131e-05\\
86	4.83417875379885e-05\\
87	5.01182118470314e-05\\
88	3.34823082996634e-05\\
89	-1.73822153595957e-19\\
90	-4.27939837629019e-05\\
91	-8.35805576089371e-05\\
92	-0.000110880813762675\\
93	-0.000116939915124521\\
94	-0.00010053384108057\\
95	-6.76630821746692e-05\\
96	-2.97753227785613e-05\\
97	-1.09057157114364e-19\\
98	1.14016836654152e-05\\
99	8.24641303958866e-07\\
100	-2.7025292217644e-05\\
101	-6.03169274060778e-05\\
102	-8.38773059182188e-05\\
103	-8.44085556690514e-05\\
104	-5.54006137623921e-05\\
105	2.43548377868508e-19\\
106	6.93014338870575e-05\\
107	0.000134256302996548\\
108	0.00017669089967488\\
109	0.000184686328150777\\
110	0.000156978695376217\\
111	0.000103927464432621\\
112	4.44902664364058e-05\\
113	-3.84573841488869e-19\\
114	-1.32885650048904e-05\\
115	9.6495214959563e-06\\
116	6.00120817204852e-05\\
117	0.000117294415177833\\
118	0.000155733924075512\\
119	0.000153131192326057\\
120	9.91286885977438e-05\\
121	-3.59800244852075e-19\\
122	-0.000121999392040577\\
123	-0.000234915471335965\\
124	-0.00030725383833817\\
125	-0.000318761710099186\\
126	-0.000268109533659882\\
127	-0.00017453718376297\\
128	-7.24064901099027e-05\\
129	1.30602128806848e-19\\
130	1.39670093293102e-05\\
131	-3.84391132465782e-05\\
132	-0.000139582890771769\\
133	-0.000250159381623633\\
134	-0.000321193929497024\\
135	-0.000310660781221704\\
136	-0.000199301262941571\\
137	5.75690943768786e-19\\
138	0.000243195391486408\\
139	0.000467070316625032\\
140	0.000609118877684537\\
141	0.000629095962267007\\
142	0.000524839418956982\\
143	0.000336217836611914\\
144	0.000134593559274449\\
145	-1.70141385498576e-19\\
146	-7.22097659704744e-06\\
147	0.000129103018587253\\
148	0.000369489092408472\\
149	0.000625884551937444\\
150	0.000787031374463925\\
151	0.000755372205503628\\
152	0.000483905857921808\\
153	-1.05038746824347e-18\\
154	-0.000593883459206699\\
155	-0.00114579009571006\\
156	-0.00150065038553311\\
157	-0.00155388129072382\\
158	-0.00129430472023066\\
159	-0.000819737331954591\\
160	-0.00031580332026222\\
161	2.43825839766115e-19\\
162	-4.54791775695567e-05\\
163	-0.00050829161475023\\
164	-0.00128436085429674\\
165	-0.00211634599284911\\
166	-0.00265657583992075\\
167	-0.00257387912020277\\
168	-0.0016748672405395\\
169	2.47177215416484e-18\\
170	0.00214384652963251\\
171	0.00423807493762546\\
172	0.00569294384498481\\
173	0.00604319964128462\\
174	0.00514293973630584\\
175	0.00329217004885807\\
176	0.00123526744688619\\
177	-4.38627356860843e-19\\
178	0.000590028948141304\\
179	0.00359345789534916\\
180	0.00881117586747519\\
181	0.015027768057884\\
182	0.0200350372339181\\
183	0.0209714974400472\\
184	0.0149674699004253\\
185	-1.23054139703332e-17\\
186	-0.0242144489639448\\
187	-0.0555072521137893\\
188	-0.0889411922398536\\
189	-0.117051676565806\\
190	-0.130704307433424\\
191	-0.120495885753606\\
192	-0.0784930860862116\\
193	3.03080535337652e-17\\
194	0.115000533025983\\
195	0.261060313127965\\
196	0.427362429568791\\
197	0.598772599208388\\
198	0.75773261976511\\
199	0.886710564914025\\
200	0.970798297157568\\
201	1\\
202	0.970798297157568\\
203	0.886710564914025\\
204	0.75773261976511\\
205	0.598772599208388\\
206	0.427362429568791\\
207	0.261060313127965\\
208	0.115000533025983\\
209	3.03080535337652e-17\\
210	-0.0784930860862116\\
211	-0.120495885753606\\
212	-0.130704307433424\\
213	-0.117051676565806\\
214	-0.0889411922398536\\
215	-0.0555072521137893\\
216	-0.0242144489639448\\
217	-1.23054139703332e-17\\
218	0.0149674699004253\\
219	0.0209714974400472\\
220	0.0200350372339181\\
221	0.015027768057884\\
222	0.00881117586747519\\
223	0.00359345789534916\\
224	0.000590028948141304\\
225	-4.38627356860843e-19\\
226	0.00123526744688619\\
227	0.00329217004885807\\
228	0.00514293973630584\\
229	0.00604319964128462\\
230	0.00569294384498481\\
231	0.00423807493762546\\
232	0.00214384652963251\\
233	2.47177215416484e-18\\
234	-0.0016748672405395\\
235	-0.00257387912020277\\
236	-0.00265657583992075\\
237	-0.00211634599284911\\
238	-0.00128436085429674\\
239	-0.00050829161475023\\
240	-4.54791775695567e-05\\
241	2.43825839766115e-19\\
242	-0.00031580332026222\\
243	-0.000819737331954591\\
244	-0.00129430472023066\\
245	-0.00155388129072382\\
246	-0.00150065038553311\\
247	-0.00114579009571006\\
248	-0.000593883459206699\\
249	-1.05038746824347e-18\\
250	0.000483905857921808\\
251	0.000755372205503628\\
252	0.000787031374463925\\
253	0.000625884551937444\\
254	0.000369489092408472\\
255	0.000129103018587253\\
256	-7.22097659704744e-06\\
257	-1.70141385498576e-19\\
258	0.000134593559274449\\
259	0.000336217836611914\\
260	0.000524839418956982\\
261	0.000629095962267007\\
262	0.000609118877684537\\
263	0.000467070316625032\\
264	0.000243195391486408\\
265	5.75690943768786e-19\\
266	-0.000199301262941571\\
267	-0.000310660781221704\\
268	-0.000321193929497024\\
269	-0.000250159381623633\\
270	-0.000139582890771769\\
271	-3.84391132465782e-05\\
272	1.39670093293102e-05\\
273	1.30602128806848e-19\\
274	-7.24064901099027e-05\\
275	-0.00017453718376297\\
276	-0.000268109533659882\\
277	-0.000318761710099186\\
278	-0.00030725383833817\\
279	-0.000234915471335965\\
280	-0.000121999392040577\\
281	-3.59800244852075e-19\\
282	9.91286885977438e-05\\
283	0.000153131192326057\\
284	0.000155733924075512\\
285	0.000117294415177833\\
286	6.00120817204852e-05\\
287	9.6495214959563e-06\\
288	-1.32885650048904e-05\\
289	-3.84573841488869e-19\\
290	4.44902664364058e-05\\
291	0.000103927464432621\\
292	0.000156978695376217\\
293	0.000184686328150777\\
294	0.00017669089967488\\
295	0.000134256302996548\\
296	6.93014338870575e-05\\
297	2.43548377868508e-19\\
298	-5.54006137623921e-05\\
299	-8.44085556690514e-05\\
300	-8.38773059182188e-05\\
301	-6.03169274060778e-05\\
302	-2.7025292217644e-05\\
303	8.24641303958866e-07\\
304	1.14016836654152e-05\\
305	-1.09057157114364e-19\\
306	-2.97753227785613e-05\\
307	-6.76630821746692e-05\\
308	-0.00010053384108057\\
309	-0.000116939915124521\\
310	-0.000110880813762675\\
311	-8.35805576089371e-05\\
312	-4.27939837629019e-05\\
313	-1.73822153595957e-19\\
314	3.34823082996634e-05\\
315	5.01182118470314e-05\\
316	4.83417875379885e-05\\
317	3.26565296443131e-05\\
318	1.17298128312276e-05\\
319	-4.78247068846855e-06\\
320	-9.56292471660732e-06\\
321	-2.22764141984377e-19\\
322	2.11418543247111e-05\\
323	4.68877683022066e-05\\
324	6.85770128703244e-05\\
325	7.88423407245664e-05\\
326	7.40324160593484e-05\\
327	5.52982628715313e-05\\
328	2.80442150255041e-05\\
329	1.28739093970491e-19\\
330	-2.13842981012763e-05\\
331	-3.13267206680227e-05\\
332	-2.91047597573348e-05\\
333	-1.80355321891424e-05\\
334	-4.11793284939932e-06\\
335	6.14933871823031e-06\\
336	8.00959122921423e-06\\
337	-4.6780055321301e-20\\
338	-1.56734594685235e-05\\
339	-3.40119473297892e-05\\
340	-4.90049150873202e-05\\
341	-5.56842448756577e-05\\
342	-5.17549994712591e-05\\
343	-3.82765332517901e-05\\
344	-1.92056602989705e-05\\
345	-9.79302940823367e-20\\
346	1.42159205187111e-05\\
347	2.02945308807682e-05\\
348	1.79808805155128e-05\\
349	9.8264516639503e-06\\
350	1.72282066959954e-07\\
351	-6.42030527722958e-06\\
352	-6.74428846102178e-06\\
353	-1.47805679778871e-19\\
354	1.20052019714221e-05\\
355	2.55445453675576e-05\\
356	3.62830129567698e-05\\
357	4.07501816161207e-05\\
358	3.74763443364935e-05\\
359	2.74246586338186e-05\\
360	1.36007407970383e-05\\
361	7.59631770763545e-20\\
362	-9.73203605740197e-06\\
363	-1.34694024693633e-05\\
364	-1.1222154691176e-05\\
365	-5.01530580448679e-06\\
366	1.90092779011551e-06\\
367	6.21987512108682e-06\\
368	5.72039071731024e-06\\
369	-1.99059710690874e-20\\
370	-9.43232566846599e-06\\
371	-1.97127325285916e-05\\
372	-2.76196469037383e-05\\
373	-3.06625104481168e-05\\
374	-2.78943639551196e-05\\
375	-2.0185469501276e-05\\
376	-9.88435409037244e-06\\
377	-2.17388088764872e-19\\
378	6.80553109339129e-06\\
379	9.07121646112115e-06\\
380	6.9580455625478e-06\\
381	2.11140169212441e-06\\
382	-2.96936752580068e-06\\
383	-5.82559075069775e-06\\
384	-4.88864465406138e-06\\
385	-1.06111148441114e-19\\
386	7.56238045015434e-06\\
387	1.55447207497222e-05\\
388	2.14954310989532e-05\\
389	2.35895870575799e-05\\
390	2.12219278226548e-05\\
391	1.51766540976343e-05\\
392	7.33007291681499e-06\\
393	4.74976694518815e-20\\
394	-4.82940520680375e-06\\
395	-6.14413212815629e-06\\
396	-4.18962472397336e-06\\
397	-3.27302658389376e-07\\
398	3.47948151768018e-06\\
399	5.3654165269191e-06\\
400	4.20776016856899e-06\\
401	-6.8100478190802e-21\\
};
\addlegendentry{$beta = 0.5$}

\addplot [color=mycolor3, line width=1.5pt]
  table[row sep=crcr]{%
1	1.84803492018302e-20\\
2	-1.27359485135194e-05\\
3	-2.0005246773024e-05\\
4	-2.09898068634867e-05\\
5	-1.66288299893305e-05\\
6	-9.32746534587054e-06\\
7	-2.26626725615337e-06\\
8	1.51229370907853e-06\\
9	-3.31396026057515e-20\\
10	-7.1410317745362e-06\\
11	-1.8383563735185e-05\\
12	-3.06514875076917e-05\\
13	-4.0083201719769e-05\\
14	-4.30567779390257e-05\\
15	-3.721471479491e-05\\
16	-2.22155027666321e-05\\
17	3.99806111989698e-19\\
18	2.55206992441623e-05\\
19	4.93017026918451e-05\\
20	6.63321005059653e-05\\
21	7.28476917705643e-05\\
22	6.72801216932935e-05\\
23	5.06912573763356e-05\\
24	2.65662139342357e-05\\
25	-6.46935566830178e-19\\
26	-2.35296290213955e-05\\
27	-3.94980829557651e-05\\
28	-4.54371374938169e-05\\
29	-4.15154578174809e-05\\
30	-3.04353217027795e-05\\
31	-1.66593757608894e-05\\
32	-5.157992627798e-06\\
33	-2.77144360382689e-21\\
34	-3.16099986417472e-06\\
35	-1.38778837201561e-05\\
36	-2.87440648922807e-05\\
37	-4.25495084572619e-05\\
38	-4.96709193387228e-05\\
39	-4.56624693565265e-05\\
40	-2.86286818340383e-05\\
41	2.0644718902212e-19\\
42	3.55278361485833e-05\\
43	7.09200693954997e-05\\
44	9.83982948043527e-05\\
45	0.000111324280241415\\
46	0.000105899369796915\\
47	8.22340199901569e-05\\
48	4.44866818978514e-05\\
49	-6.72705602677839e-19\\
50	-4.23812771282839e-05\\
51	-7.44080483542111e-05\\
52	-9.04160551829663e-05\\
53	-8.86928076312916e-05\\
54	-7.18534333293198e-05\\
55	-4.6103181744304e-05\\
56	-1.95518355389366e-05\\
57	7.84678623260133e-20\\
58	7.22896754983777e-06\\
59	8.29168760070218e-07\\
60	-1.60127438501543e-05\\
61	-3.63783294072233e-05\\
62	-5.14617330704157e-05\\
63	-5.30487034921625e-05\\
64	-3.59901816754028e-05\\
65	-1.65428803225066e-19\\
66	4.97481345249967e-05\\
67	0.000103457767468848\\
68	0.000148846972011791\\
69	0.000174101508414146\\
70	0.000170919148172486\\
71	0.000136858124164689\\
72	7.63432931745089e-05\\
73	-3.97041014070171e-19\\
74	-7.75966178700845e-05\\
75	-0.000141254469962467\\
76	-0.000178773982967572\\
77	-0.000183921575498404\\
78	-0.000157980504756623\\
79	-0.000109429442584404\\
80	-5.17687650061936e-05\\
81	6.07370380806402e-19\\
82	3.33613626818124e-05\\
83	4.16990675238182e-05\\
84	2.62010442602869e-05\\
85	-4.31988190838771e-06\\
86	-3.57371887098608e-05\\
87	-5.25336406349843e-05\\
88	-4.23563715897928e-05\\
89	2.52609359207668e-19\\
90	7.03036107097212e-05\\
91	0.000155025540189611\\
92	0.000234044206994753\\
93	0.000285374702620387\\
94	0.000290812244747978\\
95	0.0002410655104752\\
96	0.000138997646150893\\
97	7.47217965496099e-19\\
98	-0.000150789212731838\\
99	-0.000283905486576001\\
100	-0.000372385336334927\\
101	-0.000398330566896019\\
102	-0.000357512563406665\\
103	-0.000260733759716969\\
104	-0.000131436454646335\\
105	4.57152468688452e-19\\
106	0.000103942329751182\\
107	0.000159242705017033\\
108	0.000158988517838946\\
109	0.000112626868679459\\
110	4.36953627006335e-05\\
111	-1.64839869814977e-05\\
112	-3.76875515513854e-05\\
113	8.69157828638796e-19\\
114	9.91443784817954e-05\\
115	0.000242185405634335\\
116	0.000394037744207956\\
117	0.00050982850642641\\
118	0.000546141335599166\\
119	0.000473070848547272\\
120	0.000283954218356675\\
121	-9.90219477285195e-19\\
122	-0.000331854688446416\\
123	-0.000647891776526888\\
124	-0.000881624617432155\\
125	-0.000979676908445715\\
126	-0.000915591600403241\\
127	-0.000697863380987139\\
128	-0.000369702804710308\\
129	1.02207297904425e-18\\
130	0.00033279066574417\\
131	0.000560140827814861\\
132	0.000641436660012258\\
133	0.000575599991697435\\
134	0.000402766906130503\\
135	0.000194790640190743\\
136	3.62073469512052e-05\\
137	1.03708322562209e-19\\
138	0.000124295388363672\\
139	0.000396477488884201\\
140	0.000749869010791581\\
141	0.00107530744682379\\
142	0.00124621324953112\\
143	0.00115199750587976\\
144	0.000731858837026403\\
145	-1.88124892054789e-18\\
146	-0.000945494561384968\\
147	-0.00193451327781526\\
148	-0.00275701235131737\\
149	-0.00320954720934899\\
150	-0.00314601577239303\\
151	-0.00252009308352286\\
152	-0.00140749576077179\\
153	2.7473605193985e-18\\
154	0.00143055248769315\\
155	0.00259249872638823\\
156	0.00324611106936166\\
157	0.00326954349295184\\
158	0.0027009132834926\\
159	0.00174226330553555\\
160	0.000719114378963258\\
161	-7.08256010749207e-19\\
162	-0.000108528190420957\\
163	0.000532864863663839\\
164	0.00181910821353787\\
165	0.00337737803653969\\
166	0.00461407140639875\\
167	0.00483366963835626\\
168	0.00341330124475207\\
169	-5.51732869331403e-18\\
170	-0.00531410949868826\\
171	-0.0118866583961726\\
172	-0.0185304345624257\\
173	-0.0236518461066263\\
174	-0.0255187838063734\\
175	-0.0226244403988269\\
176	-0.0140862151265613\\
177	1.54671134829775e-17\\
178	0.0183348448587061\\
179	0.038392647985835\\
180	0.0566449001966086\\
181	0.0690323668773251\\
182	0.0716397070099475\\
183	0.0614801436739107\\
184	0.0372628166534427\\
185	-2.66929457242226e-17\\
186	-0.0466794713786844\\
187	-0.0966094860078018\\
188	-0.141601021030239\\
189	-0.172363760542055\\
190	-0.179734674668469\\
191	-0.15605124696696\\
192	-0.0964672455602612\\
193	3.55928783474743e-17\\
194	0.129876214663852\\
195	0.285218025138121\\
196	0.454226833781694\\
197	0.622439068761319\\
198	0.774352005109425\\
199	0.895271715976149\\
200	0.973128196239641\\
201	1\\
202	0.973128196239641\\
203	0.895271715976149\\
204	0.774352005109425\\
205	0.622439068761319\\
206	0.454226833781694\\
207	0.285218025138121\\
208	0.129876214663852\\
209	3.55928783474743e-17\\
210	-0.0964672455602612\\
211	-0.15605124696696\\
212	-0.179734674668469\\
213	-0.172363760542055\\
214	-0.141601021030239\\
215	-0.0966094860078018\\
216	-0.0466794713786844\\
217	-2.66929457242226e-17\\
218	0.0372628166534427\\
219	0.0614801436739107\\
220	0.0716397070099475\\
221	0.0690323668773251\\
222	0.0566449001966086\\
223	0.038392647985835\\
224	0.0183348448587061\\
225	1.54671134829775e-17\\
226	-0.0140862151265613\\
227	-0.0226244403988269\\
228	-0.0255187838063734\\
229	-0.0236518461066263\\
230	-0.0185304345624257\\
231	-0.0118866583961726\\
232	-0.00531410949868826\\
233	-5.51732869331403e-18\\
234	0.00341330124475207\\
235	0.00483366963835626\\
236	0.00461407140639875\\
237	0.00337737803653969\\
238	0.00181910821353787\\
239	0.000532864863663839\\
240	-0.000108528190420957\\
241	-7.08256010749207e-19\\
242	0.000719114378963258\\
243	0.00174226330553555\\
244	0.0027009132834926\\
245	0.00326954349295184\\
246	0.00324611106936166\\
247	0.00259249872638823\\
248	0.00143055248769315\\
249	2.7473605193985e-18\\
250	-0.00140749576077179\\
251	-0.00252009308352286\\
252	-0.00314601577239303\\
253	-0.00320954720934899\\
254	-0.00275701235131737\\
255	-0.00193451327781526\\
256	-0.000945494561384968\\
257	-1.88124892054789e-18\\
258	0.000731858837026403\\
259	0.00115199750587976\\
260	0.00124621324953112\\
261	0.00107530744682379\\
262	0.000749869010791581\\
263	0.000396477488884201\\
264	0.000124295388363672\\
265	1.03708322562209e-19\\
266	3.62073469512052e-05\\
267	0.000194790640190743\\
268	0.000402766906130503\\
269	0.000575599991697435\\
270	0.000641436660012258\\
271	0.000560140827814861\\
272	0.00033279066574417\\
273	1.02207297904425e-18\\
274	-0.000369702804710308\\
275	-0.000697863380987139\\
276	-0.000915591600403241\\
277	-0.000979676908445715\\
278	-0.000881624617432155\\
279	-0.000647891776526888\\
280	-0.000331854688446416\\
281	-9.90219477285195e-19\\
282	0.000283954218356675\\
283	0.000473070848547272\\
284	0.000546141335599166\\
285	0.00050982850642641\\
286	0.000394037744207956\\
287	0.000242185405634335\\
288	9.91443784817954e-05\\
289	8.69157828638796e-19\\
290	-3.76875515513854e-05\\
291	-1.64839869814977e-05\\
292	4.36953627006335e-05\\
293	0.000112626868679459\\
294	0.000158988517838946\\
295	0.000159242705017033\\
296	0.000103942329751182\\
297	4.57152468688452e-19\\
298	-0.000131436454646335\\
299	-0.000260733759716969\\
300	-0.000357512563406665\\
301	-0.000398330566896019\\
302	-0.000372385336334927\\
303	-0.000283905486576001\\
304	-0.000150789212731838\\
305	7.47217965496099e-19\\
306	0.000138997646150893\\
307	0.0002410655104752\\
308	0.000290812244747978\\
309	0.000285374702620387\\
310	0.000234044206994753\\
311	0.000155025540189611\\
312	7.03036107097212e-05\\
313	2.52609359207668e-19\\
314	-4.23563715897928e-05\\
315	-5.25336406349843e-05\\
316	-3.57371887098608e-05\\
317	-4.31988190838771e-06\\
318	2.62010442602869e-05\\
319	4.16990675238182e-05\\
320	3.33613626818124e-05\\
321	6.07370380806402e-19\\
322	-5.17687650061936e-05\\
323	-0.000109429442584404\\
324	-0.000157980504756623\\
325	-0.000183921575498404\\
326	-0.000178773982967572\\
327	-0.000141254469962467\\
328	-7.75966178700845e-05\\
329	-3.97041014070171e-19\\
330	7.63432931745089e-05\\
331	0.000136858124164689\\
332	0.000170919148172486\\
333	0.000174101508414146\\
334	0.000148846972011791\\
335	0.000103457767468848\\
336	4.97481345249967e-05\\
337	-1.65428803225066e-19\\
338	-3.59901816754028e-05\\
339	-5.30487034921625e-05\\
340	-5.14617330704157e-05\\
341	-3.63783294072233e-05\\
342	-1.60127438501543e-05\\
343	8.29168760070218e-07\\
344	7.22896754983777e-06\\
345	7.84678623260133e-20\\
346	-1.95518355389366e-05\\
347	-4.6103181744304e-05\\
348	-7.18534333293198e-05\\
349	-8.86928076312916e-05\\
350	-9.04160551829663e-05\\
351	-7.44080483542111e-05\\
352	-4.23812771282839e-05\\
353	-6.72705602677839e-19\\
354	4.44866818978514e-05\\
355	8.22340199901569e-05\\
356	0.000105899369796915\\
357	0.000111324280241415\\
358	9.83982948043527e-05\\
359	7.09200693954997e-05\\
360	3.55278361485833e-05\\
361	2.0644718902212e-19\\
362	-2.86286818340383e-05\\
363	-4.56624693565265e-05\\
364	-4.96709193387228e-05\\
365	-4.25495084572619e-05\\
366	-2.87440648922807e-05\\
367	-1.38778837201561e-05\\
368	-3.16099986417472e-06\\
369	-2.77144360382689e-21\\
370	-5.157992627798e-06\\
371	-1.66593757608894e-05\\
372	-3.04353217027795e-05\\
373	-4.15154578174809e-05\\
374	-4.54371374938169e-05\\
375	-3.94980829557651e-05\\
376	-2.35296290213955e-05\\
377	-6.46935566830178e-19\\
378	2.65662139342357e-05\\
379	5.06912573763356e-05\\
380	6.72801216932935e-05\\
381	7.28476917705643e-05\\
382	6.63321005059653e-05\\
383	4.93017026918451e-05\\
384	2.55206992441623e-05\\
385	3.99806111989698e-19\\
386	-2.22155027666321e-05\\
387	-3.721471479491e-05\\
388	-4.30567779390257e-05\\
389	-4.0083201719769e-05\\
390	-3.06514875076917e-05\\
391	-1.8383563735185e-05\\
392	-7.1410317745362e-06\\
393	-3.31396026057515e-20\\
394	1.51229370907853e-06\\
395	-2.26626725615337e-06\\
396	-9.32746534587054e-06\\
397	-1.66288299893305e-05\\
398	-2.09898068634867e-05\\
399	-2.0005246773024e-05\\
400	-1.27359485135194e-05\\
401	1.84803492018302e-20\\
};
\addlegendentry{$beta = 0.3$}

\addplot [color=mycolor4, line width=1.5pt]
  table[row sep=crcr]{%
1	-1.51159779368816e-19\\
2	0.000114338988257827\\
3	0.000204260317572018\\
4	0.000256882071235779\\
5	0.000266311840501704\\
6	0.000234346146691394\\
7	0.000169754400886295\\
8	8.6314586607684e-05\\
9	-6.1750730744725e-19\\
10	-7.41280699382108e-05\\
11	-0.000124717802148347\\
12	-0.000146077903906182\\
13	-0.000138917219756023\\
14	-0.00010975093086907\\
15	-6.91192594225205e-05\\
16	-2.90048748232442e-05\\
17	3.37171017561436e-19\\
18	1.11704728574236e-05\\
19	3.23090071750145e-06\\
20	-1.9317863328768e-05\\
21	-4.72277054804358e-05\\
22	-6.8704116915578e-05\\
23	-7.23356193709893e-05\\
24	-5.01324373036958e-05\\
25	1.57236033349246e-18\\
26	7.29445786544832e-05\\
27	0.000156594938769046\\
28	0.000233697563056563\\
29	0.000285057982360379\\
30	0.000293550110400789\\
31	0.000248156313388806\\
32	0.000147196503129518\\
33	4.1080521801823e-19\\
34	-0.000173474263576751\\
35	-0.00034519494975443\\
36	-0.000483497781016814\\
37	-0.000558717627326171\\
38	-0.000549033782544976\\
39	-0.000445426777754741\\
40	-0.000254725039559301\\
41	1.71769458578535e-18\\
42	0.000281991081637242\\
43	0.00054608700968748\\
44	0.000745979230110162\\
45	0.000842274434392094\\
46	0.000809963991151662\\
47	0.000643912724997098\\
48	0.00036124587541048\\
49	-5.74231828655296e-18\\
50	-0.000385965295636016\\
51	-0.000735129592169109\\
52	-0.000988296501694967\\
53	-0.00109875632717645\\
54	-0.00104086197355395\\
55	-0.00081544268854401\\
56	-0.000450959175239572\\
57	2.64990170067333e-18\\
58	0.000468481930580855\\
59	0.000880031203169943\\
60	0.0011668994531792\\
61	0.00127954921816015\\
62	0.00119544720964513\\
63	0.000923546604133555\\
64	0.000503559055520685\\
65	1.94606200758918e-18\\
66	-0.000508096172508776\\
67	-0.00094011361566813\\
68	-0.00122726274731942\\
69	-0.00132414527590969\\
70	-0.00121644160052272\\
71	-0.00092333307538222\\
72	-0.000494181252512139\\
73	2.49477188703159e-18\\
74	0.000478807160550952\\
75	0.000866285419074788\\
76	0.0011038778869255\\
77	0.00116016059427323\\
78	0.00103560758360133\\
79	0.000761533156771432\\
80	0.000393433518799012\\
81	-5.25016115825471e-18\\
82	-0.000350097799630436\\
83	-0.000601120240207034\\
84	-0.000720357647172012\\
85	-0.00070344618991946\\
86	-0.000573844405612511\\
87	-0.000376565652355998\\
88	-0.000167424359764999\\
89	5.75709936791741e-19\\
90	8.69435600473123e-05\\
91	7.88478355892091e-05\\
92	-1.06148160233343e-05\\
93	-0.000142016893612307\\
94	-0.000258961993499791\\
95	-0.000301624338374077\\
96	-0.000222352897987913\\
97	-1.45865780773815e-18\\
98	0.000350371467057059\\
99	0.000775059546055698\\
100	0.00118793307267081\\
101	0.00148494530804485\\
102	0.00156483293955343\\
103	0.0013523580147938\\
104	0.000819513166548613\\
105	-3.49896964502858e-18\\
106	-0.00100689363841139\\
107	-0.00204522078351894\\
108	-0.00292402644299999\\
109	-0.00344912782773826\\
110	-0.003460144692523\\
111	-0.00286630643554636\\
112	-0.00167403011790852\\
113	2.30693774252284e-17\\
114	0.00193452617423886\\
115	0.00382945171230392\\
116	0.00534931998788692\\
117	0.00617872187376363\\
118	0.00608098885150414\\
119	0.00494997842614324\\
120	0.00284488969961236\\
121	-9.65463990353066e-18\\
122	-0.00319518582755451\\
123	-0.00624511785234217\\
124	-0.00862126739889872\\
125	-0.0098488861534308\\
126	-0.00959384865095626\\
127	-0.00773459679239186\\
128	-0.00440530604527338\\
129	1.33414885633339e-17\\
130	0.00486694611035682\\
131	0.00944144920154422\\
132	0.0129418046642753\\
133	0.0146862722197919\\
134	0.0142161341325959\\
135	0.0113931477283558\\
136	0.0064527322327855\\
137	-1.72789307200059e-17\\
138	-0.00705582879187929\\
139	-0.013623197672393\\
140	-0.0185909255254517\\
141	-0.0210085181361416\\
142	-0.020255854393238\\
143	-0.0161734139500576\\
144	-0.00912832163897319\\
145	2.13186194436748e-17\\
146	0.009918916058482\\
147	0.0190972318471576\\
148	0.025993162644283\\
149	0.0293029025634355\\
150	0.0281911251326992\\
151	0.0224646263268493\\
152	0.0126564816338167\\
153	-2.52957785910025e-17\\
154	-0.0137120826286503\\
155	-0.0263696140315613\\
156	-0.0358573896796057\\
157	-0.0403933778063506\\
158	-0.0388407736002977\\
159	-0.030942053907649\\
160	-0.0174316712272219\\
161	2.90384964407173e-17\\
162	0.018897369370204\\
163	0.036366907044612\\
164	0.0495000198680248\\
165	0.0558324331186865\\
166	0.0537707937141457\\
167	0.0429170907749448\\
168	0.0242321513431224\\
169	-3.23778618111048e-17\\
170	-0.0264172238271081\\
171	-0.0510126060542313\\
172	-0.0697043706164164\\
173	-0.0789658822277493\\
174	-0.0764242994025424\\
175	-0.0613342222054156\\
176	-0.0348443634349648\\
177	3.51582372158732e-17\\
178	0.0385411186199491\\
179	0.0750611439757093\\
180	0.103543895222119\\
181	0.11855239245664\\
182	0.11610507761724\\
183	0.0944255087343432\\
184	0.0544495186141175\\
185	-3.72469372466734e-17\\
186	-0.0624202067165449\\
187	-0.124217357988757\\
188	-0.175625642483079\\
189	-0.20685594470989\\
190	-0.209338212224765\\
191	-0.176901391059131\\
192	-0.106735296979077\\
193	3.85426115100518e-17\\
194	0.13801183447067\\
195	0.298200455070955\\
196	0.468452356532588\\
197	0.634821414084253\\
198	0.782966640010463\\
199	0.899680007282608\\
200	0.97432314108165\\
201	1\\
202	0.97432314108165\\
203	0.899680007282608\\
204	0.782966640010463\\
205	0.634821414084253\\
206	0.468452356532588\\
207	0.298200455070955\\
208	0.13801183447067\\
209	3.85426115100518e-17\\
210	-0.106735296979077\\
211	-0.176901391059131\\
212	-0.209338212224765\\
213	-0.20685594470989\\
214	-0.175625642483079\\
215	-0.124217357988757\\
216	-0.0624202067165449\\
217	-3.72469372466734e-17\\
218	0.0544495186141175\\
219	0.0944255087343432\\
220	0.11610507761724\\
221	0.11855239245664\\
222	0.103543895222119\\
223	0.0750611439757093\\
224	0.0385411186199491\\
225	3.51582372158732e-17\\
226	-0.0348443634349648\\
227	-0.0613342222054156\\
228	-0.0764242994025424\\
229	-0.0789658822277493\\
230	-0.0697043706164164\\
231	-0.0510126060542313\\
232	-0.0264172238271081\\
233	-3.23778618111048e-17\\
234	0.0242321513431224\\
235	0.0429170907749448\\
236	0.0537707937141457\\
237	0.0558324331186865\\
238	0.0495000198680248\\
239	0.036366907044612\\
240	0.018897369370204\\
241	2.90384964407173e-17\\
242	-0.0174316712272219\\
243	-0.030942053907649\\
244	-0.0388407736002977\\
245	-0.0403933778063506\\
246	-0.0358573896796057\\
247	-0.0263696140315613\\
248	-0.0137120826286503\\
249	-2.52957785910025e-17\\
250	0.0126564816338167\\
251	0.0224646263268493\\
252	0.0281911251326992\\
253	0.0293029025634355\\
254	0.025993162644283\\
255	0.0190972318471576\\
256	0.009918916058482\\
257	2.13186194436748e-17\\
258	-0.00912832163897319\\
259	-0.0161734139500576\\
260	-0.020255854393238\\
261	-0.0210085181361416\\
262	-0.0185909255254517\\
263	-0.013623197672393\\
264	-0.00705582879187929\\
265	-1.72789307200059e-17\\
266	0.0064527322327855\\
267	0.0113931477283558\\
268	0.0142161341325959\\
269	0.0146862722197919\\
270	0.0129418046642753\\
271	0.00944144920154422\\
272	0.00486694611035682\\
273	1.33414885633339e-17\\
274	-0.00440530604527338\\
275	-0.00773459679239186\\
276	-0.00959384865095626\\
277	-0.0098488861534308\\
278	-0.00862126739889872\\
279	-0.00624511785234217\\
280	-0.00319518582755451\\
281	-9.65463990353066e-18\\
282	0.00284488969961236\\
283	0.00494997842614324\\
284	0.00608098885150414\\
285	0.00617872187376363\\
286	0.00534931998788692\\
287	0.00382945171230392\\
288	0.00193452617423886\\
289	2.30693774252284e-17\\
290	-0.00167403011790852\\
291	-0.00286630643554636\\
292	-0.003460144692523\\
293	-0.00344912782773826\\
294	-0.00292402644299999\\
295	-0.00204522078351894\\
296	-0.00100689363841139\\
297	-3.49896964502858e-18\\
298	0.000819513166548613\\
299	0.0013523580147938\\
300	0.00156483293955343\\
301	0.00148494530804485\\
302	0.00118793307267081\\
303	0.000775059546055698\\
304	0.000350371467057059\\
305	-1.45865780773815e-18\\
306	-0.000222352897987913\\
307	-0.000301624338374077\\
308	-0.000258961993499791\\
309	-0.000142016893612307\\
310	-1.06148160233343e-05\\
311	7.88478355892091e-05\\
312	8.69435600473123e-05\\
313	5.75709936791741e-19\\
314	-0.000167424359764999\\
315	-0.000376565652355998\\
316	-0.000573844405612511\\
317	-0.00070344618991946\\
318	-0.000720357647172012\\
319	-0.000601120240207034\\
320	-0.000350097799630436\\
321	-5.25016115825471e-18\\
322	0.000393433518799012\\
323	0.000761533156771432\\
324	0.00103560758360133\\
325	0.00116016059427323\\
326	0.0011038778869255\\
327	0.000866285419074788\\
328	0.000478807160550952\\
329	2.49477188703159e-18\\
330	-0.000494181252512139\\
331	-0.00092333307538222\\
332	-0.00121644160052272\\
333	-0.00132414527590969\\
334	-0.00122726274731942\\
335	-0.00094011361566813\\
336	-0.000508096172508776\\
337	1.94606200758918e-18\\
338	0.000503559055520685\\
339	0.000923546604133555\\
340	0.00119544720964513\\
341	0.00127954921816015\\
342	0.0011668994531792\\
343	0.000880031203169943\\
344	0.000468481930580855\\
345	2.64990170067333e-18\\
346	-0.000450959175239572\\
347	-0.00081544268854401\\
348	-0.00104086197355395\\
349	-0.00109875632717645\\
350	-0.000988296501694967\\
351	-0.000735129592169109\\
352	-0.000385965295636016\\
353	-5.74231828655296e-18\\
354	0.00036124587541048\\
355	0.000643912724997098\\
356	0.000809963991151662\\
357	0.000842274434392094\\
358	0.000745979230110162\\
359	0.00054608700968748\\
360	0.000281991081637242\\
361	1.71769458578535e-18\\
362	-0.000254725039559301\\
363	-0.000445426777754741\\
364	-0.000549033782544976\\
365	-0.000558717627326171\\
366	-0.000483497781016814\\
367	-0.00034519494975443\\
368	-0.000173474263576751\\
369	4.1080521801823e-19\\
370	0.000147196503129518\\
371	0.000248156313388806\\
372	0.000293550110400789\\
373	0.000285057982360379\\
374	0.000233697563056563\\
375	0.000156594938769046\\
376	7.29445786544832e-05\\
377	1.57236033349246e-18\\
378	-5.01324373036958e-05\\
379	-7.23356193709893e-05\\
380	-6.8704116915578e-05\\
381	-4.72277054804358e-05\\
382	-1.9317863328768e-05\\
383	3.23090071750145e-06\\
384	1.11704728574236e-05\\
385	3.37171017561436e-19\\
386	-2.90048748232442e-05\\
387	-6.91192594225205e-05\\
388	-0.00010975093086907\\
389	-0.000138917219756023\\
390	-0.000146077903906182\\
391	-0.000124717802148347\\
392	-7.41280699382108e-05\\
393	-6.1750730744725e-19\\
394	8.6314586607684e-05\\
395	0.000169754400886295\\
396	0.000234346146691394\\
397	0.000266311840501704\\
398	0.000256882071235779\\
399	0.000204260317572018\\
400	0.000114338988257827\\
401	-1.51159779368816e-19\\
};
\addlegendentry{$beta = 0.1$}

\end{axis}
\end{tikzpicture}%